"Id";"Designator";"Package";"Quantity";"Designation";"Supplier and ref";
1;"C9,C6,C7,C11,C12";"C_0805_HandSoldering";5;"0.1uF";;;
2;"C1,C2,C3,C4,C13,C14,C15,C16,C17,C18";"C_0805_HandSoldering";10;"22uF";;;
3;"C5";"C_0805_HandSoldering";1;"4.7uF";;;
4;"C8";"C_0805_HandSoldering";1;"C_Small";;;
5;"C10";"C_0805_HandSoldering";1;"100pF";;;
6;"D1";"LED_0805_HandSoldering";1;"PGOOD";;;
7;"D2";"LED_0805_HandSoldering";1;"VOUT";;;
8;"J1";"Pin_Header_Straight_1x02_Pitch2.54mm";1;"EN setting";;;
9;"J2";"Pin_Header_Straight_2x10_Pitch2.54mm";1;"Conn_02x10_Odd_Even";;;
10;"J3";"TerminalBlock_bornier-2_P5.08mm";1;"Screw_Terminal_01x02";;;
11;"L1";"L_PA4343.XXXANLT";1;"3.3uH";;;
12;"R1,R2,R8";"R_0805_HandSoldering";3;"1k";;;
13;"R3";"R_0805_HandSoldering";1;"10k";;;
14;"R4";"R_0805_HandSoldering";1;"150k";;;
15;"R5";"R_0805_HandSoldering";1;"51k";;;
16;"R6";"R_0805_HandSoldering";1;"12k";;;
17;"R7";"R_0805_HandSoldering";1;"88k";;;
18;"U1";"RNN 18-QFN";1;"TPS56C215";;;
19;"BT1";"BatteryHolder_Keystone_1048P";1;"Battery";;;
20;"NT1";"R_0201_NoSilk";1;"Net-Tie_2";;;
