Removed Pin From Net: NetName=5V_SENSELO Pin=U1-9
Removed Pin From Net: NetName=5V_SENSEHI Pin=U1-10
Added Component: Designator=RHI(0805R-10)
Added Component: Designator=RLO(0805R-10)
Added Pin To Net: NetName=5V_SENSEHI Pin=RHI-1
Added Pin To Net: NetName=5V_SENSELO Pin=RLO-2
Change Net Name : Old Net Name=5V_SENSEHI New Net Name=SENSEHI
Change Net Name : Old Net Name=5V_SENSELO New Net Name=SENSELO
Added Pin To Net: NetName=IN+ Pin=RHI-2
Added Pin To Net: NetName=IN+ Pin=U1-10
Added Net: Name=IN+
Added Pin To Net: NetName=IN- Pin=RLO-1
Added Pin To Net: NetName=IN- Pin=U1-9
Added Net: Name=IN-
Added Member To Class: ClassName=control Member=Component RHI 10R
Added Member To Class: ClassName=control Member=Component RLO 10R
