Removed Pin From Net: NetName=5V_AND Pin=Q2_5-2
Added Component: Designator=D1(0805 LED)
Added Component: Designator=D2(0805 LED)
Added Component: Designator=P5(HDR1X2)
Added Component: Designator=P6(HDR1X3)
Added Component: Designator=RLEDIN(0805R-100)
Added Component: Designator=RLEDOUT(0805R-100)
Added Pin To Net: NetName=GND Pin=D1-2
Added Pin To Net: NetName=GND Pin=D2-2
Added Pin To Net: NetName=GND Pin=P5-1
Added Pin To Net: NetName=5V_AND Pin=P6-3
Added Pin To Net: NetName=5V_VCC Pin=RLEDIN-1
Added Pin To Net: NetName=5V_CONTROL Pin=RLEDOUT-1
Added Pin To Net: NetName=AND_MANUAL Pin=P5-2
Added Pin To Net: NetName=AND_MANUAL Pin=P6-1
Added Net: Name=AND_MANUAL
Added Pin To Net: NetName=LED_1 Pin=D1-1
Added Pin To Net: NetName=LED_1 Pin=RLEDIN-2
Added Net: Name=LED_1
Added Pin To Net: NetName=LED_2 Pin=D2-1
Added Pin To Net: NetName=LED_2 Pin=RLEDOUT-2
Added Net: Name=LED_2
Added Pin To Net: NetName=NMOS_GATE Pin=P6-2
Added Pin To Net: NetName=NMOS_GATE Pin=Q2_5-2
Added Net: Name=NMOS_GATE
Added Member To Class: ClassName=control Member=Component D1 LED
Added Member To Class: ClassName=control Member=Component D2 LED
Added Member To Class: ClassName=control Member=Component P5 Header 2
Added Member To Class: ClassName=control Member=Component P6 Header 3
Added Member To Class: ClassName=control Member=Component RLEDIN 100R
Added Member To Class: ClassName=control Member=Component RLEDOUT 100R
