Removed Member From Class: ClassName=control Member=C5
Removed Member From Class: ClassName=control Member=C6
Removed Member From Class: ClassName=MS Member=D1
Removed Member From Class: ClassName=control Member=U5
Change Component Designator: OldDesignator=D1 NewDesignator=D5
Change Net Name : Old Net Name=NetD1_1 New Net Name=NetD5_1
Added Member To Class: ClassName=control Member=Component C1 100nF
Added Member To Class: ClassName=control Member=Component C2 10uF
Added Member To Class: ClassName=MS Member=Component D5 LED
Added Member To Class: ClassName=control Member=Component U1 
