Removed Member From Class: ClassName=moon Member=D1
Change Component Designator: OldDesignator=D1 NewDesignator=DMOON
Change Net Name : Old Net Name=NetD1_2 New Net Name=NetDMOON_2
Added Member To Class: ClassName=moon Member=Component DMOON LED
