Added Component: Designator=D1(0805 LED)
Added Component: Designator=LDR(AXIAL-0.4)
Added Component: Designator=P1(HDR1X4)
Added Component: Designator=RADJ(0805R-TBD)
Added Component: Designator=RLED(0805R-220)
Added Pin To Net: NetName=GND Pin=P1-1
Added Pin To Net: NetName=GND Pin=RADJ-2
Added Pin To Net: NetName=GND Pin=RLED-2
Added Pin To Net: NetName=LED_IN Pin=D1-1
Added Pin To Net: NetName=LED_IN Pin=P1-2
Added Net: Name=LED_IN
Added Pin To Net: NetName=NetD1_2 Pin=D1-2
Added Pin To Net: NetName=NetD1_2 Pin=RLED-1
Added Net: Name=NetD1_2
Added Pin To Net: NetName=V_OUT Pin=LDR-1
Added Pin To Net: NetName=V_OUT Pin=P1-3
Added Pin To Net: NetName=V_OUT Pin=RADJ-1
Added Net: Name=V_OUT
Added Pin To Net: NetName=VCC Pin=LDR-2
Added Pin To Net: NetName=VCC Pin=P1-4
Added Net: Name=VCC
Added Class: Name=moon
Added Room: Name=moon
