Removed Pin From Net: NetName=GND Pin=C5-1
Removed Pin From Net: NetName=GND Pin=C6-1
Removed Pin From Net: NetName=GND Pin=D5-2
Removed Pin From Net: NetName=GND Pin=P5-1
Removed Pin From Net: NetName=GND Pin=U5-4
Change Net Name : Old Net Name=VCC New Net Name=VCC_MAG
Added Pin To Net: NetName=GND_MAG Pin=C5-1
Added Pin To Net: NetName=GND_MAG Pin=C6-1
Added Pin To Net: NetName=GND_MAG Pin=D5-2
Added Pin To Net: NetName=GND_MAG Pin=P5-1
Added Pin To Net: NetName=GND_MAG Pin=U5-4
Added Net: Name=GND_MAG
