EESchema Schematic File Version 4
EELAYER 26 0
EELAYER END
$Descr A4 11693 8268
encoding utf-8
Sheet 1 1
Title ""
Date ""
Rev ""
Comp ""
Comment1 ""
Comment2 ""
Comment3 ""
Comment4 ""
$EndDescr
$Comp
L Analog_ADC:INA226 U?
U 1 1 5C14C05E
P 5050 2500
F 0 "U?" V 5004 1959 50  0000 R CNN
F 1 "INA226" V 5095 1959 50  0000 R CNN
F 2 "Package_SO:MSOP-10_3x3mm_P0.5mm" H 5100 2600 50  0001 C CNN
F 3 "http://www.ti.com/lit/ds/symlink/ina226.pdf" H 5400 2400 50  0001 C CNN
	1    5050 2500
	0    -1   1    0   
$EndComp
$Comp
L power_ic:NC7SZ08 U?
U 1 1 5C14C431
P 4100 3350
F 0 "U?" H 4100 3425 50  0000 C CNN
F 1 "NC7SZ08" H 4100 3334 50  0000 C CNN
F 2 "" H 4100 3350 50  0001 C CNN
F 3 "" H 4100 3350 50  0001 C CNN
	1    4100 3350
	1    0    0    -1  
$EndComp
$Comp
L power_ic:TCA9554 U?
U 1 1 5C14C4C1
P 5150 4300
F 0 "U?" H 5150 4465 50  0000 C CNN
F 1 "TCA9554" H 5150 4374 50  0000 C CNN
F 2 "" H 5150 4300 50  0001 C CNN
F 3 "" H 5150 4300 50  0001 C CNN
	1    5150 4300
	1    0    0    -1  
$EndComp
$Comp
L Connector:Conn_01x02_Male J?
U 1 1 5C14C5EF
P 7600 1350
F 0 "J?" H 7572 1323 50  0000 R CNN
F 1 "5V_OUT" H 7572 1232 50  0000 R CNN
F 2 "" H 7600 1350 50  0001 C CNN
F 3 "~" H 7600 1350 50  0001 C CNN
	1    7600 1350
	-1   0    0    -1  
$EndComp
$Comp
L Connector:Conn_01x02_Male J?
U 1 1 5C14C6C0
P 1200 2900
F 0 "J?" H 1173 2873 50  0000 R CNN
F 1 "Conn_01x02_Male" H 1173 2782 50  0000 R CNN
F 2 "" H 1200 2900 50  0001 C CNN
F 3 "~" H 1200 2900 50  0001 C CNN
	1    1200 2900
	-1   0    0    -1  
$EndComp
$Comp
L Connector:Conn_01x02_Male J?
U 1 1 5C14C6DA
P 4950 3900
F 0 "J?" V 5103 3940 50  0000 L CNN
F 1 "P_AND_SWITCH" V 5012 3940 50  0000 L CNN
F 2 "" H 4950 3900 50  0001 C CNN
F 3 "~" H 4950 3900 50  0001 C CNN
	1    4950 3900
	0    1    -1   0   
$EndComp
$Comp
L Connector:Conn_01x02_Male J?
U 1 1 5C14C702
P 1200 4100
F 0 "J?" H 1173 4073 50  0000 R CNN
F 1 "Conn_01x02_Male" H 1173 3982 50  0000 R CNN
F 2 "" H 1200 4100 50  0001 C CNN
F 3 "~" H 1200 4100 50  0001 C CNN
	1    1200 4100
	-1   0    0    -1  
$EndComp
$Comp
L Connector:Conn_01x02_Male J?
U 1 1 5C14C726
P 1250 4800
F 0 "J?" H 1223 4773 50  0000 R CNN
F 1 "Conn_01x02_Male" H 1223 4682 50  0000 R CNN
F 2 "" H 1250 4800 50  0001 C CNN
F 3 "~" H 1250 4800 50  0001 C CNN
	1    1250 4800
	-1   0    0    -1  
$EndComp
$Comp
L Connector:Conn_01x02_Male J?
U 1 1 5C14C74C
P 1250 5450
F 0 "J?" H 1223 5423 50  0000 R CNN
F 1 "Conn_01x02_Male" H 1223 5332 50  0000 R CNN
F 2 "" H 1250 5450 50  0001 C CNN
F 3 "~" H 1250 5450 50  0001 C CNN
	1    1250 5450
	-1   0    0    -1  
$EndComp
$Comp
L Connector:Conn_01x03_Male J?
U 1 1 5C14C7D7
P 9250 4400
F 0 "J?" H 9223 4423 50  0000 R CNN
F 1 "Conn_01x03_Male" H 9223 4332 50  0000 R CNN
F 2 "" H 9250 4400 50  0001 C CNN
F 3 "~" H 9250 4400 50  0001 C CNN
	1    9250 4400
	-1   0    0    -1  
$EndComp
$Comp
L Device:R_Small R?
U 1 1 5C14CA51
P 2600 2700
F 0 "R?" H 2541 2654 50  0000 R CNN
F 1 "R_Small" H 2541 2745 50  0000 R CNN
F 2 "" H 2600 2700 50  0001 C CNN
F 3 "~" H 2600 2700 50  0001 C CNN
	1    2600 2700
	-1   0    0    1   
$EndComp
$Comp
L Device:R_Small R?
U 1 1 5C14CAC1
P 3550 3250
F 0 "R?" H 3491 3204 50  0000 R CNN
F 1 "R_Small" H 3491 3295 50  0000 R CNN
F 2 "" H 3550 3250 50  0001 C CNN
F 3 "~" H 3550 3250 50  0001 C CNN
	1    3550 3250
	-1   0    0    1   
$EndComp
$Comp
L Device:R_Small R?
U 1 1 5C14CDB2
P 6150 1600
F 0 "R?" H 6091 1554 50  0000 R CNN
F 1 "R_Small" H 6091 1645 50  0000 R CNN
F 2 "" H 6150 1600 50  0001 C CNN
F 3 "~" H 6150 1600 50  0001 C CNN
	1    6150 1600
	-1   0    0    1   
$EndComp
$Comp
L Device:C_Small C?
U 1 1 5C14CE42
P 4250 2700
F 0 "C?" H 4342 2746 50  0000 L CNN
F 1 "C_Small" H 4342 2655 50  0000 L CNN
F 2 "" H 4250 2700 50  0001 C CNN
F 3 "~" H 4250 2700 50  0001 C CNN
	1    4250 2700
	1    0    0    -1  
$EndComp
$Comp
L Device:C_Small C?
U 1 1 5C14CE78
P 6700 3500
F 0 "C?" H 6792 3546 50  0000 L CNN
F 1 "C_Small" H 6792 3455 50  0000 L CNN
F 2 "" H 6700 3500 50  0001 C CNN
F 3 "~" H 6700 3500 50  0001 C CNN
	1    6700 3500
	1    0    0    -1  
$EndComp
$Comp
L Device:C_Small C?
U 1 1 5C14D2B0
P 4000 1600
F 0 "C?" H 4092 1646 50  0000 L CNN
F 1 "C_Small" H 4092 1555 50  0000 L CNN
F 2 "" H 4000 1600 50  0001 C CNN
F 3 "~" H 4000 1600 50  0001 C CNN
	1    4000 1600
	1    0    0    -1  
$EndComp
$Comp
L Device:C_Small C?
U 1 1 5C14D2EC
P 4350 1600
F 0 "C?" H 4442 1646 50  0000 L CNN
F 1 "C_Small" H 4442 1555 50  0000 L CNN
F 2 "" H 4350 1600 50  0001 C CNN
F 3 "~" H 4350 1600 50  0001 C CNN
	1    4350 1600
	1    0    0    -1  
$EndComp
$Comp
L Device:C_Small C?
U 1 1 5C14D420
P 6250 4300
F 0 "C?" H 6342 4346 50  0000 L CNN
F 1 "C_Small" H 6342 4255 50  0000 L CNN
F 2 "" H 6250 4300 50  0001 C CNN
F 3 "~" H 6250 4300 50  0001 C CNN
	1    6250 4300
	1    0    0    -1  
$EndComp
$Comp
L Device:C_Small C?
U 1 1 5C14D460
P 6800 4300
F 0 "C?" H 6892 4346 50  0000 L CNN
F 1 "C_Small" H 6892 4255 50  0000 L CNN
F 2 "" H 6800 4300 50  0001 C CNN
F 3 "~" H 6800 4300 50  0001 C CNN
	1    6800 4300
	1    0    0    -1  
$EndComp
$Comp
L Device:R_Small R?
U 1 1 5C14EAAA
P 8450 4000
F 0 "R?" H 8509 4046 50  0000 L CNN
F 1 "R_Small" H 8509 3955 50  0000 L CNN
F 2 "" H 8450 4000 50  0001 C CNN
F 3 "~" H 8450 4000 50  0001 C CNN
	1    8450 4000
	1    0    0    -1  
$EndComp
$Comp
L Device:R_Small R?
U 1 1 5C14EAFA
P 8850 4000
F 0 "R?" H 8909 4046 50  0000 L CNN
F 1 "R_Small" H 8909 3955 50  0000 L CNN
F 2 "" H 8850 4000 50  0001 C CNN
F 3 "~" H 8850 4000 50  0001 C CNN
	1    8850 4000
	1    0    0    -1  
$EndComp
$Comp
L Device:R_Small R?
U 1 1 5C14ED7C
P 7650 2400
F 0 "R?" H 7709 2446 50  0000 L CNN
F 1 "R_Small" H 7709 2355 50  0000 L CNN
F 2 "" H 7650 2400 50  0001 C CNN
F 3 "~" H 7650 2400 50  0001 C CNN
	1    7650 2400
	1    0    0    -1  
$EndComp
$Comp
L Device:R_Small R?
U 1 1 5C14EDC0
P 8100 2400
F 0 "R?" H 8159 2446 50  0000 L CNN
F 1 "R_Small" H 8159 2355 50  0000 L CNN
F 2 "" H 8100 2400 50  0001 C CNN
F 3 "~" H 8100 2400 50  0001 C CNN
	1    8100 2400
	1    0    0    -1  
$EndComp
$Comp
L Device:R_Small R?
U 1 1 5C14EE08
P 8550 2400
F 0 "R?" H 8609 2446 50  0000 L CNN
F 1 "R_Small" H 8609 2355 50  0000 L CNN
F 2 "" H 8550 2400 50  0001 C CNN
F 3 "~" H 8550 2400 50  0001 C CNN
	1    8550 2400
	1    0    0    -1  
$EndComp
$Comp
L Device:LED D?
U 1 1 5C14EE7C
P 7650 2850
F 0 "D?" V 7688 2733 50  0000 R CNN
F 1 "LED" V 7597 2733 50  0000 R CNN
F 2 "" H 7650 2850 50  0001 C CNN
F 3 "~" H 7650 2850 50  0001 C CNN
	1    7650 2850
	0    -1   -1   0   
$EndComp
$Comp
L Device:LED D?
U 1 1 5C14EFF1
P 8100 2850
F 0 "D?" V 8138 2733 50  0000 R CNN
F 1 "LED" V 8047 2733 50  0000 R CNN
F 2 "" H 8100 2850 50  0001 C CNN
F 3 "~" H 8100 2850 50  0001 C CNN
	1    8100 2850
	0    -1   -1   0   
$EndComp
$Comp
L Device:LED D?
U 1 1 5C14F043
P 8550 2850
F 0 "D?" V 8588 2733 50  0000 R CNN
F 1 "LED" V 8497 2733 50  0000 R CNN
F 2 "" H 8550 2850 50  0001 C CNN
F 3 "~" H 8550 2850 50  0001 C CNN
	1    8550 2850
	0    -1   -1   0   
$EndComp
$Comp
L Device:R_Small R?
U 1 1 5C14F8C5
P 6150 2050
F 0 "R?" H 6091 2004 50  0000 R CNN
F 1 "R_Small" H 6091 2095 50  0000 R CNN
F 2 "" H 6150 2050 50  0001 C CNN
F 3 "~" H 6150 2050 50  0001 C CNN
	1    6150 2050
	-1   0    0    1   
$EndComp
$Comp
L Device:R_Small R?
U 1 1 5C14F935
P 6900 3000
F 0 "R?" H 6841 2954 50  0000 R CNN
F 1 "R_Small" H 6841 3045 50  0000 R CNN
F 2 "" H 6900 3000 50  0001 C CNN
F 3 "~" H 6900 3000 50  0001 C CNN
	1    6900 3000
	-1   0    0    1   
$EndComp
$Comp
L Device:Q_PMOS_SGD Q?
U 1 1 5C1515F1
P 6750 1250
F 0 "Q?" V 7000 1250 50  0000 C CNN
F 1 "Q_PMOS_SGD" V 7091 1250 50  0000 C CNN
F 2 "" H 6950 1350 50  0001 C CNN
F 3 "~" H 6750 1250 50  0001 C CNN
	1    6750 1250
	0    1    1    0   
$EndComp
$Comp
L Device:Q_NMOS_DGS Q?
U 1 1 5C151A06
P 6050 2750
F 0 "Q?" H 6255 2796 50  0000 L CNN
F 1 "Q_NMOS_DGS" H 6255 2705 50  0000 L CNN
F 2 "" H 6250 2850 50  0001 C CNN
F 3 "~" H 6050 2750 50  0001 C CNN
	1    6050 2750
	1    0    0    -1  
$EndComp
$Comp
L Device:R_Shunt R?
U 1 1 5C1529B2
P 5200 1350
F 0 "R?" V 4975 1350 50  0000 C CNN
F 1 "R_Shunt" V 5066 1350 50  0000 C CNN
F 2 "" V 5130 1350 50  0001 C CNN
F 3 "~" H 5200 1350 50  0001 C CNN
	1    5200 1350
	0    1    1    0   
$EndComp
$Comp
L Device:C_Small C?
U 1 1 5C153FFC
P 5200 1700
F 0 "C?" V 4971 1700 50  0000 C CNN
F 1 "C_Small" V 5062 1700 50  0000 C CNN
F 2 "" H 5200 1700 50  0001 C CNN
F 3 "~" H 5200 1700 50  0001 C CNN
	1    5200 1700
	0    1    1    0   
$EndComp
Wire Wire Line
	5100 1500 5100 1700
Wire Wire Line
	5150 2100 5150 2000
Wire Wire Line
	5150 2000 5100 2000
Wire Wire Line
	5250 2100 5250 2000
Wire Wire Line
	5250 2000 5300 2000
Wire Wire Line
	5300 1700 5300 1500
$Comp
L Device:R_Small R?
U 1 1 5C1541D9
P 5100 1850
F 0 "R?" H 5250 1800 50  0000 R CNN
F 1 "R_Small" H 5350 1900 50  0000 R CNN
F 2 "" H 5100 1850 50  0001 C CNN
F 3 "~" H 5100 1850 50  0001 C CNN
	1    5100 1850
	-1   0    0    1   
$EndComp
$Comp
L Device:R_Small R?
U 1 1 5C154274
P 5300 1850
F 0 "R?" H 5359 1896 50  0000 L CNN
F 1 "R_Small" H 5359 1805 50  0000 L CNN
F 2 "" H 5300 1850 50  0001 C CNN
F 3 "~" H 5300 1850 50  0001 C CNN
	1    5300 1850
	1    0    0    -1  
$EndComp
Wire Wire Line
	5100 2000 5100 1950
Wire Wire Line
	5100 1750 5100 1700
Connection ~ 5100 1700
Wire Wire Line
	5300 1750 5300 1700
Connection ~ 5300 1700
Wire Wire Line
	5300 2000 5300 1950
Wire Wire Line
	5400 1350 6150 1350
Wire Wire Line
	6150 1500 6150 1350
Connection ~ 6150 1350
Wire Wire Line
	6150 1350 6550 1350
Wire Wire Line
	6150 1700 6150 1850
Wire Wire Line
	6750 1050 6500 1050
Wire Wire Line
	6500 1050 6500 1850
Wire Wire Line
	6500 1850 6150 1850
Connection ~ 6150 1850
Wire Wire Line
	6150 1850 6150 1950
Wire Wire Line
	6150 2550 6150 2150
Wire Wire Line
	4500 3700 4850 3700
Wire Wire Line
	4950 3700 5850 3700
Wire Wire Line
	5850 3700 5850 2750
Wire Wire Line
	5000 1350 4350 1350
Wire Wire Line
	4000 1350 4000 1500
Wire Wire Line
	4350 1500 4350 1350
Connection ~ 4350 1350
Wire Wire Line
	4350 1350 4000 1350
Wire Wire Line
	3700 3500 3550 3500
Wire Wire Line
	3550 3500 3550 3350
Wire Wire Line
	4500 3500 4500 3100
Wire Wire Line
	4500 3100 3550 3100
Wire Wire Line
	3550 3100 3550 3150
Wire Wire Line
	3550 3100 3450 3100
Connection ~ 3550 3100
Wire Wire Line
	3700 3600 3450 3600
Wire Wire Line
	5050 2900 5050 3050
Wire Wire Line
	5150 2900 5150 3050
Wire Wire Line
	4750 2900 4750 3050
Wire Wire Line
	4750 3050 4850 3050
Wire Wire Line
	4850 3050 4850 2900
Wire Wire Line
	4000 1700 4000 1850
Wire Wire Line
	4350 1850 4350 1700
$Comp
L power:GNDREF #PWR?
U 1 1 5C15D265
P 4000 1850
F 0 "#PWR?" H 4000 1600 50  0001 C CNN
F 1 "GNDREF" H 4005 1677 50  0000 C CNN
F 2 "" H 4000 1850 50  0001 C CNN
F 3 "" H 4000 1850 50  0001 C CNN
	1    4000 1850
	1    0    0    -1  
$EndComp
$Comp
L power:GNDREF #PWR?
U 1 1 5C15D2C1
P 4350 1850
F 0 "#PWR?" H 4350 1600 50  0001 C CNN
F 1 "GNDREF" H 4355 1677 50  0000 C CNN
F 2 "" H 4350 1850 50  0001 C CNN
F 3 "" H 4350 1850 50  0001 C CNN
	1    4350 1850
	1    0    0    -1  
$EndComp
Wire Wire Line
	4550 2500 4250 2500
Wire Wire Line
	4250 2500 4250 2600
$Comp
L power:GNDREF #PWR?
U 1 1 5C15DC38
P 4250 2800
F 0 "#PWR?" H 4250 2550 50  0001 C CNN
F 1 "GNDREF" H 4255 2627 50  0000 C CNN
F 2 "" H 4250 2800 50  0001 C CNN
F 3 "" H 4250 2800 50  0001 C CNN
	1    4250 2800
	1    0    0    -1  
$EndComp
Wire Wire Line
	4250 2500 3900 2500
Connection ~ 4250 2500
Text Label 3900 2500 2    50   ~ 0
5V_VCC
Text Label 3900 1350 2    50   ~ 0
5V_VCC
Wire Wire Line
	4000 1350 3900 1350
Connection ~ 4000 1350
Text Label 3450 3100 2    50   ~ 0
5V_VCC
Wire Wire Line
	7400 1450 7300 1450
Wire Wire Line
	6950 1350 7400 1350
Wire Wire Line
	7650 2500 7650 2700
Wire Wire Line
	8100 2700 8100 2500
$Comp
L power:GNDREF #PWR?
U 1 1 5C164282
P 7650 3000
F 0 "#PWR?" H 7650 2750 50  0001 C CNN
F 1 "GNDREF" H 7655 2827 50  0000 C CNN
F 2 "" H 7650 3000 50  0001 C CNN
F 3 "" H 7650 3000 50  0001 C CNN
	1    7650 3000
	1    0    0    -1  
$EndComp
$Comp
L power:GNDREF #PWR?
U 1 1 5C1642D3
P 8100 3000
F 0 "#PWR?" H 8100 2750 50  0001 C CNN
F 1 "GNDREF" H 8105 2827 50  0000 C CNN
F 2 "" H 8100 3000 50  0001 C CNN
F 3 "" H 8100 3000 50  0001 C CNN
	1    8100 3000
	1    0    0    -1  
$EndComp
Wire Wire Line
	9050 4300 8450 4300
Wire Wire Line
	8450 4300 8450 4100
Wire Wire Line
	8450 4300 8000 4300
Connection ~ 8450 4300
Wire Wire Line
	9050 4400 8850 4400
Wire Wire Line
	8850 4400 8850 4100
Wire Wire Line
	8850 4400 8000 4400
Connection ~ 8850 4400
$EndSCHEMATC
