(export (version D)
  (design
    (source C:\Users\Vaughan\BlueSat\cubesat-powersystem\POW-01-Regulation\rev0-TPS56C215\pcb\regulation_rev1.sch)
    (date "08/03/2019 21:53:31")
    (tool "Eeschema (5.0.0)")
    (sheet (number 1) (name /) (tstamps /)
      (title_block
        (title)
        (company)
        (rev)
        (date)
        (source regulation_rev1.sch)
        (comment (number 1) (value ""))
        (comment (number 2) (value ""))
        (comment (number 3) (value ""))
        (comment (number 4) (value ""))))
    (sheet (number 2) (name /regulator5V/) (tstamps /5BAE459F/)
      (title_block
        (title)
        (company)
        (rev)
        (date)
        (source regulator.sch)
        (comment (number 1) (value ""))
        (comment (number 2) (value ""))
        (comment (number 3) (value ""))
        (comment (number 4) (value "")))))
  (components
    (comp (ref BT1)
      (value Battery)
      (footprint battery_holder:BatteryHolder_Keystone_1048P)
      (datasheet ~)
      (libsource (lib Device) (part Battery) (description "Battery (multiple cells)"))
      (sheetpath (names /) (tstamps /))
      (tstamp 5BAEFC35))
    (comp (ref J1)
      (value "EN setting")
      (footprint Pin_Headers:Pin_Header_Straight_1x02_Pitch2.54mm)
      (datasheet ~)
      (libsource (lib Connector) (part Conn_01x02_Male) (description "Generic connector, single row, 01x02, script generated (kicad-library-utils/schlib/autogen/connector/)"))
      (sheetpath (names /) (tstamps /))
      (tstamp 5BAF2D75))
    (comp (ref J2)
      (value Conn_02x10_Odd_Even)
      (footprint Pin_Headers:Pin_Header_Straight_2x10_Pitch2.54mm)
      (datasheet ~)
      (libsource (lib Connector_Generic) (part Conn_02x10_Odd_Even) (description "Generic connector, double row, 02x10, odd/even pin numbering scheme (row 1 odd numbers, row 2 even numbers), script generated (kicad-library-utils/schlib/autogen/connector/)"))
      (sheetpath (names /) (tstamps /))
      (tstamp 5BAF33FB))
    (comp (ref D2)
      (value VOUT)
      (footprint LEDs:LED_0805_HandSoldering)
      (datasheet ~)
      (libsource (lib Device) (part LED_Small) (description "LED, small symbol"))
      (sheetpath (names /) (tstamps /))
      (tstamp 5BAF36F4))
    (comp (ref R2)
      (value 1k)
      (footprint Resistors_SMD:R_0805_HandSoldering)
      (datasheet ~)
      (libsource (lib Device) (part R_Small) (description "Resistor, small symbol"))
      (sheetpath (names /) (tstamps /))
      (tstamp 5BAF3850))
    (comp (ref J3)
      (value Screw_Terminal_01x02)
      (footprint Connectors_Terminal_Blocks:TerminalBlock_bornier-2_P5.08mm)
      (datasheet ~)
      (libsource (lib Connector) (part Screw_Terminal_01x02) (description "Generic screw terminal, single row, 01x02, script generated (kicad-library-utils/schlib/autogen/connector/)"))
      (sheetpath (names /) (tstamps /))
      (tstamp 5BAF3C01))
    (comp (ref R9)
      (value R_Shunt)
      (footprint Resistor_SMD:R_Shunt_Ohmite_LVK12)
      (datasheet ~)
      (libsource (lib Device) (part R_Shunt) (description "Shunt Resistor"))
      (sheetpath (names /) (tstamps /))
      (tstamp 5BAEE617))
    (comp (ref H1)
      (value MountingHole_Pad)
      (footprint MountingHole:MountingHole_2.2mm_M2_Pad)
      (datasheet ~)
      (libsource (lib Mechanical) (part MountingHole_Pad) (description "Mounting Hole with connection"))
      (sheetpath (names /) (tstamps /))
      (tstamp 5BAF57B6))
    (comp (ref H2)
      (value MountingHole_Pad)
      (footprint MountingHole:MountingHole_2.2mm_M2_Pad)
      (datasheet ~)
      (libsource (lib Mechanical) (part MountingHole_Pad) (description "Mounting Hole with connection"))
      (sheetpath (names /) (tstamps /))
      (tstamp 5BAF7C0E))
    (comp (ref D1)
      (value PGOOD)
      (footprint LEDs:LED_0805_HandSoldering)
      (datasheet ~)
      (libsource (lib Device) (part LED_Small) (description "LED, small symbol"))
      (sheetpath (names /) (tstamps /))
      (tstamp 5C83470E))
    (comp (ref R3)
      (value 1k)
      (footprint "Custom footprints:R_0805_HandSoldering")
      (datasheet ~)
      (libsource (lib Device) (part R_Small) (description "Resistor, small symbol"))
      (sheetpath (names /) (tstamps /))
      (tstamp 5C834715))
    (comp (ref C1)
      (value 47uF)
      (footprint Capacitors_SMD:C_0805_HandSoldering)
      (datasheet ~)
      (libsource (lib Device) (part C_Small) (description "Unpolarized capacitor"))
      (sheetpath (names /regulator5V/) (tstamps /5BAE459F/))
      (tstamp 5BAE4A21))
    (comp (ref C2)
      (value 22uF)
      (footprint Capacitors_SMD:C_0805_HandSoldering)
      (datasheet ~)
      (libsource (lib Device) (part C_Small) (description "Unpolarized capacitor"))
      (sheetpath (names /regulator5V/) (tstamps /5BAE459F/))
      (tstamp 5BAE4A28))
    (comp (ref C3)
      (value 47uF)
      (footprint Capacitors_SMD:C_0805_HandSoldering)
      (datasheet ~)
      (libsource (lib Device) (part C_Small) (description "Unpolarized capacitor"))
      (sheetpath (names /regulator5V/) (tstamps /5BAE459F/))
      (tstamp 5BAE4A2F))
    (comp (ref C4)
      (value 22uF)
      (footprint Capacitors_SMD:C_0805_HandSoldering)
      (datasheet ~)
      (libsource (lib Device) (part C_Small) (description "Unpolarized capacitor"))
      (sheetpath (names /regulator5V/) (tstamps /5BAE459F/))
      (tstamp 5BAE4A36))
    (comp (ref C6)
      (value 0.1uF)
      (footprint Capacitors_SMD:C_0805_HandSoldering)
      (datasheet ~)
      (libsource (lib Device) (part C_Small) (description "Unpolarized capacitor"))
      (sheetpath (names /regulator5V/) (tstamps /5BAE459F/))
      (tstamp 5BAE4A3D))
    (comp (ref C7)
      (value 0.1uF)
      (footprint Capacitors_SMD:C_0805_HandSoldering)
      (datasheet ~)
      (libsource (lib Device) (part C_Small) (description "Unpolarized capacitor"))
      (sheetpath (names /regulator5V/) (tstamps /5BAE459F/))
      (tstamp 5BAE4A44))
    (comp (ref C9)
      (value 0.1uF)
      (footprint Capacitors_SMD:C_0805_HandSoldering)
      (datasheet ~)
      (libsource (lib Device) (part C_Small) (description "Unpolarized capacitor"))
      (sheetpath (names /regulator5V/) (tstamps /5BAE459F/))
      (tstamp 5BAE4A52))
    (comp (ref L1)
      (value 3.3uH)
      (footprint power_ic:L_PA4343.XXXANLT)
      (datasheet ~)
      (libsource (lib Device) (part L_Small) (description "Inductor, small symbol"))
      (sheetpath (names /regulator5V/) (tstamps /5BAE459F/))
      (tstamp 5BAE4A59))
    (comp (ref C12)
      (value 0.1uF)
      (footprint Capacitors_SMD:C_0805_HandSoldering)
      (datasheet ~)
      (libsource (lib Device) (part C_Small) (description "Unpolarized capacitor"))
      (sheetpath (names /regulator5V/) (tstamps /5BAE459F/))
      (tstamp 5BAE4A60))
    (comp (ref C13)
      (value 47uF)
      (footprint Capacitors_SMD:C_0805_HandSoldering)
      (datasheet ~)
      (libsource (lib Device) (part C_Small) (description "Unpolarized capacitor"))
      (sheetpath (names /regulator5V/) (tstamps /5BAE459F/))
      (tstamp 5BAE4A67))
    (comp (ref C15)
      (value 47uF)
      (footprint Capacitors_SMD:C_0805_HandSoldering)
      (datasheet ~)
      (libsource (lib Device) (part C_Small) (description "Unpolarized capacitor"))
      (sheetpath (names /regulator5V/) (tstamps /5BAE459F/))
      (tstamp 5BAE4A6E))
    (comp (ref C16)
      (value 47uF)
      (footprint Capacitors_SMD:C_0805_HandSoldering)
      (datasheet ~)
      (libsource (lib Device) (part C_Small) (description "Unpolarized capacitor"))
      (sheetpath (names /regulator5V/) (tstamps /5BAE459F/))
      (tstamp 5BAE4A75))
    (comp (ref C10)
      (value 220pF)
      (footprint Capacitors_SMD:C_0805_HandSoldering)
      (datasheet ~)
      (libsource (lib Device) (part C_Small) (description "Unpolarized capacitor"))
      (sheetpath (names /regulator5V/) (tstamps /5BAE459F/))
      (tstamp 5BAE4A7C))
    (comp (ref C8)
      (value C_Small)
      (footprint Capacitors_SMD:C_0805_HandSoldering)
      (datasheet ~)
      (libsource (lib Device) (part C_Small) (description "Unpolarized capacitor"))
      (sheetpath (names /regulator5V/) (tstamps /5BAE459F/))
      (tstamp 5BAE4A83))
    (comp (ref R4)
      (value 300k)
      (footprint Resistors_SMD:R_0805_HandSoldering)
      (datasheet ~)
      (libsource (lib Device) (part R_Small) (description "Resistor, small symbol"))
      (sheetpath (names /regulator5V/) (tstamps /5BAE459F/))
      (tstamp 5BAE4A91))
    (comp (ref C5)
      (value 4.7uF)
      (footprint Capacitors_SMD:C_0805_HandSoldering)
      (datasheet ~)
      (libsource (lib Device) (part C_Small) (description "Unpolarized capacitor"))
      (sheetpath (names /regulator5V/) (tstamps /5BAE459F/))
      (tstamp 5BAE4A98))
    (comp (ref R5)
      (value 5k1)
      (footprint Resistors_SMD:R_0805_HandSoldering)
      (datasheet ~)
      (libsource (lib Device) (part R_Small) (description "Resistor, small symbol"))
      (sheetpath (names /regulator5V/) (tstamps /5BAE459F/))
      (tstamp 5BAE4A9F))
    (comp (ref R7)
      (value 88k)
      (footprint Resistors_SMD:R_0805_HandSoldering)
      (datasheet ~)
      (libsource (lib Device) (part R_Small) (description "Resistor, small symbol"))
      (sheetpath (names /regulator5V/) (tstamps /5BAE459F/))
      (tstamp 5BAE4AA6))
    (comp (ref R6)
      (value 12k)
      (footprint Resistors_SMD:R_0805_HandSoldering)
      (datasheet ~)
      (libsource (lib Device) (part R_Small) (description "Resistor, small symbol"))
      (sheetpath (names /regulator5V/) (tstamps /5BAE459F/))
      (tstamp 5BAE4AAD))
    (comp (ref C17)
      (value 47uF)
      (footprint Capacitors_SMD:C_0805_HandSoldering)
      (datasheet ~)
      (libsource (lib Device) (part C_Small) (description "Unpolarized capacitor"))
      (sheetpath (names /regulator5V/) (tstamps /5BAE459F/))
      (tstamp 5BAE4B3E))
    (comp (ref C14)
      (value 47uF)
      (footprint Capacitors_SMD:C_0805_HandSoldering)
      (datasheet ~)
      (libsource (lib Device) (part C_Small) (description "Unpolarized capacitor"))
      (sheetpath (names /regulator5V/) (tstamps /5BAE459F/))
      (tstamp 5BAE4B47))
    (comp (ref C11)
      (value 0.1uF)
      (footprint Capacitors_SMD:C_0805_HandSoldering)
      (datasheet ~)
      (libsource (lib Device) (part C_Small) (description "Unpolarized capacitor"))
      (sheetpath (names /regulator5V/) (tstamps /5BAE459F/))
      (tstamp 5BAE4B7C))
    (comp (ref C18)
      (value 47uF)
      (footprint Capacitors_SMD:C_0805_HandSoldering)
      (datasheet ~)
      (libsource (lib Device) (part C_Small) (description "Unpolarized capacitor"))
      (sheetpath (names /regulator5V/) (tstamps /5BAE459F/))
      (tstamp 5BAE4B87))
    (comp (ref R8)
      (value 1k)
      (footprint Resistors_SMD:R_0805_HandSoldering)
      (datasheet ~)
      (libsource (lib Device) (part R_Small) (description "Resistor, small symbol"))
      (sheetpath (names /regulator5V/) (tstamps /5BAE459F/))
      (tstamp 5BAD04A8))
    (comp (ref NT1)
      (value Net-Tie_2)
      (footprint NetTie:NetTie-2_SMD_Pad0.5mm)
      (datasheet ~)
      (libsource (lib Device) (part Net-Tie_2) (description "Net Tie, 2 pins"))
      (sheetpath (names /regulator5V/) (tstamps /5BAE459F/))
      (tstamp 5BAD25CF)))
  (libparts
    (libpart (lib Connector) (part Conn_01x02_Male)
      (description "Generic connector, single row, 01x02, script generated (kicad-library-utils/schlib/autogen/connector/)")
      (docs ~)
      (footprints
        (fp Connector*:*_1x??_*))
      (fields
        (field (name Reference) J)
        (field (name Value) Conn_01x02_Male))
      (pins
        (pin (num 1) (name Pin_1) (type passive))
        (pin (num 2) (name Pin_2) (type passive))))
    (libpart (lib Connector) (part Screw_Terminal_01x02)
      (description "Generic screw terminal, single row, 01x02, script generated (kicad-library-utils/schlib/autogen/connector/)")
      (docs ~)
      (footprints
        (fp TerminalBlock*:*))
      (fields
        (field (name Reference) J)
        (field (name Value) Screw_Terminal_01x02))
      (pins
        (pin (num 1) (name Pin_1) (type passive))
        (pin (num 2) (name Pin_2) (type passive))))
    (libpart (lib Connector_Generic) (part Conn_02x10_Odd_Even)
      (description "Generic connector, double row, 02x10, odd/even pin numbering scheme (row 1 odd numbers, row 2 even numbers), script generated (kicad-library-utils/schlib/autogen/connector/)")
      (docs ~)
      (footprints
        (fp Connector*:*_2x??_*))
      (fields
        (field (name Reference) J)
        (field (name Value) Conn_02x10_Odd_Even))
      (pins
        (pin (num 1) (name Pin_1) (type passive))
        (pin (num 2) (name Pin_2) (type passive))
        (pin (num 3) (name Pin_3) (type passive))
        (pin (num 4) (name Pin_4) (type passive))
        (pin (num 5) (name Pin_5) (type passive))
        (pin (num 6) (name Pin_6) (type passive))
        (pin (num 7) (name Pin_7) (type passive))
        (pin (num 8) (name Pin_8) (type passive))
        (pin (num 9) (name Pin_9) (type passive))
        (pin (num 10) (name Pin_10) (type passive))
        (pin (num 11) (name Pin_11) (type passive))
        (pin (num 12) (name Pin_12) (type passive))
        (pin (num 13) (name Pin_13) (type passive))
        (pin (num 14) (name Pin_14) (type passive))
        (pin (num 15) (name Pin_15) (type passive))
        (pin (num 16) (name Pin_16) (type passive))
        (pin (num 17) (name Pin_17) (type passive))
        (pin (num 18) (name Pin_18) (type passive))
        (pin (num 19) (name Pin_19) (type passive))
        (pin (num 20) (name Pin_20) (type passive))))
    (libpart (lib Device) (part Battery)
      (description "Battery (multiple cells)")
      (docs ~)
      (fields
        (field (name Reference) BT)
        (field (name Value) Battery))
      (pins
        (pin (num 1) (name +) (type passive))
        (pin (num 2) (name -) (type passive))))
    (libpart (lib Device) (part C_Small)
      (description "Unpolarized capacitor")
      (docs ~)
      (footprints
        (fp C_*))
      (fields
        (field (name Reference) C)
        (field (name Value) C_Small))
      (pins
        (pin (num 1) (name ~) (type passive))
        (pin (num 2) (name ~) (type passive))))
    (libpart (lib Device) (part LED_Small)
      (description "LED, small symbol")
      (docs ~)
      (footprints
        (fp LED*)
        (fp LED_SMD:*)
        (fp LED_THT:*))
      (fields
        (field (name Reference) D)
        (field (name Value) LED_Small))
      (pins
        (pin (num 1) (name K) (type passive))
        (pin (num 2) (name A) (type passive))))
    (libpart (lib Device) (part L_Small)
      (description "Inductor, small symbol")
      (docs ~)
      (footprints
        (fp Choke_*)
        (fp *Coil*)
        (fp Inductor_*)
        (fp L_*))
      (fields
        (field (name Reference) L)
        (field (name Value) L_Small))
      (pins
        (pin (num 1) (name ~) (type passive))
        (pin (num 2) (name ~) (type passive))))
    (libpart (lib Device) (part Net-Tie_2)
      (description "Net Tie, 2 pins")
      (docs ~)
      (footprints
        (fp Net*Tie*))
      (fields
        (field (name Reference) NT)
        (field (name Value) Net-Tie_2))
      (pins
        (pin (num 1) (name 1) (type passive))
        (pin (num 2) (name 2) (type passive))))
    (libpart (lib Device) (part R_Shunt)
      (description "Shunt Resistor")
      (docs ~)
      (footprints
        (fp R_*Shunt*))
      (fields
        (field (name Reference) R)
        (field (name Value) R_Shunt))
      (pins
        (pin (num 1) (name 1) (type passive))
        (pin (num 2) (name 2) (type passive))
        (pin (num 3) (name 3) (type passive))
        (pin (num 4) (name 4) (type passive))))
    (libpart (lib Device) (part R_Small)
      (description "Resistor, small symbol")
      (docs ~)
      (footprints
        (fp R_*))
      (fields
        (field (name Reference) R)
        (field (name Value) R_Small))
      (pins
        (pin (num 1) (name ~) (type passive))
        (pin (num 2) (name ~) (type passive))))
    (libpart (lib Mechanical) (part MountingHole_Pad)
      (description "Mounting Hole with connection")
      (docs ~)
      (footprints
        (fp MountingHole*Pad*))
      (fields
        (field (name Reference) MH)
        (field (name Value) MountingHole_Pad))
      (pins
        (pin (num 1) (name 1) (type input)))))
  (libraries
    (library (logical Connector)
      (uri "C:\\Program Files\\KiCad\\share\\kicad\\library/Connector.lib"))
    (library (logical Connector_Generic)
      (uri "C:\\Program Files\\KiCad\\share\\kicad\\library/Connector_Generic.lib"))
    (library (logical Device)
      (uri "C:\\Program Files\\KiCad\\share\\kicad\\library/Device.lib"))
    (library (logical Mechanical)
      (uri "C:\\Program Files\\KiCad\\share\\kicad\\library/Mechanical.lib")))
  (nets
    (net (code 1) (name GNDPWR)
      (node (ref BT1) (pin 2))
      (node (ref NT1) (pin 2))
      (node (ref J1) (pin 2))
      (node (ref J2) (pin 1))
      (node (ref J2) (pin 3))
      (node (ref J2) (pin 20))
      (node (ref J2) (pin 2))
      (node (ref J2) (pin 19))
      (node (ref J2) (pin 18))
      (node (ref J2) (pin 17))
      (node (ref J2) (pin 4))
      (node (ref J3) (pin 2))
      (node (ref C11) (pin 2))
      (node (ref C14) (pin 2))
      (node (ref C17) (pin 2))
      (node (ref R2) (pin 2))
      (node (ref C1) (pin 2))
      (node (ref C18) (pin 2))
      (node (ref C2) (pin 2))
      (node (ref C3) (pin 2))
      (node (ref C6) (pin 2))
      (node (ref C7) (pin 2))
      (node (ref C4) (pin 2))
      (node (ref C12) (pin 2))
      (node (ref C16) (pin 2))
      (node (ref C13) (pin 2))
      (node (ref C15) (pin 2)))
    (net (code 2) (name /VOUT)
      (node (ref C11) (pin 1))
      (node (ref C12) (pin 1))
      (node (ref C18) (pin 1))
      (node (ref L1) (pin 2))
      (node (ref C13) (pin 1))
      (node (ref C15) (pin 1))
      (node (ref C16) (pin 1))
      (node (ref C10) (pin 1))
      (node (ref R8) (pin 2))
      (node (ref J3) (pin 1))
      (node (ref D2) (pin 2))
      (node (ref J2) (pin 5))
      (node (ref J2) (pin 6))
      (node (ref J2) (pin 7))
      (node (ref J2) (pin 8))
      (node (ref C17) (pin 1))
      (node (ref C14) (pin 1)))
    (net (code 3) (name "Net-(H1-Pad1)")
      (node (ref H1) (pin 1))
      (node (ref R9) (pin 2)))
    (net (code 4) (name /regulator5V/VREG5)
      (node (ref R3) (pin 1))
      (node (ref C5) (pin 1))
      (node (ref R4) (pin 1)))
    (net (code 5) (name "Net-(D1-Pad2)")
      (node (ref D1) (pin 2))
      (node (ref R3) (pin 2)))
    (net (code 6) (name /regulator5V/VIN)
      (node (ref C7) (pin 1))
      (node (ref C6) (pin 1))
      (node (ref C4) (pin 1))
      (node (ref C3) (pin 1))
      (node (ref C2) (pin 1))
      (node (ref C1) (pin 1))
      (node (ref R9) (pin 4))
      (node (ref J2) (pin 12))
      (node (ref J2) (pin 10))
      (node (ref J2) (pin 11))
      (node (ref J2) (pin 13))
      (node (ref J2) (pin 15))
      (node (ref J2) (pin 16))
      (node (ref J2) (pin 14))
      (node (ref J2) (pin 9)))
    (net (code 7) (name /regulator5V/PGOOD)
      (node (ref D1) (pin 1)))
    (net (code 8) (name /regulator5V/EN)
      (node (ref J1) (pin 1)))
    (net (code 9) (name "Net-(H2-Pad1)")
      (node (ref R9) (pin 3))
      (node (ref H2) (pin 1)))
    (net (code 10) (name "Net-(D2-Pad1)")
      (node (ref D2) (pin 1))
      (node (ref R2) (pin 1)))
    (net (code 11) (name /VBAT)
      (node (ref R9) (pin 1))
      (node (ref BT1) (pin 1)))
    (net (code 12) (name GNDA)
      (node (ref NT1) (pin 1))
      (node (ref R5) (pin 2))
      (node (ref R6) (pin 2))
      (node (ref C8) (pin 2))
      (node (ref C5) (pin 2)))
    (net (code 13) (name "Net-(R7-Pad2)")
      (node (ref R8) (pin 1))
      (node (ref R7) (pin 2)))
    (net (code 14) (name /regulator5V/FB)
      (node (ref R7) (pin 1))
      (node (ref R6) (pin 1))
      (node (ref C10) (pin 2)))
    (net (code 15) (name /regulator5V/MODE)
      (node (ref R5) (pin 1))
      (node (ref R4) (pin 2)))
    (net (code 16) (name /regulator5V/BOOT)
      (node (ref C9) (pin 2)))
    (net (code 17) (name /regulator5V/SW)
      (node (ref C9) (pin 1))
      (node (ref L1) (pin 1)))
    (net (code 18) (name /regulator5V/SS)
      (node (ref C8) (pin 1)))))