EESchema Schematic File Version 4
LIBS:Control_Board_2020_T2-cache
EELAYER 26 0
EELAYER END
$Descr A4 11693 8268
encoding utf-8
Sheet 1 1
Title ""
Date ""
Rev ""
Comp ""
Comment1 ""
Comment2 ""
Comment3 ""
Comment4 ""
$EndDescr
$Comp
L MCU_Microchip_ATmega:ATmega128-16AU U1
U 1 1 5D296ABF
P 4450 3500
F 0 "U1" H 4450 1414 50  0000 C CNN
F 1 "ATmega128-16AU" H 4450 1323 50  0000 C CNN
F 2 "ATMEGA128L-8AU:QFP80P1600X1600X120-64N" H 4450 3500 50  0001 C CIN
F 3 "http://ww1.microchip.com/downloads/en/DeviceDoc/doc2467.pdf" H 4450 3500 50  0001 C CNN
	1    4450 3500
	1    0    0    -1  
$EndComp
Wire Wire Line
	5050 2800 6200 2800
Wire Wire Line
	5050 2900 6200 2900
Wire Wire Line
	5050 3000 6200 3000
Wire Wire Line
	5050 2700 6200 2700
$Comp
L Connector:Conn_01x05_Female J2
U 1 1 5D296F04
P 6400 2900
F 0 "J2" H 6427 2926 50  0000 L CNN
F 1 "SPI OBC Communications" H 6427 2835 50  0000 L CNN
F 2 "Pin_Headers:Pin_Header_Straight_1x05_Pitch2.54mm" H 6400 2900 50  0001 C CNN
F 3 "~" H 6400 2900 50  0001 C CNN
	1    6400 2900
	1    0    0    -1  
$EndComp
Wire Wire Line
	4450 5500 6200 5500
Wire Wire Line
	2400 1500 2800 1500
Connection ~ 4450 1500
Wire Wire Line
	4450 1500 4550 1500
Wire Wire Line
	4450 5500 2300 5500
Wire Wire Line
	2300 5500 2300 1650
Connection ~ 4450 5500
Wire Wire Line
	5050 4500 6600 4500
Wire Wire Line
	5050 4600 6600 4600
Text Label 6250 4500 0    50   ~ 0
SCL(I2C)
Text Label 6250 4600 0    50   ~ 0
SDA(I2C)
Text Label 5850 2700 0    50   ~ 0
SS(SPI)
Text Label 5850 2800 0    50   ~ 0
SCK(SPI)
Text Label 5850 2900 0    50   ~ 0
MOSI(SPI)
Text Label 5850 3000 0    50   ~ 0
MISO(SPI)
Text Label 3000 1500 0    50   ~ 0
VCC
NoConn ~ 3850 1800
NoConn ~ 3850 2000
NoConn ~ 3850 2200
NoConn ~ 3850 2400
NoConn ~ 3850 2600
NoConn ~ 3850 4700
NoConn ~ 3850 4800
NoConn ~ 3850 5000
NoConn ~ 3850 5100
NoConn ~ 3850 5200
NoConn ~ 5050 5200
NoConn ~ 5050 5100
NoConn ~ 5050 5000
NoConn ~ 5050 4900
NoConn ~ 5050 4800
NoConn ~ 5050 4700
NoConn ~ 5050 3400
NoConn ~ 5050 3300
NoConn ~ 5050 3200
NoConn ~ 5050 3100
NoConn ~ 5050 2500
NoConn ~ 5050 2400
NoConn ~ 5050 2300
NoConn ~ 5050 2200
NoConn ~ 5050 2100
$Comp
L Analog_ADC:INA226 U2
U 1 1 5D3C23A4
P 6050 700
F 0 "U2" H 5700 1350 50  0000 C CNN
F 1 "INA226" H 5700 1250 50  0000 C CNN
F 2 "INA226AIDGSR:SOP50P490X110-10N" H 6100 800 50  0001 C CNN
F 3 "http://www.ti.com/lit/ds/symlink/ina226.pdf" H 6400 600 50  0001 C CNN
	1    6050 700 
	1    0    0    -1  
$EndComp
$Comp
L MicroController:CD74HC4051-EP_8-1AnalogMultiplexer AfterResistor1
U 1 1 5D3C2B4A
P 1150 5600
F 0 "AfterResistor1" H 1425 5775 50  0000 C CNN
F 1 "CD74HC4051-EP_8-1AnalogMultiplexer" H 1425 5684 50  0000 C CNN
F 2 "CD74HC4051MT:SOIC127P600X175-16N" H 1150 5600 50  0001 C CNN
F 3 "" H 1150 5600 50  0001 C CNN
	1    1150 5600
	1    0    0    -1  
$EndComp
Wire Wire Line
	10350 1000 10350 950 
Wire Wire Line
	10350 1100 10350 1150
Text GLabel 6600 4500 2    50   BiDi ~ 0
SCL(I2C)
Text GLabel 6600 4600 2    50   BiDi ~ 0
SDA(I2C)
Text GLabel 950  5650 0    50   Input ~ 0
3V3_1_A
Text GLabel 10150 650  1    50   Output ~ 0
3V3_1_A
$Comp
L power:PWR_FLAG #FLG0101
U 1 1 5D40B016
P 2800 1500
F 0 "#FLG0101" H 2800 1575 50  0001 C CNN
F 1 "PWR_FLAG" H 2800 1674 50  0000 C CNN
F 2 "" H 2800 1500 50  0001 C CNN
F 3 "~" H 2800 1500 50  0001 C CNN
	1    2800 1500
	1    0    0    -1  
$EndComp
Connection ~ 2800 1500
Wire Wire Line
	2800 1500 4450 1500
$Comp
L power:PWR_FLAG #FLG0102
U 1 1 5D40B4CF
P 2300 1650
F 0 "#FLG0102" H 2300 1725 50  0001 C CNN
F 1 "PWR_FLAG" V 2300 1778 50  0000 L CNN
F 2 "" H 2300 1650 50  0001 C CNN
F 3 "~" H 2300 1650 50  0001 C CNN
	1    2300 1650
	0    -1   -1   0   
$EndComp
Connection ~ 2300 1650
Wire Wire Line
	6200 3100 6200 5500
Wire Wire Line
	6450 700  6550 700 
Wire Wire Line
	6450 800  6550 800 
Text GLabel 6700 700  2    50   BiDi ~ 0
SDA(I2C)
Text GLabel 6700 800  2    50   BiDi ~ 0
SCL(I2C)
Text GLabel 950  5750 0    50   Input ~ 0
5V_1_A
Text GLabel 950  5850 0    50   Input ~ 0
3V3_2_A
Text GLabel 950  5950 0    50   Input ~ 0
5V_2_A
Text GLabel 950  6050 0    50   Input ~ 0
3V3_3_A
Text GLabel 950  6150 0    50   Input ~ 0
5V_3_A
Text GLabel 950  6250 0    50   Input ~ 0
3V3_4_A
Text GLabel 950  6350 0    50   Input ~ 0
5V_4_A
$Comp
L Device:R R3
U 1 1 5D419B1B
P 2300 5950
F 0 "R3" V 2093 5950 50  0000 C CNN
F 1 "10K OHMS" V 2184 5950 50  0000 C CNN
F 2 "Resistors_SMD:R_0805" V 2230 5950 50  0001 C CNN
F 3 "~" H 2300 5950 50  0001 C CNN
	1    2300 5950
	0    1    1    0   
$EndComp
$Comp
L MicroController:CD74HC4051-EP_8-1AnalogMultiplexer BeforeResistor1
U 1 1 5D419E27
P 1150 6950
F 0 "BeforeResistor1" H 1425 7125 50  0000 C CNN
F 1 "CD74HC4051-EP_8-1AnalogMultiplexer" H 1425 7034 50  0000 C CNN
F 2 "CD74HC4051MT:SOIC127P600X175-16N" H 1150 6950 50  0001 C CNN
F 3 "" H 1150 6950 50  0001 C CNN
	1    1150 6950
	1    0    0    -1  
$EndComp
Text GLabel 950  7000 0    50   Input ~ 0
3V3_1_B
Text GLabel 950  7100 0    50   Input ~ 0
5V_1_B
Text GLabel 950  7200 0    50   Input ~ 0
3V3_2_B
Text GLabel 950  7300 0    50   Input ~ 0
5V_2_B
Text GLabel 950  7400 0    50   Input ~ 0
3V3_3_B
Text GLabel 950  7500 0    50   Input ~ 0
5V_3_B
Text GLabel 950  7600 0    50   Input ~ 0
3V3_4_B
Text GLabel 950  7700 0    50   Input ~ 0
5V_4_B
$Comp
L Device:R R4
U 1 1 5D419E36
P 2300 7300
F 0 "R4" V 2093 7300 50  0000 C CNN
F 1 "10K OHMS" V 2184 7300 50  0000 C CNN
F 2 "Resistors_SMD:R_0805" V 2230 7300 50  0001 C CNN
F 3 "~" H 2300 7300 50  0001 C CNN
	1    2300 7300
	0    1    1    0   
$EndComp
Text GLabel 2450 5950 2    50   Output ~ 0
AfterResistorOut
Text GLabel 5400 900  0    50   Input ~ 0
AfterResistorOut
Text GLabel 5400 800  0    50   Input ~ 0
BeforeResistorOut
Text GLabel 2450 7300 2    50   Output ~ 0
BeforeResistorOut
Text GLabel 3600 1500 1    50   Output ~ 0
5V_IN
Text GLabel 10150 1400 3    50   Output ~ 0
5V_1_A
Text GLabel 1900 7600 2    50   Input ~ 0
GND
Text GLabel 1900 6250 2    50   Input ~ 0
GND
Text GLabel 2300 2150 2    50   Output ~ 0
GND
Text GLabel 9650 650  1    50   Output ~ 0
3V3_1_B
Text GLabel 9650 1400 3    50   Output ~ 0
5V_1_B
Wire Wire Line
	6450 400  6450 500 
Text GLabel 6450 400  2    50   Input ~ 0
GND
$Comp
L Connector:Conn_01x03_Female J1
U 1 1 5D468695
P 2400 800
F 0 "J1" V 2340 612 50  0000 R CNN
F 1 "GND/5V_IN/3V_IN" V 2249 612 50  0000 R CNN
F 2 "Pin_Headers:Pin_Header_Straight_1x03_Pitch2.54mm" H 2400 800 50  0001 C CNN
F 3 "~" H 2400 800 50  0001 C CNN
	1    2400 800 
	0    -1   -1   0   
$EndComp
Wire Wire Line
	2300 1000 2300 1650
Wire Wire Line
	2400 1000 2400 1500
Text GLabel 5650 400  0    50   Input ~ 0
AfterResistorOut
Text GLabel 1900 7700 2    50   Input ~ 0
5V_IN
Text GLabel 1900 6350 2    50   Input ~ 0
5V_IN
Wire Wire Line
	2150 5950 1900 5950
Wire Wire Line
	2150 7300 1900 7300
Wire Wire Line
	2500 1000 2500 1250
Wire Wire Line
	2500 1250 2600 1250
Text GLabel 3050 1250 2    50   Output ~ 0
3V_IN
Wire Wire Line
	1900 7600 1900 7500
Wire Wire Line
	1900 7500 1900 7400
Connection ~ 1900 7500
Wire Wire Line
	1900 6250 1900 6150
Wire Wire Line
	1900 6150 1900 6050
Connection ~ 1900 6150
Wire Wire Line
	5400 800  5650 800 
Wire Wire Line
	5400 900  5650 900 
$Comp
L pspice:CAP C2
U 1 1 5D4A3F80
P 6450 1350
F 0 "C2" H 6150 1400 50  0000 L CNN
F 1 "0.1 uF" H 6100 1250 50  0000 L CNN
F 2 "Capacitors_SMD:C_0805" H 6450 1350 50  0001 C CNN
F 3 "" H 6450 1350 50  0001 C CNN
	1    6450 1350
	0    -1   -1   0   
$EndComp
Wire Wire Line
	6050 1200 6050 1350
Wire Wire Line
	6050 1350 6200 1350
Text GLabel 6050 1350 3    50   Input ~ 0
GND
Text GLabel 6050 200  1    50   Input ~ 0
3V_IN
Wire Wire Line
	6700 1350 7250 1350
Wire Wire Line
	7250 200  6050 200 
$Comp
L Device:R R11
U 1 1 5D4B35E2
P 6900 550
F 0 "R11" V 6693 550 50  0000 C CNN
F 1 "10K OHMS" V 6784 550 50  0000 C CNN
F 2 "Resistors_SMD:R_0805" V 6830 550 50  0001 C CNN
F 3 "~" H 6900 550 50  0001 C CNN
	1    6900 550 
	0    1    1    0   
$EndComp
$Comp
L Device:R R12
U 1 1 5D4B36DB
P 6900 950
F 0 "R12" V 7050 950 50  0000 C CNN
F 1 "10K OHMS" V 7000 950 50  0000 C CNN
F 2 "Resistors_SMD:R_0805" V 6830 950 50  0001 C CNN
F 3 "~" H 6900 950 50  0001 C CNN
	1    6900 950 
	0    1    1    0   
$EndComp
Wire Wire Line
	6750 550  6550 550 
Wire Wire Line
	6550 550  6550 700 
Connection ~ 6550 700 
Wire Wire Line
	6550 700  6700 700 
Wire Wire Line
	6750 950  6550 950 
Wire Wire Line
	6550 950  6550 800 
Connection ~ 6550 800 
Wire Wire Line
	6550 800  6700 800 
Wire Wire Line
	7050 550  7250 550 
Wire Wire Line
	7050 950  7250 950 
$Comp
L power:PWR_FLAG #FLG0103
U 1 1 5D4C7DD5
P 2600 1250
F 0 "#FLG0103" H 2600 1325 50  0001 C CNN
F 1 "PWR_FLAG" H 2600 1424 50  0000 C CNN
F 2 "" H 2600 1250 50  0001 C CNN
F 3 "~" H 2600 1250 50  0001 C CNN
	1    2600 1250
	1    0    0    -1  
$EndComp
Wire Wire Line
	2600 1250 3050 1250
Connection ~ 2600 1250
Text GLabel 5050 3600 2    50   Output ~ 0
3V3_1_SWITCH
Text GLabel 5050 3700 2    50   Output ~ 0
5V_1_SWITCH
Text GLabel 5050 3800 2    50   Output ~ 0
3V3_2_SWITCH
Text GLabel 5050 3900 2    50   Output ~ 0
5V_2_SWITCH
Text GLabel 5050 4000 2    50   Output ~ 0
3V3_3_SWITCH
Text GLabel 5050 4100 2    50   Output ~ 0
5V_3_SWITCH
Text GLabel 5050 4200 2    50   Output ~ 0
3V3_4_SWITCH
Text GLabel 5050 4300 2    50   Output ~ 0
5V_4_SWITCH
Wire Wire Line
	14200 1500 14200 1450
Wire Wire Line
	14200 1600 14200 1650
Text GLabel 14000 1150 1    50   Output ~ 0
3V3_2_A
Text GLabel 14000 1900 3    50   Output ~ 0
5V_2_A
Text GLabel 13500 1150 1    50   Output ~ 0
3V3_2_B
Text GLabel 13500 1900 3    50   Output ~ 0
5V_2_B
Wire Wire Line
	10350 3600 10350 3550
Wire Wire Line
	10350 3700 10350 3750
Text GLabel 10150 3250 1    50   Output ~ 0
3V3_3_A
Text GLabel 10150 4000 3    50   Output ~ 0
5V_3_A
Text GLabel 9650 3250 1    50   Output ~ 0
3V3_3_B
Text GLabel 9650 4000 3    50   Output ~ 0
5V_3_B
Wire Wire Line
	14200 3850 14200 3800
Wire Wire Line
	14200 3950 14200 4000
Text GLabel 14000 3500 1    50   Output ~ 0
3V3_4_A
Text GLabel 14000 4250 3    50   Output ~ 0
5V_4_A
Text GLabel 13500 3500 1    50   Output ~ 0
3V3_4_B
Text GLabel 13500 4250 3    50   Output ~ 0
5V_4_B
Wire Wire Line
	10050 950  10350 950 
Wire Wire Line
	9650 850  9650 750 
Wire Wire Line
	10150 850  10150 750 
Wire Wire Line
	10050 1150 10350 1150
Wire Wire Line
	10150 1250 10150 1350
Wire Wire Line
	9650 1250 9650 1350
Wire Wire Line
	13900 1450 14200 1450
Wire Wire Line
	13900 1650 14200 1650
Wire Wire Line
	14000 1350 14000 1250
Wire Wire Line
	13500 1350 13500 1250
Wire Wire Line
	14000 1750 14000 1850
Wire Wire Line
	13500 1750 13500 1850
Wire Wire Line
	10050 3550 10350 3550
Wire Wire Line
	10150 3450 10150 3350
Wire Wire Line
	9650 3450 9650 3350
Wire Wire Line
	10050 3750 10350 3750
Wire Wire Line
	10150 3850 10150 3950
Wire Wire Line
	9650 3850 9650 3950
Wire Wire Line
	13900 3800 14200 3800
Wire Wire Line
	13900 4000 14200 4000
Wire Wire Line
	14000 3500 14000 3600
Wire Wire Line
	14000 3700 13900 3700
Wire Wire Line
	13500 3500 13500 3550
Wire Wire Line
	13500 3700 13600 3700
Wire Wire Line
	13500 4250 13500 4200
Wire Wire Line
	13500 4100 13600 4100
Wire Wire Line
	14000 4100 14000 4200
Text GLabel 1900 5650 2    50   Input ~ 0
SEL0
Text GLabel 1900 5750 2    50   Input ~ 0
SEL1
Text GLabel 1900 5850 2    50   Input ~ 0
SEL2
Text GLabel 1900 7000 2    50   Input ~ 0
SEL0
Text GLabel 1900 7100 2    50   Input ~ 0
SEL1
Text GLabel 1900 7200 2    50   Input ~ 0
SEL2
Text GLabel 5050 1800 2    50   Output ~ 0
SEL0
Text GLabel 5050 1900 2    50   Output ~ 0
SEL1
Text GLabel 5050 2000 2    50   Output ~ 0
SEL2
Text GLabel 6450 1000 2    50   Output ~ 0
ALERT
Text GLabel 3850 4900 0    50   Input ~ 0
ALERT
$Comp
L Connector:Conn_01x02_Female J7
U 1 1 5D46656E
P 2700 4600
F 0 "J7" H 2594 4275 50  0000 C CNN
F 1 "TX RX serial lines" H 2594 4366 50  0000 C CNN
F 2 "Pin_Headers:Pin_Header_Straight_1x02_Pitch2.54mm" H 2700 4600 50  0001 C CNN
F 3 "~" H 2700 4600 50  0001 C CNN
	1    2700 4600
	-1   0    0    1   
$EndComp
Wire Wire Line
	3850 4500 2900 4500
Wire Wire Line
	3850 4600 2900 4600
Text Label 3350 4600 0    50   ~ 0
PDO
Text Label 3350 4500 0    50   ~ 0
PDI
$Comp
L Device:C C6
U 1 1 5D547A70
P 9900 750
F 0 "C6" V 9648 750 50  0000 C CNN
F 1 "C" V 9739 750 50  0000 C CNN
F 2 "Capacitors_SMD:C_0805" H 9938 600 50  0001 C CNN
F 3 "~" H 9900 750 50  0001 C CNN
	1    9900 750 
	0    1    1    0   
$EndComp
Wire Wire Line
	9650 750  9750 750 
Connection ~ 9650 750 
Wire Wire Line
	9650 750  9650 700 
Wire Wire Line
	10050 750  10150 750 
Connection ~ 10150 750 
Wire Wire Line
	10150 750  10150 650 
$Comp
L Device:C C7
U 1 1 5D550BE3
P 9900 1350
F 0 "C7" H 9648 1350 50  0000 C CNN
F 1 "C" V 9739 1350 50  0000 C CNN
F 2 "Capacitors_SMD:C_0805" H 9938 1200 50  0001 C CNN
F 3 "~" H 9900 1350 50  0001 C CNN
	1    9900 1350
	0    -1   -1   0   
$EndComp
Wire Wire Line
	10150 1350 10050 1350
Wire Wire Line
	9750 1350 9650 1350
Connection ~ 9650 1350
Wire Wire Line
	9650 1350 9650 1400
Connection ~ 10150 1350
Wire Wire Line
	10150 1350 10150 1400
$Comp
L Device:C C8
U 1 1 5D56E419
P 13750 1250
F 0 "C8" V 13498 1250 50  0000 C CNN
F 1 "C" V 13589 1250 50  0000 C CNN
F 2 "Capacitors_SMD:C_0805" H 13788 1100 50  0001 C CNN
F 3 "~" H 13750 1250 50  0001 C CNN
	1    13750 1250
	0    1    1    0   
$EndComp
$Comp
L Device:C C10
U 1 1 5D56E4F2
P 9900 3350
F 0 "C10" V 9648 3350 50  0000 C CNN
F 1 "C" V 9739 3350 50  0000 C CNN
F 2 "Capacitors_SMD:C_0805" H 9938 3200 50  0001 C CNN
F 3 "~" H 9900 3350 50  0001 C CNN
	1    9900 3350
	0    1    1    0   
$EndComp
$Comp
L Device:C C9
U 1 1 5D582692
P 13750 1850
F 0 "C9" V 14002 1850 50  0000 C CNN
F 1 "C" V 13911 1850 50  0000 C CNN
F 2 "Capacitors_SMD:C_0805" H 13788 1700 50  0001 C CNN
F 3 "~" H 13750 1850 50  0001 C CNN
	1    13750 1850
	0    1    1    0   
$EndComp
$Comp
L Device:C C11
U 1 1 5D59115B
P 9900 3950
F 0 "C11" V 10152 3950 50  0000 C CNN
F 1 "C" V 10061 3950 50  0000 C CNN
F 2 "Capacitors_SMD:C_0805" H 9938 3800 50  0001 C CNN
F 3 "~" H 9900 3950 50  0001 C CNN
	1    9900 3950
	0    1    1    0   
$EndComp
Wire Wire Line
	13900 1250 14000 1250
Connection ~ 14000 1250
Wire Wire Line
	14000 1250 14000 1150
Wire Wire Line
	13600 1250 13500 1250
Connection ~ 13500 1250
Wire Wire Line
	13500 1250 13500 1200
Wire Wire Line
	13900 1850 14000 1850
Connection ~ 14000 1850
Wire Wire Line
	14000 1850 14000 1900
Wire Wire Line
	13600 1850 13500 1850
Connection ~ 13500 1850
Wire Wire Line
	13500 1850 13500 1900
Wire Wire Line
	10050 3350 10150 3350
Connection ~ 10150 3350
Wire Wire Line
	10150 3350 10150 3250
Wire Wire Line
	9750 3350 9650 3350
Connection ~ 9650 3350
Wire Wire Line
	9650 3350 9650 3300
Wire Wire Line
	10050 3950 10150 3950
Connection ~ 10150 3950
Wire Wire Line
	10150 3950 10150 4000
Wire Wire Line
	9750 3950 9650 3950
Connection ~ 9650 3950
Wire Wire Line
	9650 3950 9650 4000
$Comp
L Device:C C4
U 1 1 5D5C1E0C
P 13750 3600
F 0 "C4" V 13498 3600 50  0000 C CNN
F 1 "C" V 13589 3600 50  0000 C CNN
F 2 "Capacitors_SMD:C_0805" H 13788 3450 50  0001 C CNN
F 3 "~" H 13750 3600 50  0001 C CNN
	1    13750 3600
	0    1    1    0   
$EndComp
$Comp
L Device:C C5
U 1 1 5D5C7BFD
P 13750 4200
F 0 "C5" V 14002 4200 50  0000 C CNN
F 1 "C" V 13911 4200 50  0000 C CNN
F 2 "Capacitors_SMD:C_0805" H 13788 4050 50  0001 C CNN
F 3 "~" H 13750 4200 50  0001 C CNN
	1    13750 4200
	0    1    1    0   
$EndComp
Wire Wire Line
	13900 3600 14000 3600
Connection ~ 14000 3600
Wire Wire Line
	14000 3600 14000 3700
Wire Wire Line
	13600 3600 13500 3600
Connection ~ 13500 3600
Wire Wire Line
	13500 3600 13500 3700
Wire Wire Line
	13600 4200 13500 4200
Connection ~ 13500 4200
Wire Wire Line
	13500 4200 13500 4100
Wire Wire Line
	13900 4200 14000 4200
Connection ~ 14000 4200
Wire Wire Line
	14000 4200 14000 4250
$Comp
L Device:R R7
U 1 1 5D65F628
P 9900 950
F 0 "R7" V 9693 950 50  0000 C CNN
F 1 "SENSE" V 9784 950 50  0000 C CNN
F 2 "RESC3216X62:RESC3216X62" V 9830 950 50  0001 C CNN
F 3 "~" H 9900 950 50  0001 C CNN
	1    9900 950 
	0    1    1    0   
$EndComp
$Comp
L Device:R R8
U 1 1 5D6602CF
P 9900 1150
F 0 "R8" V 9693 1150 50  0000 C CNN
F 1 "SENSE" V 9784 1150 50  0000 C CNN
F 2 "RESC3216X62:RESC3216X62" V 9830 1150 50  0001 C CNN
F 3 "~" H 9900 1150 50  0001 C CNN
	1    9900 1150
	0    1    1    0   
$EndComp
$Comp
L Device:R R9
U 1 1 5D660428
P 13750 1450
F 0 "R9" V 13543 1450 50  0000 C CNN
F 1 "SENSE" V 13634 1450 50  0000 C CNN
F 2 "RESC3216X62:RESC3216X62" V 13680 1450 50  0001 C CNN
F 3 "~" H 13750 1450 50  0001 C CNN
	1    13750 1450
	0    1    1    0   
$EndComp
$Comp
L Device:R R10
U 1 1 5D6604FB
P 13750 1650
F 0 "R10" V 13543 1650 50  0000 C CNN
F 1 "SENSE" V 13634 1650 50  0000 C CNN
F 2 "RESC3216X62:RESC3216X62" V 13680 1650 50  0001 C CNN
F 3 "~" H 13750 1650 50  0001 C CNN
	1    13750 1650
	0    1    1    0   
$EndComp
$Comp
L Device:R R13
U 1 1 5D6605D7
P 9900 3550
F 0 "R13" V 9693 3550 50  0000 C CNN
F 1 "SENSE" V 9784 3550 50  0000 C CNN
F 2 "RESC3216X62:RESC3216X62" V 9830 3550 50  0001 C CNN
F 3 "~" H 9900 3550 50  0001 C CNN
	1    9900 3550
	0    1    1    0   
$EndComp
$Comp
L Device:R R14
U 1 1 5D660E93
P 9900 3750
F 0 "R14" V 9693 3750 50  0000 C CNN
F 1 "SENSE" V 9784 3750 50  0000 C CNN
F 2 "RESC3216X62:RESC3216X62" V 9830 3750 50  0001 C CNN
F 3 "~" H 9900 3750 50  0001 C CNN
	1    9900 3750
	0    1    1    0   
$EndComp
$Comp
L Device:R R5
U 1 1 5D661231
P 13750 3800
F 0 "R5" V 13543 3800 50  0000 C CNN
F 1 "SENSE" V 13634 3800 50  0000 C CNN
F 2 "RESC3216X62:RESC3216X62" V 13680 3800 50  0001 C CNN
F 3 "~" H 13750 3800 50  0001 C CNN
	1    13750 3800
	0    1    1    0   
$EndComp
$Comp
L Device:R R6
U 1 1 5D661320
P 13750 4000
F 0 "R6" V 13543 4000 50  0000 C CNN
F 1 "SENSE" V 13634 4000 50  0000 C CNN
F 2 "RESC3216X62:RESC3216X62" V 13680 4000 50  0001 C CNN
F 3 "~" H 13750 4000 50  0001 C CNN
	1    13750 4000
	0    1    1    0   
$EndComp
Wire Wire Line
	10050 3450 10050 3550
Wire Wire Line
	10050 3450 10150 3450
Connection ~ 10050 3550
Wire Wire Line
	9750 3450 9750 3550
Wire Wire Line
	9750 3450 9650 3450
Wire Wire Line
	10050 3750 10050 3850
Connection ~ 10050 3750
Wire Wire Line
	10050 3850 10150 3850
Wire Wire Line
	9750 3750 9750 3850
Wire Wire Line
	9750 3850 9650 3850
Wire Wire Line
	13900 3800 13900 3700
Connection ~ 13900 3800
Wire Wire Line
	13600 3800 13600 3700
Wire Wire Line
	13600 4000 13600 4100
Wire Wire Line
	13900 4000 13900 4100
Connection ~ 13900 4000
Wire Wire Line
	13900 4100 14000 4100
Wire Wire Line
	13900 1450 13900 1350
Connection ~ 13900 1450
Wire Wire Line
	13900 1350 14000 1350
Wire Wire Line
	13600 1450 13600 1350
Wire Wire Line
	13600 1350 13500 1350
Wire Wire Line
	10050 1150 10050 1250
Connection ~ 10050 1150
Wire Wire Line
	10050 1250 10150 1250
Wire Wire Line
	9750 1150 9750 1250
Wire Wire Line
	9750 1250 9650 1250
Wire Wire Line
	10050 950  10050 850 
Connection ~ 10050 950 
Wire Wire Line
	10050 850  10150 850 
Wire Wire Line
	9750 950  9750 850 
Wire Wire Line
	13900 1650 13900 1750
Connection ~ 13900 1650
Wire Wire Line
	13900 1750 14000 1750
Wire Wire Line
	13600 1650 13600 1750
Wire Wire Line
	13600 1750 13500 1750
$Comp
L Connector:Conn_01x04_Female J4
U 1 1 5D4F8B12
P 10950 1100
F 0 "J4" H 10977 1076 50  0000 L CNN
F 1 "GND NMOS" H 10977 985 50  0000 L CNN
F 2 "Pin_Headers:Pin_Header_Straight_1x04_Pitch2.54mm" H 10950 1100 50  0001 C CNN
F 3 "~" H 10950 1100 50  0001 C CNN
	1    10950 1100
	1    0    0    -1  
$EndComp
$Comp
L Connector:Conn_01x04_Female J6
U 1 1 5D4F8C1A
P 14850 1600
F 0 "J6" H 14877 1576 50  0000 L CNN
F 1 "POS NMOS" H 14877 1485 50  0000 L CNN
F 2 "Pin_Headers:Pin_Header_Straight_1x04_Pitch2.54mm" H 14850 1600 50  0001 C CNN
F 3 "~" H 14850 1600 50  0001 C CNN
	1    14850 1600
	1    0    0    -1  
$EndComp
$Comp
L Connector:Conn_01x04_Female J5
U 1 1 5D501B65
P 10950 3700
F 0 "J5" H 10978 3676 50  0000 L CNN
F 1 "POS PMOS" H 10978 3585 50  0000 L CNN
F 2 "Pin_Headers:Pin_Header_Straight_1x04_Pitch2.54mm" H 10950 3700 50  0001 C CNN
F 3 "~" H 10950 3700 50  0001 C CNN
	1    10950 3700
	1    0    0    -1  
$EndComp
$Comp
L Connector:Conn_01x04_Female J3
U 1 1 5D50C034
P 14850 3950
F 0 "J3" H 14878 3926 50  0000 L CNN
F 1 "LOAD SWITCH" H 14878 3835 50  0000 L CNN
F 2 "Pin_Headers:Pin_Header_Straight_1x04_Pitch2.54mm" H 14850 3950 50  0001 C CNN
F 3 "~" H 14850 3950 50  0001 C CNN
	1    14850 3950
	1    0    0    -1  
$EndComp
Wire Wire Line
	10350 1000 10750 1000
Wire Wire Line
	10350 1100 10750 1100
Wire Wire Line
	14200 1500 14650 1500
Wire Wire Line
	14200 1600 14650 1600
Wire Wire Line
	10350 3600 10750 3600
Wire Wire Line
	10350 3700 10750 3700
Text GLabel 14650 1700 0    50   BiDi ~ 0
SCL(I2C)
Text GLabel 14650 1800 0    50   BiDi ~ 0
SDA(I2C)
Text GLabel 10750 3800 0    50   BiDi ~ 0
SCL(I2C)
Text GLabel 10750 3900 0    50   BiDi ~ 0
SDA(I2C)
Text GLabel 14650 4050 0    50   BiDi ~ 0
SCL(I2C)
Text GLabel 14650 4150 0    50   BiDi ~ 0
SDA(I2C)
Text GLabel 10750 1200 0    50   BiDi ~ 0
SCL(I2C)
Text GLabel 10750 1300 0    50   BiDi ~ 0
SDA(I2C)
Wire Wire Line
	14200 3850 14650 3850
Wire Wire Line
	14200 3950 14650 3950
$Comp
L Connector:Conn_01x05_Female J8
U 1 1 5D5E2A5D
P 3650 3000
F 0 "J8" H 3850 2950 50  0000 C CNN
F 1 "PORT G" H 3850 3050 50  0000 C CNN
F 2 "Pin_Headers:Pin_Header_Straight_1x05_Pitch2.54mm" H 3650 3000 50  0001 C CNN
F 3 "~" H 3650 3000 50  0001 C CNN
	1    3650 3000
	-1   0    0    1   
$EndComp
$Comp
L Connector:Conn_01x08_Female J9
U 1 1 5D5E2D26
P 3650 4000
F 0 "J9" H 3850 4000 50  0000 C CNN
F 1 "PORT F" H 3850 4100 50  0000 C CNN
F 2 "Pin_Headers:Pin_Header_Straight_1x08_Pitch2.54mm" H 3650 4000 50  0001 C CNN
F 3 "~" H 3650 4000 50  0001 C CNN
	1    3650 4000
	-1   0    0    1   
$EndComp
$Comp
L Device:R R?
U 1 1 5F02AA62
P 8100 450
F 0 "R?" H 8030 404 50  0000 R CNN
F 1 "R" H 8030 495 50  0000 R CNN
F 2 "" V 8030 450 50  0001 C CNN
F 3 "~" H 8100 450 50  0001 C CNN
	1    8100 450 
	-1   0    0    1   
$EndComp
$Comp
L Device:C C?
U 1 1 5F02B117
P 8750 650
F 0 "C?" H 8865 696 50  0000 L CNN
F 1 "C" H 8865 605 50  0000 L CNN
F 2 "" H 8788 500 50  0001 C CNN
F 3 "~" H 8750 650 50  0001 C CNN
	1    8750 650 
	1    0    0    -1  
$EndComp
$Comp
L Device:Q_PMOS_GDS Q?
U 1 1 5F02B550
P 8450 400
F 0 "Q?" V 8793 400 50  0000 C CNN
F 1 "Q_PMOS_GDS" V 8702 400 50  0000 C CNN
F 2 "" H 8650 500 50  0001 C CNN
F 3 "~" H 8450 400 50  0001 C CNN
	1    8450 400 
	0    -1   -1   0   
$EndComp
Wire Wire Line
	8450 600  8450 300 
Wire Wire Line
	8450 300  8250 300 
Connection ~ 8250 300 
Wire Wire Line
	8250 300  8100 300 
Wire Wire Line
	8650 300  8750 300 
$Comp
L Comparator:LM311 U?
U 1 1 5F09632A
P 9150 700
F 0 "U?" H 9300 800 50  0000 L CNN
F 1 "LM311" H 9250 600 50  0000 L CNN
F 2 "" H 9150 700 50  0001 C CNN
F 3 "http://www.ti.com/lit/ds/symlink/lm311.pdf" H 9150 700 50  0001 C CNN
	1    9150 700 
	1    0    0    -1  
$EndComp
Wire Wire Line
	9050 1000 9150 1000
Text GLabel 9150 1000 2    50   Input ~ 0
GND
$Comp
L Device:Q_NMOS_GDS Q?
U 1 1 5F0C27DA
P 8350 800
F 0 "Q?" H 8555 846 50  0000 L CNN
F 1 "Q_NMOS_GDS" H 8555 755 50  0000 L CNN
F 2 "" H 8550 900 50  0001 C CNN
F 3 "~" H 8350 800 50  0001 C CNN
	1    8350 800 
	1    0    0    -1  
$EndComp
Wire Wire Line
	8100 600  8450 600 
Connection ~ 8450 600 
Wire Wire Line
	8450 1000 9050 1000
Connection ~ 9050 1000
NoConn ~ 9150 400 
NoConn ~ 9250 400 
$Comp
L Device:R R?
U 1 1 5F0F0019
P 9150 250
F 0 "R?" V 8943 250 50  0000 C CNN
F 1 "R" V 9034 250 50  0000 C CNN
F 2 "" V 9080 250 50  0001 C CNN
F 3 "~" H 9150 250 50  0001 C CNN
	1    9150 250 
	0    1    1    0   
$EndComp
$Comp
L Device:R R?
U 1 1 5F0F018D
P 9000 100
F 0 "R?" H 9070 146 50  0000 L CNN
F 1 "R" H 9070 55  50  0000 L CNN
F 2 "" V 8930 100 50  0001 C CNN
F 3 "~" H 9000 100 50  0001 C CNN
	1    9000 100 
	1    0    0    -1  
$EndComp
Text GLabel 8800 -50  0    50   Output ~ 0
5V_IN
Wire Wire Line
	8800 -50  9000 -50 
Text GLabel 9300 250  2    50   Input ~ 0
GND
Wire Wire Line
	9000 250  9000 400 
Wire Wire Line
	9000 400  9050 400 
Connection ~ 9000 250 
Wire Wire Line
	9450 700  9650 700 
Wire Wire Line
	9650 850  9750 850 
Connection ~ 9650 700 
Wire Wire Line
	9650 700  9650 650 
$Comp
L Device:R R?
U 1 1 5F1D3C0B
P 8100 1650
F 0 "R?" H 8030 1604 50  0000 R CNN
F 1 "R" H 8030 1695 50  0000 R CNN
F 2 "" V 8030 1650 50  0001 C CNN
F 3 "~" H 8100 1650 50  0001 C CNN
	1    8100 1650
	-1   0    0    -1  
$EndComp
$Comp
L Device:C C?
U 1 1 5F1D3C12
P 8750 1450
F 0 "C?" H 8865 1496 50  0000 L CNN
F 1 "C" H 8865 1405 50  0000 L CNN
F 2 "" H 8788 1300 50  0001 C CNN
F 3 "~" H 8750 1450 50  0001 C CNN
	1    8750 1450
	1    0    0    1   
$EndComp
$Comp
L Device:Q_PMOS_GDS Q?
U 1 1 5F1D3C19
P 8450 1700
F 0 "Q?" V 8793 1700 50  0000 C CNN
F 1 "Q_PMOS_GDS" V 8702 1700 50  0000 C CNN
F 2 "" H 8650 1800 50  0001 C CNN
F 3 "~" H 8450 1700 50  0001 C CNN
	1    8450 1700
	0    -1   1    0   
$EndComp
Wire Wire Line
	8450 1500 8450 1800
Wire Wire Line
	8450 1800 8250 1800
Connection ~ 8250 1800
Wire Wire Line
	8250 1800 8100 1800
Wire Wire Line
	8650 1800 8750 1800
$Comp
L Comparator:LM311 U?
U 1 1 5F1D3C25
P 9150 1400
F 0 "U?" H 9300 1500 50  0000 L CNN
F 1 "LM311" H 9250 1300 50  0000 L CNN
F 2 "" H 9150 1400 50  0001 C CNN
F 3 "http://www.ti.com/lit/ds/symlink/lm311.pdf" H 9150 1400 50  0001 C CNN
	1    9150 1400
	1    0    0    1   
$EndComp
Wire Wire Line
	9050 1100 9150 1100
Text GLabel 9150 1100 2    50   Input ~ 0
GND
$Comp
L Device:Q_NMOS_GDS Q?
U 1 1 5F1D3C2F
P 8350 1300
F 0 "Q?" H 8555 1346 50  0000 L CNN
F 1 "Q_NMOS_GDS" H 8555 1255 50  0000 L CNN
F 2 "" H 8550 1400 50  0001 C CNN
F 3 "~" H 8350 1300 50  0001 C CNN
	1    8350 1300
	1    0    0    1   
$EndComp
Wire Wire Line
	8100 1500 8450 1500
Connection ~ 8450 1500
Wire Wire Line
	8450 1100 9050 1100
Connection ~ 9050 1100
NoConn ~ 9150 1700
NoConn ~ 9250 1700
$Comp
L Device:R R?
U 1 1 5F1D3C3E
P 9150 1850
F 0 "R?" V 8943 1850 50  0000 C CNN
F 1 "R" V 9034 1850 50  0000 C CNN
F 2 "" V 9080 1850 50  0001 C CNN
F 3 "~" H 9150 1850 50  0001 C CNN
	1    9150 1850
	0    1    -1   0   
$EndComp
$Comp
L Device:R R?
U 1 1 5F1D3C45
P 9000 2000
F 0 "R?" H 9070 2046 50  0000 L CNN
F 1 "R" H 9070 1955 50  0000 L CNN
F 2 "" V 8930 2000 50  0001 C CNN
F 3 "~" H 9000 2000 50  0001 C CNN
	1    9000 2000
	1    0    0    1   
$EndComp
Text GLabel 8800 2150 0    50   Output ~ 0
5V_IN
Wire Wire Line
	8800 2150 9000 2150
Text GLabel 9300 1850 2    50   Input ~ 0
GND
Wire Wire Line
	9000 1850 9000 1700
Wire Wire Line
	9000 1700 9050 1700
Connection ~ 9000 1850
Wire Wire Line
	9450 1400 9650 1400
$Comp
L Device:R R?
U 1 1 5F21D049
P 11950 950
F 0 "R?" H 11880 904 50  0000 R CNN
F 1 "R" H 11880 995 50  0000 R CNN
F 2 "" V 11880 950 50  0001 C CNN
F 3 "~" H 11950 950 50  0001 C CNN
	1    11950 950 
	-1   0    0    1   
$EndComp
$Comp
L Device:C C?
U 1 1 5F21D050
P 12600 1150
F 0 "C?" H 12715 1196 50  0000 L CNN
F 1 "C" H 12715 1105 50  0000 L CNN
F 2 "" H 12638 1000 50  0001 C CNN
F 3 "~" H 12600 1150 50  0001 C CNN
	1    12600 1150
	1    0    0    -1  
$EndComp
$Comp
L Device:Q_PMOS_GDS Q?
U 1 1 5F21D057
P 12300 900
F 0 "Q?" V 12643 900 50  0000 C CNN
F 1 "Q_PMOS_GDS" V 12552 900 50  0000 C CNN
F 2 "" H 12500 1000 50  0001 C CNN
F 3 "~" H 12300 900 50  0001 C CNN
	1    12300 900 
	0    -1   -1   0   
$EndComp
Wire Wire Line
	12300 1100 12300 800 
Wire Wire Line
	12300 800  12100 800 
Connection ~ 12100 800 
Wire Wire Line
	12100 800  11950 800 
Wire Wire Line
	12500 800  12600 800 
$Comp
L Comparator:LM311 U?
U 1 1 5F21D063
P 13000 1200
F 0 "U?" H 13150 1300 50  0000 L CNN
F 1 "LM311" H 13100 1100 50  0000 L CNN
F 2 "" H 13000 1200 50  0001 C CNN
F 3 "http://www.ti.com/lit/ds/symlink/lm311.pdf" H 13000 1200 50  0001 C CNN
	1    13000 1200
	1    0    0    -1  
$EndComp
Wire Wire Line
	12900 1500 13000 1500
Text GLabel 13000 1500 2    50   Input ~ 0
GND
$Comp
L Device:Q_NMOS_GDS Q?
U 1 1 5F21D06D
P 12200 1300
F 0 "Q?" H 12405 1346 50  0000 L CNN
F 1 "Q_NMOS_GDS" H 12405 1255 50  0000 L CNN
F 2 "" H 12400 1400 50  0001 C CNN
F 3 "~" H 12200 1300 50  0001 C CNN
	1    12200 1300
	1    0    0    -1  
$EndComp
Wire Wire Line
	11950 1100 12300 1100
Connection ~ 12300 1100
Wire Wire Line
	12300 1500 12900 1500
Connection ~ 12900 1500
NoConn ~ 13000 900 
NoConn ~ 13100 900 
$Comp
L Device:R R?
U 1 1 5F21D07C
P 13000 750
F 0 "R?" V 12793 750 50  0000 C CNN
F 1 "R" V 12884 750 50  0000 C CNN
F 2 "" V 12930 750 50  0001 C CNN
F 3 "~" H 13000 750 50  0001 C CNN
	1    13000 750 
	0    1    1    0   
$EndComp
$Comp
L Device:R R?
U 1 1 5F21D083
P 12850 600
F 0 "R?" H 12920 646 50  0000 L CNN
F 1 "R" H 12920 555 50  0000 L CNN
F 2 "" V 12780 600 50  0001 C CNN
F 3 "~" H 12850 600 50  0001 C CNN
	1    12850 600 
	1    0    0    -1  
$EndComp
Text GLabel 12650 450  0    50   Output ~ 0
5V_IN
Wire Wire Line
	12650 450  12850 450 
Text GLabel 13150 750  2    50   Input ~ 0
GND
Wire Wire Line
	12850 750  12850 900 
Wire Wire Line
	12850 900  12900 900 
Connection ~ 12850 750 
Wire Wire Line
	13300 1200 13500 1200
$Comp
L Device:R R?
U 1 1 5F21D091
P 11950 2150
F 0 "R?" H 11880 2104 50  0000 R CNN
F 1 "R" H 11880 2195 50  0000 R CNN
F 2 "" V 11880 2150 50  0001 C CNN
F 3 "~" H 11950 2150 50  0001 C CNN
	1    11950 2150
	-1   0    0    -1  
$EndComp
$Comp
L Device:C C?
U 1 1 5F21D098
P 12600 1950
F 0 "C?" H 12715 1996 50  0000 L CNN
F 1 "C" H 12715 1905 50  0000 L CNN
F 2 "" H 12638 1800 50  0001 C CNN
F 3 "~" H 12600 1950 50  0001 C CNN
	1    12600 1950
	1    0    0    1   
$EndComp
$Comp
L Device:Q_PMOS_GDS Q?
U 1 1 5F21D09F
P 12300 2200
F 0 "Q?" V 12643 2200 50  0000 C CNN
F 1 "Q_PMOS_GDS" V 12552 2200 50  0000 C CNN
F 2 "" H 12500 2300 50  0001 C CNN
F 3 "~" H 12300 2200 50  0001 C CNN
	1    12300 2200
	0    -1   1    0   
$EndComp
Wire Wire Line
	12300 2000 12300 2300
Wire Wire Line
	12300 2300 12100 2300
Connection ~ 12100 2300
Wire Wire Line
	12100 2300 11950 2300
Wire Wire Line
	12500 2300 12600 2300
$Comp
L Comparator:LM311 U?
U 1 1 5F21D0AB
P 13000 1900
F 0 "U?" H 13150 2000 50  0000 L CNN
F 1 "LM311" H 13100 1800 50  0000 L CNN
F 2 "" H 13000 1900 50  0001 C CNN
F 3 "http://www.ti.com/lit/ds/symlink/lm311.pdf" H 13000 1900 50  0001 C CNN
	1    13000 1900
	1    0    0    1   
$EndComp
Wire Wire Line
	12900 1600 13000 1600
Text GLabel 13000 1600 2    50   Input ~ 0
GND
$Comp
L Device:Q_NMOS_GDS Q?
U 1 1 5F21D0B5
P 12200 1800
F 0 "Q?" H 12405 1846 50  0000 L CNN
F 1 "Q_NMOS_GDS" H 12405 1755 50  0000 L CNN
F 2 "" H 12400 1900 50  0001 C CNN
F 3 "~" H 12200 1800 50  0001 C CNN
	1    12200 1800
	1    0    0    1   
$EndComp
Wire Wire Line
	11950 2000 12300 2000
Connection ~ 12300 2000
Wire Wire Line
	12300 1600 12900 1600
Connection ~ 12900 1600
NoConn ~ 13000 2200
NoConn ~ 13100 2200
$Comp
L Device:R R?
U 1 1 5F21D0C4
P 13000 2350
F 0 "R?" V 12793 2350 50  0000 C CNN
F 1 "R" V 12884 2350 50  0000 C CNN
F 2 "" V 12930 2350 50  0001 C CNN
F 3 "~" H 13000 2350 50  0001 C CNN
	1    13000 2350
	0    1    -1   0   
$EndComp
$Comp
L Device:R R?
U 1 1 5F21D0CB
P 12850 2500
F 0 "R?" H 12920 2546 50  0000 L CNN
F 1 "R" H 12920 2455 50  0000 L CNN
F 2 "" V 12780 2500 50  0001 C CNN
F 3 "~" H 12850 2500 50  0001 C CNN
	1    12850 2500
	1    0    0    1   
$EndComp
Text GLabel 12650 2650 0    50   Output ~ 0
5V_IN
Text GLabel 13150 2350 2    50   Input ~ 0
GND
Wire Wire Line
	12850 2350 12850 2200
Wire Wire Line
	12850 2200 12900 2200
Connection ~ 12850 2350
Wire Wire Line
	13300 1900 13500 1900
Connection ~ 13500 1200
Wire Wire Line
	13500 1200 13500 1150
$Comp
L Device:R R?
U 1 1 5F23D1F9
P 8100 3050
F 0 "R?" H 8030 3004 50  0000 R CNN
F 1 "R" H 8030 3095 50  0000 R CNN
F 2 "" V 8030 3050 50  0001 C CNN
F 3 "~" H 8100 3050 50  0001 C CNN
	1    8100 3050
	-1   0    0    1   
$EndComp
$Comp
L Device:C C?
U 1 1 5F23D200
P 8750 3250
F 0 "C?" H 8865 3296 50  0000 L CNN
F 1 "C" H 8865 3205 50  0000 L CNN
F 2 "" H 8788 3100 50  0001 C CNN
F 3 "~" H 8750 3250 50  0001 C CNN
	1    8750 3250
	1    0    0    -1  
$EndComp
$Comp
L Device:Q_PMOS_GDS Q?
U 1 1 5F23D207
P 8450 3000
F 0 "Q?" V 8793 3000 50  0000 C CNN
F 1 "Q_PMOS_GDS" V 8702 3000 50  0000 C CNN
F 2 "" H 8650 3100 50  0001 C CNN
F 3 "~" H 8450 3000 50  0001 C CNN
	1    8450 3000
	0    -1   -1   0   
$EndComp
Wire Wire Line
	8450 3200 8450 2900
Wire Wire Line
	8450 2900 8250 2900
Connection ~ 8250 2900
Wire Wire Line
	8250 2900 8100 2900
Wire Wire Line
	8650 2900 8750 2900
$Comp
L Comparator:LM311 U?
U 1 1 5F23D213
P 9150 3300
F 0 "U?" H 9300 3400 50  0000 L CNN
F 1 "LM311" H 9250 3200 50  0000 L CNN
F 2 "" H 9150 3300 50  0001 C CNN
F 3 "http://www.ti.com/lit/ds/symlink/lm311.pdf" H 9150 3300 50  0001 C CNN
	1    9150 3300
	1    0    0    -1  
$EndComp
Wire Wire Line
	9050 3600 9150 3600
Text GLabel 9150 3600 2    50   Input ~ 0
GND
$Comp
L Device:Q_NMOS_GDS Q?
U 1 1 5F23D21D
P 8350 3400
F 0 "Q?" H 8555 3446 50  0000 L CNN
F 1 "Q_NMOS_GDS" H 8555 3355 50  0000 L CNN
F 2 "" H 8550 3500 50  0001 C CNN
F 3 "~" H 8350 3400 50  0001 C CNN
	1    8350 3400
	1    0    0    -1  
$EndComp
Wire Wire Line
	8100 3200 8450 3200
Connection ~ 8450 3200
Wire Wire Line
	8450 3600 9050 3600
Connection ~ 9050 3600
NoConn ~ 9150 3000
NoConn ~ 9250 3000
$Comp
L Device:R R?
U 1 1 5F23D22C
P 9150 2850
F 0 "R?" V 8943 2850 50  0000 C CNN
F 1 "R" V 9034 2850 50  0000 C CNN
F 2 "" V 9080 2850 50  0001 C CNN
F 3 "~" H 9150 2850 50  0001 C CNN
	1    9150 2850
	0    1    1    0   
$EndComp
$Comp
L Device:R R?
U 1 1 5F23D233
P 9000 2700
F 0 "R?" H 9070 2746 50  0000 L CNN
F 1 "R" H 9070 2655 50  0000 L CNN
F 2 "" V 8930 2700 50  0001 C CNN
F 3 "~" H 9000 2700 50  0001 C CNN
	1    9000 2700
	1    0    0    -1  
$EndComp
Text GLabel 8800 2550 0    50   Output ~ 0
5V_IN
Wire Wire Line
	8800 2550 9000 2550
Text GLabel 9300 2850 2    50   Input ~ 0
GND
Wire Wire Line
	9000 2850 9000 3000
Wire Wire Line
	9000 3000 9050 3000
Connection ~ 9000 2850
Wire Wire Line
	9450 3300 9650 3300
$Comp
L Device:R R?
U 1 1 5F23D241
P 8100 4250
F 0 "R?" H 8030 4204 50  0000 R CNN
F 1 "R" H 8030 4295 50  0000 R CNN
F 2 "" V 8030 4250 50  0001 C CNN
F 3 "~" H 8100 4250 50  0001 C CNN
	1    8100 4250
	-1   0    0    -1  
$EndComp
$Comp
L Device:C C?
U 1 1 5F23D248
P 8750 4050
F 0 "C?" H 8865 4096 50  0000 L CNN
F 1 "C" H 8865 4005 50  0000 L CNN
F 2 "" H 8788 3900 50  0001 C CNN
F 3 "~" H 8750 4050 50  0001 C CNN
	1    8750 4050
	1    0    0    1   
$EndComp
$Comp
L Device:Q_PMOS_GDS Q?
U 1 1 5F23D24F
P 8450 4300
F 0 "Q?" V 8793 4300 50  0000 C CNN
F 1 "Q_PMOS_GDS" V 8702 4300 50  0000 C CNN
F 2 "" H 8650 4400 50  0001 C CNN
F 3 "~" H 8450 4300 50  0001 C CNN
	1    8450 4300
	0    -1   1    0   
$EndComp
Wire Wire Line
	8450 4100 8450 4400
Wire Wire Line
	8450 4400 8250 4400
Connection ~ 8250 4400
Wire Wire Line
	8250 4400 8100 4400
Wire Wire Line
	8650 4400 8750 4400
$Comp
L Comparator:LM311 U?
U 1 1 5F23D25B
P 9150 4000
F 0 "U?" H 9300 4100 50  0000 L CNN
F 1 "LM311" H 9250 3900 50  0000 L CNN
F 2 "" H 9150 4000 50  0001 C CNN
F 3 "http://www.ti.com/lit/ds/symlink/lm311.pdf" H 9150 4000 50  0001 C CNN
	1    9150 4000
	1    0    0    1   
$EndComp
Wire Wire Line
	9050 3700 9150 3700
Text GLabel 9150 3700 2    50   Input ~ 0
GND
$Comp
L Device:Q_NMOS_GDS Q?
U 1 1 5F23D265
P 8350 3900
F 0 "Q?" H 8555 3946 50  0000 L CNN
F 1 "Q_NMOS_GDS" H 8555 3855 50  0000 L CNN
F 2 "" H 8550 4000 50  0001 C CNN
F 3 "~" H 8350 3900 50  0001 C CNN
	1    8350 3900
	1    0    0    1   
$EndComp
Wire Wire Line
	8100 4100 8450 4100
Connection ~ 8450 4100
Wire Wire Line
	8450 3700 9050 3700
Connection ~ 9050 3700
NoConn ~ 9150 4300
NoConn ~ 9250 4300
$Comp
L Device:R R?
U 1 1 5F23D274
P 9150 4450
F 0 "R?" V 8943 4450 50  0000 C CNN
F 1 "R" V 9034 4450 50  0000 C CNN
F 2 "" V 9080 4450 50  0001 C CNN
F 3 "~" H 9150 4450 50  0001 C CNN
	1    9150 4450
	0    1    -1   0   
$EndComp
$Comp
L Device:R R?
U 1 1 5F23D27B
P 9000 4600
F 0 "R?" H 9070 4646 50  0000 L CNN
F 1 "R" H 9070 4555 50  0000 L CNN
F 2 "" V 8930 4600 50  0001 C CNN
F 3 "~" H 9000 4600 50  0001 C CNN
	1    9000 4600
	1    0    0    1   
$EndComp
Text GLabel 8800 4750 0    50   Output ~ 0
5V_IN
Wire Wire Line
	8800 4750 9000 4750
Text GLabel 9300 4450 2    50   Input ~ 0
GND
Wire Wire Line
	9000 4450 9000 4300
Wire Wire Line
	9000 4300 9050 4300
Connection ~ 9000 4450
Wire Wire Line
	9450 4000 9650 4000
$Comp
L Device:R R?
U 1 1 5F25A160
P 11950 3300
F 0 "R?" H 11880 3254 50  0000 R CNN
F 1 "R" H 11880 3345 50  0000 R CNN
F 2 "" V 11880 3300 50  0001 C CNN
F 3 "~" H 11950 3300 50  0001 C CNN
	1    11950 3300
	-1   0    0    1   
$EndComp
$Comp
L Device:C C?
U 1 1 5F25A167
P 12600 3500
F 0 "C?" H 12715 3546 50  0000 L CNN
F 1 "C" H 12715 3455 50  0000 L CNN
F 2 "" H 12638 3350 50  0001 C CNN
F 3 "~" H 12600 3500 50  0001 C CNN
	1    12600 3500
	1    0    0    -1  
$EndComp
$Comp
L Device:Q_PMOS_GDS Q?
U 1 1 5F25A16E
P 12300 3250
F 0 "Q?" V 12643 3250 50  0000 C CNN
F 1 "Q_PMOS_GDS" V 12552 3250 50  0000 C CNN
F 2 "" H 12500 3350 50  0001 C CNN
F 3 "~" H 12300 3250 50  0001 C CNN
	1    12300 3250
	0    -1   -1   0   
$EndComp
Wire Wire Line
	12300 3450 12300 3150
Wire Wire Line
	12300 3150 12100 3150
Connection ~ 12100 3150
Wire Wire Line
	12100 3150 11950 3150
Wire Wire Line
	12500 3150 12600 3150
$Comp
L Comparator:LM311 U?
U 1 1 5F25A17A
P 13000 3550
F 0 "U?" H 13150 3650 50  0000 L CNN
F 1 "LM311" H 13100 3450 50  0000 L CNN
F 2 "" H 13000 3550 50  0001 C CNN
F 3 "http://www.ti.com/lit/ds/symlink/lm311.pdf" H 13000 3550 50  0001 C CNN
	1    13000 3550
	1    0    0    -1  
$EndComp
Wire Wire Line
	12900 3850 13000 3850
Text GLabel 13000 3850 2    50   Input ~ 0
GND
$Comp
L Device:Q_NMOS_GDS Q?
U 1 1 5F25A184
P 12200 3650
F 0 "Q?" H 12405 3696 50  0000 L CNN
F 1 "Q_NMOS_GDS" H 12405 3605 50  0000 L CNN
F 2 "" H 12400 3750 50  0001 C CNN
F 3 "~" H 12200 3650 50  0001 C CNN
	1    12200 3650
	1    0    0    -1  
$EndComp
Wire Wire Line
	11950 3450 12300 3450
Connection ~ 12300 3450
Wire Wire Line
	12300 3850 12900 3850
Connection ~ 12900 3850
NoConn ~ 13000 3250
NoConn ~ 13100 3250
$Comp
L Device:R R?
U 1 1 5F25A193
P 13000 3100
F 0 "R?" V 12793 3100 50  0000 C CNN
F 1 "R" V 12884 3100 50  0000 C CNN
F 2 "" V 12930 3100 50  0001 C CNN
F 3 "~" H 13000 3100 50  0001 C CNN
	1    13000 3100
	0    1    1    0   
$EndComp
$Comp
L Device:R R?
U 1 1 5F25A19A
P 12850 2950
F 0 "R?" H 12920 2996 50  0000 L CNN
F 1 "R" H 12920 2905 50  0000 L CNN
F 2 "" V 12780 2950 50  0001 C CNN
F 3 "~" H 12850 2950 50  0001 C CNN
	1    12850 2950
	1    0    0    -1  
$EndComp
Text GLabel 12650 2800 0    50   Output ~ 0
5V_IN
Text GLabel 13150 3100 2    50   Input ~ 0
GND
Wire Wire Line
	12850 3100 12850 3250
Wire Wire Line
	12850 3250 12900 3250
Connection ~ 12850 3100
Wire Wire Line
	13300 3550 13500 3550
$Comp
L Device:R R?
U 1 1 5F25A1A8
P 11950 4500
F 0 "R?" H 11880 4454 50  0000 R CNN
F 1 "R" H 11880 4545 50  0000 R CNN
F 2 "" V 11880 4500 50  0001 C CNN
F 3 "~" H 11950 4500 50  0001 C CNN
	1    11950 4500
	-1   0    0    -1  
$EndComp
$Comp
L Device:C C?
U 1 1 5F25A1AF
P 12600 4300
F 0 "C?" H 12715 4346 50  0000 L CNN
F 1 "C" H 12715 4255 50  0000 L CNN
F 2 "" H 12638 4150 50  0001 C CNN
F 3 "~" H 12600 4300 50  0001 C CNN
	1    12600 4300
	1    0    0    1   
$EndComp
$Comp
L Device:Q_PMOS_GDS Q?
U 1 1 5F25A1B6
P 12300 4550
F 0 "Q?" V 12643 4550 50  0000 C CNN
F 1 "Q_PMOS_GDS" V 12552 4550 50  0000 C CNN
F 2 "" H 12500 4650 50  0001 C CNN
F 3 "~" H 12300 4550 50  0001 C CNN
	1    12300 4550
	0    -1   1    0   
$EndComp
Wire Wire Line
	12300 4350 12300 4650
Wire Wire Line
	12300 4650 12100 4650
Connection ~ 12100 4650
Wire Wire Line
	12100 4650 11950 4650
Wire Wire Line
	12500 4650 12600 4650
$Comp
L Comparator:LM311 U?
U 1 1 5F25A1C2
P 13000 4250
F 0 "U?" H 13150 4350 50  0000 L CNN
F 1 "LM311" H 13100 4150 50  0000 L CNN
F 2 "" H 13000 4250 50  0001 C CNN
F 3 "http://www.ti.com/lit/ds/symlink/lm311.pdf" H 13000 4250 50  0001 C CNN
	1    13000 4250
	1    0    0    1   
$EndComp
Wire Wire Line
	12900 3950 13000 3950
Text GLabel 13000 3950 2    50   Input ~ 0
GND
$Comp
L Device:Q_NMOS_GDS Q?
U 1 1 5F25A1CC
P 12200 4150
F 0 "Q?" H 12405 4196 50  0000 L CNN
F 1 "Q_NMOS_GDS" H 12405 4105 50  0000 L CNN
F 2 "" H 12400 4250 50  0001 C CNN
F 3 "~" H 12200 4150 50  0001 C CNN
	1    12200 4150
	1    0    0    1   
$EndComp
Wire Wire Line
	11950 4350 12300 4350
Connection ~ 12300 4350
Wire Wire Line
	12300 3950 12900 3950
Connection ~ 12900 3950
NoConn ~ 13000 4550
NoConn ~ 13100 4550
$Comp
L Device:R R?
U 1 1 5F25A1DB
P 13000 4700
F 0 "R?" V 12793 4700 50  0000 C CNN
F 1 "R" V 12884 4700 50  0000 C CNN
F 2 "" V 12930 4700 50  0001 C CNN
F 3 "~" H 13000 4700 50  0001 C CNN
	1    13000 4700
	0    1    -1   0   
$EndComp
$Comp
L Device:R R?
U 1 1 5F25A1E2
P 12850 4850
F 0 "R?" H 12920 4896 50  0000 L CNN
F 1 "R" H 12920 4805 50  0000 L CNN
F 2 "" V 12780 4850 50  0001 C CNN
F 3 "~" H 12850 4850 50  0001 C CNN
	1    12850 4850
	1    0    0    1   
$EndComp
Text GLabel 12650 5000 0    50   Output ~ 0
5V_IN
Wire Wire Line
	12650 5000 12850 5000
Text GLabel 13150 4700 2    50   Input ~ 0
GND
Wire Wire Line
	12850 4700 12850 4550
Wire Wire Line
	12850 4550 12900 4550
Connection ~ 12850 4700
Wire Wire Line
	13300 4250 13500 4250
Connection ~ 9650 3300
Wire Wire Line
	9650 3300 9650 3250
Wire Wire Line
	12650 2800 12850 2800
Wire Wire Line
	12650 2650 12850 2650
Connection ~ 13500 3550
Wire Wire Line
	13500 3550 13500 3600
Text GLabel 8100 1800 3    50   Input ~ 0
5V_IN
Text GLabel 8100 300  1    50   Input ~ 0
3V_IN
Text GLabel 8100 4400 3    50   Input ~ 0
5V_IN
Text GLabel 8100 2900 1    50   Input ~ 0
3V_IN
Text GLabel 11950 4650 3    50   Input ~ 0
5V_IN
Text GLabel 11950 3150 1    50   Input ~ 0
3V_IN
Text GLabel 11950 2300 3    50   Input ~ 0
5V_IN
Text GLabel 11950 800  1    50   Input ~ 0
3V_IN
Wire Wire Line
	7250 200  7250 550 
Connection ~ 7250 550 
Wire Wire Line
	7250 550  7250 950 
Connection ~ 7250 950 
Wire Wire Line
	7250 950  7250 1350
Text GLabel 8150 800  0    50   Input ~ 0
3V3_1_SWITCH
Text GLabel 8150 1300 0    50   Input ~ 0
5V_1_SWITCH
Text GLabel 8150 3400 0    50   Input ~ 0
3V3_2_SWITCH
Text GLabel 8150 3900 0    50   Input ~ 0
5V_2_SWITCH
Text GLabel 12000 1300 0    50   Input ~ 0
3V3_3_SWITCH
Text GLabel 12000 1800 0    50   Input ~ 0
5V_3_SWITCH
Text GLabel 12000 3650 0    50   Input ~ 0
3V3_4_SWITCH
Text GLabel 12000 4150 0    50   Input ~ 0
5V_4_SWITCH
Wire Wire Line
	8750 300  8750 450 
Wire Wire Line
	8850 600  8850 450 
Wire Wire Line
	8850 450  8750 450 
Connection ~ 8750 450 
Wire Wire Line
	8750 450  8750 500 
Wire Wire Line
	8850 800  8750 800 
Wire Wire Line
	8750 800  8600 800 
Wire Wire Line
	8600 800  8600 600 
Wire Wire Line
	8600 600  8450 600 
Connection ~ 8750 800 
Wire Wire Line
	8750 1300 8850 1300
Wire Wire Line
	8750 1800 8750 1600
Wire Wire Line
	8750 1300 8600 1300
Wire Wire Line
	8600 1300 8600 1500
Wire Wire Line
	8600 1500 8450 1500
Connection ~ 8750 1300
Wire Wire Line
	8850 1500 8850 1600
Wire Wire Line
	8850 1600 8750 1600
Connection ~ 8750 1600
Wire Wire Line
	8750 2900 8750 3100
Wire Wire Line
	8850 3200 8850 3100
Wire Wire Line
	8850 3100 8750 3100
Connection ~ 8750 3100
Wire Wire Line
	8850 3400 8750 3400
Wire Wire Line
	8750 3400 8600 3400
Wire Wire Line
	8600 3400 8600 3200
Wire Wire Line
	8600 3200 8450 3200
Connection ~ 8750 3400
Wire Wire Line
	8750 4400 8750 4200
Wire Wire Line
	8850 4100 8850 4200
Wire Wire Line
	8850 4200 8750 4200
Connection ~ 8750 4200
Wire Wire Line
	8850 3900 8750 3900
Wire Wire Line
	8750 3900 8600 3900
Wire Wire Line
	8600 3900 8600 4100
Wire Wire Line
	8600 4100 8450 4100
Connection ~ 8750 3900
Wire Wire Line
	12600 800  12600 1000
Wire Wire Line
	12700 1100 12700 1000
Wire Wire Line
	12700 1000 12600 1000
Connection ~ 12600 1000
Wire Wire Line
	12700 1300 12600 1300
Wire Wire Line
	12600 1300 12450 1300
Wire Wire Line
	12450 1300 12450 1100
Wire Wire Line
	12450 1100 12300 1100
Connection ~ 12600 1300
Wire Wire Line
	12600 2300 12600 2100
Wire Wire Line
	12700 2000 12700 2100
Wire Wire Line
	12700 2100 12600 2100
Connection ~ 12600 2100
Wire Wire Line
	12700 1800 12600 1800
Wire Wire Line
	12600 1800 12450 1800
Wire Wire Line
	12450 1800 12450 2000
Wire Wire Line
	12450 2000 12300 2000
Connection ~ 12600 1800
Wire Wire Line
	12600 3150 12600 3350
Wire Wire Line
	12700 3450 12700 3350
Wire Wire Line
	12700 3350 12600 3350
Connection ~ 12600 3350
Wire Wire Line
	12700 3650 12600 3650
Wire Wire Line
	12600 3650 12450 3650
Wire Wire Line
	12450 3650 12450 3450
Wire Wire Line
	12450 3450 12300 3450
Connection ~ 12600 3650
Wire Wire Line
	12600 4650 12600 4450
Wire Wire Line
	12700 4350 12700 4450
Wire Wire Line
	12700 4450 12600 4450
Connection ~ 12600 4450
Wire Wire Line
	12700 4150 12600 4150
Wire Wire Line
	12600 4150 12450 4150
Wire Wire Line
	12450 4150 12450 4350
Wire Wire Line
	12450 4350 12300 4350
Connection ~ 12600 4150
$EndSCHEMATC
