EESchema Schematic File Version 4
LIBS:Control_Board_2020_T2-cache
EELAYER 26 0
EELAYER END
$Descr A4 11693 8268
encoding utf-8
Sheet 1 5
Title ""
Date ""
Rev ""
Comp ""
Comment1 ""
Comment2 ""
Comment3 ""
Comment4 ""
$EndDescr
$Comp
L Control_Board_2020_T2-rescue:ATmega128-16AU-MCU_Microchip_ATmega U1
U 1 1 5D296ABF
P 3200 3250
F 0 "U1" H 3200 1164 50  0000 C CNN
F 1 "ATmega128-16AU" H 3200 1073 50  0000 C CNN
F 2 "footprints:ATMEGA128-16AU" H 3200 3250 50  0001 C CIN
F 3 "http://ww1.microchip.com/downloads/en/DeviceDoc/doc2467.pdf" H 3200 3250 50  0001 C CNN
	1    3200 3250
	1    0    0    -1  
$EndComp
Wire Wire Line
	3800 2550 4950 2550
Wire Wire Line
	3800 2650 4950 2650
Wire Wire Line
	3800 2750 4950 2750
Wire Wire Line
	3800 2450 4950 2450
$Comp
L Connector:Conn_01x09_Female J2
U 1 1 5D296F04
P 5150 2850
F 0 "J2" H 5177 2876 50  0000 L CNN
F 1 "PORT B" H 5177 2785 50  0000 L CNN
F 2 "Connector_PinHeader_2.54mm:PinHeader_1x09_P2.54mm_Vertical" H 5150 2850 50  0001 C CNN
F 3 "~" H 5150 2850 50  0001 C CNN
	1    5150 2850
	1    0    0    -1  
$EndComp
Wire Wire Line
	3200 5250 4950 5250
Wire Wire Line
	1150 1250 1300 1250
Connection ~ 3200 1250
Wire Wire Line
	3200 1250 3300 1250
Wire Wire Line
	3200 5250 1050 5250
Wire Wire Line
	1050 5250 1050 1550
Connection ~ 3200 5250
Wire Wire Line
	3800 4250 4450 4250
Wire Wire Line
	3800 4350 4450 4350
Text Label 5000 4250 0    50   ~ 0
SCL(I2C)
Text Label 5000 4350 0    50   ~ 0
SDA(I2C)
Text Label 4600 2450 0    50   ~ 0
SS(SPI)
Text Label 4600 2550 0    50   ~ 0
SCK(SPI)
Text Label 4600 2650 0    50   ~ 0
MOSI(SPI)
Text Label 4600 2750 0    50   ~ 0
MISO(SPI)
Text Label 1750 1250 0    50   ~ 0
VCC
$Comp
L Analog_ADC:INA226 U2
U 1 1 5D3C23A4
P 6050 1250
F 0 "U2" H 5700 1900 50  0000 C CNN
F 1 "INA226" H 5700 1800 50  0000 C CNN
F 2 "footprints:INA226" H 6100 1350 50  0001 C CNN
F 3 "http://www.ti.com/lit/ds/symlink/ina226.pdf" H 6400 1150 50  0001 C CNN
	1    6050 1250
	1    0    0    -1  
$EndComp
$Comp
L Control_Board_2020_T2-rescue:CD74HC4051-EP_8-1AnalogMultiplexer-MicroController AfterResistor1
U 1 1 5D3C2B4A
P 4150 5800
F 0 "AfterResistor1" H 4425 5975 50  0000 C CNN
F 1 "CD74HC4051-EP_8-1AnalogMultiplexer" H 4425 5884 50  0000 C CNN
F 2 "footprints:CD74HC4051MT" H 4150 5800 50  0001 C CNN
F 3 "" H 4150 5800 50  0001 C CNN
	1    4150 5800
	1    0    0    -1  
$EndComp
Text GLabel 5350 4250 2    50   BiDi ~ 0
SCL(I2C)
Text GLabel 5350 4350 2    50   BiDi ~ 0
SDA(I2C)
Text GLabel 3950 5850 0    50   Input ~ 0
3V3_1_A
Text GLabel 10000 850  2    50   Output ~ 0
3V3_1_A
$Comp
L power:PWR_FLAG #FLG0101
U 1 1 5D40B016
P 1550 1250
F 0 "#FLG0101" H 1550 1325 50  0001 C CNN
F 1 "PWR_FLAG" H 1550 1424 50  0000 C CNN
F 2 "" H 1550 1250 50  0001 C CNN
F 3 "~" H 1550 1250 50  0001 C CNN
	1    1550 1250
	1    0    0    -1  
$EndComp
Connection ~ 1550 1250
Wire Wire Line
	1550 1250 3200 1250
$Comp
L power:PWR_FLAG #FLG0102
U 1 1 5D40B4CF
P 1050 1400
F 0 "#FLG0102" H 1050 1475 50  0001 C CNN
F 1 "PWR_FLAG" V 1050 1528 50  0000 L CNN
F 2 "" H 1050 1400 50  0001 C CNN
F 3 "~" H 1050 1400 50  0001 C CNN
	1    1050 1400
	0    -1   -1   0   
$EndComp
Connection ~ 1050 1400
Wire Wire Line
	6450 1250 6550 1250
Wire Wire Line
	6450 1350 6550 1350
Text GLabel 6700 1250 2    50   BiDi ~ 0
SDA(I2C)
Text GLabel 6700 1350 2    50   BiDi ~ 0
SCL(I2C)
Text GLabel 3950 5950 0    50   Input ~ 0
5V_1_A
Text GLabel 3950 6050 0    50   Input ~ 0
3V3_2_A
Text GLabel 3950 6150 0    50   Input ~ 0
5V_2_A
Text GLabel 3950 6250 0    50   Input ~ 0
3V3_3_A
Text GLabel 3950 6350 0    50   Input ~ 0
5V_3_A
Text GLabel 3950 6450 0    50   Input ~ 0
3V3_4_A
Text GLabel 3950 6550 0    50   Input ~ 0
5V_4_A
$Comp
L Device:R R3
U 1 1 5D419B1B
P 5300 6150
F 0 "R3" V 5093 6150 50  0000 C CNN
F 1 "10K OHMS" V 5184 6150 50  0000 C CNN
F 2 "Resistor_SMD:R_0805_2012Metric" V 5230 6150 50  0001 C CNN
F 3 "~" H 5300 6150 50  0001 C CNN
	1    5300 6150
	0    1    1    0   
$EndComp
$Comp
L Control_Board_2020_T2-rescue:CD74HC4051-EP_8-1AnalogMultiplexer-MicroController BeforeResistor1
U 1 1 5D419E27
P 3650 6850
F 0 "BeforeResistor1" H 3925 7025 50  0000 C CNN
F 1 "CD74HC4051-EP_8-1AnalogMultiplexer" H 3925 6934 50  0000 C CNN
F 2 "footprints:CD74HC4051MT" H 3650 6850 50  0001 C CNN
F 3 "" H 3650 6850 50  0001 C CNN
	1    3650 6850
	1    0    0    -1  
$EndComp
Text GLabel 3450 6900 0    50   Input ~ 0
3V3_1_B
Text GLabel 3450 7000 0    50   Input ~ 0
5V_1_B
Text GLabel 3450 7100 0    50   Input ~ 0
3V3_2_B
Text GLabel 3450 7200 0    50   Input ~ 0
5V_2_B
Text GLabel 3450 7300 0    50   Input ~ 0
3V3_3_B
Text GLabel 3450 7400 0    50   Input ~ 0
5V_3_B
Text GLabel 3450 7500 0    50   Input ~ 0
3V3_4_B
Text GLabel 3450 7600 0    50   Input ~ 0
5V_4_B
$Comp
L Device:R R4
U 1 1 5D419E36
P 4800 7200
F 0 "R4" V 4593 7200 50  0000 C CNN
F 1 "10K OHMS" V 4684 7200 50  0000 C CNN
F 2 "Resistor_SMD:R_0805_2012Metric" V 4730 7200 50  0001 C CNN
F 3 "~" H 4800 7200 50  0001 C CNN
	1    4800 7200
	0    1    1    0   
$EndComp
Text GLabel 5450 6150 2    50   Output ~ 0
AfterResistorOut
Text GLabel 5400 1450 0    50   Input ~ 0
AfterResistorOut
Text GLabel 5400 1350 0    50   Input ~ 0
BeforeResistorOut
Text GLabel 4950 7200 2    50   Output ~ 0
BeforeResistorOut
Text GLabel 2350 1250 1    50   Output ~ 0
5V_IN
Text GLabel 10000 1850 2    50   Output ~ 0
5V_1_A
Text GLabel 4400 7500 2    50   Input ~ 0
GND
Text GLabel 4900 6450 2    50   Input ~ 0
GND
Text GLabel 1050 1900 2    50   Output ~ 0
GND
Text GLabel 10000 950  2    50   Output ~ 0
3V3_1_B
Text GLabel 10000 1750 2    50   Output ~ 0
5V_1_B
Wire Wire Line
	6450 950  6450 1050
Text GLabel 6450 950  2    50   Input ~ 0
GND
$Comp
L Connector:Conn_01x03_Female J1
U 1 1 5D468695
P 1150 550
F 0 "J1" V 1090 362 50  0000 R CNN
F 1 "GND/5V_IN/3V_IN" V 999 362 50  0000 R CNN
F 2 "Connector_PinHeader_2.54mm:PinHeader_1x03_P2.54mm_Vertical" H 1150 550 50  0001 C CNN
F 3 "~" H 1150 550 50  0001 C CNN
	1    1150 550 
	0    -1   -1   0   
$EndComp
Wire Wire Line
	1050 750  1050 1400
Wire Wire Line
	1150 750  1150 1250
Text GLabel 4400 7600 2    50   Input ~ 0
5V_IN
Text GLabel 4900 6550 2    50   Input ~ 0
5V_IN
Wire Wire Line
	5150 6150 5050 6150
Wire Wire Line
	4650 7200 4550 7200
Wire Wire Line
	1250 750  1250 1000
Wire Wire Line
	1250 1000 1350 1000
Text GLabel 1800 1000 2    50   Output ~ 0
3V_IN
Wire Wire Line
	4400 7500 4400 7400
Wire Wire Line
	4400 7400 4400 7300
Connection ~ 4400 7400
Wire Wire Line
	4900 6450 4900 6350
Wire Wire Line
	4900 6350 4900 6250
Connection ~ 4900 6350
$Comp
L pspice:CAP C2
U 1 1 5D4A3F80
P 6450 1900
F 0 "C2" H 6150 1950 50  0000 L CNN
F 1 "0.1 uF" H 6100 1800 50  0000 L CNN
F 2 "Capacitor_SMD:C_0805_2012Metric" H 6450 1900 50  0001 C CNN
F 3 "" H 6450 1900 50  0001 C CNN
	1    6450 1900
	0    -1   -1   0   
$EndComp
Wire Wire Line
	6050 1750 6050 1900
Wire Wire Line
	6050 1900 6200 1900
Text GLabel 6050 1900 3    50   Input ~ 0
GND
Text GLabel 6050 750  1    50   Input ~ 0
3V_IN
Wire Wire Line
	6700 1900 7250 1900
Wire Wire Line
	7250 750  6050 750 
$Comp
L Device:R R11
U 1 1 5D4B35E2
P 6900 1100
F 0 "R11" V 6693 1100 50  0000 C CNN
F 1 "10K OHMS" V 6784 1100 50  0000 C CNN
F 2 "Resistor_SMD:R_0805_2012Metric" V 6830 1100 50  0001 C CNN
F 3 "~" H 6900 1100 50  0001 C CNN
	1    6900 1100
	0    1    1    0   
$EndComp
$Comp
L Device:R R12
U 1 1 5D4B36DB
P 6900 1500
F 0 "R12" V 7050 1500 50  0000 C CNN
F 1 "10K OHMS" V 7000 1500 50  0000 C CNN
F 2 "Resistor_SMD:R_0805_2012Metric" V 6830 1500 50  0001 C CNN
F 3 "~" H 6900 1500 50  0001 C CNN
	1    6900 1500
	0    1    1    0   
$EndComp
Wire Wire Line
	6750 1100 6550 1100
Wire Wire Line
	6550 1100 6550 1250
Connection ~ 6550 1250
Wire Wire Line
	6550 1250 6700 1250
Wire Wire Line
	6750 1500 6550 1500
Wire Wire Line
	6550 1500 6550 1350
Connection ~ 6550 1350
Wire Wire Line
	6550 1350 6700 1350
Wire Wire Line
	7050 1100 7250 1100
Wire Wire Line
	7050 1500 7250 1500
$Comp
L power:PWR_FLAG #FLG0103
U 1 1 5D4C7DD5
P 1350 1000
F 0 "#FLG0103" H 1350 1075 50  0001 C CNN
F 1 "PWR_FLAG" H 1350 1174 50  0000 C CNN
F 2 "" H 1350 1000 50  0001 C CNN
F 3 "~" H 1350 1000 50  0001 C CNN
	1    1350 1000
	1    0    0    -1  
$EndComp
Wire Wire Line
	1350 1000 1700 1000
Connection ~ 1350 1000
Text GLabel 3800 3350 2    50   Output ~ 0
3V3_1_SWITCH
Text GLabel 3800 3450 2    50   Output ~ 0
5V_1_SWITCH
Text GLabel 3800 3550 2    50   Output ~ 0
3V3_2_SWITCH
Text GLabel 3800 3650 2    50   Output ~ 0
5V_2_SWITCH
Text GLabel 3800 3750 2    50   Output ~ 0
3V3_3_SWITCH
Text GLabel 3800 3850 2    50   Output ~ 0
5V_3_SWITCH
Text GLabel 3800 3950 2    50   Output ~ 0
3V3_4_SWITCH
Text GLabel 3800 4050 2    50   Output ~ 0
5V_4_SWITCH
Text GLabel 4900 5850 2    50   Input ~ 0
SEL0
Text GLabel 4900 5950 2    50   Input ~ 0
SEL1
Text GLabel 4900 6050 2    50   Input ~ 0
SEL2
Text GLabel 4400 6900 2    50   Input ~ 0
SEL0
Text GLabel 4400 7000 2    50   Input ~ 0
SEL1
Text GLabel 4400 7100 2    50   Input ~ 0
SEL2
Text GLabel 3800 1550 2    50   Output ~ 0
SEL0
Text GLabel 3800 1650 2    50   Output ~ 0
SEL1
Text GLabel 3800 1750 2    50   Output ~ 0
SEL2
Text GLabel 6450 1550 2    50   Output ~ 0
ALERT
Text GLabel 2600 4650 0    50   Input ~ 0
ALERT
Wire Wire Line
	2600 4250 1650 4250
Wire Wire Line
	2600 4350 1650 4350
Text Label 2100 4350 0    50   ~ 0
PDO
Text Label 2100 4250 0    50   ~ 0
PDI
$Comp
L Connector:Conn_01x06_Female J4
U 1 1 5D4F8B12
P 10950 1400
F 0 "J4" H 10977 1376 50  0000 L CNN
F 1 "System 1" H 10977 1285 50  0000 L CNN
F 2 "Connector_PinHeader_2.54mm:PinHeader_1x06_P2.54mm_Vertical" H 10950 1400 50  0001 C CNN
F 3 "~" H 10950 1400 50  0001 C CNN
	1    10950 1400
	1    0    0    -1  
$EndComp
Text GLabel 10750 1400 0    50   BiDi ~ 0
SCL(I2C)
Text GLabel 10750 1500 0    50   BiDi ~ 0
SDA(I2C)
$Comp
L Connector:Conn_01x05_Female J8
U 1 1 5D5E2A5D
P 2400 2750
F 0 "J8" H 2600 2700 50  0000 C CNN
F 1 "PORT G" H 2600 2800 50  0000 C CNN
F 2 "Connector_PinHeader_2.54mm:PinHeader_1x05_P2.54mm_Vertical" H 2400 2750 50  0001 C CNN
F 3 "~" H 2400 2750 50  0001 C CNN
	1    2400 2750
	-1   0    0    1   
$EndComp
$Comp
L Connector:Conn_01x08_Female J9
U 1 1 5D5E2D26
P 2400 3750
F 0 "J9" H 2600 3750 50  0000 C CNN
F 1 "PORT F" H 2600 3850 50  0000 C CNN
F 2 "Connector_PinHeader_2.54mm:PinHeader_1x08_P2.54mm_Vertical" H 2400 3750 50  0001 C CNN
F 3 "~" H 2400 3750 50  0001 C CNN
	1    2400 3750
	-1   0    0    1   
$EndComp
Text GLabel 8100 1600 0    50   Input ~ 0
5V_IN
Text GLabel 8100 1150 0    50   Input ~ 0
3V_IN
Wire Wire Line
	7250 750  7250 1100
Connection ~ 7250 1100
Wire Wire Line
	7250 1100 7250 1500
Connection ~ 7250 1500
Wire Wire Line
	7250 1500 7250 1900
Text GLabel 8100 950  0    50   Input ~ 0
3V3_1_SWITCH
Text GLabel 8100 1800 0    50   Input ~ 0
5V_1_SWITCH
$Sheet
S 8100 750  1900 1200
U 5F1C91A7
F0 "Switch_1" 50
F1 "LogicalSwitch.sch" 50
F2 "3V3_SWITCH" I L 8100 950 50 
F3 "5V_SWITCH" I L 8100 1800 50 
F4 "3V3_A" O R 10000 850 50 
F5 "3V3_B" O R 10000 950 50 
F6 "5V_B" O R 10000 1750 50 
F7 "5V_A" O R 10000 1850 50 
F8 "5V_OUT" O R 10000 1600 50 
F9 "3V3_OUT" O R 10000 1100 50 
F10 "3V3_IN" I L 8100 1150 50 
F11 "5V_IN" I L 8100 1600 50 
F12 "5V_FLAG" O R 10000 1450 50 
F13 "3V3_FLAG" O R 10000 1300 50 
$EndSheet
Wire Wire Line
	10000 1300 10150 1300
Wire Wire Line
	10000 1450 10150 1450
Wire Wire Line
	10000 1100 10750 1100
Wire Wire Line
	10750 1100 10750 1200
Wire Wire Line
	10000 1600 10300 1600
Wire Wire Line
	10300 1600 10300 1300
Wire Wire Line
	10300 1300 10750 1300
Text GLabel 10000 2350 2    50   Output ~ 0
3V3_2_A
Text GLabel 10000 3350 2    50   Output ~ 0
5V_2_A
Text GLabel 10000 2450 2    50   Output ~ 0
3V3_2_B
Text GLabel 10000 3250 2    50   Output ~ 0
5V_2_B
Text GLabel 10750 2900 0    50   BiDi ~ 0
SCL(I2C)
Text GLabel 10750 3000 0    50   BiDi ~ 0
SDA(I2C)
Text GLabel 8100 3100 0    50   Input ~ 0
5V_IN
Text GLabel 8100 2650 0    50   Input ~ 0
3V_IN
Text GLabel 8100 2450 0    50   Input ~ 0
3V3_2_SWITCH
Text GLabel 8100 3300 0    50   Input ~ 0
5V_2_SWITCH
$Sheet
S 8100 2250 1900 1200
U 5F24327A
F0 "sheet5F243259" 50
F1 "LogicalSwitch.sch" 50
F2 "3V3_SWITCH" I L 8100 2450 50 
F3 "5V_SWITCH" I L 8100 3300 50 
F4 "3V3_A" O R 10000 2350 50 
F5 "3V3_B" O R 10000 2450 50 
F6 "5V_B" O R 10000 3250 50 
F7 "5V_A" O R 10000 3350 50 
F8 "5V_OUT" O R 10000 3100 50 
F9 "3V3_OUT" O R 10000 2600 50 
F10 "3V3_IN" I L 8100 2650 50 
F11 "5V_IN" I L 8100 3100 50 
F12 "5V_FLAG" O R 10000 2950 50 
F13 "3V3_FLAG" O R 10000 2800 50 
$EndSheet
Wire Wire Line
	10000 2800 10150 2800
Wire Wire Line
	10000 2950 10150 2950
Wire Wire Line
	10000 2600 10750 2600
Wire Wire Line
	10750 2600 10750 2700
Wire Wire Line
	10000 3100 10300 3100
Wire Wire Line
	10300 3100 10300 2800
Wire Wire Line
	10300 2800 10750 2800
Text GLabel 10050 3900 2    50   Output ~ 0
3V3_3_A
Text GLabel 10050 4900 2    50   Output ~ 0
5V_3_A
Text GLabel 10050 4000 2    50   Output ~ 0
3V3_3_B
Text GLabel 10050 4800 2    50   Output ~ 0
5V_3_B
Text GLabel 10800 4450 0    50   BiDi ~ 0
SCL(I2C)
Text GLabel 10800 4550 0    50   BiDi ~ 0
SDA(I2C)
Text GLabel 8150 4650 0    50   Input ~ 0
5V_IN
Text GLabel 8150 4200 0    50   Input ~ 0
3V_IN
Text GLabel 8150 4000 0    50   Input ~ 0
3V3_3_SWITCH
Text GLabel 8150 4850 0    50   Input ~ 0
5V_3_SWITCH
$Sheet
S 8150 3800 1900 1200
U 5F244086
F0 "sheet5F244065" 50
F1 "LogicalSwitch.sch" 50
F2 "3V3_SWITCH" I L 8150 4000 50 
F3 "5V_SWITCH" I L 8150 4850 50 
F4 "3V3_A" O R 10050 3900 50 
F5 "3V3_B" O R 10050 4000 50 
F6 "5V_B" O R 10050 4800 50 
F7 "5V_A" O R 10050 4900 50 
F8 "5V_OUT" O R 10050 4650 50 
F9 "3V3_OUT" O R 10050 4150 50 
F10 "3V3_IN" I L 8150 4200 50 
F11 "5V_IN" I L 8150 4650 50 
F12 "5V_FLAG" O R 10050 4500 50 
F13 "3V3_FLAG" O R 10050 4350 50 
$EndSheet
Wire Wire Line
	10050 4350 10200 4350
Wire Wire Line
	10050 4500 10200 4500
Wire Wire Line
	10050 4150 10800 4150
Wire Wire Line
	10800 4150 10800 4250
Wire Wire Line
	10050 4650 10350 4650
Wire Wire Line
	10350 4650 10350 4350
Wire Wire Line
	10350 4350 10800 4350
Text GLabel 10000 5300 2    50   Output ~ 0
3V3_4_A
Text GLabel 10000 6300 2    50   Output ~ 0
5V_4_A
Text GLabel 10000 5400 2    50   Output ~ 0
3V3_4_B
Text GLabel 10000 6200 2    50   Output ~ 0
5V_4_B
Text GLabel 10750 5850 0    50   BiDi ~ 0
SCL(I2C)
Text GLabel 10750 5950 0    50   BiDi ~ 0
SDA(I2C)
Text GLabel 8100 6050 0    50   Input ~ 0
5V_IN
Text GLabel 8100 5600 0    50   Input ~ 0
3V_IN
Text GLabel 8100 5400 0    50   Input ~ 0
3V3_4_SWITCH
Text GLabel 8100 6250 0    50   Input ~ 0
5V_4_SWITCH
$Sheet
S 8100 5200 1900 1200
U 5F2451BC
F0 "sheet5F24519B" 50
F1 "LogicalSwitch.sch" 50
F2 "3V3_SWITCH" I L 8100 5400 50 
F3 "5V_SWITCH" I L 8100 6250 50 
F4 "3V3_A" O R 10000 5300 50 
F5 "3V3_B" O R 10000 5400 50 
F6 "5V_B" O R 10000 6200 50 
F7 "5V_A" O R 10000 6300 50 
F8 "5V_OUT" O R 10000 6050 50 
F9 "3V3_OUT" O R 10000 5550 50 
F10 "3V3_IN" I L 8100 5600 50 
F11 "5V_IN" I L 8100 6050 50 
F12 "5V_FLAG" O R 10000 5900 50 
F13 "3V3_FLAG" O R 10000 5750 50 
$EndSheet
Wire Wire Line
	10000 5750 10150 5750
Wire Wire Line
	10000 5900 10150 5900
Wire Wire Line
	10000 5550 10750 5550
Wire Wire Line
	10750 5550 10750 5650
Wire Wire Line
	10000 6050 10300 6050
Wire Wire Line
	10300 6050 10300 5750
Wire Wire Line
	10300 5750 10750 5750
Wire Wire Line
	4950 3250 4950 5250
Wire Wire Line
	3800 2850 4950 2850
Wire Wire Line
	3800 2950 4950 2950
Wire Wire Line
	3800 3050 4950 3050
Wire Wire Line
	3800 3150 4950 3150
$Comp
L Connector:Conn_01x08_Female J14
U 1 1 5F2209FB
P 4800 3650
F 0 "J14" H 4828 3626 50  0000 L CNN
F 1 "PORT C" H 4828 3535 50  0000 L CNN
F 2 "Connector_PinHeader_2.54mm:PinHeader_1x08_P2.54mm_Vertical" H 4800 3650 50  0001 C CNN
F 3 "~" H 4800 3650 50  0001 C CNN
	1    4800 3650
	1    0    0    -1  
$EndComp
Wire Wire Line
	3800 3350 4600 3350
Wire Wire Line
	3800 3450 4600 3450
Wire Wire Line
	3800 3550 4600 3550
Wire Wire Line
	3800 3650 4600 3650
Wire Wire Line
	3800 3750 4600 3750
Wire Wire Line
	3800 3850 4600 3850
Wire Wire Line
	3800 3950 4600 3950
Wire Wire Line
	3800 4050 4600 4050
$Comp
L Connector:Conn_01x08_Female J13
U 1 1 5F22FD69
P 4650 4550
F 0 "J13" H 4678 4526 50  0000 L CNN
F 1 "PORT D" H 4678 4435 50  0000 L CNN
F 2 "Connector_PinHeader_2.54mm:PinHeader_1x08_P2.54mm_Vertical" H 4650 4550 50  0001 C CNN
F 3 "~" H 4650 4550 50  0001 C CNN
	1    4650 4550
	1    0    0    -1  
$EndComp
Connection ~ 4450 4250
Wire Wire Line
	4450 4250 5350 4250
Connection ~ 4450 4350
Wire Wire Line
	4450 4350 5350 4350
Wire Wire Line
	3800 4450 4450 4450
Wire Wire Line
	3800 4550 4450 4550
Wire Wire Line
	3800 4650 4450 4650
Wire Wire Line
	3800 4750 4450 4750
Wire Wire Line
	3800 4850 4450 4850
Wire Wire Line
	3800 4950 4450 4950
$Comp
L Connector:Conn_01x08_Female J5
U 1 1 5F23F979
P 1450 4650
F 0 "J5" H 1344 4025 50  0000 C CNN
F 1 "PORT E" H 1344 4116 50  0000 C CNN
F 2 "Connector_PinHeader_2.54mm:PinHeader_1x08_P2.54mm_Vertical" H 1450 4650 50  0001 C CNN
F 3 "~" H 1450 4650 50  0001 C CNN
	1    1450 4650
	-1   0    0    1   
$EndComp
Wire Wire Line
	2600 4450 1650 4450
Wire Wire Line
	2600 4550 1650 4550
Wire Wire Line
	2600 4650 1650 4650
Wire Wire Line
	2600 4750 1650 4750
Wire Wire Line
	2600 4850 1650 4850
Wire Wire Line
	2600 4950 1650 4950
$Comp
L Connector:Conn_01x05_Female J6
U 1 1 5F252F1E
P 1600 1950
F 0 "J6" H 1494 1525 50  0000 C CNN
F 1 "MISC" H 1494 1616 50  0000 C CNN
F 2 "Connector_PinHeader_2.54mm:PinHeader_1x05_P2.54mm_Vertical" H 1600 1950 50  0001 C CNN
F 3 "~" H 1600 1950 50  0001 C CNN
	1    1600 1950
	-1   0    0    1   
$EndComp
Wire Wire Line
	1800 1750 2000 1750
Wire Wire Line
	2000 1750 2000 1550
Wire Wire Line
	2000 1550 2600 1550
Wire Wire Line
	1800 1850 2100 1850
Wire Wire Line
	2100 1850 2100 1750
Wire Wire Line
	2100 1750 2600 1750
Wire Wire Line
	1800 1950 2600 1950
Wire Wire Line
	1800 2050 2100 2050
Wire Wire Line
	2100 2050 2100 2150
Wire Wire Line
	2100 2150 2600 2150
Wire Wire Line
	1800 2150 2000 2150
Wire Wire Line
	2000 2150 2000 2350
Wire Wire Line
	2000 2350 2600 2350
$Comp
L Connector:Conn_01x08_Female J12
U 1 1 5F2673F9
P 4650 1850
F 0 "J12" H 4678 1826 50  0000 L CNN
F 1 "PORT A" H 4678 1735 50  0000 L CNN
F 2 "Connector_PinHeader_2.54mm:PinHeader_1x08_P2.54mm_Vertical" H 4650 1850 50  0001 C CNN
F 3 "~" H 4650 1850 50  0001 C CNN
	1    4650 1850
	1    0    0    -1  
$EndComp
Wire Wire Line
	3800 1550 4450 1550
Wire Wire Line
	3800 1650 4450 1650
Wire Wire Line
	3800 1750 4450 1750
Wire Wire Line
	3800 1850 4450 1850
Wire Wire Line
	3800 1950 4450 1950
Wire Wire Line
	3800 2050 4450 2050
Wire Wire Line
	3800 2150 4450 2150
Wire Wire Line
	3800 2250 4450 2250
$Comp
L Connector:Conn_01x08_Female J7
U 1 1 5F299CB3
P 3050 6250
F 0 "J7" H 2944 5625 50  0000 C CNN
F 1 "Conn_01x08_Female" H 2944 5716 50  0000 C CNN
F 2 "Connector_PinHeader_2.54mm:PinHeader_1x08_P2.54mm_Vertical" H 3050 6250 50  0001 C CNN
F 3 "~" H 3050 6250 50  0001 C CNN
	1    3050 6250
	-1   0    0    1   
$EndComp
$Comp
L Connector:Conn_01x08_Female J15
U 1 1 5F299DB2
P 6400 6150
F 0 "J15" H 6427 6126 50  0000 L CNN
F 1 "Conn_01x08_Female" H 6427 6035 50  0000 L CNN
F 2 "Connector_PinHeader_2.54mm:PinHeader_1x08_P2.54mm_Vertical" H 6400 6150 50  0001 C CNN
F 3 "~" H 6400 6150 50  0001 C CNN
	1    6400 6150
	1    0    0    -1  
$EndComp
$Comp
L Connector:Conn_01x08_Female J3
U 1 1 5F29A266
P 2700 7300
F 0 "J3" H 2594 6675 50  0000 C CNN
F 1 "Conn_01x08_Female" H 2594 6766 50  0000 C CNN
F 2 "Connector_PinHeader_2.54mm:PinHeader_1x08_P2.54mm_Vertical" H 2700 7300 50  0001 C CNN
F 3 "~" H 2700 7300 50  0001 C CNN
	1    2700 7300
	-1   0    0    1   
$EndComp
$Comp
L Connector:Conn_01x08_Female J10
U 1 1 5F29A2CE
P 6100 7200
F 0 "J10" H 6127 7176 50  0000 L CNN
F 1 "Conn_01x08_Female" H 6127 7085 50  0000 L CNN
F 2 "Connector_PinHeader_2.54mm:PinHeader_1x08_P2.54mm_Vertical" H 6100 7200 50  0001 C CNN
F 3 "~" H 6100 7200 50  0001 C CNN
	1    6100 7200
	1    0    0    -1  
$EndComp
Wire Wire Line
	4400 6900 5900 6900
Wire Wire Line
	4400 7000 5900 7000
Wire Wire Line
	4400 7100 5900 7100
Wire Wire Line
	4550 7200 4550 7250
Wire Wire Line
	4550 7250 5750 7250
Wire Wire Line
	5750 7250 5750 7200
Wire Wire Line
	5750 7200 5900 7200
Connection ~ 4550 7200
Wire Wire Line
	4550 7200 4400 7200
Wire Wire Line
	4400 7300 5900 7300
Connection ~ 4400 7300
Wire Wire Line
	4400 7400 5900 7400
Wire Wire Line
	4400 7500 5550 7500
Connection ~ 4400 7500
Wire Wire Line
	4400 7600 5450 7600
Wire Wire Line
	3450 6900 2900 6900
Wire Wire Line
	3450 7000 2900 7000
Wire Wire Line
	3450 7100 2900 7100
Wire Wire Line
	3450 7200 2900 7200
Wire Wire Line
	3450 7300 2900 7300
Wire Wire Line
	3450 7400 2900 7400
Wire Wire Line
	3450 7500 2900 7500
Wire Wire Line
	3450 7600 2900 7600
Wire Wire Line
	3250 5850 3950 5850
Wire Wire Line
	3250 5950 3950 5950
Wire Wire Line
	3250 6050 3950 6050
Wire Wire Line
	3250 6150 3950 6150
Wire Wire Line
	3250 6250 3950 6250
Wire Wire Line
	3250 6350 3950 6350
Wire Wire Line
	3250 6450 3950 6450
Wire Wire Line
	3250 6550 3950 6550
Wire Wire Line
	4900 5850 6200 5850
Wire Wire Line
	4900 5950 6200 5950
Wire Wire Line
	4900 6050 6200 6050
Wire Wire Line
	5050 6150 5050 6200
Wire Wire Line
	5050 6200 6100 6200
Wire Wire Line
	6100 6200 6100 6150
Wire Wire Line
	6100 6150 6200 6150
Connection ~ 5050 6150
Wire Wire Line
	5050 6150 4900 6150
Wire Wire Line
	4900 6250 6200 6250
Connection ~ 4900 6250
Wire Wire Line
	4900 6350 6200 6350
Wire Wire Line
	4900 6450 5650 6450
Connection ~ 4900 6450
Wire Wire Line
	4900 6550 5500 6550
Wire Wire Line
	10150 1300 10150 1350
Wire Wire Line
	10150 1350 10650 1350
Wire Wire Line
	10650 1350 10650 1600
Wire Wire Line
	10650 1600 10750 1600
Wire Wire Line
	10150 1450 10150 1650
Wire Wire Line
	10150 1650 10450 1650
Wire Wire Line
	10450 1650 10450 1700
Wire Wire Line
	10450 1700 10750 1700
$Comp
L Connector:Conn_01x06_Female J16
U 1 1 5F3BD6D5
P 10950 2900
F 0 "J16" H 10977 2876 50  0000 L CNN
F 1 "System 2" H 10977 2785 50  0000 L CNN
F 2 "Connector_PinHeader_2.54mm:PinHeader_1x06_P2.54mm_Vertical" H 10950 2900 50  0001 C CNN
F 3 "~" H 10950 2900 50  0001 C CNN
	1    10950 2900
	1    0    0    -1  
$EndComp
$Comp
L Connector:Conn_01x06_Female J18
U 1 1 5F3BDEA7
P 11000 4450
F 0 "J18" H 11027 4426 50  0000 L CNN
F 1 "System 3" H 11027 4335 50  0000 L CNN
F 2 "Connector_PinHeader_2.54mm:PinHeader_1x06_P2.54mm_Vertical" H 11000 4450 50  0001 C CNN
F 3 "~" H 11000 4450 50  0001 C CNN
	1    11000 4450
	1    0    0    -1  
$EndComp
$Comp
L Connector:Conn_01x06_Female J17
U 1 1 5F3BE069
P 10950 5850
F 0 "J17" H 10977 5826 50  0000 L CNN
F 1 "System 4" H 10977 5735 50  0000 L CNN
F 2 "Connector_PinHeader_2.54mm:PinHeader_1x06_P2.54mm_Vertical" H 10950 5850 50  0001 C CNN
F 3 "~" H 10950 5850 50  0001 C CNN
	1    10950 5850
	1    0    0    -1  
$EndComp
Wire Wire Line
	10150 5750 10150 5800
Wire Wire Line
	10150 5800 10450 5800
Wire Wire Line
	10450 5800 10450 6050
Wire Wire Line
	10450 6050 10750 6050
Wire Wire Line
	10150 5900 10150 6150
Wire Wire Line
	10150 6150 10750 6150
Wire Wire Line
	10200 4350 10200 4450
Wire Wire Line
	10200 4450 10600 4450
Wire Wire Line
	10600 4450 10600 4650
Wire Wire Line
	10600 4650 10800 4650
Wire Wire Line
	10200 4500 10200 4750
Wire Wire Line
	10200 4750 10800 4750
Wire Wire Line
	10150 2800 10150 2900
Wire Wire Line
	10150 2900 10550 2900
Wire Wire Line
	10550 2900 10550 3100
Wire Wire Line
	10550 3100 10750 3100
Wire Wire Line
	10150 2950 10150 3150
Wire Wire Line
	10150 3150 10450 3150
Wire Wire Line
	10450 3150 10450 3200
Wire Wire Line
	10450 3200 10750 3200
$Comp
L Connector:Conn_01x03_Female J11
U 1 1 5F40933B
P 4300 1200
F 0 "J11" H 4194 875 50  0000 C CNN
F 1 "Conn_01x03_Female" H 4194 966 50  0000 C CNN
F 2 "Connector_PinHeader_2.54mm:PinHeader_1x03_P2.54mm_Vertical" H 4300 1200 50  0001 C CNN
F 3 "~" H 4300 1200 50  0001 C CNN
	1    4300 1200
	-1   0    0    1   
$EndComp
Wire Wire Line
	5650 950  4500 950 
Wire Wire Line
	4500 950  4500 1100
Wire Wire Line
	5000 1350 5000 1200
Wire Wire Line
	5000 1200 4500 1200
Wire Wire Line
	5000 1350 5650 1350
Wire Wire Line
	4600 1450 4600 1300
Wire Wire Line
	4600 1300 4500 1300
Wire Wire Line
	4600 1450 5650 1450
$Comp
L Device:LED D1
U 1 1 5F4398EE
P 2200 700
F 0 "D1" V 2145 778 50  0000 L CNN
F 1 "LED" V 2236 778 50  0000 L CNN
F 2 "LED_SMD:LED_0805_2012Metric" H 2200 700 50  0001 C CNN
F 3 "~" H 2200 700 50  0001 C CNN
	1    2200 700 
	0    1    1    0   
$EndComp
Wire Wire Line
	1700 850  1700 1000
Connection ~ 1700 1000
Wire Wire Line
	1700 1000 1800 1000
Wire Wire Line
	1700 850  2200 850 
Text GLabel 2200 550  1    50   Input ~ 0
GND
$Comp
L Device:C C10
U 1 1 5F642B23
P 1300 1400
F 0 "C10" H 1415 1446 50  0000 L CNN
F 1 "10uF" H 1415 1355 50  0000 L CNN
F 2 "Capacitor_SMD:C_0805_2012Metric" H 1338 1250 50  0001 C CNN
F 3 "~" H 1300 1400 50  0001 C CNN
	1    1300 1400
	1    0    0    -1  
$EndComp
Connection ~ 1300 1250
Wire Wire Line
	1300 1250 1550 1250
Wire Wire Line
	1300 1550 1050 1550
Connection ~ 1050 1550
Wire Wire Line
	1050 1550 1050 1400
$Comp
L Device:C_Small C12
U 1 1 5F651102
P 5650 6550
F 0 "C12" H 5742 6596 50  0000 L CNN
F 1 "0.1uF" H 5742 6505 50  0000 L CNN
F 2 "Capacitor_SMD:C_0805_2012Metric" H 5650 6550 50  0001 C CNN
F 3 "~" H 5650 6550 50  0001 C CNN
	1    5650 6550
	1    0    0    -1  
$EndComp
Connection ~ 5650 6450
Wire Wire Line
	5650 6450 6200 6450
$Comp
L Device:C_Small C11
U 1 1 5F651197
P 5550 7600
F 0 "C11" H 5642 7646 50  0000 L CNN
F 1 "0.1uF" H 5642 7555 50  0000 L CNN
F 2 "Capacitor_SMD:C_0805_2012Metric" H 5550 7600 50  0001 C CNN
F 3 "~" H 5550 7600 50  0001 C CNN
	1    5550 7600
	1    0    0    -1  
$EndComp
Connection ~ 5550 7500
Wire Wire Line
	5550 7500 5900 7500
Wire Wire Line
	5650 6650 5500 6650
Wire Wire Line
	5500 6650 5500 6550
Connection ~ 5500 6550
Wire Wire Line
	5500 6550 6200 6550
Wire Wire Line
	5550 7700 5450 7700
Wire Wire Line
	5450 7700 5450 7600
Connection ~ 5450 7600
Wire Wire Line
	5450 7600 5900 7600
$EndSCHEMATC
