EESchema Schematic File Version 4
LIBS:Control_Board_2020_T2-cache
EELAYER 26 0
EELAYER END
$Descr A4 11693 8268
encoding utf-8
Sheet 3 5
Title ""
Date ""
Rev ""
Comp ""
Comment1 ""
Comment2 ""
Comment3 ""
Comment4 ""
$EndDescr
Text HLabel 2600 3000 0    50   Input ~ 0
3V3_SWITCH
Text HLabel 2600 3300 0    50   Input ~ 0
5V_SWITCH
Text HLabel 3900 2250 1    50   Output ~ 0
3V3_A
Text HLabel 2950 2250 1    50   Output ~ 0
3V3_B
Text HLabel 3000 4050 3    50   Output ~ 0
5V_B
Text HLabel 3950 4050 3    50   Output ~ 0
5V_A
Text HLabel 4400 3500 2    50   Output ~ 0
5V_OUT
Text HLabel 4400 2800 2    50   Output ~ 0
3V3_OUT
$Comp
L Control_Board_2020_T2-rescue:NCP380-NCP380 U3
U 1 1 5F2112A5
P 3450 2850
AR Path="/5F1C91A7/5F2112A5" Ref="U3"  Part="1" 
AR Path="/5F24327A/5F2112A5" Ref="U5"  Part="1" 
AR Path="/5F244086/5F2112A5" Ref="U7"  Part="1" 
AR Path="/5F2451BC/5F2112A5" Ref="U9"  Part="1" 
AR Path="/5F2112A5" Ref="U9"  Part="1" 
F 0 "U3" H 3425 3125 50  0000 C CNN
F 1 "NCP380" H 3425 3034 50  0000 C CNN
F 2 "footprints:NCP380-6" H 3300 2850 50  0001 C CNN
F 3 "" H 3300 2850 50  0001 C CNN
	1    3450 2850
	1    0    0    -1  
$EndComp
$Comp
L Control_Board_2020_T2-rescue:NCP380-NCP380 U4
U 1 1 5F211336
P 3450 3450
AR Path="/5F1C91A7/5F211336" Ref="U4"  Part="1" 
AR Path="/5F24327A/5F211336" Ref="U6"  Part="1" 
AR Path="/5F244086/5F211336" Ref="U8"  Part="1" 
AR Path="/5F2451BC/5F211336" Ref="U10"  Part="1" 
AR Path="/5F211336" Ref="U10"  Part="1" 
F 0 "U4" H 3425 3725 50  0000 C CNN
F 1 "NCP380" H 3425 3634 50  0000 C CNN
F 2 "footprints:NCP380-6" H 3300 3450 50  0001 C CNN
F 3 "" H 3300 3450 50  0001 C CNN
	1    3450 3450
	1    0    0    1   
$EndComp
Text HLabel 2600 2800 0    50   Input ~ 0
3V3_IN
Text HLabel 2600 3500 0    50   Input ~ 0
5V_IN
Wire Wire Line
	2600 3500 2650 3500
Wire Wire Line
	2600 3300 3000 3300
Wire Wire Line
	2600 3000 3000 3000
Text GLabel 3000 3400 0    50   Input ~ 0
GND
$Comp
L Device:R R1
U 1 1 5F21BD48
P 4000 2900
AR Path="/5F1C91A7/5F21BD48" Ref="R1"  Part="1" 
AR Path="/5F24327A/5F21BD48" Ref="R5"  Part="1" 
AR Path="/5F244086/5F21BD48" Ref="R7"  Part="1" 
AR Path="/5F2451BC/5F21BD48" Ref="R9"  Part="1" 
F 0 "R1" V 3793 2900 50  0000 C CNN
F 1 "R" V 3884 2900 50  0000 C CNN
F 2 "Resistor_SMD:R_0805_2012Metric" V 3930 2900 50  0001 C CNN
F 3 "~" H 4000 2900 50  0001 C CNN
	1    4000 2900
	0    1    1    0   
$EndComp
$Comp
L Device:R R2
U 1 1 5F21BDB0
P 4000 3400
AR Path="/5F1C91A7/5F21BDB0" Ref="R2"  Part="1" 
AR Path="/5F24327A/5F21BDB0" Ref="R6"  Part="1" 
AR Path="/5F244086/5F21BDB0" Ref="R8"  Part="1" 
AR Path="/5F2451BC/5F21BDB0" Ref="R10"  Part="1" 
F 0 "R2" V 3793 3400 50  0000 C CNN
F 1 "R" V 3884 3400 50  0000 C CNN
F 2 "Resistor_SMD:R_0805_2012Metric" V 3930 3400 50  0001 C CNN
F 3 "~" H 4000 3400 50  0001 C CNN
	1    4000 3400
	0    1    1    0   
$EndComp
Text GLabel 4150 2900 2    50   Output ~ 0
GND
Text GLabel 4150 3400 2    50   Output ~ 0
GND
Text HLabel 3850 3300 2    50   Output ~ 0
5V_FLAG
Text HLabel 3850 3000 2    50   Output ~ 0
3V3_FLAG
$Comp
L Device:C C1
U 1 1 5F24D711
P 3400 2250
AR Path="/5F1C91A7/5F24D711" Ref="C1"  Part="1" 
AR Path="/5F2451BC/5F24D711" Ref="C5"  Part="1" 
AR Path="/5F24327A/5F24D711" Ref="C3"  Part="1" 
AR Path="/5F244086/5F24D711" Ref="C4"  Part="1" 
F 0 "C1" V 3148 2250 50  0000 C CNN
F 1 "C" V 3239 2250 50  0000 C CNN
F 2 "Capacitor_SMD:C_0805_2012Metric" H 3438 2100 50  0001 C CNN
F 3 "~" H 3400 2250 50  0001 C CNN
	1    3400 2250
	0    1    1    0   
$EndComp
Wire Wire Line
	2950 2400 3250 2400
Wire Wire Line
	3250 2400 3250 2250
Wire Wire Line
	3250 2250 2950 2250
Connection ~ 3250 2250
Wire Wire Line
	3950 2400 3550 2400
Wire Wire Line
	3550 2400 3550 2250
Wire Wire Line
	3550 2250 3900 2250
Connection ~ 3550 2250
Wire Wire Line
	2600 2800 2950 2800
$Comp
L Device:C C6
U 1 1 5F24E090
P 3450 4050
AR Path="/5F1C91A7/5F24E090" Ref="C6"  Part="1" 
AR Path="/5F2451BC/5F24E090" Ref="C9"  Part="1" 
AR Path="/5F24327A/5F24E090" Ref="C7"  Part="1" 
AR Path="/5F244086/5F24E090" Ref="C8"  Part="1" 
F 0 "C6" V 3198 4050 50  0000 C CNN
F 1 "C" V 3289 4050 50  0000 C CNN
F 2 "Capacitor_SMD:C_0805_2012Metric" H 3488 3900 50  0001 C CNN
F 3 "~" H 3450 4050 50  0001 C CNN
	1    3450 4050
	0    1    -1   0   
$EndComp
Wire Wire Line
	3000 3900 3300 3900
Wire Wire Line
	3300 3900 3300 4050
Wire Wire Line
	3300 4050 3000 4050
Connection ~ 3300 4050
Wire Wire Line
	4000 3900 3600 3900
Wire Wire Line
	3600 3900 3600 4050
Wire Wire Line
	3600 4050 3950 4050
Connection ~ 3600 4050
$Comp
L Device:R R14
U 1 1 5F24E748
P 3000 3750
AR Path="/5F1C91A7/5F24E748" Ref="R14"  Part="1" 
AR Path="/5F24327A/5F24E748" Ref="R16"  Part="1" 
AR Path="/5F244086/5F24E748" Ref="R18"  Part="1" 
AR Path="/5F2451BC/5F24E748" Ref="R20"  Part="1" 
F 0 "R14" H 3070 3796 50  0000 L CNN
F 1 "R" H 3070 3705 50  0000 L CNN
F 2 "Resistor_SMD:R_0805_2012Metric" V 2930 3750 50  0001 C CNN
F 3 "~" H 3000 3750 50  0001 C CNN
	1    3000 3750
	1    0    0    -1  
$EndComp
$Comp
L Device:R R13
U 1 1 5F24E7DC
P 2950 2550
AR Path="/5F1C91A7/5F24E7DC" Ref="R13"  Part="1" 
AR Path="/5F24327A/5F24E7DC" Ref="R15"  Part="1" 
AR Path="/5F244086/5F24E7DC" Ref="R17"  Part="1" 
AR Path="/5F2451BC/5F24E7DC" Ref="R19"  Part="1" 
F 0 "R13" H 3020 2596 50  0000 L CNN
F 1 "R" H 3020 2505 50  0000 L CNN
F 2 "Resistor_SMD:R_0805_2012Metric" V 2880 2550 50  0001 C CNN
F 3 "~" H 2950 2550 50  0001 C CNN
	1    2950 2550
	1    0    0    -1  
$EndComp
Wire Wire Line
	2950 2700 2950 2800
Connection ~ 2950 2800
Wire Wire Line
	2950 2800 3000 2800
Wire Wire Line
	3000 3600 3000 3500
Connection ~ 3000 3500
Text GLabel 3000 2900 0    50   Input ~ 0
GND
Wire Wire Line
	3850 2800 3950 2800
Wire Wire Line
	3850 3500 4000 3500
$Comp
L Device:R R21
U 1 1 5F216E98
P 3950 2550
AR Path="/5F1C91A7/5F216E98" Ref="R21"  Part="1" 
AR Path="/5F24327A/5F216E98" Ref="R23"  Part="1" 
AR Path="/5F244086/5F216E98" Ref="R25"  Part="1" 
AR Path="/5F2451BC/5F216E98" Ref="R27"  Part="1" 
F 0 "R21" H 4020 2596 50  0000 L CNN
F 1 "R" H 4020 2505 50  0000 L CNN
F 2 "Resistor_SMD:R_0805_2012Metric" V 3880 2550 50  0001 C CNN
F 3 "~" H 3950 2550 50  0001 C CNN
	1    3950 2550
	1    0    0    -1  
$EndComp
$Comp
L Device:R R22
U 1 1 5F216F0D
P 4000 3750
AR Path="/5F1C91A7/5F216F0D" Ref="R22"  Part="1" 
AR Path="/5F24327A/5F216F0D" Ref="R24"  Part="1" 
AR Path="/5F244086/5F216F0D" Ref="R26"  Part="1" 
AR Path="/5F2451BC/5F216F0D" Ref="R28"  Part="1" 
F 0 "R22" H 4070 3796 50  0000 L CNN
F 1 "R" H 4070 3705 50  0000 L CNN
F 2 "Resistor_SMD:R_0805_2012Metric" V 3930 3750 50  0001 C CNN
F 3 "~" H 4000 3750 50  0001 C CNN
	1    4000 3750
	1    0    0    -1  
$EndComp
Wire Wire Line
	3950 2700 3950 2800
Connection ~ 3950 2800
Wire Wire Line
	3950 2800 4400 2800
Wire Wire Line
	4000 3600 4000 3500
Connection ~ 4000 3500
Wire Wire Line
	4000 3500 4400 3500
$Comp
L Device:C_Small C13
U 1 1 5F66EA22
P 2750 2800
AR Path="/5F1C91A7/5F66EA22" Ref="C13"  Part="1" 
AR Path="/5F24327A/5F66EA22" Ref="C15"  Part="1" 
AR Path="/5F244086/5F66EA22" Ref="C17"  Part="1" 
AR Path="/5F2451BC/5F66EA22" Ref="C19"  Part="1" 
F 0 "C13" H 2842 2846 50  0000 L CNN
F 1 "0.1uF" H 2842 2755 50  0000 L CNN
F 2 "Capacitor_SMD:C_0805_2012Metric" H 2750 2800 50  0001 C CNN
F 3 "~" H 2750 2800 50  0001 C CNN
	1    2750 2800
	1    0    0    -1  
$EndComp
Wire Wire Line
	2750 2700 2600 2700
Wire Wire Line
	2600 2700 2600 2800
Wire Wire Line
	2750 2900 3000 2900
$Comp
L Device:C_Small C14
U 1 1 5F66F674
P 2750 3500
AR Path="/5F1C91A7/5F66F674" Ref="C14"  Part="1" 
AR Path="/5F24327A/5F66F674" Ref="C16"  Part="1" 
AR Path="/5F244086/5F66F674" Ref="C18"  Part="1" 
AR Path="/5F2451BC/5F66F674" Ref="C20"  Part="1" 
F 0 "C14" H 2842 3546 50  0000 L CNN
F 1 "0.1uF" H 2842 3455 50  0000 L CNN
F 2 "Capacitor_SMD:C_0805_2012Metric" H 2750 3500 50  0001 C CNN
F 3 "~" H 2750 3500 50  0001 C CNN
	1    2750 3500
	1    0    0    -1  
$EndComp
Wire Wire Line
	2750 3400 3000 3400
Wire Wire Line
	2750 3600 2650 3600
Wire Wire Line
	2650 3600 2650 3500
Connection ~ 2650 3500
Wire Wire Line
	2650 3500 3000 3500
$EndSCHEMATC
