EESchema Schematic File Version 4
LIBS:mppt-cache
EELAYER 29 0
EELAYER END
$Descr A4 11693 8268
encoding utf-8
Sheet 6 6
Title "MPPT MOSFET Drivers"
Date "2019-07-14"
Rev "3.0"
Comp "BLUESat UNSW"
Comment1 "Ricky Qu"
Comment2 ""
Comment3 ""
Comment4 ""
$EndDescr
Text HLabel 4700 1350 0    50   Input ~ 0
LIA
Text HLabel 4700 2850 0    50   Input ~ 0
LIB
Text HLabel 4700 4500 0    50   Input ~ 0
HIA
Text HLabel 4700 6350 0    50   Input ~ 0
HIB
Text HLabel 1900 1950 0    50   Input ~ 0
12V
Text HLabel 8650 6000 0    50   Input ~ 0
GND
Text HLabel 5650 1350 2    50   Output ~ 0
LOA
Text HLabel 5650 2850 2    50   Output ~ 0
LOB
Text HLabel 5650 4500 2    50   Output ~ 0
HOA
Text HLabel 5650 6350 2    50   Output ~ 0
HOB
$Comp
L power:GND #PWR0106
U 1 1 5D190882
P 8800 6100
F 0 "#PWR0106" H 8800 5850 50  0001 C CNN
F 1 "GND" H 8805 5927 50  0000 C CNN
F 2 "" H 8800 6100 50  0001 C CNN
F 3 "" H 8800 6100 50  0001 C CNN
	1    8800 6100
	1    0    0    -1  
$EndComp
Wire Wire Line
	8650 6000 8800 6000
Wire Wire Line
	8800 6000 8800 6100
$Comp
L power:+12V #PWR0107
U 1 1 5D1908BB
P 2100 1950
F 0 "#PWR0107" H 2100 1800 50  0001 C CNN
F 1 "+12V" H 2115 2123 50  0000 C CNN
F 2 "" H 2100 1950 50  0001 C CNN
F 3 "" H 2100 1950 50  0001 C CNN
	1    2100 1950
	1    0    0    -1  
$EndComp
Wire Wire Line
	1900 1950 2100 1950
$Comp
L power:GND #PWR010
U 1 1 5D233EC6
P 5150 6650
F 0 "#PWR010" H 5150 6400 50  0001 C CNN
F 1 "GND" H 5155 6477 50  0000 C CNN
F 2 "" H 5150 6650 50  0001 C CNN
F 3 "" H 5150 6650 50  0001 C CNN
	1    5150 6650
	1    0    0    -1  
$EndComp
$Comp
L power:GND #PWR08
U 1 1 5D233EFC
P 5150 4800
F 0 "#PWR08" H 5150 4550 50  0001 C CNN
F 1 "GND" H 5155 4627 50  0000 C CNN
F 2 "" H 5150 4800 50  0001 C CNN
F 3 "" H 5150 4800 50  0001 C CNN
	1    5150 4800
	1    0    0    -1  
$EndComp
$Comp
L power:GND #PWR05
U 1 1 5D233F23
P 5150 3150
F 0 "#PWR05" H 5150 2900 50  0001 C CNN
F 1 "GND" H 5155 2977 50  0000 C CNN
F 2 "" H 5150 3150 50  0001 C CNN
F 3 "" H 5150 3150 50  0001 C CNN
	1    5150 3150
	1    0    0    -1  
$EndComp
$Comp
L power:GND #PWR02
U 1 1 5D233F3E
P 5150 1650
F 0 "#PWR02" H 5150 1400 50  0001 C CNN
F 1 "GND" H 5155 1477 50  0000 C CNN
F 2 "" H 5150 1650 50  0001 C CNN
F 3 "" H 5150 1650 50  0001 C CNN
	1    5150 1650
	1    0    0    -1  
$EndComp
$Comp
L power:+12V #PWR01
U 1 1 5D2340D8
P 5150 1050
F 0 "#PWR01" H 5150 900 50  0001 C CNN
F 1 "+12V" H 5165 1223 50  0000 C CNN
F 2 "" H 5150 1050 50  0001 C CNN
F 3 "" H 5150 1050 50  0001 C CNN
	1    5150 1050
	1    0    0    -1  
$EndComp
$Comp
L power:+12V #PWR04
U 1 1 5D234119
P 5150 2550
F 0 "#PWR04" H 5150 2400 50  0001 C CNN
F 1 "+12V" H 5165 2723 50  0000 C CNN
F 2 "" H 5150 2550 50  0001 C CNN
F 3 "" H 5150 2550 50  0001 C CNN
	1    5150 2550
	1    0    0    -1  
$EndComp
$Comp
L power:+12V #PWR06
U 1 1 5D23412C
P 5150 4200
F 0 "#PWR06" H 5150 4050 50  0001 C CNN
F 1 "+12V" H 5165 4373 50  0000 C CNN
F 2 "" H 5150 4200 50  0001 C CNN
F 3 "" H 5150 4200 50  0001 C CNN
	1    5150 4200
	1    0    0    -1  
$EndComp
$Comp
L power:+12V #PWR09
U 1 1 5D234161
P 5150 6050
F 0 "#PWR09" H 5150 5900 50  0001 C CNN
F 1 "+12V" H 5165 6223 50  0000 C CNN
F 2 "" H 5150 6050 50  0001 C CNN
F 3 "" H 5150 6050 50  0001 C CNN
	1    5150 6050
	1    0    0    -1  
$EndComp
Wire Wire Line
	5550 1350 5650 1350
Wire Wire Line
	5550 6350 5650 6350
Wire Wire Line
	5650 4500 5550 4500
Wire Wire Line
	5650 2850 5550 2850
Wire Wire Line
	4700 1350 4850 1350
Wire Wire Line
	4700 4500 4850 4500
Wire Wire Line
	4700 6350 4850 6350
$Comp
L Device:C C15
U 1 1 5D242434
P 4700 1050
F 0 "C15" V 4448 1050 50  0000 C CNN
F 1 "1uF" V 4539 1050 50  0000 C CNN
F 2 "Capacitor_SMD:C_0805_2012Metric_Pad1.15x1.40mm_HandSolder" H 4738 900 50  0001 C CNN
F 3 "~" H 4700 1050 50  0001 C CNN
	1    4700 1050
	0    1    1    0   
$EndComp
$Comp
L Device:C C17
U 1 1 5D242472
P 4700 2550
F 0 "C17" V 4448 2550 50  0000 C CNN
F 1 "1uF" V 4539 2550 50  0000 C CNN
F 2 "Capacitor_SMD:C_0805_2012Metric_Pad1.15x1.40mm_HandSolder" H 4738 2400 50  0001 C CNN
F 3 "~" H 4700 2550 50  0001 C CNN
	1    4700 2550
	0    1    1    0   
$EndComp
$Comp
L Device:C C19
U 1 1 5D2424A0
P 4700 4200
F 0 "C19" V 4448 4200 50  0000 C CNN
F 1 "1uF" V 4539 4200 50  0000 C CNN
F 2 "Capacitor_SMD:C_0805_2012Metric_Pad1.15x1.40mm_HandSolder" H 4738 4050 50  0001 C CNN
F 3 "~" H 4700 4200 50  0001 C CNN
	1    4700 4200
	0    1    1    0   
$EndComp
$Comp
L Device:C C21
U 1 1 5D242523
P 4700 6050
F 0 "C21" V 4448 6050 50  0000 C CNN
F 1 "1uF" V 4539 6050 50  0000 C CNN
F 2 "Capacitor_SMD:C_0805_2012Metric_Pad1.15x1.40mm_HandSolder" H 4738 5900 50  0001 C CNN
F 3 "~" H 4700 6050 50  0001 C CNN
	1    4700 6050
	0    1    1    0   
$EndComp
$Comp
L power:GND #PWR021
U 1 1 5D242574
P 4350 1050
F 0 "#PWR021" H 4350 800 50  0001 C CNN
F 1 "GND" H 4355 877 50  0000 C CNN
F 2 "" H 4350 1050 50  0001 C CNN
F 3 "" H 4350 1050 50  0001 C CNN
	1    4350 1050
	1    0    0    -1  
$EndComp
$Comp
L power:GND #PWR022
U 1 1 5D2428A4
P 4350 2550
F 0 "#PWR022" H 4350 2300 50  0001 C CNN
F 1 "GND" H 4355 2377 50  0000 C CNN
F 2 "" H 4350 2550 50  0001 C CNN
F 3 "" H 4350 2550 50  0001 C CNN
	1    4350 2550
	1    0    0    -1  
$EndComp
$Comp
L power:GND #PWR023
U 1 1 5D2428BF
P 4350 4200
F 0 "#PWR023" H 4350 3950 50  0001 C CNN
F 1 "GND" H 4355 4027 50  0000 C CNN
F 2 "" H 4350 4200 50  0001 C CNN
F 3 "" H 4350 4200 50  0001 C CNN
	1    4350 4200
	1    0    0    -1  
$EndComp
$Comp
L power:GND #PWR024
U 1 1 5D242912
P 4350 6050
F 0 "#PWR024" H 4350 5800 50  0001 C CNN
F 1 "GND" H 4355 5877 50  0000 C CNN
F 2 "" H 4350 6050 50  0001 C CNN
F 3 "" H 4350 6050 50  0001 C CNN
	1    4350 6050
	1    0    0    -1  
$EndComp
Wire Wire Line
	4550 1050 4350 1050
Wire Wire Line
	4350 2550 4550 2550
Wire Wire Line
	4550 4200 4350 4200
Wire Wire Line
	4350 6050 4550 6050
Wire Wire Line
	4850 6050 4900 6050
Wire Wire Line
	5150 4200 4950 4200
Wire Wire Line
	4850 2550 4950 2550
Wire Wire Line
	4850 1050 4950 1050
$Comp
L Device:C C14
U 1 1 5D243B36
P 4700 650
F 0 "C14" V 4448 650 50  0000 C CNN
F 1 "0.1uF" V 4539 650 50  0000 C CNN
F 2 "Capacitor_SMD:C_0805_2012Metric_Pad1.15x1.40mm_HandSolder" H 4738 500 50  0001 C CNN
F 3 "~" H 4700 650 50  0001 C CNN
	1    4700 650 
	0    1    1    0   
$EndComp
$Comp
L Device:C C16
U 1 1 5D243B60
P 4700 2100
F 0 "C16" V 4448 2100 50  0000 C CNN
F 1 "0.1uF" V 4539 2100 50  0000 C CNN
F 2 "Capacitor_SMD:C_0805_2012Metric_Pad1.15x1.40mm_HandSolder" H 4738 1950 50  0001 C CNN
F 3 "~" H 4700 2100 50  0001 C CNN
	1    4700 2100
	0    1    1    0   
$EndComp
$Comp
L Device:C C18
U 1 1 5D243BB0
P 4700 3750
F 0 "C18" V 4448 3750 50  0000 C CNN
F 1 "0.1uF" V 4539 3750 50  0000 C CNN
F 2 "Capacitor_SMD:C_0805_2012Metric_Pad1.15x1.40mm_HandSolder" H 4738 3600 50  0001 C CNN
F 3 "~" H 4700 3750 50  0001 C CNN
	1    4700 3750
	0    1    1    0   
$EndComp
$Comp
L Device:C C20
U 1 1 5D243BEE
P 4700 5600
F 0 "C20" V 4448 5600 50  0000 C CNN
F 1 "0.1uF" V 4539 5600 50  0000 C CNN
F 2 "Capacitor_SMD:C_0805_2012Metric_Pad1.15x1.40mm_HandSolder" H 4738 5450 50  0001 C CNN
F 3 "~" H 4700 5600 50  0001 C CNN
	1    4700 5600
	0    1    1    0   
$EndComp
Wire Wire Line
	4950 1050 4950 650 
Wire Wire Line
	4950 650  4850 650 
Connection ~ 4950 1050
Wire Wire Line
	4950 1050 5150 1050
Wire Wire Line
	4550 650  4350 650 
Wire Wire Line
	4350 650  4350 1050
Connection ~ 4350 1050
Wire Wire Line
	4950 2550 4950 2100
Wire Wire Line
	4950 2100 4850 2100
Connection ~ 4950 2550
Wire Wire Line
	4950 2550 5150 2550
Wire Wire Line
	4550 2100 4350 2100
Wire Wire Line
	4350 2100 4350 2550
Connection ~ 4350 2550
Wire Wire Line
	4850 3750 4950 3750
Wire Wire Line
	4950 3750 4950 4200
Connection ~ 4950 4200
Wire Wire Line
	4950 4200 4850 4200
Wire Wire Line
	4550 3750 4350 3750
Wire Wire Line
	4350 3750 4350 4200
Connection ~ 4350 4200
Wire Wire Line
	4900 5600 4900 6050
Connection ~ 4900 6050
Wire Wire Line
	4900 6050 5150 6050
Wire Wire Line
	4550 5600 4350 5600
Wire Wire Line
	4350 5600 4350 6050
Connection ~ 4350 6050
Wire Wire Line
	4850 5600 4900 5600
Wire Wire Line
	4700 2850 4850 2850
$Comp
L Driver_FET:MCP1416 U1
U 1 1 5D2C15D3
P 5150 1350
F 0 "U1" H 5594 1396 50  0000 L CNN
F 1 "MCP1416" H 5594 1305 50  0000 L CNN
F 2 "Package_TO_SOT_SMD:SOT-23-5" H 5150 950 50  0001 C CIN
F 3 "http://ww1.microchip.com/downloads/en/DeviceDoc/20002092F.pdf" H 4950 1600 50  0001 C CNN
	1    5150 1350
	1    0    0    -1  
$EndComp
Connection ~ 5150 1050
$Comp
L Driver_FET:MCP1416 U2
U 1 1 5D2C29E7
P 5150 2850
F 0 "U2" H 5594 2896 50  0000 L CNN
F 1 "MCP1416" H 5594 2805 50  0000 L CNN
F 2 "Package_TO_SOT_SMD:SOT-23-5" H 5150 2450 50  0001 C CIN
F 3 "http://ww1.microchip.com/downloads/en/DeviceDoc/20002092F.pdf" H 4950 3100 50  0001 C CNN
	1    5150 2850
	1    0    0    -1  
$EndComp
Connection ~ 5150 2550
$Comp
L Driver_FET:MCP1416 U3
U 1 1 5D2C3393
P 5150 4500
F 0 "U3" H 5594 4546 50  0000 L CNN
F 1 "MCP1416" H 5594 4455 50  0000 L CNN
F 2 "Package_TO_SOT_SMD:SOT-23-5" H 5150 4100 50  0001 C CIN
F 3 "http://ww1.microchip.com/downloads/en/DeviceDoc/20002092F.pdf" H 4950 4750 50  0001 C CNN
	1    5150 4500
	1    0    0    -1  
$EndComp
Connection ~ 5150 4200
$Comp
L Driver_FET:MCP1416 U4
U 1 1 5D2C3C7B
P 5150 6350
F 0 "U4" H 5594 6396 50  0000 L CNN
F 1 "MCP1416" H 5594 6305 50  0000 L CNN
F 2 "Package_TO_SOT_SMD:SOT-23-5" H 5150 5950 50  0001 C CIN
F 3 "http://ww1.microchip.com/downloads/en/DeviceDoc/20002092F.pdf" H 4950 6600 50  0001 C CNN
	1    5150 6350
	1    0    0    -1  
$EndComp
Connection ~ 5150 6050
Text Notes 8000 1500 0    50   ~ 0
This subcircuit contains the MOSFET drivers for the H bridge.\nAccepts signals from the control chip.\n\nCircuit Traps:\n- High powers\n- Potential noise source
$EndSCHEMATC
