EESchema Schematic File Version 4
LIBS:mppt-cache
EELAYER 29 0
EELAYER END
$Descr A4 11693 8268
encoding utf-8
Sheet 5 6
Title "MPPT Current and Voltage Sense Circuitry"
Date "2019-07-14"
Rev "3.0"
Comp "BLUESat UNSW"
Comment1 "Ricky Qu"
Comment2 ""
Comment3 ""
Comment4 ""
$EndDescr
Text HLabel 4600 2350 0    50   Input ~ 0
Vin1
Text HLabel 5500 2350 2    50   Output ~ 0
Vin2
Text HLabel 5050 3700 0    50   Input ~ 0
Vout1
Text HLabel 5950 3700 2    50   Output ~ 0
Vout2
Text HLabel 9900 5800 0    50   Input ~ 0
AGND
Text HLabel 1400 1050 0    50   Input ~ 0
3.3V
Text HLabel 1350 1650 0    50   Input ~ 0
5V
Wire Wire Line
	9900 5800 10150 5800
Wire Wire Line
	10150 5800 10150 6000
Text HLabel 4600 5400 2    50   Output ~ 0
Vin_Reading
Text HLabel 4650 6900 2    50   Output ~ 0
Vout_Reading
$Comp
L power:+3.3V #PWR0126
U 1 1 5D17466F
P 1550 1050
F 0 "#PWR0126" H 1550 900 50  0001 C CNN
F 1 "+3.3V" H 1565 1223 50  0000 C CNN
F 2 "" H 1550 1050 50  0001 C CNN
F 3 "" H 1550 1050 50  0001 C CNN
	1    1550 1050
	1    0    0    -1  
$EndComp
$Comp
L power:+5V #PWR0127
U 1 1 5D1746CF
P 1600 1650
F 0 "#PWR0127" H 1600 1500 50  0001 C CNN
F 1 "+5V" H 1615 1823 50  0000 C CNN
F 2 "" H 1600 1650 50  0001 C CNN
F 3 "" H 1600 1650 50  0001 C CNN
	1    1600 1650
	1    0    0    -1  
$EndComp
Wire Wire Line
	1400 1050 1550 1050
Wire Wire Line
	1350 1650 1600 1650
$Comp
L Device:R_Shunt R16
U 1 1 5D238CC8
P 5100 2350
F 0 "R16" V 4968 2350 50  0000 C CNN
F 1 "LVK12_10mO" V 4877 2350 50  0000 C CNN
F 2 "CustomFootprints:LVK12" V 5030 2350 50  0001 C CNN
F 3 "~" H 5100 2350 50  0001 C CNN
	1    5100 2350
	0    -1   -1   0   
$EndComp
$Comp
L Device:R_Shunt R15
U 1 1 5D238EE8
P 5550 3700
F 0 "R15" V 5418 3700 50  0000 C CNN
F 1 "LVK12_10mO" V 5327 3700 50  0000 C CNN
F 2 "CustomFootprints:LVK12" V 5480 3700 50  0001 C CNN
F 3 "~" H 5550 3700 50  0001 C CNN
	1    5550 3700
	0    -1   -1   0   
$EndComp
Wire Wire Line
	5050 3700 5350 3700
Wire Wire Line
	5750 3700 5950 3700
Wire Wire Line
	5500 2350 5300 2350
Wire Wire Line
	4900 2350 4600 2350
$Comp
L Amplifier_Operational:TSV912IDT U7
U 1 1 5D23961B
P 7550 1950
F 0 "U7" H 7550 2317 50  0000 C CNN
F 1 "TSV912IDT" H 7550 2226 50  0000 C CNN
F 2 "Package_SO:SOIC-8_3.9x4.9mm_P1.27mm" H 7550 1950 50  0001 C CNN
F 3 "www.st.com/resource/en/datasheet/tsv911.pdf" H 7550 1950 50  0001 C CNN
	1    7550 1950
	1    0    0    -1  
$EndComp
Wire Wire Line
	5300 1750 5000 1750
Wire Wire Line
	5000 1750 5000 2200
Wire Wire Line
	5200 1950 5300 1950
Wire Wire Line
	5200 1950 5200 2200
Wire Wire Line
	5850 3150 5450 3150
Wire Wire Line
	5450 3150 5450 3550
Wire Wire Line
	5650 3550 5650 3350
Wire Wire Line
	5650 3350 5850 3350
$Comp
L Mppt:MAX9934T U5
U 1 1 5D23B8E2
P 5550 1650
F 0 "U5" H 5675 1865 50  0000 C CNN
F 1 "MAX9934T" H 5675 1774 50  0000 C CNN
F 2 "Package_SO:MSOP-8_3x3mm_P0.65mm" H 5550 1650 50  0001 C CNN
F 3 "" H 5550 1650 50  0001 C CNN
	1    5550 1650
	1    0    0    -1  
$EndComp
$Comp
L Mppt:MAX9934T U6
U 1 1 5D23B93C
P 6100 3050
F 0 "U6" H 6225 3265 50  0000 C CNN
F 1 "MAX9934T" H 6225 3174 50  0000 C CNN
F 2 "Package_SO:MSOP-8_3x3mm_P0.65mm" H 6100 3050 50  0001 C CNN
F 3 "" H 6100 3050 50  0001 C CNN
	1    6100 3050
	1    0    0    -1  
$EndComp
Wire Wire Line
	7250 2050 7050 2050
Wire Wire Line
	7050 2050 7050 2300
Wire Wire Line
	7050 2300 7900 2300
Wire Wire Line
	7900 2300 7900 1950
Wire Wire Line
	7900 1950 7850 1950
Wire Wire Line
	7800 3350 7850 3350
Wire Wire Line
	7850 3350 7850 3650
Wire Wire Line
	7850 3650 7050 3650
Wire Wire Line
	7050 3650 7050 3450
Wire Wire Line
	7050 3450 7200 3450
Text HLabel 8300 1950 2    50   Output ~ 0
Iin_reading
Text HLabel 8300 3350 2    50   Output ~ 0
Iout_Reading
Wire Wire Line
	7900 1950 8000 1950
Connection ~ 7900 1950
Connection ~ 7850 3350
$Comp
L Mppt:MAX9934T U5
U 2 1 5D23D903
P 3550 1750
F 0 "U5" H 3407 1646 50  0000 L CNN
F 1 "MAX9934T" H 3407 1555 50  0000 L CNN
F 2 "Package_SO:MSOP-8_3x3mm_P0.65mm" H 3550 1750 50  0001 C CNN
F 3 "" H 3550 1750 50  0001 C CNN
	2    3550 1750
	1    0    0    -1  
$EndComp
$Comp
L power:+3.3V #PWR012
U 1 1 5D23D9A7
P 3350 1600
F 0 "#PWR012" H 3350 1450 50  0001 C CNN
F 1 "+3.3V" H 3365 1773 50  0000 C CNN
F 2 "" H 3350 1600 50  0001 C CNN
F 3 "" H 3350 1600 50  0001 C CNN
	1    3350 1600
	1    0    0    -1  
$EndComp
NoConn ~ 2950 1850
NoConn ~ 2950 1950
$Comp
L power:+3.3V #PWR011
U 1 1 5D23E804
P 2850 1750
F 0 "#PWR011" H 2850 1600 50  0001 C CNN
F 1 "+3.3V" H 2865 1923 50  0000 C CNN
F 2 "" H 2850 1750 50  0001 C CNN
F 3 "" H 2850 1750 50  0001 C CNN
	1    2850 1750
	1    0    0    -1  
$EndComp
Wire Wire Line
	2850 1750 2950 1750
$Comp
L Device:C C9
U 1 1 5D23F011
P 3900 1850
F 0 "C9" H 4015 1896 50  0000 L CNN
F 1 "0.1uF" H 4015 1805 50  0000 L CNN
F 2 "Capacitor_SMD:C_0805_2012Metric_Pad1.15x1.40mm_HandSolder" H 3938 1700 50  0001 C CNN
F 3 "~" H 3900 1850 50  0001 C CNN
	1    3900 1850
	1    0    0    -1  
$EndComp
Wire Wire Line
	3350 1600 3900 1600
Wire Wire Line
	3900 1600 3900 1700
Connection ~ 3350 1600
$Comp
L power:GNDA #PWR018
U 1 1 5D23FB8C
P 10150 6000
F 0 "#PWR018" H 10150 5750 50  0001 C CNN
F 1 "GNDA" H 10155 5827 50  0000 C CNN
F 2 "" H 10150 6000 50  0001 C CNN
F 3 "" H 10150 6000 50  0001 C CNN
	1    10150 6000
	1    0    0    -1  
$EndComp
$Comp
L power:GNDA #PWR014
U 1 1 5D23FF11
P 3350 2200
F 0 "#PWR014" H 3350 1950 50  0001 C CNN
F 1 "GNDA" H 3355 2027 50  0000 C CNN
F 2 "" H 3350 2200 50  0001 C CNN
F 3 "" H 3350 2200 50  0001 C CNN
	1    3350 2200
	1    0    0    -1  
$EndComp
$Comp
L power:GNDA #PWR015
U 1 1 5D23FF32
P 3900 2000
F 0 "#PWR015" H 3900 1750 50  0001 C CNN
F 1 "GNDA" H 3905 1827 50  0000 C CNN
F 2 "" H 3900 2000 50  0001 C CNN
F 3 "" H 3900 2000 50  0001 C CNN
	1    3900 2000
	1    0    0    -1  
$EndComp
$Comp
L Amplifier_Operational:TSV912IDT U7
U 3 1 5D23FFB8
P 7650 4450
F 0 "U7" H 7608 4496 50  0000 L CNN
F 1 "TSV912IDT" H 7608 4405 50  0000 L CNN
F 2 "Package_SO:SOIC-8_3.9x4.9mm_P1.27mm" H 7650 4450 50  0001 C CNN
F 3 "www.st.com/resource/en/datasheet/tsv911.pdf" H 7650 4450 50  0001 C CNN
	3    7650 4450
	1    0    0    -1  
$EndComp
$Comp
L Amplifier_Operational:TSV912IDT U7
U 2 1 5D24004E
P 7500 3350
F 0 "U7" H 7500 3717 50  0000 C CNN
F 1 "TSV912IDT" H 7500 3626 50  0000 C CNN
F 2 "Package_SO:SOIC-8_3.9x4.9mm_P1.27mm" H 7500 3350 50  0001 C CNN
F 3 "www.st.com/resource/en/datasheet/tsv911.pdf" H 7500 3350 50  0001 C CNN
	2    7500 3350
	1    0    0    -1  
$EndComp
$Comp
L power:+3.3V #PWR016
U 1 1 5D2400C0
P 7550 4150
F 0 "#PWR016" H 7550 4000 50  0001 C CNN
F 1 "+3.3V" H 7565 4323 50  0000 C CNN
F 2 "" H 7550 4150 50  0001 C CNN
F 3 "" H 7550 4150 50  0001 C CNN
	1    7550 4150
	1    0    0    -1  
$EndComp
$Comp
L power:GNDA #PWR017
U 1 1 5D2400E3
P 7550 4750
F 0 "#PWR017" H 7550 4500 50  0001 C CNN
F 1 "GNDA" H 7555 4577 50  0000 C CNN
F 2 "" H 7550 4750 50  0001 C CNN
F 3 "" H 7550 4750 50  0001 C CNN
	1    7550 4750
	1    0    0    -1  
$EndComp
$Comp
L Device:C C10
U 1 1 5D240106
P 7250 4500
F 0 "C10" H 7365 4546 50  0000 L CNN
F 1 "0.1uF" H 7365 4455 50  0000 L CNN
F 2 "Capacitor_SMD:C_0805_2012Metric_Pad1.15x1.40mm_HandSolder" H 7288 4350 50  0001 C CNN
F 3 "~" H 7250 4500 50  0001 C CNN
	1    7250 4500
	1    0    0    -1  
$EndComp
Wire Wire Line
	7250 4750 7550 4750
Wire Wire Line
	7250 4650 7250 4750
Connection ~ 7550 4750
Wire Wire Line
	7550 4150 7250 4150
Connection ~ 7550 4150
Wire Wire Line
	7250 4150 7250 4350
$Comp
L Amplifier_Operational:TSV912IDT U8
U 1 1 5D242BA6
P 3900 5400
F 0 "U8" H 3900 5767 50  0000 C CNN
F 1 "TSV912IDT" H 3900 5676 50  0000 C CNN
F 2 "Package_SO:SOIC-8_3.9x4.9mm_P1.27mm" H 3900 5400 50  0001 C CNN
F 3 "www.st.com/resource/en/datasheet/tsv911.pdf" H 3900 5400 50  0001 C CNN
	1    3900 5400
	1    0    0    -1  
$EndComp
$Comp
L Amplifier_Operational:TSV912IDT U8
U 3 1 5D242C4E
P 5800 5800
F 0 "U8" H 5758 5846 50  0000 L CNN
F 1 "TSV912IDT" H 5758 5755 50  0000 L CNN
F 2 "Package_SO:SOIC-8_3.9x4.9mm_P1.27mm" H 5800 5800 50  0001 C CNN
F 3 "www.st.com/resource/en/datasheet/tsv911.pdf" H 5800 5800 50  0001 C CNN
	3    5800 5800
	1    0    0    -1  
$EndComp
$Comp
L Device:C C11
U 1 1 5D242C96
P 5300 5850
F 0 "C11" H 5415 5896 50  0000 L CNN
F 1 "0.1uF" H 5415 5805 50  0000 L CNN
F 2 "Capacitor_SMD:C_0805_2012Metric_Pad1.15x1.40mm_HandSolder" H 5338 5700 50  0001 C CNN
F 3 "~" H 5300 5850 50  0001 C CNN
	1    5300 5850
	1    0    0    -1  
$EndComp
$Comp
L power:GNDA #PWR020
U 1 1 5D242D13
P 5700 6100
F 0 "#PWR020" H 5700 5850 50  0001 C CNN
F 1 "GNDA" H 5705 5927 50  0000 C CNN
F 2 "" H 5700 6100 50  0001 C CNN
F 3 "" H 5700 6100 50  0001 C CNN
	1    5700 6100
	1    0    0    -1  
$EndComp
Text HLabel 3350 5300 0    50   Input ~ 0
Vin1
Text HLabel 2550 6800 0    50   Input ~ 0
Vout1
Wire Wire Line
	3350 5300 3600 5300
Wire Wire Line
	3600 5500 3500 5500
Wire Wire Line
	3500 5500 3500 5650
Wire Wire Line
	3500 5650 4250 5650
Wire Wire Line
	4250 5650 4250 5400
Wire Wire Line
	4200 5400 4250 5400
Connection ~ 4250 5400
Wire Wire Line
	4250 5400 4350 5400
Wire Wire Line
	3450 7000 3550 7000
Connection ~ 4250 6900
Wire Wire Line
	4250 6900 4150 6900
Wire Wire Line
	5300 6000 5300 6100
Wire Wire Line
	5300 6100 5700 6100
Connection ~ 5700 6100
Wire Wire Line
	5700 5500 5300 5500
Wire Wire Line
	5300 5500 5300 5700
$Comp
L Amplifier_Operational:TSV912IDT U8
U 2 1 5D242BF2
P 3850 6900
F 0 "U8" H 3850 7267 50  0000 C CNN
F 1 "TSV912IDT" H 3850 7176 50  0000 C CNN
F 2 "Package_SO:SOIC-8_3.9x4.9mm_P1.27mm" H 3850 6900 50  0001 C CNN
F 3 "www.st.com/resource/en/datasheet/tsv911.pdf" H 3850 6900 50  0001 C CNN
	2    3850 6900
	1    0    0    -1  
$EndComp
Wire Wire Line
	4250 7150 3450 7150
Wire Wire Line
	4250 6900 4250 7150
Wire Wire Line
	3450 7000 3450 7150
$Comp
L Mppt:MAX9934T U6
U 2 1 5D25355E
P 3500 3250
F 0 "U6" H 3357 3146 50  0000 L CNN
F 1 "MAX9934T" H 3357 3055 50  0000 L CNN
F 2 "Package_SO:MSOP-8_3x3mm_P0.65mm" H 3500 3250 50  0001 C CNN
F 3 "" H 3500 3250 50  0001 C CNN
	2    3500 3250
	1    0    0    -1  
$EndComp
$Comp
L Device:C C22
U 1 1 5D2535ED
P 3850 3400
F 0 "C22" H 3965 3446 50  0000 L CNN
F 1 "0.1uF" H 3965 3355 50  0000 L CNN
F 2 "Capacitor_SMD:C_0805_2012Metric_Pad1.15x1.40mm_HandSolder" H 3888 3250 50  0001 C CNN
F 3 "~" H 3850 3400 50  0001 C CNN
	1    3850 3400
	1    0    0    -1  
$EndComp
$Comp
L power:+3.3V #PWR026
U 1 1 5D25D5C6
P 3300 3100
F 0 "#PWR026" H 3300 2950 50  0001 C CNN
F 1 "+3.3V" H 3315 3273 50  0000 C CNN
F 2 "" H 3300 3100 50  0001 C CNN
F 3 "" H 3300 3100 50  0001 C CNN
	1    3300 3100
	1    0    0    -1  
$EndComp
$Comp
L power:GNDA #PWR027
U 1 1 5D25D5F1
P 3300 3700
F 0 "#PWR027" H 3300 3450 50  0001 C CNN
F 1 "GNDA" H 3305 3527 50  0000 C CNN
F 2 "" H 3300 3700 50  0001 C CNN
F 3 "" H 3300 3700 50  0001 C CNN
	1    3300 3700
	1    0    0    -1  
$EndComp
$Comp
L power:+3.3V #PWR025
U 1 1 5D25D61C
P 2800 3250
F 0 "#PWR025" H 2800 3100 50  0001 C CNN
F 1 "+3.3V" H 2815 3423 50  0000 C CNN
F 2 "" H 2800 3250 50  0001 C CNN
F 3 "" H 2800 3250 50  0001 C CNN
	1    2800 3250
	1    0    0    -1  
$EndComp
Wire Wire Line
	2800 3250 2900 3250
Wire Wire Line
	3300 3100 3850 3100
Wire Wire Line
	3850 3100 3850 3250
Connection ~ 3300 3100
Wire Wire Line
	3850 3700 3300 3700
Wire Wire Line
	3850 3550 3850 3700
Connection ~ 3300 3700
NoConn ~ 2900 3350
NoConn ~ 2900 3450
$Comp
L Connector:TestPoint TP4
U 1 1 5D2B86CA
P 8000 1950
F 0 "TP4" H 8000 2150 50  0000 C CNN
F 1 "TestPoint" H 8000 2250 50  0000 C CNN
F 2 "TestPoint:TestPoint_Pad_1.0x1.0mm" H 8200 1950 50  0001 C CNN
F 3 "~" H 8200 1950 50  0001 C CNN
	1    8000 1950
	1    0    0    -1  
$EndComp
Connection ~ 8000 1950
$Comp
L Connector:TestPoint TP5
U 1 1 5D2B9BC2
P 7950 3350
F 0 "TP5" H 7950 3550 50  0000 C CNN
F 1 "TestPoint" H 7950 3650 50  0000 C CNN
F 2 "TestPoint:TestPoint_Pad_1.0x1.0mm" H 8150 3350 50  0001 C CNN
F 3 "~" H 8150 3350 50  0001 C CNN
	1    7950 3350
	1    0    0    -1  
$EndComp
Connection ~ 7950 3350
Wire Wire Line
	7950 3350 7850 3350
$Comp
L Connector:TestPoint TP2
U 1 1 5D2B9C80
P 4350 5400
F 0 "TP2" H 4350 5600 50  0000 C CNN
F 1 "TestPoint" H 4350 5700 50  0000 C CNN
F 2 "TestPoint:TestPoint_Pad_1.0x1.0mm" H 4550 5400 50  0001 C CNN
F 3 "~" H 4550 5400 50  0001 C CNN
	1    4350 5400
	1    0    0    -1  
$EndComp
Connection ~ 4350 5400
$Comp
L Connector:TestPoint TP3
U 1 1 5D2B9D09
P 4350 6900
F 0 "TP3" H 4350 7100 50  0000 C CNN
F 1 "TestPoint" H 4350 7200 50  0000 C CNN
F 2 "TestPoint:TestPoint_Pad_1.0x1.0mm" H 4550 6900 50  0001 C CNN
F 3 "~" H 4550 6900 50  0001 C CNN
	1    4350 6900
	1    0    0    -1  
$EndComp
Wire Wire Line
	4350 6900 4250 6900
$Comp
L Device:R R20
U 1 1 5D33029C
P 6350 2150
F 0 "R20" H 6420 2196 50  0000 L CNN
F 1 "24k" H 6420 2105 50  0000 L CNN
F 2 "Resistor_SMD:R_0805_2012Metric_Pad1.15x1.40mm_HandSolder" V 6280 2150 50  0001 C CNN
F 3 "~" H 6350 2150 50  0001 C CNN
	1    6350 2150
	1    0    0    -1  
$EndComp
$Comp
L Device:R R21
U 1 1 5D33834C
P 6800 3500
F 0 "R21" H 6870 3546 50  0000 L CNN
F 1 "12k" H 6870 3455 50  0000 L CNN
F 2 "Resistor_SMD:R_0805_2012Metric_Pad1.15x1.40mm_HandSolder" V 6730 3500 50  0001 C CNN
F 3 "~" H 6800 3500 50  0001 C CNN
	1    6800 3500
	1    0    0    -1  
$EndComp
Wire Wire Line
	6050 1850 6350 1850
Wire Wire Line
	6350 2000 6350 1850
Connection ~ 6350 1850
Wire Wire Line
	6350 1850 7250 1850
$Comp
L power:GNDA #PWR031
U 1 1 5D33BDD4
P 6800 3750
F 0 "#PWR031" H 6800 3500 50  0001 C CNN
F 1 "GNDA" H 6805 3577 50  0000 C CNN
F 2 "" H 6800 3750 50  0001 C CNN
F 3 "" H 6800 3750 50  0001 C CNN
	1    6800 3750
	1    0    0    -1  
$EndComp
$Comp
L power:GNDA #PWR030
U 1 1 5D33C18C
P 6350 2400
F 0 "#PWR030" H 6350 2150 50  0001 C CNN
F 1 "GNDA" H 6355 2227 50  0000 C CNN
F 2 "" H 6350 2400 50  0001 C CNN
F 3 "" H 6350 2400 50  0001 C CNN
	1    6350 2400
	1    0    0    -1  
$EndComp
Wire Wire Line
	6350 2300 6350 2400
Wire Wire Line
	6800 3650 6800 3750
Wire Wire Line
	6600 3250 6800 3250
Wire Wire Line
	6800 3350 6800 3250
Connection ~ 6800 3250
Wire Wire Line
	6800 3250 7200 3250
$Comp
L Device:R R22
U 1 1 5D365F81
P 2800 6800
F 0 "R22" V 2593 6800 50  0000 C CNN
F 1 "20kO" V 2684 6800 50  0000 C CNN
F 2 "Resistor_SMD:R_0805_2012Metric_Pad1.15x1.40mm_HandSolder" V 2730 6800 50  0001 C CNN
F 3 "~" H 2800 6800 50  0001 C CNN
	1    2800 6800
	0    1    1    0   
$EndComp
$Comp
L Device:R R23
U 1 1 5D366F94
P 3150 7100
F 0 "R23" H 3080 7054 50  0000 R CNN
F 1 "10kO" H 3080 7145 50  0000 R CNN
F 2 "Resistor_SMD:R_0805_2012Metric_Pad1.15x1.40mm_HandSolder" V 3080 7100 50  0001 C CNN
F 3 "~" H 3150 7100 50  0001 C CNN
	1    3150 7100
	-1   0    0    1   
$EndComp
Wire Wire Line
	2950 6800 3150 6800
Wire Wire Line
	3150 6950 3150 6800
$Comp
L power:GNDA #PWR033
U 1 1 5D36CFB0
P 3150 7300
F 0 "#PWR033" H 3150 7050 50  0001 C CNN
F 1 "GNDA" H 3155 7127 50  0000 C CNN
F 2 "" H 3150 7300 50  0001 C CNN
F 3 "" H 3150 7300 50  0001 C CNN
	1    3150 7300
	1    0    0    -1  
$EndComp
Wire Wire Line
	3150 7250 3150 7300
$Comp
L Device:C C28
U 1 1 5D36FEE4
P 8150 3600
F 0 "C28" H 8265 3646 50  0000 L CNN
F 1 "22nF" H 8265 3555 50  0000 L CNN
F 2 "Capacitor_SMD:C_0805_2012Metric_Pad1.15x1.40mm_HandSolder" H 8188 3450 50  0001 C CNN
F 3 "~" H 8150 3600 50  0001 C CNN
	1    8150 3600
	1    0    0    -1  
$EndComp
Wire Wire Line
	7950 3350 8150 3350
Wire Wire Line
	8150 3450 8150 3350
Connection ~ 8150 3350
Wire Wire Line
	8150 3350 8300 3350
$Comp
L Device:C C29
U 1 1 5D3749EC
P 8200 2200
F 0 "C29" H 8315 2246 50  0000 L CNN
F 1 "22nF" H 8315 2155 50  0000 L CNN
F 2 "Capacitor_SMD:C_0805_2012Metric_Pad1.15x1.40mm_HandSolder" H 8238 2050 50  0001 C CNN
F 3 "~" H 8200 2200 50  0001 C CNN
	1    8200 2200
	1    0    0    -1  
$EndComp
Wire Wire Line
	8000 1950 8200 1950
Wire Wire Line
	8200 2050 8200 1950
Connection ~ 8200 1950
Wire Wire Line
	8200 1950 8300 1950
$Comp
L power:GNDA #PWR036
U 1 1 5D378F98
P 8200 2400
F 0 "#PWR036" H 8200 2150 50  0001 C CNN
F 1 "GNDA" H 8205 2227 50  0000 C CNN
F 2 "" H 8200 2400 50  0001 C CNN
F 3 "" H 8200 2400 50  0001 C CNN
	1    8200 2400
	1    0    0    -1  
$EndComp
$Comp
L power:GNDA #PWR035
U 1 1 5D379273
P 8150 3800
F 0 "#PWR035" H 8150 3550 50  0001 C CNN
F 1 "GNDA" H 8155 3627 50  0000 C CNN
F 2 "" H 8150 3800 50  0001 C CNN
F 3 "" H 8150 3800 50  0001 C CNN
	1    8150 3800
	1    0    0    -1  
$EndComp
Wire Wire Line
	8200 2350 8200 2400
Wire Wire Line
	8150 3750 8150 3800
$Comp
L Device:C C27
U 1 1 5D37E187
P 4500 7200
F 0 "C27" H 4615 7246 50  0000 L CNN
F 1 "22nF" H 4615 7155 50  0000 L CNN
F 2 "Capacitor_SMD:C_0805_2012Metric_Pad1.15x1.40mm_HandSolder" H 4538 7050 50  0001 C CNN
F 3 "~" H 4500 7200 50  0001 C CNN
	1    4500 7200
	1    0    0    -1  
$EndComp
Wire Wire Line
	4500 7050 4500 6900
Wire Wire Line
	4500 6900 4650 6900
$Comp
L power:GNDA #PWR034
U 1 1 5D382D36
P 4500 7400
F 0 "#PWR034" H 4500 7150 50  0001 C CNN
F 1 "GNDA" H 4505 7227 50  0000 C CNN
F 2 "" H 4500 7400 50  0001 C CNN
F 3 "" H 4500 7400 50  0001 C CNN
	1    4500 7400
	1    0    0    -1  
$EndComp
Wire Wire Line
	4500 7350 4500 7400
$Comp
L Device:C C26
U 1 1 5D385417
P 4500 5650
F 0 "C26" H 4615 5696 50  0000 L CNN
F 1 "22nF" H 4615 5605 50  0000 L CNN
F 2 "Capacitor_SMD:C_0805_2012Metric_Pad1.15x1.40mm_HandSolder" H 4538 5500 50  0001 C CNN
F 3 "~" H 4500 5650 50  0001 C CNN
	1    4500 5650
	1    0    0    -1  
$EndComp
Wire Wire Line
	4350 5400 4500 5400
Wire Wire Line
	4500 5500 4500 5400
Connection ~ 4500 5400
Wire Wire Line
	4500 5400 4600 5400
$Comp
L power:GNDA #PWR032
U 1 1 5D38A2E9
P 4500 5900
F 0 "#PWR032" H 4500 5650 50  0001 C CNN
F 1 "GNDA" H 4505 5727 50  0000 C CNN
F 2 "" H 4500 5900 50  0001 C CNN
F 3 "" H 4500 5900 50  0001 C CNN
	1    4500 5900
	1    0    0    -1  
$EndComp
Wire Wire Line
	4500 5800 4500 5900
Wire Wire Line
	3150 6800 3550 6800
Connection ~ 3150 6800
Wire Wire Line
	2550 6800 2650 6800
Wire Wire Line
	4350 6900 4500 6900
Connection ~ 4350 6900
Connection ~ 4500 6900
$Comp
L power:+5V #PWR0136
U 1 1 5D517CB7
P 5700 5500
F 0 "#PWR0136" H 5700 5350 50  0001 C CNN
F 1 "+5V" H 5715 5673 50  0000 C CNN
F 2 "" H 5700 5500 50  0001 C CNN
F 3 "" H 5700 5500 50  0001 C CNN
	1    5700 5500
	1    0    0    -1  
$EndComp
Connection ~ 5700 5500
Text Notes 8350 1350 0    50   ~ 0
Sense circuitry for accurately measuring input and output power. \nCurrent measurement is accomplished by the MAX current sense \namplifiers followed by a voltage follower whereas voltage measurements\nuses just a voltage follower.\n\nCircuit Traps\n- Sensitive analogue electronics\n- MAX9934T can only use 3.3V power. 
Text Notes 4750 1250 0    50   ~ 0
MAX9934T  amplifiers have an output voltage\nswing of 0.15V to 3.2V. This is the largest\nsource of error for current recordings. \nSee Confluence documentation for more.
Text Notes 8850 3650 0    50   ~ 0
Set maximum measured current of 1A to\nproduce 3V.
Text Notes 1750 6400 0    50   ~ 0
Arbitrarily set the output voltage to a \nmaximum of 15V and step this down to 5V.
$EndSCHEMATC
