(export (version D)
  (design
    (source "C:\\Users\\ricky\\Documents\\cubesat-powersystem\\POW-02-MPPT\\Board 3.0\\mppt.sch")
    (date "15/09/2019 7:54:31 PM")
    (tool "Eeschema (5.1.2)-2")
    (sheet (number 1) (name /) (tstamps /)
      (title_block
        (title "MPPT Board")
        (company "BLUESat UNSW")
        (rev 3.0)
        (date 2019-07-14)
        (source mppt.sch)
        (comment (number 1) (value "Ricky Qu"))
        (comment (number 2) (value ""))
        (comment (number 3) (value ""))
        (comment (number 4) (value ""))))
    (sheet (number 2) (name "/H Bridge/") (tstamps /5D193AA5/)
      (title_block
        (title "MPPT MOSFET H-Bridge")
        (company "BLUESat UNSW")
        (rev 3.0)
        (date 2019-07-14)
        (source H_bridge.sch)
        (comment (number 1) (value "Ricky Qu"))
        (comment (number 2) (value ""))
        (comment (number 3) (value ""))
        (comment (number 4) (value ""))))
    (sheet (number 3) (name "/5V to 12V Boost Converter/") (tstamps /5D19A5BF/)
      (title_block
        (title "MPPT 5V to 12V Boost Converter")
        (company "BLUESat UNSW")
        (rev 3.0)
        (date 2019-07-14)
        (source 12V_Boost_Converter.sch)
        (comment (number 1) (value "Yuchen Wang"))
        (comment (number 2) (value ""))
        (comment (number 3) (value ""))
        (comment (number 4) (value ""))))
    (sheet (number 4) (name /Controller/) (tstamps /5D17A0DE/)
      (title_block
        (title "MPPT Control Chip")
        (company "BLUESat UNSW")
        (rev 3.0)
        (date 2019-07-14)
        (source Controller.sch)
        (comment (number 1) (value "Ricky Qu"))
        (comment (number 2) (value ""))
        (comment (number 3) (value ""))
        (comment (number 4) (value ""))))
    (sheet (number 5) (name "/Current Voltage Sense/") (tstamps /5D194064/)
      (title_block
        (title "MPPT Current and Voltage Sense Circuitry")
        (company "BLUESat UNSW")
        (rev 3.0)
        (date 2019-07-14)
        (source I_V_Sense.sch)
        (comment (number 1) (value "Ricky Qu"))
        (comment (number 2) (value ""))
        (comment (number 3) (value ""))
        (comment (number 4) (value ""))))
    (sheet (number 6) (name "/Bridge Drivers/") (tstamps /5D19A59E/)
      (title_block
        (title "MPPT MOSFET Drivers")
        (company "BLUESat UNSW")
        (rev 3.0)
        (date 2019-07-14)
        (source Driver.sch)
        (comment (number 1) (value "Ricky Qu"))
        (comment (number 2) (value ""))
        (comment (number 3) (value ""))
        (comment (number 4) (value "")))))
  (components
    (comp (ref C12)
      (value 10nF)
      (footprint Capacitor_SMD:C_0805_2012Metric_Pad1.15x1.40mm_HandSolder)
      (libsource (lib Device) (part C) (description "Unpolarized capacitor"))
      (sheetpath (names /) (tstamps /))
      (tstamp 5BD43C02))
    (comp (ref C7)
      (value 10uF)
      (footprint Capacitor_SMD:C_0805_2012Metric_Pad1.15x1.40mm_HandSolder)
      (libsource (lib Device) (part C) (description "Unpolarized capacitor"))
      (sheetpath (names /) (tstamps /))
      (tstamp 5BD43BF3))
    (comp (ref C13)
      (value 10uF)
      (footprint Capacitor_SMD:C_0805_2012Metric_Pad1.15x1.40mm_HandSolder)
      (libsource (lib Device) (part C) (description "Unpolarized capacitor"))
      (sheetpath (names /) (tstamps /))
      (tstamp 5BD43BF1))
    (comp (ref C8)
      (value 10uF)
      (footprint Capacitor_SMD:C_0805_2012Metric_Pad1.15x1.40mm_HandSolder)
      (libsource (lib Device) (part C) (description "Unpolarized capacitor"))
      (sheetpath (names /) (tstamps /))
      (tstamp 5BD43BF0))
    (comp (ref K1)
      (value HEADER-1X2)
      (footprint Connector_PinHeader_2.54mm:PinHeader_1x02_P2.54mm_Vertical)
      (libsource (lib Connector) (part Conn_01x02_Male) (description "Generic connector, single row, 01x02, script generated (kicad-library-utils/schlib/autogen/connector/)"))
      (sheetpath (names /) (tstamps /))
      (tstamp 5BD43BED))
    (comp (ref K4)
      (value HEADER-1X2)
      (footprint Connector_PinHeader_2.54mm:PinHeader_1x02_P2.54mm_Vertical)
      (libsource (lib Connector) (part Conn_01x02_Male) (description "Generic connector, single row, 01x02, script generated (kicad-library-utils/schlib/autogen/connector/)"))
      (sheetpath (names /) (tstamps /))
      (tstamp 5BD43BEA))
    (comp (ref C43)
      (value ???)
      (footprint Capacitor_SMD:C_0805_2012Metric_Pad1.15x1.40mm_HandSolder)
      (libsource (lib Device) (part C) (description "Unpolarized capacitor"))
      (sheetpath (names /) (tstamps /))
      (tstamp 5BD43BE7))
    (comp (ref C44)
      (value 1uF)
      (footprint Capacitor_SMD:C_0805_2012Metric_Pad1.15x1.40mm_HandSolder)
      (libsource (lib Device) (part C) (description "Unpolarized capacitor"))
      (sheetpath (names /) (tstamps /))
      (tstamp 5BD43BE6))
    (comp (ref C45)
      (value ???)
      (footprint Capacitor_SMD:C_0805_2012Metric_Pad1.15x1.40mm_HandSolder)
      (libsource (lib Device) (part C) (description "Unpolarized capacitor"))
      (sheetpath (names /) (tstamps /))
      (tstamp 5BD43BE5))
    (comp (ref C46)
      (value ???)
      (footprint Capacitor_SMD:C_0805_2012Metric_Pad1.15x1.40mm_HandSolder)
      (libsource (lib Device) (part C) (description "Unpolarized capacitor"))
      (sheetpath (names /) (tstamps /))
      (tstamp 5BD43BE3))
    (comp (ref K5)
      (value HEADER-1X2)
      (footprint Connector_PinHeader_2.54mm:PinHeader_1x02_P2.54mm_Vertical)
      (libsource (lib Connector) (part Conn_01x02_Male) (description "Generic connector, single row, 01x02, script generated (kicad-library-utils/schlib/autogen/connector/)"))
      (sheetpath (names /) (tstamps /))
      (tstamp 5BD43BD3))
    (comp (ref K6)
      (value HEADER-1X2)
      (footprint Connector_PinHeader_2.54mm:PinHeader_1x02_P2.54mm_Vertical)
      (libsource (lib Connector) (part Conn_01x02_Male) (description "Generic connector, single row, 01x02, script generated (kicad-library-utils/schlib/autogen/connector/)"))
      (sheetpath (names /) (tstamps /))
      (tstamp 5BD43BCF))
    (comp (ref K7)
      (value HEADER-1X2)
      (footprint Connector_PinHeader_2.54mm:PinHeader_1x02_P2.54mm_Vertical)
      (libsource (lib Connector) (part Conn_01x02_Male) (description "Generic connector, single row, 01x02, script generated (kicad-library-utils/schlib/autogen/connector/)"))
      (sheetpath (names /) (tstamps /))
      (tstamp 5BD43BCC))
    (comp (ref R7)
      (value 0O)
      (footprint Resistor_SMD:R_0805_2012Metric)
      (libsource (lib Device) (part R) (description Resistor))
      (sheetpath (names /) (tstamps /))
      (tstamp 5C2AB110))
    (comp (ref K8)
      (value HEADER-1X2)
      (footprint Connector_PinHeader_2.54mm:PinHeader_1x02_P2.54mm_Vertical)
      (libsource (lib Connector) (part Conn_01x02_Male) (description "Generic connector, single row, 01x02, script generated (kicad-library-utils/schlib/autogen/connector/)"))
      (sheetpath (names /) (tstamps /))
      (tstamp 5BF63C21))
    (comp (ref R1)
      (value 150O)
      (footprint Resistor_SMD:R_0805_2012Metric)
      (libsource (lib Device) (part R) (description Resistor))
      (sheetpath (names "/H Bridge/") (tstamps /5D193AA5/))
      (tstamp 5D193C4F))
    (comp (ref R4)
      (value 150O)
      (footprint Resistor_SMD:R_0805_2012Metric)
      (libsource (lib Device) (part R) (description Resistor))
      (sheetpath (names "/H Bridge/") (tstamps /5D193AA5/))
      (tstamp 5D193C56))
    (comp (ref R5)
      (value 150O)
      (footprint Resistor_SMD:R_0805_2012Metric)
      (libsource (lib Device) (part R) (description Resistor))
      (sheetpath (names "/H Bridge/") (tstamps /5D193AA5/))
      (tstamp 5D193C64))
    (comp (ref R3)
      (value 150O)
      (footprint Resistor_SMD:R_0805_2012Metric)
      (libsource (lib Device) (part R) (description Resistor))
      (sheetpath (names "/H Bridge/") (tstamps /5D193AA5/))
      (tstamp 5D193C6B))
    (comp (ref L1)
      (value 33uH)
      (footprint CustomFootprints:BigL)
      (libsource (lib Device) (part L) (description Inductor))
      (sheetpath (names "/H Bridge/") (tstamps /5D193AA5/))
      (tstamp 5D193C72))
    (comp (ref Q2)
      (value AO4752)
      (footprint Package_SO:SOIC-8_3.9x4.9mm_P1.27mm)
      (libsource (lib Mppt) (part GenericMosfet) (description ""))
      (sheetpath (names "/H Bridge/") (tstamps /5D193AA5/))
      (tstamp 5D1E33ED))
    (comp (ref Q3)
      (value AO4752)
      (footprint Package_SO:SOIC-8_3.9x4.9mm_P1.27mm)
      (libsource (lib Mppt) (part GenericMosfet) (description ""))
      (sheetpath (names "/H Bridge/") (tstamps /5D193AA5/))
      (tstamp 5D1E342D))
    (comp (ref Q4)
      (value AO4752)
      (footprint Package_SO:SOIC-8_3.9x4.9mm_P1.27mm)
      (libsource (lib Mppt) (part GenericMosfet) (description ""))
      (sheetpath (names "/H Bridge/") (tstamps /5D193AA5/))
      (tstamp 5D1E351E))
    (comp (ref Q1)
      (value AO4752)
      (footprint Package_SO:SOIC-8_3.9x4.9mm_P1.27mm)
      (libsource (lib Mppt) (part GenericMosfet) (description ""))
      (sheetpath (names "/H Bridge/") (tstamps /5D193AA5/))
      (tstamp 5D1E4088))
    (comp (ref L2)
      (value 10uH)
      (footprint CustomFootprints:BigL)
      (libsource (lib pspice) (part INDUCTOR) (description "Capacitor symbol for simulation only"))
      (sheetpath (names "/5V to 12V Boost Converter/") (tstamps /5D19A5BF/))
      (tstamp 5D298860))
    (comp (ref D1)
      (value MBR0520)
      (footprint Diode_SMD:D_SOD-123)
      (datasheet https://www.onsemi.com/pub/Collateral/MBR0520LT1-D.PDF)
      (libsource (lib pspice) (part DIODE) (description "Diode symbol for simulation only. Pin order incompatible with official kicad footprints"))
      (sheetpath (names "/5V to 12V Boost Converter/") (tstamps /5D19A5BF/))
      (tstamp 5D29894C))
    (comp (ref R18)
      (value 117K)
      (footprint Resistor_SMD:R_0805_2012Metric_Pad1.15x1.40mm_HandSolder)
      (datasheet ~)
      (libsource (lib Device) (part R) (description Resistor))
      (sheetpath (names "/5V to 12V Boost Converter/") (tstamps /5D19A5BF/))
      (tstamp 5D298B2C))
    (comp (ref CF1)
      (value 220pF)
      (footprint Capacitor_SMD:C_0805_2012Metric_Pad1.15x1.40mm_HandSolder)
      (libsource (lib pspice) (part CAP) (description "Capacitor symbol for simulation only"))
      (sheetpath (names "/5V to 12V Boost Converter/") (tstamps /5D19A5BF/))
      (tstamp 5D298CF9))
    (comp (ref C24)
      (value 4.7uf)
      (footprint Capacitor_SMD:C_0805_2012Metric_Pad1.15x1.40mm_HandSolder)
      (libsource (lib pspice) (part CAP) (description "Capacitor symbol for simulation only"))
      (sheetpath (names "/5V to 12V Boost Converter/") (tstamps /5D19A5BF/))
      (tstamp 5D299613))
    (comp (ref R17)
      (value 13.3K)
      (footprint Resistor_SMD:R_0805_2012Metric_Pad1.15x1.40mm_HandSolder)
      (datasheet ~)
      (libsource (lib Device) (part R) (description Resistor))
      (sheetpath (names "/5V to 12V Boost Converter/") (tstamps /5D19A5BF/))
      (tstamp 5D299962))
    (comp (ref C23)
      (value 2.2uf)
      (footprint Capacitor_SMD:C_0805_2012Metric_Pad1.15x1.40mm_HandSolder)
      (libsource (lib pspice) (part CAP) (description "Capacitor symbol for simulation only"))
      (sheetpath (names "/5V to 12V Boost Converter/") (tstamps /5D19A5BF/))
      (tstamp 5D29BC43))
    (comp (ref U9)
      (value LM27313)
      (footprint Package_TO_SOT_SMD:SOT-23-5)
      (datasheet http://www.ti.com/lit/ds/symlink/lm27313-q1.pdf)
      (libsource (lib Mppt) (part LM27313) (description ""))
      (sheetpath (names "/5V to 12V Boost Converter/") (tstamps /5D19A5BF/))
      (tstamp 5D3350DC))
    (comp (ref R12)
      (value 10KO)
      (footprint Resistor_SMD:R_0805_2012Metric)
      (libsource (lib Device) (part R) (description Resistor))
      (sheetpath (names /Controller/) (tstamps /5D17A0DE/))
      (tstamp 5D17FC6F))
    (comp (ref R13)
      (value 60.4KO)
      (footprint Resistor_SMD:R_0805_2012Metric)
      (libsource (lib Device) (part R) (description Resistor))
      (sheetpath (names /Controller/) (tstamps /5D17A0DE/))
      (tstamp 5D17FC76))
    (comp (ref R14)
      (value 10KO)
      (footprint Resistor_SMD:R_0805_2012Metric)
      (libsource (lib Device) (part R) (description Resistor))
      (sheetpath (names /Controller/) (tstamps /5D17A0DE/))
      (tstamp 5D17FC7D))
    (comp (ref RT4)
      (value 26kO)
      (footprint Resistor_SMD:R_0805_2012Metric)
      (libsource (lib Device) (part R) (description Resistor))
      (sheetpath (names /Controller/) (tstamps /5D17A0DE/))
      (tstamp 5D17FC84))
    (comp (ref RB4)
      (value 20kO)
      (footprint Resistor_SMD:R_0805_2012Metric)
      (libsource (lib Device) (part R) (description Resistor))
      (sheetpath (names /Controller/) (tstamps /5D17A0DE/))
      (tstamp 5D17FC8B))
    (comp (ref RT3)
      (value 2.2kO)
      (footprint Resistor_SMD:R_0805_2012Metric)
      (libsource (lib Device) (part R) (description Resistor))
      (sheetpath (names /Controller/) (tstamps /5D17A0DE/))
      (tstamp 5D17FC92))
    (comp (ref RB3)
      (value 3.3kO)
      (footprint Resistor_SMD:R_0805_2012Metric)
      (libsource (lib Device) (part R) (description Resistor))
      (sheetpath (names /Controller/) (tstamps /5D17A0DE/))
      (tstamp 5D17FC99))
    (comp (ref RB1)
      (value 5.6kO)
      (footprint Resistor_SMD:R_0805_2012Metric)
      (libsource (lib Device) (part R) (description Resistor))
      (sheetpath (names /Controller/) (tstamps /5D17A0DE/))
      (tstamp 5D17FCAE))
    (comp (ref C2)
      (value 0.1uF)
      (footprint Capacitor_SMD:C_0805_2012Metric_Pad1.15x1.40mm_HandSolder)
      (libsource (lib Device) (part C) (description "Unpolarized capacitor"))
      (sheetpath (names /Controller/) (tstamps /5D17A0DE/))
      (tstamp 5D17FCB5))
    (comp (ref RT2)
      (value 4.7kO)
      (footprint Resistor_SMD:R_0805_2012Metric)
      (libsource (lib Device) (part R) (description Resistor))
      (sheetpath (names /Controller/) (tstamps /5D17A0DE/))
      (tstamp 5D17FCBC))
    (comp (ref R9)
      (value 10KO)
      (footprint Resistor_SMD:R_0805_2012Metric)
      (libsource (lib Device) (part R) (description Resistor))
      (sheetpath (names /Controller/) (tstamps /5D17A0DE/))
      (tstamp 5D17FCD1))
    (comp (ref R10)
      (value 10KO)
      (footprint Resistor_SMD:R_0805_2012Metric)
      (libsource (lib Device) (part R) (description Resistor))
      (sheetpath (names /Controller/) (tstamps /5D17A0DE/))
      (tstamp 5D17FCD8))
    (comp (ref R11)
      (value 10KO)
      (footprint Resistor_SMD:R_0805_2012Metric)
      (libsource (lib Device) (part R) (description Resistor))
      (sheetpath (names /Controller/) (tstamps /5D17A0DE/))
      (tstamp 5D17FCDF))
    (comp (ref C1)
      (value 1uF)
      (footprint Capacitor_SMD:C_0805_2012Metric_Pad1.15x1.40mm_HandSolder)
      (libsource (lib Device) (part C) (description "Unpolarized capacitor"))
      (sheetpath (names /Controller/) (tstamps /5D17A0DE/))
      (tstamp 5D17FCE6))
    (comp (ref C4)
      (value 0.1uF)
      (footprint Capacitor_SMD:C_0805_2012Metric_Pad1.15x1.40mm_HandSolder)
      (libsource (lib Device) (part C) (description "Unpolarized capacitor"))
      (sheetpath (names /Controller/) (tstamps /5D17A0DE/))
      (tstamp 5D17FCED))
    (comp (ref C3)
      (value 0.1uF)
      (footprint Capacitor_SMD:C_0805_2012Metric_Pad1.15x1.40mm_HandSolder)
      (libsource (lib Device) (part C) (description "Unpolarized capacitor"))
      (sheetpath (names /Controller/) (tstamps /5D17A0DE/))
      (tstamp 5D17FD44))
    (comp (ref C5)
      (value 0.1uF)
      (footprint Capacitor_SMD:C_0805_2012Metric_Pad1.15x1.40mm_HandSolder)
      (libsource (lib Device) (part C) (description "Unpolarized capacitor"))
      (sheetpath (names /Controller/) (tstamps /5D17A0DE/))
      (tstamp 5D17FD4B))
    (comp (ref C6)
      (value 0.1uF)
      (footprint Capacitor_SMD:C_0805_2012Metric_Pad1.15x1.40mm_HandSolder)
      (libsource (lib Device) (part C) (description "Unpolarized capacitor"))
      (sheetpath (names /Controller/) (tstamps /5D17A0DE/))
      (tstamp 5D17FD52))
    (comp (ref R8)
      (value 4.7KO)
      (footprint Resistor_SMD:R_0805_2012Metric)
      (libsource (lib Device) (part R) (description Resistor))
      (sheetpath (names /Controller/) (tstamps /5D17A0DE/))
      (tstamp 5D17FD81))
    (comp (ref R6)
      (value 4.7KO)
      (footprint Resistor_SMD:R_0805_2012Metric)
      (libsource (lib Device) (part R) (description Resistor))
      (sheetpath (names /Controller/) (tstamps /5D17A0DE/))
      (tstamp 5D17FD94))
    (comp (ref R2)
      (value 4.7KO)
      (footprint Resistor_SMD:R_0805_2012Metric)
      (libsource (lib Device) (part R) (description Resistor))
      (sheetpath (names /Controller/) (tstamps /5D17A0DE/))
      (tstamp 5D296A28))
    (comp (ref IC1)
      (value SM72445)
      (footprint Package_SO:TSSOP-28_4.4x9.7mm_P0.65mm)
      (libsource (lib Mppt) (part SM72445) (description ""))
      (sheetpath (names /Controller/) (tstamps /5D17A0DE/))
      (tstamp 5D17FCFB))
    (comp (ref C25)
      (value 0.1uF)
      (footprint Capacitor_SMD:C_0805_2012Metric_Pad1.15x1.40mm_HandSolder)
      (libsource (lib Device) (part C) (description "Unpolarized capacitor"))
      (sheetpath (names /Controller/) (tstamps /5D17A0DE/))
      (tstamp 5D35CE07))
    (comp (ref R16)
      (value LVK12_10mO)
      (footprint CustomFootprints:LVK12)
      (datasheet ~)
      (libsource (lib Device) (part R_Shunt) (description "Shunt resistor"))
      (sheetpath (names "/Current Voltage Sense/") (tstamps /5D194064/))
      (tstamp 5D238CC8))
    (comp (ref R15)
      (value LVK12_10mO)
      (footprint CustomFootprints:LVK12)
      (datasheet ~)
      (libsource (lib Device) (part R_Shunt) (description "Shunt resistor"))
      (sheetpath (names "/Current Voltage Sense/") (tstamps /5D194064/))
      (tstamp 5D238EE8))
    (comp (ref U7)
      (value TSV912IDT)
      (footprint Package_SO:SOIC-8_3.9x4.9mm_P1.27mm)
      (datasheet www.st.com/resource/en/datasheet/tsv911.pdf)
      (libsource (lib Amplifier_Operational) (part TSV912IDT) (description "Dual rail-to-rail input/output 8 MHz operational amplifiers, SOIC-8"))
      (sheetpath (names "/Current Voltage Sense/") (tstamps /5D194064/))
      (tstamp 5D23961B))
    (comp (ref U5)
      (value MAX9934T)
      (footprint Package_SO:MSOP-8_3x3mm_P0.65mm)
      (libsource (lib Mppt) (part MAX9934T) (description ""))
      (sheetpath (names "/Current Voltage Sense/") (tstamps /5D194064/))
      (tstamp 5D23B8E2))
    (comp (ref U6)
      (value MAX9934T)
      (footprint Package_SO:MSOP-8_3x3mm_P0.65mm)
      (libsource (lib Mppt) (part MAX9934T) (description ""))
      (sheetpath (names "/Current Voltage Sense/") (tstamps /5D194064/))
      (tstamp 5D23B93C))
    (comp (ref C9)
      (value 0.1uF)
      (footprint Capacitor_SMD:C_0805_2012Metric_Pad1.15x1.40mm_HandSolder)
      (datasheet ~)
      (libsource (lib Device) (part C) (description "Unpolarized capacitor"))
      (sheetpath (names "/Current Voltage Sense/") (tstamps /5D194064/))
      (tstamp 5D23F011))
    (comp (ref C10)
      (value 0.1uF)
      (footprint Capacitor_SMD:C_0805_2012Metric_Pad1.15x1.40mm_HandSolder)
      (datasheet ~)
      (libsource (lib Device) (part C) (description "Unpolarized capacitor"))
      (sheetpath (names "/Current Voltage Sense/") (tstamps /5D194064/))
      (tstamp 5D240106))
    (comp (ref U8)
      (value TSV912IDT)
      (footprint Package_SO:SOIC-8_3.9x4.9mm_P1.27mm)
      (datasheet www.st.com/resource/en/datasheet/tsv911.pdf)
      (libsource (lib Amplifier_Operational) (part TSV912IDT) (description "Dual rail-to-rail input/output 8 MHz operational amplifiers, SOIC-8"))
      (sheetpath (names "/Current Voltage Sense/") (tstamps /5D194064/))
      (tstamp 5D242BA6))
    (comp (ref C11)
      (value 0.1uF)
      (footprint Capacitor_SMD:C_0805_2012Metric_Pad1.15x1.40mm_HandSolder)
      (datasheet ~)
      (libsource (lib Device) (part C) (description "Unpolarized capacitor"))
      (sheetpath (names "/Current Voltage Sense/") (tstamps /5D194064/))
      (tstamp 5D242C96))
    (comp (ref C22)
      (value 0.1uF)
      (footprint Capacitor_SMD:C_0805_2012Metric_Pad1.15x1.40mm_HandSolder)
      (datasheet ~)
      (libsource (lib Device) (part C) (description "Unpolarized capacitor"))
      (sheetpath (names "/Current Voltage Sense/") (tstamps /5D194064/))
      (tstamp 5D2535ED))
    (comp (ref TP4)
      (value TestPoint)
      (footprint TestPoint:TestPoint_Pad_1.0x1.0mm)
      (datasheet ~)
      (libsource (lib Connector) (part TestPoint) (description "test point"))
      (sheetpath (names "/Current Voltage Sense/") (tstamps /5D194064/))
      (tstamp 5D2B86CA))
    (comp (ref TP5)
      (value TestPoint)
      (footprint TestPoint:TestPoint_Pad_1.0x1.0mm)
      (datasheet ~)
      (libsource (lib Connector) (part TestPoint) (description "test point"))
      (sheetpath (names "/Current Voltage Sense/") (tstamps /5D194064/))
      (tstamp 5D2B9BC2))
    (comp (ref TP2)
      (value TestPoint)
      (footprint TestPoint:TestPoint_Pad_1.0x1.0mm)
      (datasheet ~)
      (libsource (lib Connector) (part TestPoint) (description "test point"))
      (sheetpath (names "/Current Voltage Sense/") (tstamps /5D194064/))
      (tstamp 5D2B9C80))
    (comp (ref TP3)
      (value TestPoint)
      (footprint TestPoint:TestPoint_Pad_1.0x1.0mm)
      (datasheet ~)
      (libsource (lib Connector) (part TestPoint) (description "test point"))
      (sheetpath (names "/Current Voltage Sense/") (tstamps /5D194064/))
      (tstamp 5D2B9D09))
    (comp (ref R20)
      (value 24k)
      (footprint Resistor_SMD:R_0805_2012Metric_Pad1.15x1.40mm_HandSolder)
      (datasheet ~)
      (libsource (lib Device) (part R) (description Resistor))
      (sheetpath (names "/Current Voltage Sense/") (tstamps /5D194064/))
      (tstamp 5D33029C))
    (comp (ref R21)
      (value 12k)
      (footprint Resistor_SMD:R_0805_2012Metric_Pad1.15x1.40mm_HandSolder)
      (datasheet ~)
      (libsource (lib Device) (part R) (description Resistor))
      (sheetpath (names "/Current Voltage Sense/") (tstamps /5D194064/))
      (tstamp 5D33834C))
    (comp (ref R22)
      (value 20kO)
      (footprint Resistor_SMD:R_0805_2012Metric_Pad1.15x1.40mm_HandSolder)
      (datasheet ~)
      (libsource (lib Device) (part R) (description Resistor))
      (sheetpath (names "/Current Voltage Sense/") (tstamps /5D194064/))
      (tstamp 5D365F81))
    (comp (ref R23)
      (value 10kO)
      (footprint Resistor_SMD:R_0805_2012Metric_Pad1.15x1.40mm_HandSolder)
      (datasheet ~)
      (libsource (lib Device) (part R) (description Resistor))
      (sheetpath (names "/Current Voltage Sense/") (tstamps /5D194064/))
      (tstamp 5D366F94))
    (comp (ref C28)
      (value 22nF)
      (footprint Capacitor_SMD:C_0805_2012Metric_Pad1.15x1.40mm_HandSolder)
      (datasheet ~)
      (libsource (lib Device) (part C) (description "Unpolarized capacitor"))
      (sheetpath (names "/Current Voltage Sense/") (tstamps /5D194064/))
      (tstamp 5D36FEE4))
    (comp (ref C29)
      (value 22nF)
      (footprint Capacitor_SMD:C_0805_2012Metric_Pad1.15x1.40mm_HandSolder)
      (datasheet ~)
      (libsource (lib Device) (part C) (description "Unpolarized capacitor"))
      (sheetpath (names "/Current Voltage Sense/") (tstamps /5D194064/))
      (tstamp 5D3749EC))
    (comp (ref C27)
      (value 22nF)
      (footprint Capacitor_SMD:C_0805_2012Metric_Pad1.15x1.40mm_HandSolder)
      (datasheet ~)
      (libsource (lib Device) (part C) (description "Unpolarized capacitor"))
      (sheetpath (names "/Current Voltage Sense/") (tstamps /5D194064/))
      (tstamp 5D37E187))
    (comp (ref C26)
      (value 22nF)
      (footprint Capacitor_SMD:C_0805_2012Metric_Pad1.15x1.40mm_HandSolder)
      (datasheet ~)
      (libsource (lib Device) (part C) (description "Unpolarized capacitor"))
      (sheetpath (names "/Current Voltage Sense/") (tstamps /5D194064/))
      (tstamp 5D385417))
    (comp (ref C15)
      (value 1uF)
      (footprint Capacitor_SMD:C_0805_2012Metric_Pad1.15x1.40mm_HandSolder)
      (datasheet ~)
      (libsource (lib Device) (part C) (description "Unpolarized capacitor"))
      (sheetpath (names "/Bridge Drivers/") (tstamps /5D19A59E/))
      (tstamp 5D242434))
    (comp (ref C17)
      (value 1uF)
      (footprint Capacitor_SMD:C_0805_2012Metric_Pad1.15x1.40mm_HandSolder)
      (datasheet ~)
      (libsource (lib Device) (part C) (description "Unpolarized capacitor"))
      (sheetpath (names "/Bridge Drivers/") (tstamps /5D19A59E/))
      (tstamp 5D242472))
    (comp (ref C19)
      (value 1uF)
      (footprint Capacitor_SMD:C_0805_2012Metric_Pad1.15x1.40mm_HandSolder)
      (datasheet ~)
      (libsource (lib Device) (part C) (description "Unpolarized capacitor"))
      (sheetpath (names "/Bridge Drivers/") (tstamps /5D19A59E/))
      (tstamp 5D2424A0))
    (comp (ref C21)
      (value 1uF)
      (footprint Capacitor_SMD:C_0805_2012Metric_Pad1.15x1.40mm_HandSolder)
      (datasheet ~)
      (libsource (lib Device) (part C) (description "Unpolarized capacitor"))
      (sheetpath (names "/Bridge Drivers/") (tstamps /5D19A59E/))
      (tstamp 5D242523))
    (comp (ref C14)
      (value 0.1uF)
      (footprint Capacitor_SMD:C_0805_2012Metric_Pad1.15x1.40mm_HandSolder)
      (datasheet ~)
      (libsource (lib Device) (part C) (description "Unpolarized capacitor"))
      (sheetpath (names "/Bridge Drivers/") (tstamps /5D19A59E/))
      (tstamp 5D243B36))
    (comp (ref C16)
      (value 0.1uF)
      (footprint Capacitor_SMD:C_0805_2012Metric_Pad1.15x1.40mm_HandSolder)
      (datasheet ~)
      (libsource (lib Device) (part C) (description "Unpolarized capacitor"))
      (sheetpath (names "/Bridge Drivers/") (tstamps /5D19A59E/))
      (tstamp 5D243B60))
    (comp (ref C18)
      (value 0.1uF)
      (footprint Capacitor_SMD:C_0805_2012Metric_Pad1.15x1.40mm_HandSolder)
      (datasheet ~)
      (libsource (lib Device) (part C) (description "Unpolarized capacitor"))
      (sheetpath (names "/Bridge Drivers/") (tstamps /5D19A59E/))
      (tstamp 5D243BB0))
    (comp (ref C20)
      (value 0.1uF)
      (footprint Capacitor_SMD:C_0805_2012Metric_Pad1.15x1.40mm_HandSolder)
      (datasheet ~)
      (libsource (lib Device) (part C) (description "Unpolarized capacitor"))
      (sheetpath (names "/Bridge Drivers/") (tstamps /5D19A59E/))
      (tstamp 5D243BEE))
    (comp (ref U1)
      (value MCP1416)
      (footprint Package_TO_SOT_SMD:SOT-23-5)
      (datasheet http://ww1.microchip.com/downloads/en/DeviceDoc/20002092F.pdf)
      (libsource (lib Driver_FET) (part MCP1416) (description "1.5A High speed power MOSFET driver with non-inverting output, SOT-23-5"))
      (sheetpath (names "/Bridge Drivers/") (tstamps /5D19A59E/))
      (tstamp 5D2C15D3))
    (comp (ref U2)
      (value MCP1416)
      (footprint Package_TO_SOT_SMD:SOT-23-5)
      (datasheet http://ww1.microchip.com/downloads/en/DeviceDoc/20002092F.pdf)
      (libsource (lib Driver_FET) (part MCP1416) (description "1.5A High speed power MOSFET driver with non-inverting output, SOT-23-5"))
      (sheetpath (names "/Bridge Drivers/") (tstamps /5D19A59E/))
      (tstamp 5D2C29E7))
    (comp (ref U3)
      (value MCP1416)
      (footprint Package_TO_SOT_SMD:SOT-23-5)
      (datasheet http://ww1.microchip.com/downloads/en/DeviceDoc/20002092F.pdf)
      (libsource (lib Driver_FET) (part MCP1416) (description "1.5A High speed power MOSFET driver with non-inverting output, SOT-23-5"))
      (sheetpath (names "/Bridge Drivers/") (tstamps /5D19A59E/))
      (tstamp 5D2C3393))
    (comp (ref U4)
      (value MCP1416)
      (footprint Package_TO_SOT_SMD:SOT-23-5)
      (datasheet http://ww1.microchip.com/downloads/en/DeviceDoc/20002092F.pdf)
      (libsource (lib Driver_FET) (part MCP1416) (description "1.5A High speed power MOSFET driver with non-inverting output, SOT-23-5"))
      (sheetpath (names "/Bridge Drivers/") (tstamps /5D19A59E/))
      (tstamp 5D2C3C7B)))
  (libparts
    (libpart (lib Amplifier_Operational) (part LM2904)
      (aliases
        (alias LM358)
        (alias AD8620)
        (alias LMC6062)
        (alias LMC6082)
        (alias TL062)
        (alias TL072)
        (alias TL082)
        (alias NE5532)
        (alias SA5532)
        (alias RC4558)
        (alias RC4560)
        (alias RC4580)
        (alias LMV358)
        (alias TS912)
        (alias TSV912IDT)
        (alias TSV912IST)
        (alias TLC272)
        (alias TLC277)
        (alias MCP602)
        (alias OPA2134)
        (alias OPA2340)
        (alias OPA2376xxD)
        (alias OPA2376xxDGK)
        (alias MC33078)
        (alias MC33178)
        (alias LM4562)
        (alias OP249)
        (alias OP275)
        (alias ADA4075-2)
        (alias MCP6002-xP)
        (alias MCP6002-xSN)
        (alias MCP6002-xMS)
        (alias LM7332)
        (alias OPA2333xxD)
        (alias OPA2333xxDGK)
        (alias LMC6482)
        (alias LT1492)
        (alias LTC6081xMS8)
        (alias LM6172)
        (alias MCP6L92)
        (alias NJM2043)
        (alias NJM2114)
        (alias NJM4556A)
        (alias NJM4558)
        (alias NJM4559)
        (alias NJM4560)
        (alias NJM4580)
        (alias NJM5532)
        (alias ADA4807-2ARM)
        (alias OPA2691)
        (alias LT6234)
        (alias OPA2356xxD)
        (alias OPA2356xxDGK)
        (alias OPA1612AxD)
        (alias MC33172)
        (alias OPA1602)
        (alias TLV2372)
        (alias LT6237))
      (description "Dual Operational Amplifiers, DIP-8/SOIC-8/TSSOP-8/VSSOP-8")
      (docs http://www.ti.com/lit/ds/symlink/lm358.pdf)
      (footprints
        (fp SOIC*3.9x4.9mm*P1.27mm*)
        (fp DIP*W7.62mm*)
        (fp TO*99*)
        (fp OnSemi*Micro8*)
        (fp TSSOP*3x3mm*P0.65mm*)
        (fp TSSOP*4.4x3mm*P0.65mm*)
        (fp MSOP*3x3mm*P0.65mm*)
        (fp SSOP*3.9x4.9mm*P0.635mm*)
        (fp LFCSP*2x2mm*P0.5mm*)
        (fp *SIP*)
        (fp SOIC*5.3x6.2mm*P1.27mm*))
      (fields
        (field (name Reference) U)
        (field (name Value) LM2904))
      (pins
        (pin (num 1) (name ~) (type output))
        (pin (num 2) (name -) (type input))
        (pin (num 3) (name +) (type input))
        (pin (num 4) (name V-) (type power_in))
        (pin (num 5) (name +) (type input))
        (pin (num 6) (name -) (type input))
        (pin (num 7) (name ~) (type output))
        (pin (num 8) (name V+) (type power_in))))
    (libpart (lib Connector) (part Conn_01x02_Male)
      (description "Generic connector, single row, 01x02, script generated (kicad-library-utils/schlib/autogen/connector/)")
      (docs ~)
      (footprints
        (fp Connector*:*_1x??_*))
      (fields
        (field (name Reference) J)
        (field (name Value) Conn_01x02_Male))
      (pins
        (pin (num 1) (name Pin_1) (type passive))
        (pin (num 2) (name Pin_2) (type passive))))
    (libpart (lib Connector) (part TestPoint)
      (description "test point")
      (docs ~)
      (footprints
        (fp Pin*)
        (fp Test*))
      (fields
        (field (name Reference) TP)
        (field (name Value) TestPoint))
      (pins
        (pin (num 1) (name 1) (type passive))))
    (libpart (lib Device) (part C)
      (description "Unpolarized capacitor")
      (docs ~)
      (footprints
        (fp C_*))
      (fields
        (field (name Reference) C)
        (field (name Value) C))
      (pins
        (pin (num 1) (name ~) (type passive))
        (pin (num 2) (name ~) (type passive))))
    (libpart (lib Device) (part L)
      (description Inductor)
      (docs ~)
      (footprints
        (fp Choke_*)
        (fp *Coil*)
        (fp Inductor_*)
        (fp L_*))
      (fields
        (field (name Reference) L)
        (field (name Value) L))
      (pins
        (pin (num 1) (name 1) (type passive))
        (pin (num 2) (name 2) (type passive))))
    (libpart (lib Device) (part R)
      (description Resistor)
      (docs ~)
      (footprints
        (fp R_*))
      (fields
        (field (name Reference) R)
        (field (name Value) R))
      (pins
        (pin (num 1) (name ~) (type passive))
        (pin (num 2) (name ~) (type passive))))
    (libpart (lib Device) (part R_Shunt)
      (description "Shunt resistor")
      (docs ~)
      (footprints
        (fp R_*Shunt*))
      (fields
        (field (name Reference) R)
        (field (name Value) R_Shunt))
      (pins
        (pin (num 1) (name 1) (type passive))
        (pin (num 2) (name 2) (type passive))
        (pin (num 3) (name 3) (type passive))
        (pin (num 4) (name 4) (type passive))))
    (libpart (lib Driver_FET) (part MCP1416)
      (description "1.5A High speed power MOSFET driver with non-inverting output, SOT-23-5")
      (docs http://ww1.microchip.com/downloads/en/DeviceDoc/20002092F.pdf)
      (footprints
        (fp SOT?23*))
      (fields
        (field (name Reference) U)
        (field (name Value) MCP1416)
        (field (name Footprint) Package_TO_SOT_SMD:SOT-23-5))
      (pins
        (pin (num 1) (name NC) (type NotConnected))
        (pin (num 2) (name Vdd) (type power_in))
        (pin (num 3) (name IN) (type input))
        (pin (num 4) (name GND) (type power_in))
        (pin (num 5) (name OUT) (type output))))
    (libpart (lib Mppt) (part GenericMosfet)
      (fields
        (field (name Reference) Q)
        (field (name Value) GenericMosfet))
      (pins
        (pin (num 1) (name S) (type passive))
        (pin (num 2) (name S) (type passive))
        (pin (num 3) (name S) (type passive))
        (pin (num 4) (name G) (type passive))
        (pin (num 5) (name D) (type passive))
        (pin (num 6) (name D) (type passive))
        (pin (num 7) (name D) (type passive))
        (pin (num 8) (name D) (type passive))))
    (libpart (lib Mppt) (part LM27313)
      (docs http://www.ti.com/lit/ds/symlink/lm27313-q1.pdf)
      (fields
        (field (name Reference) U)
        (field (name Value) LM27313)
        (field (name Footprint) Package_TO_SOT_SMD:SOT-23-5))
      (pins
        (pin (num 1) (name SW) (type power_out))
        (pin (num 2) (name GND) (type power_in))
        (pin (num 3) (name FB) (type input))
        (pin (num 4) (name SHDN) (type input))
        (pin (num 5) (name Vin) (type power_in))))
    (libpart (lib Mppt) (part MAX9934T)
      (docs https://datasheets.maximintegrated.com/en/ds/MAX9934.pdf)
      (fields
        (field (name Reference) U)
        (field (name Value) MAX9934T))
      (pins
        (pin (num 1) (name Vcc) (type power_in))
        (pin (num 2) (name Out) (type output))
        (pin (num 3) (name GND) (type power_in))
        (pin (num 4) (name NC) (type input))
        (pin (num 5) (name NC) (type input))
        (pin (num 6) (name CS) (type input))
        (pin (num 7) (name RS-) (type input))
        (pin (num 8) (name RS+) (type input))))
    (libpart (lib Mppt) (part SM72445)
      (docs http://www.ti.com/lit/ds/symlink/sm72445.pdf)
      (fields
        (field (name Reference) IC)
        (field (name Value) SM72445)
        (field (name Footprint) Package_SO:TSSOP-28_4.4x9.7mm_P0.65mm))
      (pins
        (pin (num 1) (name ~RST) (type passive))
        (pin (num 2) (name NC1) (type passive))
        (pin (num 3) (name VDDD) (type passive))
        (pin (num 4) (name VSSD) (type passive))
        (pin (num 5) (name NC2) (type passive))
        (pin (num 6) (name I2C0) (type passive))
        (pin (num 7) (name I2C1) (type passive))
        (pin (num 8) (name SCL) (type passive))
        (pin (num 9) (name SDA) (type passive))
        (pin (num 10) (name NC3) (type passive))
        (pin (num 11) (name PM_OUT) (type passive))
        (pin (num 12) (name VDDA) (type passive))
        (pin (num 13) (name VSSA) (type passive))
        (pin (num 14) (name A0) (type passive))
        (pin (num 15) (name AVIN) (type passive))
        (pin (num 16) (name A2) (type passive))
        (pin (num 17) (name AVOUT) (type passive))
        (pin (num 18) (name A4) (type passive))
        (pin (num 19) (name AIIN) (type passive))
        (pin (num 20) (name A6) (type passive))
        (pin (num 21) (name AIOUT) (type passive))
        (pin (num 22) (name I2C2) (type passive))
        (pin (num 23) (name NC4) (type passive))
        (pin (num 24) (name LIB) (type passive))
        (pin (num 25) (name HIB) (type passive))
        (pin (num 26) (name HIA) (type passive))
        (pin (num 27) (name LIA) (type passive))
        (pin (num 28) (name PM) (type passive))))
    (libpart (lib pspice) (part CAP)
      (aliases
        (alias C))
      (description "Capacitor symbol for simulation only")
      (docs ~)
      (fields
        (field (name Reference) C)
        (field (name Value) CAP))
      (pins
        (pin (num 1) (name ~) (type passive))
        (pin (num 2) (name ~) (type passive))))
    (libpart (lib pspice) (part DIODE)
      (description "Diode symbol for simulation only. Pin order incompatible with official kicad footprints")
      (docs ~)
      (fields
        (field (name Reference) D)
        (field (name Value) DIODE))
      (pins
        (pin (num 1) (name K) (type input))
        (pin (num 2) (name A) (type input))))
    (libpart (lib pspice) (part INDUCTOR)
      (description "Capacitor symbol for simulation only")
      (docs ~)
      (fields
        (field (name Reference) L)
        (field (name Value) INDUCTOR))
      (pins
        (pin (num 1) (name 1) (type input))
        (pin (num 2) (name 2) (type input)))))
  (libraries
    (library (logical Amplifier_Operational)
      (uri "C:\\Program Files\\KiCad\\share\\kicad\\library/Amplifier_Operational.lib"))
    (library (logical Connector)
      (uri "C:\\Program Files\\KiCad\\share\\kicad\\library/Connector.lib"))
    (library (logical Device)
      (uri "C:\\Program Files\\KiCad\\share\\kicad\\library/Device.lib"))
    (library (logical Driver_FET)
      (uri "C:\\Program Files\\KiCad\\share\\kicad\\library/Driver_FET.lib"))
    (library (logical Mppt)
      (uri "C:\\Users\\ricky\\Documents\\cubesat-powersystem\\POW-02-MPPT\\Board 3.0/Mppt.lib"))
    (library (logical pspice)
      (uri "C:\\Program Files\\KiCad\\share\\kicad\\library/pspice.lib")))
  (nets
    (net (code 1) (name GND)
      (node (ref IC1) (pin 2))
      (node (ref C25) (pin 2))
      (node (ref IC1) (pin 4))
      (node (ref IC1) (pin 10))
      (node (ref Q3) (pin 1))
      (node (ref Q3) (pin 2))
      (node (ref Q3) (pin 3))
      (node (ref R7) (pin 2))
      (node (ref K7) (pin 1))
      (node (ref K6) (pin 1))
      (node (ref K5) (pin 1))
      (node (ref C46) (pin 2))
      (node (ref C45) (pin 2))
      (node (ref C44) (pin 2))
      (node (ref C43) (pin 2))
      (node (ref C8) (pin 2))
      (node (ref C13) (pin 2))
      (node (ref C3) (pin 2))
      (node (ref R14) (pin 1))
      (node (ref RB4) (pin 2))
      (node (ref RB3) (pin 1))
      (node (ref RB1) (pin 2))
      (node (ref C2) (pin 2))
      (node (ref C5) (pin 2))
      (node (ref C6) (pin 2))
      (node (ref R17) (pin 2))
      (node (ref C23) (pin 2))
      (node (ref U9) (pin 2))
      (node (ref C24) (pin 2))
      (node (ref Q2) (pin 1))
      (node (ref Q2) (pin 2))
      (node (ref Q2) (pin 3))
      (node (ref C21) (pin 2))
      (node (ref U4) (pin 4))
      (node (ref U3) (pin 4))
      (node (ref U2) (pin 4))
      (node (ref U1) (pin 4))
      (node (ref C19) (pin 2))
      (node (ref C17) (pin 2))
      (node (ref C15) (pin 2))
      (node (ref C20) (pin 2))
      (node (ref C18) (pin 2))
      (node (ref C16) (pin 2))
      (node (ref C14) (pin 2))
      (node (ref K8) (pin 1))
      (node (ref C7) (pin 2))
      (node (ref K4) (pin 1))
      (node (ref C12) (pin 2)))
    (net (code 2) (name +3V3)
      (node (ref U7) (pin 8))
      (node (ref U6) (pin 6))
      (node (ref C10) (pin 1))
      (node (ref C9) (pin 1))
      (node (ref U5) (pin 6))
      (node (ref U5) (pin 1))
      (node (ref U5) (pin 1))
      (node (ref K5) (pin 2))
      (node (ref U6) (pin 1))
      (node (ref U6) (pin 1))
      (node (ref C22) (pin 1)))
    (net (code 3) (name +5V)
      (node (ref IC1) (pin 3))
      (node (ref R13) (pin 1))
      (node (ref R12) (pin 1))
      (node (ref C25) (pin 1))
      (node (ref C23) (pin 1))
      (node (ref R2) (pin 1))
      (node (ref IC1) (pin 12))
      (node (ref IC1) (pin 14))
      (node (ref R9) (pin 1))
      (node (ref R10) (pin 1))
      (node (ref R11) (pin 1))
      (node (ref C1) (pin 1))
      (node (ref C4) (pin 1))
      (node (ref U9) (pin 4))
      (node (ref U9) (pin 5))
      (node (ref C11) (pin 1))
      (node (ref U8) (pin 8))
      (node (ref L2) (pin 1))
      (node (ref RT2) (pin 2))
      (node (ref K4) (pin 2))
      (node (ref C2) (pin 1))
      (node (ref R8) (pin 1))
      (node (ref RT3) (pin 2))
      (node (ref RT4) (pin 2))
      (node (ref R6) (pin 2)))
    (net (code 4) (name +12V)
      (node (ref CF1) (pin 1))
      (node (ref U4) (pin 2))
      (node (ref U3) (pin 2))
      (node (ref U2) (pin 2))
      (node (ref D1) (pin 2))
      (node (ref R18) (pin 1))
      (node (ref U1) (pin 2))
      (node (ref C20) (pin 1))
      (node (ref C24) (pin 1))
      (node (ref C18) (pin 1))
      (node (ref C16) (pin 1))
      (node (ref C14) (pin 1))
      (node (ref C21) (pin 1))
      (node (ref C19) (pin 1))
      (node (ref C17) (pin 1))
      (node (ref C15) (pin 1)))
    (net (code 5) (name /Vin)
      (node (ref Q1) (pin 8))
      (node (ref Q1) (pin 7))
      (node (ref Q1) (pin 6))
      (node (ref Q1) (pin 5))
      (node (ref R16) (pin 4)))
    (net (code 6) (name /Vbridge)
      (node (ref Q4) (pin 6))
      (node (ref R15) (pin 1))
      (node (ref Q4) (pin 8))
      (node (ref Q4) (pin 7))
      (node (ref Q4) (pin 5))
      (node (ref R22) (pin 2)))
    (net (code 7) (name /Iin_Reading)
      (node (ref IC1) (pin 19))
      (node (ref U7) (pin 2))
      (node (ref U7) (pin 1))
      (node (ref TP4) (pin 1))
      (node (ref C29) (pin 1)))
    (net (code 8) (name /Vout)
      (node (ref C8) (pin 1))
      (node (ref R15) (pin 4))
      (node (ref C46) (pin 1))
      (node (ref C7) (pin 1))
      (node (ref K7) (pin 2))
      (node (ref C45) (pin 1)))
    (net (code 9) (name GNDA)
      (node (ref C11) (pin 2))
      (node (ref U8) (pin 4))
      (node (ref U5) (pin 3))
      (node (ref R23) (pin 1))
      (node (ref R21) (pin 2))
      (node (ref U7) (pin 4))
      (node (ref C10) (pin 2))
      (node (ref C22) (pin 2))
      (node (ref R7) (pin 1))
      (node (ref C27) (pin 2))
      (node (ref C26) (pin 2))
      (node (ref C29) (pin 2))
      (node (ref C28) (pin 2))
      (node (ref C1) (pin 2))
      (node (ref C4) (pin 2))
      (node (ref R20) (pin 2))
      (node (ref IC1) (pin 13))
      (node (ref C9) (pin 2))
      (node (ref U6) (pin 3)))
    (net (code 10) (name /RST)
      (node (ref K8) (pin 2))
      (node (ref IC1) (pin 1))
      (node (ref R2) (pin 2)))
    (net (code 11) (name "/Bridge Drivers/HOA")
      (node (ref U3) (pin 5))
      (node (ref R1) (pin 1)))
    (net (code 12) (name "/Bridge Drivers/HOB")
      (node (ref R5) (pin 1))
      (node (ref U4) (pin 5)))
    (net (code 13) (name "/Bridge Drivers/LOA")
      (node (ref U1) (pin 5))
      (node (ref R4) (pin 1)))
    (net (code 14) (name "/Bridge Drivers/LOB")
      (node (ref U2) (pin 5))
      (node (ref R3) (pin 1)))
    (net (code 15) (name /SCL)
      (node (ref IC1) (pin 8))
      (node (ref K1) (pin 2))
      (node (ref R8) (pin 2)))
    (net (code 16) (name /Vin_Reading)
      (node (ref U8) (pin 2))
      (node (ref U8) (pin 1))
      (node (ref IC1) (pin 15))
      (node (ref TP2) (pin 1))
      (node (ref C26) (pin 1)))
    (net (code 17) (name /Vout_Reading)
      (node (ref C27) (pin 1))
      (node (ref IC1) (pin 17))
      (node (ref U8) (pin 7))
      (node (ref U8) (pin 6))
      (node (ref TP3) (pin 1)))
    (net (code 18) (name /Iout_Reading)
      (node (ref IC1) (pin 21))
      (node (ref U7) (pin 7))
      (node (ref U7) (pin 6))
      (node (ref C28) (pin 1))
      (node (ref TP5) (pin 1)))
    (net (code 19) (name /SDA)
      (node (ref IC1) (pin 9))
      (node (ref R6) (pin 1))
      (node (ref K1) (pin 1)))
    (net (code 20) (name PV+)
      (node (ref C43) (pin 1))
      (node (ref C44) (pin 1))
      (node (ref C12) (pin 1))
      (node (ref K6) (pin 2))
      (node (ref C13) (pin 1))
      (node (ref U8) (pin 3))
      (node (ref R16) (pin 1)))
    (net (code 21) (name "/Bridge Drivers/LIA")
      (node (ref IC1) (pin 27))
      (node (ref U1) (pin 3)))
    (net (code 22) (name "/Bridge Drivers/HIA")
      (node (ref U3) (pin 3))
      (node (ref IC1) (pin 26)))
    (net (code 23) (name "/Bridge Drivers/HIB")
      (node (ref IC1) (pin 25))
      (node (ref U4) (pin 3)))
    (net (code 24) (name "/Bridge Drivers/LIB")
      (node (ref U2) (pin 3))
      (node (ref IC1) (pin 24)))
    (net (code 25) (name "Net-(IC1-Pad6)")
      (node (ref R10) (pin 2))
      (node (ref IC1) (pin 6)))
    (net (code 26) (name "Net-(IC1-Pad5)")
      (node (ref R9) (pin 2))
      (node (ref IC1) (pin 5)))
    (net (code 27) (name "Net-(IC1-Pad11)")
      (node (ref IC1) (pin 11)))
    (net (code 28) (name /Controller/A2)
      (node (ref RT2) (pin 1))
      (node (ref C3) (pin 1))
      (node (ref RB1) (pin 1))
      (node (ref IC1) (pin 16)))
    (net (code 29) (name /Controller/A4)
      (node (ref RT3) (pin 1))
      (node (ref RB3) (pin 2))
      (node (ref IC1) (pin 18))
      (node (ref C5) (pin 1)))
    (net (code 30) (name "Net-(IC1-Pad7)")
      (node (ref R11) (pin 2))
      (node (ref IC1) (pin 7)))
    (net (code 31) (name "Net-(IC1-Pad28)")
      (node (ref R12) (pin 2))
      (node (ref IC1) (pin 28)))
    (net (code 32) (name "Net-(IC1-Pad23)")
      (node (ref R13) (pin 2))
      (node (ref IC1) (pin 23)))
    (net (code 33) (name "Net-(IC1-Pad22)")
      (node (ref R14) (pin 2))
      (node (ref IC1) (pin 22)))
    (net (code 34) (name /Controller/A6)
      (node (ref IC1) (pin 20))
      (node (ref RT4) (pin 1))
      (node (ref RB4) (pin 1))
      (node (ref C6) (pin 1)))
    (net (code 35) (name "/H Bridge/HSB")
      (node (ref Q4) (pin 3))
      (node (ref Q4) (pin 2))
      (node (ref Q3) (pin 5))
      (node (ref Q3) (pin 6))
      (node (ref Q3) (pin 7))
      (node (ref Q3) (pin 8))
      (node (ref L1) (pin 2))
      (node (ref Q4) (pin 1)))
    (net (code 36) (name "Net-(Q1-Pad4)")
      (node (ref R1) (pin 2))
      (node (ref Q1) (pin 4)))
    (net (code 37) (name "/H Bridge/HSA")
      (node (ref Q2) (pin 6))
      (node (ref Q1) (pin 1))
      (node (ref Q2) (pin 8))
      (node (ref Q1) (pin 2))
      (node (ref Q1) (pin 3))
      (node (ref Q2) (pin 7))
      (node (ref L1) (pin 1))
      (node (ref Q2) (pin 5)))
    (net (code 38) (name "Net-(Q3-Pad4)")
      (node (ref R3) (pin 2))
      (node (ref Q3) (pin 4)))
    (net (code 39) (name "Net-(Q4-Pad4)")
      (node (ref Q4) (pin 4))
      (node (ref R5) (pin 2)))
    (net (code 40) (name "Net-(Q2-Pad4)")
      (node (ref R4) (pin 2))
      (node (ref Q2) (pin 4)))
    (net (code 41) (name "Net-(U6-Pad4)")
      (node (ref U6) (pin 4)))
    (net (code 42) (name "Net-(U6-Pad5)")
      (node (ref U6) (pin 5)))
    (net (code 43) (name "Net-(R21-Pad1)")
      (node (ref U6) (pin 2))
      (node (ref R21) (pin 1))
      (node (ref U7) (pin 5)))
    (net (code 44) (name "Net-(R22-Pad1)")
      (node (ref R23) (pin 2))
      (node (ref R22) (pin 1))
      (node (ref U8) (pin 5)))
    (net (code 45) (name "Net-(R20-Pad1)")
      (node (ref U5) (pin 2))
      (node (ref R20) (pin 1))
      (node (ref U7) (pin 3)))
    (net (code 46) (name "Net-(R15-Pad3)")
      (node (ref R15) (pin 3))
      (node (ref U6) (pin 7)))
    (net (code 47) (name "Net-(R16-Pad2)")
      (node (ref R16) (pin 2))
      (node (ref U5) (pin 8)))
    (net (code 48) (name "Net-(R16-Pad3)")
      (node (ref U5) (pin 7))
      (node (ref R16) (pin 3)))
    (net (code 49) (name "Net-(R15-Pad2)")
      (node (ref R15) (pin 2))
      (node (ref U6) (pin 8)))
    (net (code 50) (name "Net-(U5-Pad5)")
      (node (ref U5) (pin 5)))
    (net (code 51) (name "Net-(U5-Pad4)")
      (node (ref U5) (pin 4)))
    (net (code 52) (name "Net-(U1-Pad1)")
      (node (ref U1) (pin 1)))
    (net (code 53) (name "Net-(U2-Pad1)")
      (node (ref U2) (pin 1)))
    (net (code 54) (name "Net-(U3-Pad1)")
      (node (ref U3) (pin 1)))
    (net (code 55) (name "Net-(U4-Pad1)")
      (node (ref U4) (pin 1)))
    (net (code 56) (name "Net-(CF1-Pad2)")
      (node (ref U9) (pin 3))
      (node (ref R17) (pin 1))
      (node (ref R18) (pin 2))
      (node (ref CF1) (pin 2)))
    (net (code 57) (name "Net-(D1-Pad1)")
      (node (ref L2) (pin 2))
      (node (ref D1) (pin 1))
      (node (ref U9) (pin 1)))))