EESchema Schematic File Version 4
LIBS:mppt-cache
EELAYER 29 0
EELAYER END
$Descr B 17000 11000
encoding utf-8
Sheet 1 6
Title "MPPT Board"
Date "2019-07-14"
Rev "3.0"
Comp "BLUESat UNSW"
Comment1 "Ricky Qu"
Comment2 ""
Comment3 ""
Comment4 ""
$EndDescr
Text Label 1750 5950 0    60   ~ 0
SCL
Text Label 1750 6050 0    60   ~ 0
SDA
$Comp
L Mppt:PV+ #PV+_05
U 1 1 5BD43C28
P 1950 5450
F 0 "#PV+_05" H 1950 5550 20  0000 C CNN
F 1 "PV+" H 1950 5600 30  0000 C CNN
F 2 "" H 1950 5450 70  0000 C CNN
F 3 "" H 1950 5450 70  0000 C CNN
	1    1950 5450
	1    0    0    -1  
$EndComp
Text Label 14800 4500 0    60   ~ 0
Vout
$Comp
L Device:C C12
U 1 1 5BD43C02
P 14100 1750
F 0 "C12" H 14250 1750 60  0000 L BNN
F 1 "10nF" H 14200 1650 60  0000 L BNN
F 2 "Capacitor_SMD:C_0805_2012Metric_Pad1.15x1.40mm_HandSolder" H 14200 1460 60  0001 C CNN
F 3 "" H 14200 1460 60  0000 C CNN
	1    14100 1750
	1    0    0    -1  
$EndComp
$Comp
L Device:C C7
U 1 1 5BD43BF3
P 11950 1750
F 0 "C7" H 12050 1800 60  0000 L BNN
F 1 "10uF" H 12050 1600 60  0000 L BNN
F 2 "Capacitor_SMD:C_0805_2012Metric_Pad1.15x1.40mm_HandSolder" H 12050 1460 60  0001 C CNN
F 3 "" H 12050 1460 60  0000 C CNN
	1    11950 1750
	1    0    0    -1  
$EndComp
$Comp
L Device:C C13
U 1 1 5BD43BF1
P 14700 1750
F 0 "C13" H 14800 1800 60  0000 L BNN
F 1 "10uF" H 14800 1650 60  0000 L BNN
F 2 "Capacitor_SMD:C_0805_2012Metric_Pad1.15x1.40mm_HandSolder" H 14800 1460 60  0001 C CNN
F 3 "" H 14800 1460 60  0000 C CNN
	1    14700 1750
	1    0    0    -1  
$EndComp
$Comp
L Device:C C8
U 1 1 5BD43BF0
P 12350 1750
F 0 "C8" H 12450 1750 60  0000 L BNN
F 1 "10uF" H 12450 1600 60  0000 L BNN
F 2 "Capacitor_SMD:C_0805_2012Metric_Pad1.15x1.40mm_HandSolder" H 12450 1460 60  0001 C CNN
F 3 "" H 12450 1460 60  0000 C CNN
	1    12350 1750
	1    0    0    -1  
$EndComp
$Comp
L Connector:Conn_01x02_Male K1
U 1 1 5BD43BED
P 2150 6050
F 0 "K1" H 2000 6000 60  0000 L BNN
F 1 "HEADER-1X2" H 1500 5900 60  0000 L BNN
F 2 "Connector_PinHeader_2.54mm:PinHeader_1x02_P2.54mm_Vertical" H 2290 5740 60  0001 C CNN
F 3 "" H 2290 5740 60  0000 C CNN
	1    2150 6050
	-1   0    0    1   
$EndComp
$Comp
L Connector:Conn_01x02_Male K4
U 1 1 5BD43BEA
P 2150 3700
F 0 "K4" H 2200 3800 60  0000 L BNN
F 1 "HEADER-1X2" H 1650 3500 60  0000 L BNN
F 2 "Connector_PinHeader_2.54mm:PinHeader_1x02_P2.54mm_Vertical" H 2290 3390 60  0001 C CNN
F 3 "" H 2290 3390 60  0000 C CNN
	1    2150 3700
	-1   0    0    1   
$EndComp
$Comp
L Device:C C43
U 1 1 5BD43BE7
P 15200 1750
F 0 "C43" H 15400 1700 60  0000 R TNN
F 1 "???" H 15400 1850 60  0000 R TNN
F 2 "Capacitor_SMD:C_0805_2012Metric_Pad1.15x1.40mm_HandSolder" H 15210 1650 60  0001 C CNN
F 3 "" H 15210 1650 60  0000 C CNN
	1    15200 1750
	1    0    0    -1  
$EndComp
$Comp
L Device:C C44
U 1 1 5BD43BE6
P 15600 1750
F 0 "C44" H 15800 1650 60  0000 R TNN
F 1 "1uF" H 15850 1800 60  0000 R TNN
F 2 "Capacitor_SMD:C_0805_2012Metric_Pad1.15x1.40mm_HandSolder" H 15610 1650 60  0001 C CNN
F 3 "" H 15610 1650 60  0000 C CNN
	1    15600 1750
	1    0    0    -1  
$EndComp
$Comp
L Device:C C45
U 1 1 5BD43BE5
P 12850 1750
F 0 "C45" H 13100 1700 60  0000 R TNN
F 1 "???" H 13100 1850 60  0000 R TNN
F 2 "Capacitor_SMD:C_0805_2012Metric_Pad1.15x1.40mm_HandSolder" H 12860 1650 60  0001 C CNN
F 3 "" H 12860 1650 60  0000 C CNN
	1    12850 1750
	1    0    0    -1  
$EndComp
$Comp
L Device:C C46
U 1 1 5BD43BE3
P 13450 1750
F 0 "C46" H 13700 1700 60  0000 R TNN
F 1 "???" H 13650 1850 60  0000 R TNN
F 2 "Capacitor_SMD:C_0805_2012Metric_Pad1.15x1.40mm_HandSolder" H 13460 1650 60  0001 C CNN
F 3 "" H 13460 1650 60  0000 C CNN
	1    13450 1750
	1    0    0    -1  
$EndComp
$Comp
L Connector:Conn_01x02_Male K5
U 1 1 5BD43BD3
P 2150 4300
F 0 "K5" H 2000 4150 60  0000 L BNN
F 1 "HEADER-1X2" H 1500 4250 60  0000 L BNN
F 2 "Connector_PinHeader_2.54mm:PinHeader_1x02_P2.54mm_Vertical" H 2290 3990 60  0001 C CNN
F 3 "" H 2290 3990 60  0000 C CNN
	1    2150 4300
	-1   0    0    1   
$EndComp
$Comp
L Connector:Conn_01x02_Male K6
U 1 1 5BD43BCF
P 2150 5550
F 0 "K6" H 2000 5400 60  0000 L BNN
F 1 "HEADER-1X2" H 1550 5500 60  0000 L BNN
F 2 "Connector_PinHeader_2.54mm:PinHeader_1x02_P2.54mm_Vertical" H 2290 5240 60  0001 C CNN
F 3 "" H 2290 5240 60  0000 C CNN
	1    2150 5550
	-1   0    0    1   
$EndComp
$Comp
L Connector:Conn_01x02_Male K7
U 1 1 5BD43BCC
P 15200 4600
F 0 "K7" H 15100 4400 60  0000 L BNN
F 1 "HEADER-1X2" H 14600 4500 60  0000 L BNN
F 2 "Connector_PinHeader_2.54mm:PinHeader_1x02_P2.54mm_Vertical" H 15340 4290 60  0001 C CNN
F 3 "" H 15340 4290 60  0000 C CNN
	1    15200 4600
	-1   0    0    1   
$EndComp
$Comp
L power:GND #GND_042
U 1 1 5BD43C27
P 1950 5550
F 0 "#GND_042" H 2000 5400 20  0000 C CNN
F 1 "GND" H 2000 5450 30  0000 C CNN
F 2 "" H 1950 5550 70  0000 C CNN
F 3 "" H 1950 5550 70  0000 C CNN
	1    1950 5550
	1    0    0    -1  
$EndComp
$Comp
L power:GND #GND_028
U 1 1 5BD43C3F
P 1950 4300
F 0 "#GND_028" H 1950 4100 20  0000 C CNN
F 1 "GND" H 1950 4150 30  0000 C CNN
F 2 "" H 1950 4300 70  0000 C CNN
F 3 "" H 1950 4300 70  0000 C CNN
	1    1950 4300
	1    0    0    -1  
$EndComp
$Comp
L power:GND #PWR0101
U 1 1 5BDA31D9
P 14100 1900
F 0 "#PWR0101" H 14100 1650 50  0001 C CNN
F 1 "GND" H 14105 1727 50  0000 C CNN
F 2 "" H 14100 1900 50  0001 C CNN
F 3 "" H 14100 1900 50  0001 C CNN
	1    14100 1900
	1    0    0    -1  
$EndComp
Text Label 1800 4850 0    60   ~ 0
RST
Text Notes 15000 4800 0    50   ~ 0
Actual output is here.
$Comp
L power:+5V #PWR03
U 1 1 5C22217A
P 1950 3600
F 0 "#PWR03" H 1950 3450 50  0001 C CNN
F 1 "+5V" H 1965 3773 50  0000 C CNN
F 2 "" H 1950 3600 50  0001 C CNN
F 3 "" H 1950 3600 50  0001 C CNN
	1    1950 3600
	1    0    0    -1  
$EndComp
Wire Wire Line
	11950 1900 12350 1900
Connection ~ 12350 1900
Wire Wire Line
	12350 1900 12850 1900
Connection ~ 12850 1900
Wire Wire Line
	12850 1900 13450 1900
$Comp
L power:GND #PWR07
U 1 1 5C22D358
P 11950 1900
F 0 "#PWR07" H 11950 1650 50  0001 C CNN
F 1 "GND" H 11955 1727 50  0000 C CNN
F 2 "" H 11950 1900 50  0001 C CNN
F 3 "" H 11950 1900 50  0001 C CNN
	1    11950 1900
	1    0    0    -1  
$EndComp
Connection ~ 11950 1900
Wire Wire Line
	11950 1600 12350 1600
Connection ~ 12350 1600
Wire Wire Line
	12350 1600 12850 1600
Connection ~ 12850 1600
Wire Wire Line
	12850 1600 13450 1600
Text Label 12850 1600 0    50   ~ 0
Vout
Wire Wire Line
	14100 1600 14700 1600
Connection ~ 14700 1600
Wire Wire Line
	14700 1600 15050 1600
Connection ~ 15200 1600
Wire Wire Line
	14100 1900 14700 1900
Connection ~ 14700 1900
Wire Wire Line
	14700 1900 15200 1900
Connection ~ 15200 1900
Wire Wire Line
	15200 1900 15600 1900
Connection ~ 14100 1900
$Comp
L power:GNDA #PWR013
U 1 1 5C2AA265
P 14050 8900
F 0 "#PWR013" H 14050 8650 50  0001 C CNN
F 1 "GNDA" V 13950 8850 50  0000 C CNN
F 2 "" H 14050 8900 50  0001 C CNN
F 3 "" H 14050 8900 50  0001 C CNN
	1    14050 8900
	1    0    0    -1  
$EndComp
$Comp
L power:GND #GND_01
U 1 1 5C2AA7EC
P 14550 8900
F 0 "#GND_01" H 14550 8700 20  0000 C CNN
F 1 "GND" H 14550 8750 30  0000 C CNN
F 2 "" H 14550 8900 70  0000 C CNN
F 3 "" H 14550 8900 70  0000 C CNN
	1    14550 8900
	1    0    0    -1  
$EndComp
Wire Wire Line
	14050 8750 14050 8900
Wire Wire Line
	14550 8750 14550 8900
$Comp
L Device:R R7
U 1 1 5C2AB110
P 14300 8750
F 0 "R7" V 14350 8700 60  0000 R TNN
F 1 "0O" V 14350 8550 60  0000 R TNN
F 2 "Resistor_SMD:R_0805_2012Metric" H 14160 8660 60  0001 C CNN
F 3 "" H 14160 8660 60  0000 C CNN
	1    14300 8750
	0    -1   -1   0   
$EndComp
Text Notes 13800 8600 0    50   ~ 0
Dummy resistor to create 2 grounds.
Wire Wire Line
	1650 6050 1950 6050
Wire Wire Line
	14050 8750 14150 8750
Wire Wire Line
	14450 8750 14550 8750
Wire Wire Line
	15200 1600 15600 1600
$Sheet
S 11000 3500 2700 2250
U 5D193AA5
F0 "H Bridge" 50
F1 "H_bridge.sch" 50
F2 "HOA" I L 11000 4150 50 
F3 "HOB" I L 11000 4350 50 
F4 "LOA" I L 11000 4550 50 
F5 "LOB" I L 11000 4750 50 
F6 "GND" I R 13700 5500 50 
F7 "Vin" I L 11000 3800 50 
F8 "Vbridge" O R 13700 4050 50 
$EndSheet
$Sheet
S 4650 1350 900  850 
U 5D19A5BF
F0 "5V to 12V Boost Converter" 50
F1 "12V_Boost_Converter.sch" 50
F2 "5V" I L 4650 1700 50 
F3 "GND" I L 4650 1950 50 
F4 "12V" I R 5550 1700 50 
$EndSheet
$Comp
L power:GND #GND_0101
U 1 1 5D17303A
P 1950 3700
F 0 "#GND_0101" H 1950 3500 20  0000 C CNN
F 1 "GND" H 1950 3550 30  0000 C CNN
F 2 "" H 1950 3700 70  0000 C CNN
F 3 "" H 1950 3700 70  0000 C CNN
	1    1950 3700
	1    0    0    -1  
$EndComp
$Comp
L Mppt:PV+ #PV+_0101
U 1 1 5D176C7E
P 7100 8650
F 0 "#PV+_0101" H 7100 8750 20  0000 C CNN
F 1 "PV+" H 7100 8800 30  0000 C CNN
F 2 "" H 7100 8650 70  0000 C CNN
F 3 "" H 7100 8650 70  0000 C CNN
	1    7100 8650
	1    0    0    -1  
$EndComp
Wire Wire Line
	7100 8650 7550 8650
$Sheet
S 3650 3400 2650 3300
U 5D17A0DE
F0 "Controller" 50
F1 "Controller.sch" 50
F2 "RST" I L 3650 3650 50 
F3 "LIA" O R 6300 4150 50 
F4 "HIA" O R 6300 4350 50 
F5 "HIB" O R 6300 4550 50 
F6 "LIB" O R 6300 4750 50 
F7 "5V" I L 3650 3500 50 
F8 "GND" I R 6300 6450 50 
F9 "GNDA" I R 6300 6550 50 
F10 "Iout_Reading" I R 6300 5700 50 
F11 "Iin_Reading" I R 6300 5850 50 
F12 "Vout_Reading" I R 6300 6000 50 
F13 "Vin_Reading" I R 6300 6150 50 
F14 "SCL" I L 3650 4050 50 
F15 "SDA" I L 3650 4200 50 
$EndSheet
Text Label 3350 4050 0    60   ~ 0
SCL
Text Label 3350 4200 0    60   ~ 0
SDA
Wire Wire Line
	3650 4050 3350 4050
Wire Wire Line
	3350 4200 3650 4200
Text Label 3400 3650 0    60   ~ 0
RST
Wire Wire Line
	3650 3650 3400 3650
Wire Wire Line
	6300 4150 7300 4150
Wire Wire Line
	7300 4350 6300 4350
Wire Wire Line
	6300 4550 7300 4550
Wire Wire Line
	7300 4750 6300 4750
Wire Wire Line
	10050 4150 11000 4150
Wire Wire Line
	11000 4350 10050 4350
Wire Wire Line
	10050 4550 11000 4550
Wire Wire Line
	10050 4750 11000 4750
$Comp
L power:+3.3V #PWR0103
U 1 1 5D1986EB
P 7400 8100
F 0 "#PWR0103" H 7400 7950 50  0001 C CNN
F 1 "+3.3V" H 7415 8273 50  0000 C CNN
F 2 "" H 7400 8100 50  0001 C CNN
F 3 "" H 7400 8100 50  0001 C CNN
	1    7400 8100
	1    0    0    -1  
$EndComp
$Comp
L power:+5V #PWR0104
U 1 1 5D19875B
P 7150 8250
F 0 "#PWR0104" H 7150 8100 50  0001 C CNN
F 1 "+5V" H 7165 8423 50  0000 C CNN
F 2 "" H 7150 8250 50  0001 C CNN
F 3 "" H 7150 8250 50  0001 C CNN
	1    7150 8250
	1    0    0    -1  
$EndComp
Wire Wire Line
	7400 8100 7550 8100
Wire Wire Line
	7550 8250 7150 8250
Text Label 7300 8850 0    50   ~ 0
Vin
Wire Wire Line
	7550 8850 7300 8850
Text Label 7300 9150 0    50   ~ 0
Vbridge
Wire Wire Line
	7550 9150 7300 9150
Text Label 7300 9350 0    50   ~ 0
Vout
$Sheet
S 7550 7950 2000 1750
U 5D194064
F0 "Current Voltage Sense" 50
F1 "I_V_Sense.sch" 50
F2 "Vin1" I L 7550 8650 50 
F3 "Vout1" I L 7550 9150 50 
F4 "3.3V" I L 7550 8100 50 
F5 "5V" I L 7550 8250 50 
F6 "Vin_Reading" O R 9550 8150 50 
F7 "Vout_Reading" O R 9550 8350 50 
F8 "Iin_reading" O R 9550 8550 50 
F9 "Iout_Reading" O R 9550 8750 50 
F10 "Vin2" O L 7550 8850 50 
F11 "Vout2" O L 7550 9350 50 
F12 "AGND" I R 9550 9600 50 
$EndSheet
Wire Wire Line
	7550 9350 7300 9350
Text Label 13800 4050 0    50   ~ 0
Vbridge
Wire Wire Line
	13700 4050 13800 4050
Text Label 10800 3800 0    50   ~ 0
Vin
Wire Wire Line
	10800 3800 11000 3800
$Comp
L power:+5V #PWR0128
U 1 1 5D1A65D7
P 4500 1700
F 0 "#PWR0128" H 4500 1550 50  0001 C CNN
F 1 "+5V" H 4515 1873 50  0000 C CNN
F 2 "" H 4500 1700 50  0001 C CNN
F 3 "" H 4500 1700 50  0001 C CNN
	1    4500 1700
	1    0    0    -1  
$EndComp
Wire Wire Line
	4650 1700 4500 1700
$Comp
L power:GND #GND_0112
U 1 1 5D1A7A93
P 4450 2050
F 0 "#GND_0112" H 4450 1850 20  0000 C CNN
F 1 "GND" H 4450 1900 30  0000 C CNN
F 2 "" H 4450 2050 70  0000 C CNN
F 3 "" H 4450 2050 70  0000 C CNN
	1    4450 2050
	1    0    0    -1  
$EndComp
Wire Wire Line
	4650 1950 4450 1950
Wire Wire Line
	4450 1950 4450 2050
$Comp
L power:PWR_FLAG #FLG0101
U 1 1 5D1A92A8
P 15700 8650
F 0 "#FLG0101" H 15700 8725 50  0001 C CNN
F 1 "PWR_FLAG" H 15700 8824 50  0000 C CNN
F 2 "" H 15700 8650 50  0001 C CNN
F 3 "~" H 15700 8650 50  0001 C CNN
	1    15700 8650
	1    0    0    -1  
$EndComp
$Comp
L power:GND #GND_0113
U 1 1 5D1A92FA
P 15700 8900
F 0 "#GND_0113" H 15700 8700 20  0000 C CNN
F 1 "GND" H 15700 8750 30  0000 C CNN
F 2 "" H 15700 8900 70  0000 C CNN
F 3 "" H 15700 8900 70  0000 C CNN
	1    15700 8900
	1    0    0    -1  
$EndComp
Wire Wire Line
	15700 8650 15700 8900
$Comp
L power:PWR_FLAG #FLG0102
U 1 1 5D1AA6BB
P 1650 3600
F 0 "#FLG0102" H 1650 3675 50  0001 C CNN
F 1 "PWR_FLAG" H 1650 3774 50  0000 C CNN
F 2 "" H 1650 3600 50  0001 C CNN
F 3 "~" H 1650 3600 50  0001 C CNN
	1    1650 3600
	1    0    0    -1  
$EndComp
$Comp
L power:PWR_FLAG #FLG0103
U 1 1 5D1AA8F7
P 1650 4200
F 0 "#FLG0103" H 1650 4275 50  0001 C CNN
F 1 "PWR_FLAG" H 1650 4374 50  0000 C CNN
F 2 "" H 1650 4200 50  0001 C CNN
F 3 "~" H 1650 4200 50  0001 C CNN
	1    1650 4200
	1    0    0    -1  
$EndComp
$Comp
L power:PWR_FLAG #FLG0104
U 1 1 5D1AAA4C
P 1650 5450
F 0 "#FLG0104" H 1650 5525 50  0001 C CNN
F 1 "PWR_FLAG" H 1650 5624 50  0000 C CNN
F 2 "" H 1650 5450 50  0001 C CNN
F 3 "~" H 1650 5450 50  0001 C CNN
	1    1650 5450
	1    0    0    -1  
$EndComp
Wire Wire Line
	1650 5450 1950 5450
Connection ~ 1950 5450
Wire Wire Line
	1650 4200 1950 4200
Wire Wire Line
	1950 3600 1650 3600
Connection ~ 1950 3600
Wire Wire Line
	1650 5950 1950 5950
Connection ~ 1950 4200
$Comp
L power:+3.3V #PWR0102
U 1 1 5D176A58
P 1950 4200
F 0 "#PWR0102" H 1950 4050 50  0001 C CNN
F 1 "+3.3V" H 1965 4373 50  0000 C CNN
F 2 "" H 1950 4200 50  0001 C CNN
F 3 "" H 1950 4200 50  0001 C CNN
	1    1950 4200
	1    0    0    -1  
$EndComp
Wire Wire Line
	14800 4500 15000 4500
$Comp
L power:+5V #PWR0129
U 1 1 5D1B57F2
P 3500 3500
F 0 "#PWR0129" H 3500 3350 50  0001 C CNN
F 1 "+5V" H 3515 3673 50  0000 C CNN
F 2 "" H 3500 3500 50  0001 C CNN
F 3 "" H 3500 3500 50  0001 C CNN
	1    3500 3500
	1    0    0    -1  
$EndComp
Wire Wire Line
	3650 3500 3500 3500
$Comp
L power:+12V #PWR0130
U 1 1 5D1B7F3F
P 5700 1700
F 0 "#PWR0130" H 5700 1550 50  0001 C CNN
F 1 "+12V" H 5715 1873 50  0000 C CNN
F 2 "" H 5700 1700 50  0001 C CNN
F 3 "" H 5700 1700 50  0001 C CNN
	1    5700 1700
	1    0    0    -1  
$EndComp
Wire Wire Line
	5550 1700 5700 1700
$Comp
L power:+12V #PWR0131
U 1 1 5D1B98A4
P 7100 3850
F 0 "#PWR0131" H 7100 3700 50  0001 C CNN
F 1 "+12V" H 7115 4023 50  0000 C CNN
F 2 "" H 7100 3850 50  0001 C CNN
F 3 "" H 7100 3850 50  0001 C CNN
	1    7100 3850
	1    0    0    -1  
$EndComp
Wire Wire Line
	7300 3850 7100 3850
$Comp
L power:GND #GND_0114
U 1 1 5D1BB736
P 6650 6450
F 0 "#GND_0114" H 6650 6250 20  0000 C CNN
F 1 "GND" H 6650 6300 30  0000 C CNN
F 2 "" H 6650 6450 70  0000 C CNN
F 3 "" H 6650 6450 70  0000 C CNN
	1    6650 6450
	1    0    0    -1  
$EndComp
Wire Wire Line
	6300 6450 6650 6450
$Comp
L power:GND #GND_0115
U 1 1 5D1BD4B1
P 10250 6450
F 0 "#GND_0115" H 10250 6250 20  0000 C CNN
F 1 "GND" H 10250 6300 30  0000 C CNN
F 2 "" H 10250 6450 70  0000 C CNN
F 3 "" H 10250 6450 70  0000 C CNN
	1    10250 6450
	1    0    0    -1  
$EndComp
Wire Wire Line
	10050 6400 10250 6400
Wire Wire Line
	10250 6400 10250 6450
$Comp
L power:GND #GND_0116
U 1 1 5D1BF377
P 13900 5500
F 0 "#GND_0116" H 13900 5300 20  0000 C CNN
F 1 "GND" H 13900 5350 30  0000 C CNN
F 2 "" H 13900 5500 70  0000 C CNN
F 3 "" H 13900 5500 70  0000 C CNN
	1    13900 5500
	1    0    0    -1  
$EndComp
Wire Wire Line
	13700 5500 13900 5500
$Comp
L power:GNDA #PWR0132
U 1 1 5D1C155D
P 6500 6550
F 0 "#PWR0132" H 6500 6300 50  0001 C CNN
F 1 "GNDA" H 6450 6400 50  0000 C CNN
F 2 "" H 6500 6550 50  0001 C CNN
F 3 "" H 6500 6550 50  0001 C CNN
	1    6500 6550
	1    0    0    -1  
$EndComp
Wire Wire Line
	6300 6550 6500 6550
Text Label 9700 8150 0    50   ~ 0
Vin_Reading
Text Label 9700 8350 0    50   ~ 0
Vout_Reading
Text Label 9700 8550 0    50   ~ 0
Iin_Reading
Text Label 9700 8750 0    50   ~ 0
Iout_Reading
Wire Wire Line
	9550 8150 9700 8150
Wire Wire Line
	9700 8350 9550 8350
Wire Wire Line
	9700 8550 9550 8550
Wire Wire Line
	9700 8750 9550 8750
Text Label 6450 6150 0    50   ~ 0
Vin_Reading
Text Label 6450 6000 0    50   ~ 0
Vout_Reading
Text Label 6450 5850 0    50   ~ 0
Iin_Reading
Text Label 6450 5700 0    50   ~ 0
Iout_Reading
Wire Wire Line
	6300 5700 6450 5700
Wire Wire Line
	6450 5850 6300 5850
Wire Wire Line
	6450 6150 6300 6150
Wire Wire Line
	6300 6000 6450 6000
$Comp
L Mppt:PV+ #PV+_0103
U 1 1 5D1D84CE
P 15050 1600
F 0 "#PV+_0103" H 15050 1700 20  0000 C CNN
F 1 "PV+" H 15050 1750 30  0000 C CNN
F 2 "" H 15050 1600 70  0000 C CNN
F 3 "" H 15050 1600 70  0000 C CNN
	1    15050 1600
	1    0    0    -1  
$EndComp
Connection ~ 15050 1600
Wire Wire Line
	15050 1600 15200 1600
$Comp
L power:PWR_FLAG #FLG0105
U 1 1 5D1D8F48
P 6050 1700
F 0 "#FLG0105" H 6050 1775 50  0001 C CNN
F 1 "PWR_FLAG" H 6050 1874 50  0000 C CNN
F 2 "" H 6050 1700 50  0001 C CNN
F 3 "~" H 6050 1700 50  0001 C CNN
	1    6050 1700
	1    0    0    -1  
$EndComp
Wire Wire Line
	6050 1700 5700 1700
Connection ~ 5700 1700
$Comp
L power:GNDA #PWR0133
U 1 1 5D1DBD50
P 16100 8900
F 0 "#PWR0133" H 16100 8650 50  0001 C CNN
F 1 "GNDA" V 16000 8850 50  0000 C CNN
F 2 "" H 16100 8900 50  0001 C CNN
F 3 "" H 16100 8900 50  0001 C CNN
	1    16100 8900
	1    0    0    -1  
$EndComp
$Comp
L power:PWR_FLAG #FLG0106
U 1 1 5D1DBDA3
P 16100 8650
F 0 "#FLG0106" H 16100 8725 50  0001 C CNN
F 1 "PWR_FLAG" H 16100 8824 50  0000 C CNN
F 2 "" H 16100 8650 50  0001 C CNN
F 3 "~" H 16100 8650 50  0001 C CNN
	1    16100 8650
	1    0    0    -1  
$EndComp
Wire Wire Line
	16100 8650 16100 8900
Wire Wire Line
	1950 4850 1800 4850
$Sheet
S 7300 3650 2750 2900
U 5D19A59E
F0 "Bridge Drivers" 50
F1 "Driver.sch" 50
F2 "12V" I L 7300 3850 50 
F3 "GND" I R 10050 6400 50 
F4 "HOA" O R 10050 4150 50 
F5 "HOB" O R 10050 4350 50 
F6 "LOA" O R 10050 4550 50 
F7 "LOB" O R 10050 4750 50 
F8 "LIA" I L 7300 4150 50 
F9 "LIB" I L 7300 4750 50 
F10 "HIA" I L 7300 4350 50 
F11 "HIB" I L 7300 4550 50 
$EndSheet
$Comp
L power:GNDA #PWR029
U 1 1 5D2BD92C
P 9750 9650
F 0 "#PWR029" H 9750 9400 50  0001 C CNN
F 1 "GNDA" H 9750 9500 50  0000 C CNN
F 2 "" H 9750 9650 50  0001 C CNN
F 3 "" H 9750 9650 50  0001 C CNN
	1    9750 9650
	1    0    0    -1  
$EndComp
Wire Wire Line
	9550 9600 9750 9600
Wire Wire Line
	9750 9600 9750 9650
$Comp
L power:GND #PWR028
U 1 1 5D509859
P 14850 4650
F 0 "#PWR028" H 14850 4400 50  0001 C CNN
F 1 "GND" H 14855 4477 50  0000 C CNN
F 2 "" H 14850 4650 50  0001 C CNN
F 3 "" H 14850 4650 50  0001 C CNN
	1    14850 4650
	1    0    0    -1  
$EndComp
Wire Wire Line
	15000 4600 14850 4600
Wire Wire Line
	14850 4600 14850 4650
$Comp
L power:GND #PWR019
U 1 1 5D50CD2C
P 1850 4950
F 0 "#PWR019" H 1850 4700 50  0001 C CNN
F 1 "GND" H 1855 4777 50  0000 C CNN
F 2 "" H 1850 4950 50  0001 C CNN
F 3 "" H 1850 4950 50  0001 C CNN
	1    1850 4950
	1    0    0    -1  
$EndComp
$Comp
L Connector:Conn_01x02_Male K8
U 1 1 5BF63C21
P 2150 4950
F 0 "K8" H 1950 4800 60  0000 L BNN
F 1 "HEADER-1X2" H 1500 4900 60  0000 L BNN
F 2 "Connector_PinHeader_2.54mm:PinHeader_1x02_P2.54mm_Vertical" H 2290 4640 60  0001 C CNN
F 3 "" H 2290 4640 60  0000 C CNN
	1    2150 4950
	-1   0    0    1   
$EndComp
Wire Wire Line
	1950 4950 1850 4950
Text Notes 12850 1300 0    50   ~ 0
Not sure how big these caps should be. Just here to stabalise voltages.
$EndSCHEMATC
