G04 #@! TF.GenerationSoftware,KiCad,Pcbnew,(5.0.0)*
G04 #@! TF.CreationDate,2018-11-29T13:41:15+11:00*
G04 #@! TF.ProjectId,bat_charging_board,6261745F6368617267696E675F626F61,rev?*
G04 #@! TF.SameCoordinates,Original*
G04 #@! TF.FileFunction,Soldermask,Top*
G04 #@! TF.FilePolarity,Negative*
%FSLAX46Y46*%
G04 Gerber Fmt 4.6, Leading zero omitted, Abs format (unit mm)*
G04 Created by KiCad (PCBNEW (5.0.0)) date 11/29/18 13:41:15*
%MOMM*%
%LPD*%
G01*
G04 APERTURE LIST*
%ADD10R,1.650000X1.900000*%
%ADD11R,1.900000X1.650000*%
%ADD12O,3.000000X2.400000*%
%ADD13R,3.000000X2.400000*%
%ADD14O,2.400000X3.000000*%
%ADD15R,2.400000X3.000000*%
%ADD16R,3.900000X10.600000*%
%ADD17R,1.400000X2.200000*%
%ADD18R,1.900000X1.700000*%
%ADD19R,1.700000X1.900000*%
%ADD20R,1.500000X2.100000*%
%ADD21R,2.400000X0.650000*%
%ADD22R,3.100000X1.200000*%
%ADD23C,3.400000*%
%ADD24R,3.400000X3.400000*%
G04 APERTURE END LIST*
D10*
G04 #@! TO.C,C1*
X170815000Y-67350000D03*
X170815000Y-69850000D03*
G04 #@! TD*
D11*
G04 #@! TO.C,C2*
X172760000Y-88900000D03*
X175260000Y-88900000D03*
G04 #@! TD*
G04 #@! TO.C,C3*
X169545000Y-121285000D03*
X172045000Y-121285000D03*
G04 #@! TD*
G04 #@! TO.C,C4*
X156865000Y-84455000D03*
X159365000Y-84455000D03*
G04 #@! TD*
D10*
G04 #@! TO.C,C5*
X154940000Y-111740000D03*
X154940000Y-109240000D03*
G04 #@! TD*
G04 #@! TO.C,C6*
X150495000Y-109220000D03*
X150495000Y-111720000D03*
G04 #@! TD*
D11*
G04 #@! TO.C,C7*
X148390000Y-68620000D03*
X145890000Y-68620000D03*
G04 #@! TD*
D10*
G04 #@! TO.C,C_CLN1*
X164465000Y-86955000D03*
X164465000Y-84455000D03*
G04 #@! TD*
D12*
G04 #@! TO.C,J1*
X146685000Y-127000000D03*
X146685000Y-124460000D03*
X146685000Y-121920000D03*
X146685000Y-119380000D03*
D13*
X146685000Y-116840000D03*
G04 #@! TD*
D14*
G04 #@! TO.C,J5*
X145415000Y-83185000D03*
X147955000Y-83185000D03*
D15*
X150495000Y-83185000D03*
G04 #@! TD*
D16*
G04 #@! TO.C,L1*
X171200000Y-106430000D03*
X177800000Y-106430000D03*
G04 #@! TD*
D17*
G04 #@! TO.C,Q1*
X165735000Y-70625000D03*
X164785000Y-73025000D03*
X166685000Y-73025000D03*
G04 #@! TD*
D18*
G04 #@! TO.C,R1*
X159545000Y-80645000D03*
X156845000Y-80645000D03*
G04 #@! TD*
G04 #@! TO.C,R2*
X148590000Y-72390000D03*
X145890000Y-72390000D03*
G04 #@! TD*
D19*
G04 #@! TO.C,R3*
X144145000Y-92550000D03*
X144145000Y-95250000D03*
G04 #@! TD*
G04 #@! TO.C,R4*
X150495000Y-104775000D03*
X150495000Y-102075000D03*
G04 #@! TD*
D20*
G04 #@! TO.C,R_CL1*
X170815000Y-80645000D03*
X169415000Y-80645000D03*
X170815000Y-83395000D03*
X169415000Y-83395000D03*
G04 #@! TD*
D19*
G04 #@! TO.C,R_NTC1*
X154305000Y-70325000D03*
X154305000Y-73025000D03*
G04 #@! TD*
G04 #@! TO.C,R_RT1*
X146050000Y-102075000D03*
X146050000Y-104775000D03*
G04 #@! TD*
D20*
G04 #@! TO.C,R_SENSE1*
X160525000Y-106045000D03*
X161925000Y-106045000D03*
X160525000Y-103295000D03*
X161925000Y-103295000D03*
G04 #@! TD*
D18*
G04 #@! TO.C,TH1*
X148590000Y-64850000D03*
X145890000Y-64850000D03*
G04 #@! TD*
D21*
G04 #@! TO.C,U1*
X158440000Y-91757500D03*
X151440000Y-91757500D03*
X158440000Y-92392500D03*
X151440000Y-92392500D03*
X158440000Y-93027500D03*
X151440000Y-93027500D03*
X158440000Y-93662500D03*
X151440000Y-93662500D03*
X158440000Y-94297500D03*
X151440000Y-94297500D03*
X158440000Y-94932500D03*
X151440000Y-94932500D03*
X158440000Y-95567500D03*
X151440000Y-95567500D03*
X158440000Y-96202500D03*
X151440000Y-96202500D03*
G04 #@! TD*
D22*
G04 #@! TO.C,U2*
X172060000Y-97790000D03*
X177800000Y-97790000D03*
X172060000Y-96520000D03*
X177800000Y-96520000D03*
X172060000Y-95250000D03*
X177800000Y-95250000D03*
X172060000Y-93980000D03*
X177800000Y-93980000D03*
G04 #@! TD*
D23*
G04 #@! TO.C,J2*
X178435000Y-65405000D03*
D24*
X178435000Y-70485000D03*
G04 #@! TD*
G04 #@! TO.C,J3*
X178435000Y-83185000D03*
D23*
X178435000Y-78105000D03*
G04 #@! TD*
G04 #@! TO.C,J4*
X178435000Y-116840000D03*
D24*
X178435000Y-121920000D03*
G04 #@! TD*
M02*
