G04 Layer_Physical_Order=2*
G04 Layer_Color=16711680*
%FSAX24Y24*%
%MOIN*%
G70*
G01*
G75*
%ADD22C,0.0100*%
%ADD34R,0.0591X0.0591*%
%ADD35C,0.0591*%
%ADD36R,0.0591X0.0591*%
%ADD37C,0.1000*%
%ADD38C,0.0669*%
%ADD39C,0.0787*%
%ADD40R,0.0787X0.0787*%
%ADD41C,0.0500*%
G36*
X047237Y014535D02*
X020440D01*
Y020451D01*
X031577D01*
X031795Y020233D01*
X031785Y020209D01*
X031773Y020118D01*
X031785Y020027D01*
X031820Y019942D01*
X031876Y019868D01*
X031949Y019812D01*
X032035Y019777D01*
X032126Y019765D01*
X032217Y019777D01*
X032302Y019812D01*
X032376Y019868D01*
X032432Y019942D01*
X032467Y020027D01*
X032479Y020118D01*
X032467Y020209D01*
X032432Y020295D01*
X032376Y020368D01*
X032333Y020401D01*
X032350Y020451D01*
X032953D01*
X033052Y020492D01*
X037540Y024980D01*
X037581Y025079D01*
Y025241D01*
X040944D01*
X040954Y025217D01*
X041010Y025144D01*
X041083Y025088D01*
X041168Y025053D01*
X041260Y025041D01*
X041351Y025053D01*
X041436Y025088D01*
X041509Y025144D01*
X041566Y025217D01*
X041601Y025302D01*
X041613Y025394D01*
X041601Y025485D01*
X041566Y025570D01*
X041509Y025643D01*
X041436Y025699D01*
X041351Y025735D01*
X041260Y025747D01*
X041168Y025735D01*
X041083Y025699D01*
X041010Y025643D01*
X040954Y025570D01*
X040944Y025547D01*
X037581D01*
Y025866D01*
X037301D01*
Y025547D01*
X034804D01*
X034794Y025570D01*
X034738Y025643D01*
X034665Y025699D01*
X034580Y025735D01*
X034488Y025747D01*
X034397Y025735D01*
X034312Y025699D01*
X034239Y025643D01*
X034182Y025570D01*
X034147Y025485D01*
X034135Y025394D01*
X034147Y025302D01*
X034182Y025217D01*
X034239Y025144D01*
X034312Y025088D01*
X034397Y025053D01*
X034488Y025041D01*
X034580Y025053D01*
X034665Y025088D01*
X034738Y025144D01*
X034794Y025217D01*
X034804Y025241D01*
X037301D01*
Y025137D01*
X032895Y020731D01*
X032507D01*
X032474Y020768D01*
X032479Y020803D01*
X032467Y020895D01*
X032432Y020980D01*
X032376Y021053D01*
X032302Y021109D01*
X032217Y021144D01*
X032126Y021156D01*
X032035Y021144D01*
X031961Y021114D01*
X026740D01*
X026208Y021646D01*
X026219Y021732D01*
X026207Y021824D01*
X026172Y021909D01*
X026116Y021982D01*
X026043Y022038D01*
X025991Y022060D01*
Y022108D01*
X026034Y022131D01*
X028203D01*
X028262Y022142D01*
X028312Y022175D01*
X028776Y022640D01*
X028809Y022689D01*
X028821Y022748D01*
Y023282D01*
X029156Y023617D01*
X031533D01*
X031592Y023629D01*
X031641Y023662D01*
X031772Y023793D01*
X031826Y023776D01*
X031876Y023711D01*
X031949Y023654D01*
X032035Y023619D01*
X032126Y023607D01*
X032217Y023619D01*
X032302Y023654D01*
X032376Y023711D01*
X032432Y023784D01*
X032467Y023869D01*
X032479Y023960D01*
X032467Y024052D01*
X032432Y024137D01*
X032376Y024210D01*
X032302Y024266D01*
X032278Y024276D01*
Y024330D01*
X032302Y024340D01*
X032376Y024396D01*
X032432Y024469D01*
X032467Y024554D01*
X032479Y024646D01*
X032467Y024737D01*
X032432Y024822D01*
X032376Y024895D01*
X032302Y024951D01*
X032217Y024987D01*
X032126Y024999D01*
X032035Y024987D01*
X031949Y024951D01*
X031876Y024895D01*
X031820Y024822D01*
X031785Y024737D01*
X031773Y024646D01*
X031785Y024554D01*
X031795Y024531D01*
X031393Y024129D01*
X031100D01*
X031078Y024174D01*
X031093Y024194D01*
X031128Y024279D01*
X031140Y024370D01*
X031128Y024461D01*
X031101Y024529D01*
X031101Y024531D01*
Y028326D01*
X031525Y028750D01*
X031526Y028751D01*
X031548Y028753D01*
X031633Y028789D01*
X031706Y028845D01*
X031762Y028918D01*
X031798Y029003D01*
X031810Y029094D01*
X031798Y029186D01*
X031762Y029271D01*
X031743Y029297D01*
X031765Y029342D01*
X032214D01*
X032503Y029052D01*
X032494Y029028D01*
X032482Y028937D01*
X032494Y028846D01*
X032529Y028760D01*
X032585Y028687D01*
X032658Y028631D01*
X032743Y028596D01*
X032835Y028584D01*
X032926Y028596D01*
X033011Y028631D01*
X033084Y028687D01*
X033140Y028760D01*
X033176Y028846D01*
X033188Y028937D01*
X033176Y029028D01*
X033140Y029114D01*
X033084Y029187D01*
X033011Y029243D01*
X032926Y029278D01*
X032835Y029290D01*
X032743Y029278D01*
X032720Y029268D01*
X032385Y029603D01*
X032336Y029636D01*
X032277Y029647D01*
X031266D01*
X031208Y029636D01*
X031158Y029603D01*
X030601Y029045D01*
X030567Y028996D01*
X030556Y028937D01*
Y025176D01*
X030558Y025163D01*
X030097Y024701D01*
X030073Y024711D01*
X029982Y024723D01*
X029891Y024711D01*
X029805Y024676D01*
X029732Y024620D01*
X029676Y024547D01*
X029641Y024461D01*
X029629Y024370D01*
X029641Y024279D01*
X029676Y024194D01*
X029696Y024168D01*
X029674Y024123D01*
X029009D01*
X028951Y024111D01*
X028901Y024078D01*
X028204Y023381D01*
X026198D01*
X026172Y023444D01*
X026116Y023517D01*
X026043Y023573D01*
X025958Y023609D01*
X025866Y023621D01*
X025775Y023609D01*
X025690Y023573D01*
X025617Y023517D01*
X025560Y023444D01*
X025525Y023359D01*
X025513Y023268D01*
X025525Y023176D01*
X025560Y023091D01*
X025617Y023018D01*
X025690Y022962D01*
X025775Y022927D01*
X025866Y022915D01*
X025958Y022927D01*
X026043Y022962D01*
X026116Y023018D01*
X026160Y023075D01*
X028268D01*
X028326Y023087D01*
X028376Y023120D01*
X028469Y023213D01*
X028515Y023194D01*
Y022811D01*
X028140Y022436D01*
X026223D01*
X026219Y022441D01*
X026207Y022532D01*
X026172Y022617D01*
X026116Y022691D01*
X026043Y022747D01*
X025958Y022782D01*
X025866Y022794D01*
X025775Y022782D01*
X025690Y022747D01*
X025617Y022691D01*
X025560Y022617D01*
X025525Y022532D01*
X025513Y022441D01*
X025525Y022350D01*
X025560Y022264D01*
X025617Y022191D01*
X025690Y022135D01*
X025742Y022114D01*
Y022060D01*
X025690Y022038D01*
X025617Y021982D01*
X025560Y021909D01*
X025525Y021824D01*
X025513Y021732D01*
X025525Y021641D01*
X025560Y021556D01*
X025617Y021483D01*
X025690Y021427D01*
X025775Y021391D01*
X025866Y021379D01*
X025958Y021391D01*
X026009Y021413D01*
X026462Y020960D01*
X026443Y020914D01*
X026218D01*
X026207Y020997D01*
X026172Y021082D01*
X026116Y021155D01*
X026043Y021211D01*
X025958Y021247D01*
X025866Y021259D01*
X025775Y021247D01*
X025690Y021211D01*
X025617Y021155D01*
X025560Y021082D01*
X025525Y020997D01*
X025513Y020906D01*
X025525Y020814D01*
X025543Y020772D01*
X025515Y020731D01*
X024531D01*
X024503Y020772D01*
X024519Y020810D01*
X024533Y020913D01*
X024519Y021017D01*
X024479Y021113D01*
X024416Y021195D01*
X024333Y021259D01*
X024237Y021298D01*
X024134Y021312D01*
X024031Y021298D01*
X023935Y021259D01*
X023852Y021195D01*
X023789Y021113D01*
X023749Y021017D01*
X023735Y020913D01*
X023749Y020810D01*
X023765Y020772D01*
X023737Y020731D01*
X020440D01*
Y033103D01*
X037301D01*
Y031755D01*
X036878D01*
X036839Y031748D01*
X036806Y031726D01*
X036784Y031693D01*
X036776Y031654D01*
Y030866D01*
X036784Y030827D01*
X036806Y030794D01*
X036839Y030772D01*
X036878Y030764D01*
X037301D01*
Y030141D01*
X036878D01*
X036839Y030134D01*
X036806Y030111D01*
X036784Y030078D01*
X036776Y030039D01*
Y029252D01*
X036784Y029213D01*
X036806Y029180D01*
X036839Y029158D01*
X036878Y029150D01*
X037301D01*
Y027244D01*
X037581D01*
Y029150D01*
X037665D01*
X037704Y029158D01*
X037737Y029180D01*
X037760Y029213D01*
X037767Y029252D01*
Y030039D01*
X037760Y030078D01*
X037737Y030111D01*
X037704Y030134D01*
X037665Y030141D01*
X037581D01*
Y030764D01*
X037665D01*
X037704Y030772D01*
X037737Y030794D01*
X037760Y030827D01*
X037767Y030866D01*
Y031654D01*
X037760Y031693D01*
X037737Y031726D01*
X037704Y031748D01*
X037665Y031755D01*
X037581D01*
Y033103D01*
X047237D01*
Y014535D01*
D02*
G37*
%LPC*%
G36*
X038319Y024472D02*
X037531D01*
X037492Y024464D01*
X037459Y024442D01*
X037437Y024409D01*
X037430Y024370D01*
Y023583D01*
X037437Y023544D01*
X037459Y023511D01*
X037492Y023488D01*
X037531Y023481D01*
X038319D01*
X038358Y023488D01*
X038391Y023511D01*
X038413Y023544D01*
X038421Y023583D01*
Y024370D01*
X038413Y024409D01*
X038391Y024442D01*
X038358Y024464D01*
X038319Y024472D01*
D02*
G37*
G36*
X033807Y024474D02*
X033678Y024457D01*
X033558Y024408D01*
X033455Y024328D01*
X033376Y024225D01*
X033326Y024105D01*
X033309Y023976D01*
X033326Y023847D01*
X033376Y023727D01*
X033455Y023624D01*
X033558Y023545D01*
X033678Y023495D01*
X033807Y023478D01*
X033936Y023495D01*
X034056Y023545D01*
X034159Y023624D01*
X034238Y023727D01*
X034288Y023847D01*
X034305Y023976D01*
X034288Y024105D01*
X034238Y024225D01*
X034159Y024328D01*
X034056Y024408D01*
X033936Y024457D01*
X033807Y024474D01*
D02*
G37*
G36*
X024134Y022312D02*
X024031Y022298D01*
X023935Y022259D01*
X023852Y022195D01*
X023789Y022113D01*
X023749Y022017D01*
X023735Y021913D01*
X023749Y021810D01*
X023789Y021714D01*
X023852Y021631D01*
X023935Y021568D01*
X024031Y021528D01*
X024134Y021515D01*
X024237Y021528D01*
X024333Y021568D01*
X024416Y021631D01*
X024479Y021714D01*
X024519Y021810D01*
X024533Y021913D01*
X024519Y022017D01*
X024479Y022113D01*
X024416Y022195D01*
X024333Y022259D01*
X024237Y022298D01*
X024134Y022312D01*
D02*
G37*
G36*
Y023312D02*
X024031Y023298D01*
X023935Y023259D01*
X023852Y023195D01*
X023789Y023113D01*
X023749Y023017D01*
X023735Y022913D01*
X023749Y022810D01*
X023789Y022714D01*
X023852Y022631D01*
X023935Y022568D01*
X024031Y022528D01*
X024134Y022515D01*
X024237Y022528D01*
X024333Y022568D01*
X024416Y022631D01*
X024479Y022714D01*
X024519Y022810D01*
X024533Y022913D01*
X024519Y023017D01*
X024479Y023113D01*
X024416Y023195D01*
X024333Y023259D01*
X024237Y023298D01*
X024134Y023312D01*
D02*
G37*
G36*
X044086Y024811D02*
X044019Y024804D01*
X043906Y024770D01*
X043801Y024714D01*
X043710Y024639D01*
X043635Y024548D01*
X043579Y024444D01*
X043545Y024331D01*
X043538Y024263D01*
X044086D01*
Y024811D01*
D02*
G37*
G36*
X044186D02*
Y024263D01*
X044734D01*
X044728Y024331D01*
X044693Y024444D01*
X044638Y024548D01*
X044563Y024639D01*
X044471Y024714D01*
X044367Y024770D01*
X044254Y024804D01*
X044186Y024811D01*
D02*
G37*
G36*
X044734Y024163D02*
X044186D01*
Y023615D01*
X044254Y023622D01*
X044367Y023656D01*
X044471Y023712D01*
X044563Y023787D01*
X044638Y023878D01*
X044693Y023982D01*
X044728Y024095D01*
X044734Y024163D01*
D02*
G37*
G36*
X024429Y024311D02*
X023839D01*
X023800Y024303D01*
X023766Y024281D01*
X023744Y024248D01*
X023737Y024209D01*
Y023618D01*
X023744Y023579D01*
X023766Y023546D01*
X023800Y023524D01*
X023839Y023516D01*
X024429D01*
X024468Y023524D01*
X024501Y023546D01*
X024523Y023579D01*
X024531Y023618D01*
Y024209D01*
X024523Y024248D01*
X024501Y024281D01*
X024468Y024303D01*
X024429Y024311D01*
D02*
G37*
G36*
X044086Y024163D02*
X043538D01*
X043545Y024095D01*
X043579Y023982D01*
X043635Y023878D01*
X043710Y023787D01*
X043801Y023712D01*
X043906Y023656D01*
X044019Y023622D01*
X044086Y023615D01*
Y024163D01*
D02*
G37*
G36*
X027391Y017645D02*
X027323Y017639D01*
X027210Y017604D01*
X027106Y017549D01*
X027015Y017474D01*
X026940Y017382D01*
X026884Y017278D01*
X026850Y017165D01*
X026843Y017097D01*
X027391D01*
Y017645D01*
D02*
G37*
G36*
X027491D02*
Y017097D01*
X028039D01*
X028032Y017165D01*
X027998Y017278D01*
X027942Y017382D01*
X027867Y017474D01*
X027776Y017549D01*
X027672Y017604D01*
X027559Y017639D01*
X027491Y017645D01*
D02*
G37*
G36*
X027391Y016997D02*
X026843D01*
X026850Y016930D01*
X026884Y016817D01*
X026940Y016712D01*
X027015Y016621D01*
X027106Y016546D01*
X027210Y016490D01*
X027323Y016456D01*
X027391Y016449D01*
Y016997D01*
D02*
G37*
G36*
X029409Y017653D02*
X029292Y017641D01*
X029178Y017607D01*
X029074Y017551D01*
X028983Y017476D01*
X028908Y017385D01*
X028852Y017280D01*
X028818Y017167D01*
X028806Y017050D01*
X028818Y016932D01*
X028852Y016819D01*
X028908Y016715D01*
X028983Y016623D01*
X029074Y016548D01*
X029178Y016493D01*
X029292Y016458D01*
X029409Y016447D01*
X029527Y016458D01*
X029640Y016493D01*
X029744Y016548D01*
X029835Y016623D01*
X029910Y016715D01*
X029966Y016819D01*
X030000Y016932D01*
X030012Y017050D01*
X030000Y017167D01*
X029966Y017280D01*
X029910Y017385D01*
X029835Y017476D01*
X029744Y017551D01*
X029640Y017607D01*
X029527Y017641D01*
X029409Y017653D01*
D02*
G37*
G36*
X028039Y016997D02*
X027491D01*
Y016449D01*
X027559Y016456D01*
X027672Y016490D01*
X027776Y016546D01*
X027867Y016621D01*
X027942Y016712D01*
X027998Y016817D01*
X028032Y016930D01*
X028039Y016997D01*
D02*
G37*
G36*
X027637Y020152D02*
X027574Y020144D01*
X027468Y020100D01*
X027377Y020030D01*
X027308Y019940D01*
X027264Y019834D01*
X027256Y019770D01*
X027637D01*
Y020152D01*
D02*
G37*
G36*
X027737D02*
Y019770D01*
X028119D01*
X028111Y019834D01*
X028067Y019940D01*
X027997Y020030D01*
X027907Y020100D01*
X027801Y020144D01*
X027737Y020152D01*
D02*
G37*
G36*
X028119Y019670D02*
X027737D01*
Y019289D01*
X027801Y019297D01*
X027907Y019341D01*
X027997Y019410D01*
X028067Y019501D01*
X028111Y019607D01*
X028119Y019670D01*
D02*
G37*
G36*
X026687Y020159D02*
X026574Y020144D01*
X026468Y020100D01*
X026377Y020030D01*
X026308Y019940D01*
X026264Y019834D01*
X026249Y019720D01*
X026264Y019607D01*
X026308Y019501D01*
X026377Y019410D01*
X026468Y019341D01*
X026574Y019297D01*
X026687Y019282D01*
X026801Y019297D01*
X026907Y019341D01*
X026997Y019410D01*
X027067Y019501D01*
X027111Y019607D01*
X027126Y019720D01*
X027111Y019834D01*
X027067Y019940D01*
X026997Y020030D01*
X026907Y020100D01*
X026801Y020144D01*
X026687Y020159D01*
D02*
G37*
G36*
X027637Y019670D02*
X027256D01*
X027264Y019607D01*
X027308Y019501D01*
X027377Y019410D01*
X027468Y019341D01*
X027574Y019297D01*
X027637Y019289D01*
Y019670D01*
D02*
G37*
G36*
X044134Y031312D02*
X044016Y031300D01*
X043903Y031266D01*
X043799Y031210D01*
X043708Y031135D01*
X043633Y031044D01*
X043577Y030939D01*
X043543Y030826D01*
X043531Y030709D01*
X043543Y030591D01*
X043577Y030478D01*
X043633Y030374D01*
X043708Y030282D01*
X043799Y030207D01*
X043903Y030152D01*
X044016Y030117D01*
X044134Y030106D01*
X044251Y030117D01*
X044365Y030152D01*
X044469Y030207D01*
X044560Y030282D01*
X044635Y030374D01*
X044691Y030478D01*
X044725Y030591D01*
X044737Y030709D01*
X044725Y030826D01*
X044691Y030939D01*
X044635Y031044D01*
X044560Y031135D01*
X044469Y031210D01*
X044365Y031266D01*
X044251Y031300D01*
X044134Y031312D01*
D02*
G37*
G36*
X041390Y031758D02*
X041261Y031741D01*
X041141Y031691D01*
X041038Y031612D01*
X040959Y031509D01*
X040909Y031389D01*
X040892Y031260D01*
X040909Y031131D01*
X040959Y031011D01*
X041038Y030908D01*
X041141Y030829D01*
X041261Y030779D01*
X041390Y030762D01*
X041519Y030779D01*
X041639Y030829D01*
X041742Y030908D01*
X041821Y031011D01*
X041871Y031131D01*
X041888Y031260D01*
X041871Y031389D01*
X041821Y031509D01*
X041742Y031612D01*
X041639Y031691D01*
X041519Y031741D01*
X041390Y031758D01*
D02*
G37*
G36*
X044186Y029338D02*
Y028790D01*
X044734D01*
X044728Y028858D01*
X044693Y028971D01*
X044638Y029075D01*
X044563Y029167D01*
X044471Y029242D01*
X044367Y029297D01*
X044254Y029332D01*
X044186Y029338D01*
D02*
G37*
G36*
X041390Y030144D02*
X041261Y030127D01*
X041141Y030077D01*
X041038Y029998D01*
X040959Y029895D01*
X040909Y029775D01*
X040892Y029646D01*
X040909Y029517D01*
X040959Y029397D01*
X041038Y029294D01*
X041141Y029214D01*
X041261Y029165D01*
X041390Y029148D01*
X041519Y029165D01*
X041639Y029214D01*
X041742Y029294D01*
X041821Y029397D01*
X041871Y029517D01*
X041888Y029646D01*
X041871Y029775D01*
X041821Y029895D01*
X041742Y029998D01*
X041639Y030077D01*
X041519Y030127D01*
X041390Y030144D01*
D02*
G37*
G36*
X030929Y031973D02*
X030826Y031960D01*
X030730Y031920D01*
X030647Y031857D01*
X030584Y031774D01*
X030544Y031678D01*
X030530Y031575D01*
X030544Y031472D01*
X030584Y031375D01*
X030647Y031293D01*
X030730Y031230D01*
X030826Y031190D01*
X030929Y031176D01*
X031032Y031190D01*
X031128Y031230D01*
X031211Y031293D01*
X031274Y031375D01*
X031314Y031472D01*
X031328Y031575D01*
X031314Y031678D01*
X031274Y031774D01*
X031211Y031857D01*
X031128Y031920D01*
X031032Y031960D01*
X030929Y031973D01*
D02*
G37*
G36*
X031879Y031972D02*
X031634D01*
X031595Y031964D01*
X031562Y031942D01*
X031540Y031909D01*
X031532Y031870D01*
Y031625D01*
X031879D01*
Y031972D01*
D02*
G37*
G36*
X032224D02*
X031979D01*
Y031625D01*
X032326D01*
Y031870D01*
X032319Y031909D01*
X032297Y031942D01*
X032263Y031964D01*
X032224Y031972D01*
D02*
G37*
G36*
X031879Y031525D02*
X031532D01*
Y031280D01*
X031540Y031241D01*
X031562Y031207D01*
X031595Y031185D01*
X031634Y031178D01*
X031879D01*
Y031525D01*
D02*
G37*
G36*
X032326D02*
X031979D01*
Y031178D01*
X032224D01*
X032263Y031185D01*
X032297Y031207D01*
X032319Y031241D01*
X032326Y031280D01*
Y031525D01*
D02*
G37*
G36*
X044086Y029338D02*
X044019Y029332D01*
X043906Y029297D01*
X043801Y029242D01*
X043710Y029167D01*
X043635Y029075D01*
X043579Y028971D01*
X043545Y028858D01*
X043538Y028790D01*
X044086D01*
Y029338D01*
D02*
G37*
G36*
X025895Y025974D02*
X025553D01*
X025560Y025920D01*
X025600Y025824D01*
X025663Y025742D01*
X025746Y025678D01*
X025842Y025639D01*
X025895Y025632D01*
Y025974D01*
D02*
G37*
G36*
X026337D02*
X025995D01*
Y025632D01*
X026048Y025639D01*
X026144Y025678D01*
X026227Y025742D01*
X026290Y025824D01*
X026330Y025920D01*
X026337Y025974D01*
D02*
G37*
G36*
X026240Y025421D02*
X025650D01*
X025611Y025413D01*
X025578Y025391D01*
X025555Y025358D01*
X025548Y025319D01*
Y024728D01*
X025555Y024689D01*
X025578Y024656D01*
X025611Y024634D01*
X025650Y024626D01*
X026240D01*
X026279Y024634D01*
X026312Y024656D01*
X026334Y024689D01*
X026342Y024728D01*
Y025319D01*
X026334Y025358D01*
X026312Y025391D01*
X026279Y025413D01*
X026240Y025421D01*
D02*
G37*
G36*
X044134Y026784D02*
X044016Y026772D01*
X043903Y026738D01*
X043799Y026682D01*
X043708Y026607D01*
X043633Y026516D01*
X043577Y026412D01*
X043543Y026299D01*
X043531Y026181D01*
X043543Y026063D01*
X043577Y025950D01*
X043633Y025846D01*
X043708Y025755D01*
X043799Y025680D01*
X043903Y025624D01*
X044016Y025590D01*
X044134Y025578D01*
X044251Y025590D01*
X044365Y025624D01*
X044469Y025680D01*
X044560Y025755D01*
X044635Y025846D01*
X044691Y025950D01*
X044725Y026063D01*
X044737Y026181D01*
X044725Y026299D01*
X044691Y026412D01*
X044635Y026516D01*
X044560Y026607D01*
X044469Y026682D01*
X044365Y026738D01*
X044251Y026772D01*
X044134Y026784D01*
D02*
G37*
G36*
X025895Y026416D02*
X025842Y026409D01*
X025746Y026369D01*
X025663Y026306D01*
X025600Y026223D01*
X025560Y026127D01*
X025553Y026074D01*
X025895D01*
Y026416D01*
D02*
G37*
G36*
X044086Y028690D02*
X043538D01*
X043545Y028623D01*
X043579Y028510D01*
X043635Y028406D01*
X043710Y028314D01*
X043801Y028239D01*
X043906Y028183D01*
X044019Y028149D01*
X044086Y028142D01*
Y028690D01*
D02*
G37*
G36*
X044734D02*
X044186D01*
Y028142D01*
X044254Y028149D01*
X044367Y028183D01*
X044471Y028239D01*
X044563Y028314D01*
X044638Y028406D01*
X044693Y028510D01*
X044728Y028623D01*
X044734Y028690D01*
D02*
G37*
G36*
X025995Y026416D02*
Y026074D01*
X026337D01*
X026330Y026127D01*
X026290Y026223D01*
X026227Y026306D01*
X026144Y026369D01*
X026048Y026409D01*
X025995Y026416D01*
D02*
G37*
G36*
X025236Y030668D02*
X025145Y030656D01*
X025060Y030621D01*
X024987Y030565D01*
X024931Y030491D01*
X024895Y030406D01*
X024883Y030315D01*
X024895Y030224D01*
X024931Y030138D01*
X024987Y030065D01*
X025060Y030009D01*
X025145Y029974D01*
X025236Y029962D01*
X025328Y029974D01*
X025351Y029984D01*
X027523Y027812D01*
X027573Y027778D01*
X027631Y027767D01*
X029705D01*
X029734Y027697D01*
X029790Y027624D01*
X029863Y027568D01*
X029948Y027533D01*
X030039Y027521D01*
X030131Y027533D01*
X030216Y027568D01*
X030289Y027624D01*
X030345Y027697D01*
X030380Y027783D01*
X030392Y027874D01*
X030380Y027965D01*
X030345Y028050D01*
X030289Y028124D01*
X030216Y028180D01*
X030131Y028215D01*
X030039Y028227D01*
X029948Y028215D01*
X029863Y028180D01*
X029790Y028124D01*
X029751Y028073D01*
X027695D01*
X025567Y030200D01*
X025577Y030224D01*
X025589Y030315D01*
X025577Y030406D01*
X025542Y030491D01*
X025486Y030565D01*
X025413Y030621D01*
X025328Y030656D01*
X025236Y030668D01*
D02*
G37*
%LPD*%
D22*
X030039Y027874D02*
Y027913D01*
X030033Y027920D02*
X030039Y027913D01*
X027631Y027920D02*
X030033D01*
X025866Y021772D02*
X026677Y020961D01*
X031802Y024039D02*
X032126D01*
X025236Y030315D02*
X027631Y027920D01*
X030709Y025176D02*
Y028937D01*
X030948Y024531D02*
Y028389D01*
X030787Y024370D02*
X030948Y024531D01*
X031417Y028858D02*
Y029094D01*
X032277Y029494D02*
X032835Y028937D01*
X030709Y028937D02*
X031266Y029494D01*
X032277D01*
X025866Y023268D02*
X025906Y023228D01*
X028268D01*
X025866Y022402D02*
X025984Y022283D01*
X028203D01*
X026677Y020961D02*
X031968D01*
X025866Y020906D02*
X026011Y020761D01*
X031483D01*
X030948Y028389D02*
X031417Y028858D01*
X030959Y023976D02*
X031457D01*
X030953Y023970D02*
X030959Y023976D01*
X029009Y023970D02*
X030953D01*
X029092Y023770D02*
X031533D01*
X031457Y023976D02*
X032126Y024646D01*
X031533Y023770D02*
X031802Y024039D01*
X029982Y024370D02*
X030748Y025136D01*
X030709Y025176D02*
X030748Y025136D01*
X034488Y025394D02*
X041260D01*
X028268Y023228D02*
X029009Y023970D01*
X028668Y023345D02*
X029092Y023770D01*
X028668Y022748D02*
Y023345D01*
X028203Y022283D02*
X028668Y022748D01*
X031483Y020761D02*
X032126Y020118D01*
D34*
X031929Y031575D02*
D03*
D35*
X030929D02*
D03*
X025945Y026024D02*
D03*
X024134Y020913D02*
D03*
Y021913D02*
D03*
Y022913D02*
D03*
D36*
X025945Y025024D02*
D03*
X024134Y023913D02*
D03*
D37*
X044136Y028740D02*
D03*
X044134Y030709D02*
D03*
X044136Y024213D02*
D03*
X044134Y026181D02*
D03*
X027441Y017047D02*
D03*
X029409Y017050D02*
D03*
D38*
X026687Y019720D02*
D03*
X027687D02*
D03*
D39*
X041390Y031260D02*
D03*
Y029646D02*
D03*
X033807Y023976D02*
D03*
D40*
X037272Y031260D02*
D03*
Y029646D02*
D03*
X037925Y023976D02*
D03*
D41*
X030039Y027874D02*
D03*
X029803Y027047D02*
D03*
X030512Y030551D02*
D03*
X029252Y027520D02*
D03*
X027520Y031142D02*
D03*
X033307Y030906D02*
D03*
X033701Y030197D02*
D03*
X032835Y028937D02*
D03*
X025866Y021732D02*
D03*
Y022441D02*
D03*
Y023268D02*
D03*
X029409Y030669D02*
D03*
X025236Y030315D02*
D03*
X031457Y029094D02*
D03*
X030787Y024370D02*
D03*
X029982D02*
D03*
X032126Y024646D02*
D03*
Y023960D02*
D03*
X033740Y025827D02*
D03*
X034488Y025394D02*
D03*
X032126Y020118D02*
D03*
Y020803D02*
D03*
X025866Y020906D02*
D03*
X041260Y025394D02*
D03*
X025236Y027047D02*
D03*
X026063D02*
D03*
X027126Y026339D02*
D03*
Y025499D02*
D03*
Y024501D02*
D03*
Y023661D02*
D03*
X030866Y021654D02*
D03*
X032283D02*
D03*
X035945Y028622D02*
D03*
Y027402D02*
D03*
X036063Y024646D02*
D03*
X041811Y018740D02*
D03*
Y019449D02*
D03*
X041102D02*
D03*
Y018740D02*
D03*
X027520Y029488D02*
D03*
X040787Y028189D02*
D03*
Y028898D02*
D03*
X028504Y018622D02*
D03*
X029213D02*
D03*
M02*
