EESchema Schematic File Version 4
LIBS:main_board2-cache
EELAYER 26 0
EELAYER END
$Descr B 17000 11000
encoding utf-8
Sheet 2 7
Title "MPPT_V1SCHEM-SchDoc"
Date "27 10 2018"
Rev ""
Comp ""
Comment1 ""
Comment2 ""
Comment3 ""
Comment4 ""
$EndDescr
$Comp
L power:GND #GND_0101
U 1 1 5BD43C6E
P 4500 5400
F 0 "#GND_0101" H 4500 5540 20  0000 C CNN
F 1 "GND" H 4500 5510 30  0000 C CNN
F 2 "" H 4500 5400 70  0000 C CNN
F 3 "" H 4500 5400 70  0000 C CNN
	1    4500 5400
	1    0    0    -1  
$EndComp
$Comp
L power:GND #GND_0102
U 1 1 5BD43C68
P 6900 4800
F 0 "#GND_0102" H 6900 4700 20  0000 C CNN
F 1 "GND" H 6900 4850 30  0000 C CNN
F 2 "" H 6900 4800 70  0000 C CNN
F 3 "" H 6900 4800 70  0000 C CNN
	1    6900 4800
	1    0    0    -1  
$EndComp
$Comp
L power:GND #GND_0103
U 1 1 5BD43C66
P 6550 8400
F 0 "#GND_0103" H 6550 8540 20  0000 C CNN
F 1 "GND" H 6550 8510 30  0000 C CNN
F 2 "" H 6550 8400 70  0000 C CNN
F 3 "" H 6550 8400 70  0000 C CNN
	1    6550 8400
	1    0    0    -1  
$EndComp
$Comp
L power:GND #GND_0104
U 1 1 5BD43C64
P 5450 8400
F 0 "#GND_0104" H 5450 8540 20  0000 C CNN
F 1 "GND" H 5450 8510 30  0000 C CNN
F 2 "" H 5450 8400 70  0000 C CNN
F 3 "" H 5450 8400 70  0000 C CNN
	1    5450 8400
	1    0    0    -1  
$EndComp
$Comp
L main_board2-rescue:V0-Mppt #V0101
U 1 1 5C892D76
P 6850 6800
F 0 "#V0101" H 6850 6800 20  0000 C CNN
F 1 "V0" H 6850 6730 30  0000 C CNN
F 2 "" H 6850 6800 70  0000 C CNN
F 3 "" H 6850 6800 70  0000 C CNN
	1    6850 6800
	1    0    0    -1  
$EndComp
$Comp
L main_board2-rescue:PV+-Mppt #PV+0101
U 1 1 5BD43C5F
P 5800 6800
F 0 "#PV+0101" H 5800 6800 20  0000 C CNN
F 1 "PV+" H 5800 6730 30  0000 C CNN
F 2 "" H 5800 6800 70  0000 C CNN
F 3 "" H 5800 6800 70  0000 C CNN
	1    5800 6800
	1    0    0    -1  
$EndComp
Wire Wire Line
	8250 4300 8250 4600
Wire Wire Line
	8350 4300 8250 4300
Wire Wire Line
	8750 4300 8650 4300
Wire Wire Line
	8750 4600 8750 4300
Wire Wire Line
	9150 4600 8750 4600
$Comp
L power:GND #GND_0105
U 1 1 5BD43C57
P 8050 6800
F 0 "#GND_0105" H 8050 6940 20  0000 C CNN
F 1 "GND" H 8050 6910 30  0000 C CNN
F 2 "" H 8050 6800 70  0000 C CNN
F 3 "" H 8050 6800 70  0000 C CNN
	1    8050 6800
	1    0    0    -1  
$EndComp
Wire Wire Line
	9150 6400 8550 6400
Text Label 6400 5000 0    60   ~ 0
AIOUT
Text Label 6400 3800 0    60   ~ 0
LIA
Text Label 6400 5400 0    60   ~ 0
AIIN
Text Label 6400 5800 0    60   ~ 0
AVOUT
Text Label 6400 4000 0    60   ~ 0
HIA
Text Label 6400 4200 0    60   ~ 0
HIB
Text Label 6400 4400 0    60   ~ 0
LIB
Wire Wire Line
	5250 6800 4950 6800
Text Label 4950 6800 0    60   ~ 0
AVIN
Text Label 6050 6800 0    60   ~ 0
AVOUT
Wire Wire Line
	4400 7900 4200 7900
Text Label 4200 7900 0    60   ~ 0
A2
Wire Wire Line
	9150 7300 9050 7300
Wire Wire Line
	8650 7300 8750 7300
Wire Wire Line
	8350 4200 9150 4200
Wire Wire Line
	8450 3600 8350 3600
Wire Wire Line
	8850 3600 8750 3600
Wire Wire Line
	8850 4400 8850 3600
Wire Wire Line
	9150 4400 8850 4400
Text Label 12500 7400 0    60   ~ 0
VIN
$Comp
L main_board2-rescue:PV+-Mppt #PV+_0101
U 1 1 5BD43C55
P 11200 7400
F 0 "#PV+_0101" H 11200 7400 20  0000 C CNN
F 1 "PV+" H 11200 7330 30  0000 C CNN
F 2 "" H 11200 7400 70  0000 C CNN
F 3 "" H 11200 7400 70  0000 C CNN
	1    11200 7400
	1    0    0    -1  
$EndComp
Text Label 8350 3600 0    60   ~ 0
SIA+
Text Label 8850 3300 0    60   ~ 0
SOA+
Text Label 11100 7200 0    60   ~ 0
SIA+
Text Label 12500 7200 0    60   ~ 0
SOA+
Text Label 8650 8000 0    60   ~ 0
SOB+
Text Label 9150 7300 0    60   ~ 0
SIB+
Wire Wire Line
	11300 8100 11100 8100
Wire Wire Line
	11300 7900 11100 7900
Text Label 11100 8100 0    60   ~ 0
SIB+
Text Label 12500 7900 0    60   ~ 0
SOB+
Text Label 11100 7900 0    60   ~ 0
VMOS
Text Label 12500 8100 0    60   ~ 0
VO
Text Label 11250 3900 0    60   ~ 0
HBA
Text Label 11050 4600 0    60   ~ 0
HBA
Text Label 13400 2550 0    60   ~ 0
VIN
$Comp
L power:GND #GND_0106
U 1 1 5BD43C51
P 11450 5200
F 0 "#GND_0106" H 11450 5340 20  0000 C CNN
F 1 "GND" H 11450 5310 30  0000 C CNN
F 2 "" H 11450 5200 70  0000 C CNN
F 3 "" H 11450 5200 70  0000 C CNN
	1    11450 5200
	1    0    0    -1  
$EndComp
Wire Wire Line
	11450 5200 11050 5200
Wire Wire Line
	11150 4800 11050 4800
Wire Wire Line
	11150 5600 11150 4800
Wire Wire Line
	11050 5600 11150 5600
$Comp
L power:GND #GND_0107
U 1 1 5BD43C4F
P 11450 4800
F 0 "#GND_0107" H 11450 4940 20  0000 C CNN
F 1 "GND" H 11450 4910 30  0000 C CNN
F 2 "" H 11450 4800 70  0000 C CNN
F 3 "" H 11450 4800 70  0000 C CNN
	1    11450 4800
	1    0    0    -1  
$EndComp
Text Label 12000 2650 0    60   ~ 0
HSA
Text Label 14850 4000 0    60   ~ 0
HSA
Wire Wire Line
	13450 4200 13450 4000
Wire Wire Line
	13450 4400 13450 4200
$Comp
L power:GND #GND_0108
U 1 1 5BD43C4E
P 13450 4200
F 0 "#GND_0108" H 13450 4340 20  0000 C CNN
F 1 "GND" H 13450 4310 30  0000 C CNN
F 2 "" H 13450 4200 70  0000 C CNN
F 3 "" H 13450 4200 70  0000 C CNN
	1    13450 4200
	1    0    0    -1  
$EndComp
Text Label 12750 5800 0    60   ~ 0
LOB
Text Label 11250 5400 0    60   ~ 0
LOB
Wire Wire Line
	11250 5400 11050 5400
$Comp
L power:GND #GND_0109
U 1 1 5BD43C4D
P 13450 5400
F 0 "#GND_0109" H 13450 5540 20  0000 C CNN
F 1 "GND" H 13450 5510 30  0000 C CNN
F 2 "" H 13450 5400 70  0000 C CNN
F 3 "" H 13450 5400 70  0000 C CNN
	1    13450 5400
	1    0    0    -1  
$EndComp
Text Label 11050 5800 0    60   ~ 0
HBB
Text Label 14050 2600 0    60   ~ 0
HBB
Text Label 11050 6000 0    60   ~ 0
HOB
Text Label 13850 3200 0    60   ~ 0
HOB
Text Label 11050 6200 0    60   ~ 0
HSB
Text Label 14250 3000 0    60   ~ 0
HSB
$Comp
L power:GND #GND_0110
U 1 1 5BD43C4B
P 9750 8000
F 0 "#GND_0110" H 9750 8140 20  0000 C CNN
F 1 "GND" H 9750 8110 30  0000 C CNN
F 2 "" H 9750 8000 70  0000 C CNN
F 3 "" H 9750 8000 70  0000 C CNN
	1    9750 8000
	1    0    0    -1  
$EndComp
Wire Wire Line
	9750 8000 9750 7800
$Comp
L power:GND #GND_0111
U 1 1 5C892D69
P 10150 8200
F 0 "#GND_0111" H 10150 8340 20  0000 C CNN
F 1 "GND" H 10150 8310 30  0000 C CNN
F 2 "" H 10150 8200 70  0000 C CNN
F 3 "" H 10150 8200 70  0000 C CNN
	1    10150 8200
	1    0    0    -1  
$EndComp
Text Label 10450 7700 0    60   ~ 0
OVS
Text Label 11050 6600 0    60   ~ 0
OVS
Wire Wire Line
	11250 5800 11050 5800
Wire Wire Line
	11250 6000 11050 6000
Wire Wire Line
	11250 6200 11050 6200
Wire Wire Line
	11250 6600 11050 6600
Text Label 9750 7200 0    60   ~ 0
VMOS
Text Label 15950 3200 0    60   ~ 0
VMOS
Wire Wire Line
	9750 7200 9750 7500
Wire Wire Line
	10150 7200 9750 7200
Wire Wire Line
	10650 7700 10150 7700
Text Label 14850 5800 0    60   ~ 0
HSB
Wire Wire Line
	14250 3000 14550 3000
Wire Wire Line
	14050 2600 14250 2600
Text Label 11050 5000 0    60   ~ 0
LOA
Text Label 1750 5950 0    60   ~ 0
SCL
Text Label 1750 6050 0    60   ~ 0
SDA
Text Label 4300 3600 0    60   ~ 0
RST
Text Label 9100 4800 0    60   ~ 0
AIIN
Text Label 8950 6200 0    60   ~ 0
AIOUT
Wire Wire Line
	9150 6200 8950 6200
Wire Wire Line
	9650 3650 9950 3650
Wire Wire Line
	9950 3850 9950 3750
Wire Wire Line
	9650 3850 9950 3850
Text Label 9650 3650 0    60   ~ 0
AIIN
Text Label 9650 3850 0    60   ~ 0
AIOUT
Wire Wire Line
	11550 5600 11150 5600
Wire Wire Line
	11650 5600 11550 5600
$Comp
L power:GND #GND_0112
U 1 1 5C892D67
P 11550 5900
F 0 "#GND_0112" H 11550 6040 20  0000 C CNN
F 1 "GND" H 11550 6010 30  0000 C CNN
F 2 "" H 11550 5900 70  0000 C CNN
F 3 "" H 11550 5900 70  0000 C CNN
	1    11550 5900
	1    0    0    -1  
$EndComp
$Comp
L main_board2-rescue:PV+-Mppt #PV+_0102
U 1 1 5C892D64
P 2000 6850
F 0 "#PV+_0102" H 2000 6850 20  0000 C CNN
F 1 "PV+" H 2000 6780 30  0000 C CNN
F 2 "" H 2000 6850 70  0000 C CNN
F 3 "" H 2000 6850 70  0000 C CNN
	1    2000 6850
	1    0    0    -1  
$EndComp
Wire Wire Line
	4000 5700 3800 5700
Wire Wire Line
	4300 5700 4000 5700
Wire Wire Line
	4500 5700 4300 5700
Wire Wire Line
	4500 5800 4500 5700
Wire Wire Line
	4500 4200 4200 4200
Wire Wire Line
	4200 3900 4000 3900
Wire Wire Line
	4300 3900 4200 3900
Wire Wire Line
	4300 4000 4300 3900
Wire Wire Line
	4500 4000 4300 4000
Text Notes 12350 9750 0    96   ~ 0
MPPT Version 2.1
Text Notes 11300 7400 0    60   ~ 0
1
Text Notes 10300 10800 0    60   ~ 0
Harry Price
Wire Wire Line
	9050 6600 9150 6600
Wire Wire Line
	9050 6800 9050 6600
Wire Wire Line
	8650 6800 9050 6800
Wire Wire Line
	8650 7300 8650 6800
Wire Wire Line
	11050 4200 11250 4200
Wire Wire Line
	4000 6000 3900 6000
Wire Wire Line
	4300 6000 4000 6000
Wire Wire Line
	4500 6000 4300 6000
$Comp
L main_board2-rescue:PV+-Mppt #PV+_0103
U 1 1 5C892D63
P 1950 5450
F 0 "#PV+_0103" H 1950 5550 20  0000 C CNN
F 1 "PV+" H 1950 5600 30  0000 C CNN
F 2 "" H 1950 5450 70  0000 C CNN
F 3 "" H 1950 5450 70  0000 C CNN
	1    1950 5450
	1    0    0    -1  
$EndComp
Wire Wire Line
	14850 4600 14850 4400
Wire Wire Line
	14850 5600 15050 5600
Text Label 14700 8200 0    60   ~ 0
VO
Text Label 11050 6800 0    60   ~ 0
OVP
Connection ~ 4000 6000
Connection ~ 4000 5700
Connection ~ 4200 4200
Connection ~ 4200 3900
Connection ~ 4300 6000
Connection ~ 4300 5700
Connection ~ 5250 6800
Connection ~ 8650 7300
Connection ~ 8850 3600
Connection ~ 11150 5600
Connection ~ 11150 4800
Connection ~ 11550 5600
Connection ~ 13450 4200
Connection ~ 14850 4400
$Comp
L Device:R R1
U 1 1 5C892D61
P 1500 4850
F 0 "R1" V 1540 4760 60  0000 R TNN
F 1 "10KO" V 1360 4760 60  0000 R TNN
F 2 "Resistor_SMD:R_0805_2012Metric" H 1360 4760 60  0001 C CNN
F 3 "" H 1360 4760 60  0000 C CNN
	1    1500 4850
	0    -1   -1   0   
$EndComp
$Comp
L Device:R R11
U 1 1 5BD43C25
P 6600 3600
F 0 "R11" V 6450 3550 60  0000 L BNN
F 1 "10KO" V 6550 3500 60  0000 L BNN
F 2 "Resistor_SMD:R_0805_2012Metric" H 6740 3190 60  0001 C CNN
F 3 "" H 6740 3190 60  0000 C CNN
	1    6600 3600
	0    1    1    0   
$EndComp
$Comp
L Device:R R12
U 1 1 5C892D5F
P 6650 4600
F 0 "R12" V 6500 4550 60  0000 L BNN
F 1 "60.4KO" V 6600 4450 60  0000 L BNN
F 2 "Resistor_SMD:R_0805_2012Metric" H 6790 4190 60  0001 C CNN
F 3 "" H 6790 4190 60  0000 C CNN
	1    6650 4600
	0    1    1    0   
$EndComp
$Comp
L Device:R R13
U 1 1 5BD43C23
P 6650 4800
F 0 "R13" V 6600 4750 60  0000 L BNN
F 1 "10KO" V 6750 4700 60  0000 L BNN
F 2 "Resistor_SMD:R_0805_2012Metric" H 6790 4390 60  0001 C CNN
F 3 "" H 6790 4390 60  0000 C CNN
	1    6650 4800
	0    1    1    0   
$EndComp
$Comp
L Device:R RT4
U 1 1 5BD43C22
P 6800 7900
F 0 "RT4" V 6850 7950 60  0000 R TNN
F 1 "26kO" V 6650 8000 60  0000 R TNN
F 2 "Resistor_SMD:R_0805_2012Metric" H 6660 7810 60  0001 C CNN
F 3 "" H 6660 7810 60  0000 C CNN
	1    6800 7900
	0    -1   -1   0   
$EndComp
$Comp
L Device:R RB4
U 1 1 5BD43C21
P 6550 8150
F 0 "RB4" H 6600 8150 60  0000 L BNN
F 1 "20kO" H 6600 8050 60  0000 L BNN
F 2 "Resistor_SMD:R_0805_2012Metric" H 6590 7860 60  0001 C CNN
F 3 "" H 6590 7860 60  0000 C CNN
	1    6550 8150
	1    0    0    -1  
$EndComp
$Comp
L Device:R RT3
U 1 1 5C892D5B
P 5700 7900
F 0 "RT3" V 5750 7950 60  0000 R TNN
F 1 "1kO" V 5550 7900 60  0000 R TNN
F 2 "Resistor_SMD:R_0805_2012Metric" H 5560 7810 60  0001 C CNN
F 3 "" H 5560 7810 60  0000 C CNN
	1    5700 7900
	0    -1   -1   0   
$EndComp
$Comp
L Device:R RB3
U 1 1 5BD43C1F
P 5450 8150
F 0 "RB3" H 5400 8150 60  0000 R TNN
F 1 "4kO" H 5400 8250 60  0000 R TNN
F 2 "Resistor_SMD:R_0805_2012Metric" H 5410 7940 60  0001 C CNN
F 3 "" H 5410 7940 60  0000 C CNN
	1    5450 8150
	-1   0    0    1   
$EndComp
$Comp
L Device:R RFB1
U 1 1 5BD43C1E
P 6350 7000
F 0 "RFB1" H 6050 7000 60  0000 L BNN
F 1 "10kO" H 6050 6900 60  0000 L BNN
F 2 "Resistor_SMD:R_0805_2012Metric" H 6390 6710 60  0001 C CNN
F 3 "" H 6390 6710 60  0000 C CNN
	1    6350 7000
	1    0    0    -1  
$EndComp
$Comp
L Device:R RFT1
U 1 1 5BD43C1D
P 6600 6800
F 0 "RFT1" V 6650 6900 60  0000 R TNN
F 1 "30kO" V 6450 6850 60  0000 R TNN
F 2 "Resistor_SMD:R_0805_2012Metric" H 6460 6710 60  0001 C CNN
F 3 "" H 6460 6710 60  0000 C CNN
	1    6600 6800
	0    -1   -1   0   
$EndComp
$Comp
L Device:R RB1
U 1 1 5BD43C1C
P 4400 8100
F 0 "RB1" H 4500 8050 60  0000 L BNN
F 1 "5.6kO" H 4450 7950 60  0000 L BNN
F 2 "Resistor_SMD:R_0805_2012Metric" H 4440 7810 60  0001 C CNN
F 3 "" H 4440 7810 60  0000 C CNN
	1    4400 8100
	1    0    0    -1  
$EndComp
$Comp
L Device:C C2
U 1 1 5BD43C1B
P 4200 4050
F 0 "C2" H 4300 4000 60  0000 L BNN
F 1 "0.1uF" H 4300 3900 60  0000 L BNN
F 2 "Capacitor_SMD:C_0805_2012Metric_Pad1.15x1.40mm_HandSolder" H 4300 3760 60  0001 C CNN
F 3 "" H 4300 3760 60  0000 C CNN
	1    4200 4050
	1    0    0    -1  
$EndComp
$Comp
L Device:R RT2
U 1 1 5C892D55
P 4650 7900
F 0 "RT2" V 4700 8000 60  0000 R TNN
F 1 "4.7kO" V 4500 7850 60  0000 R TNN
F 2 "Resistor_SMD:R_0805_2012Metric" H 4510 7810 60  0001 C CNN
F 3 "" H 4510 7810 60  0000 C CNN
	1    4650 7900
	0    -1   -1   0   
$EndComp
$Comp
L Device:R R9
U 1 1 5C892D54
P 5250 7000
F 0 "R9" H 5000 7000 60  0000 L BNN
F 1 "3.3kO" H 4950 6900 60  0000 L BNN
F 2 "Resistor_SMD:R_0805_2012Metric" H 5290 6710 60  0001 C CNN
F 3 "" H 5290 6710 60  0000 C CNN
	1    5250 7000
	1    0    0    -1  
$EndComp
$Comp
L Device:R R10
U 1 1 5C892D53
P 5450 6800
F 0 "R10" V 5500 6850 60  0000 R TNN
F 1 "2.2kO" V 5300 6850 60  0000 R TNN
F 2 "Resistor_SMD:R_0805_2012Metric" H 5310 6710 60  0001 C CNN
F 3 "" H 5310 6710 60  0000 C CNN
	1    5450 6800
	0    -1   -1   0   
$EndComp
$Comp
L Device:R R15
U 1 1 5C892D52
P 8350 3950
F 0 "R15" H 8400 3950 60  0000 L BNN
F 1 "500O" H 8400 3850 60  0000 L BNN
F 2 "Resistor_SMD:R_0805_2012Metric" H 8390 3660 60  0001 C CNN
F 3 "" H 8390 3660 60  0000 C CNN
	1    8350 3950
	1    0    0    -1  
$EndComp
$Comp
L Device:R R16
U 1 1 5C892D51
P 8500 4600
F 0 "R16" V 8350 4700 60  0000 R TNN
F 1 "680kO" V 8250 4750 60  0000 R TNN
F 2 "Resistor_SMD:R_0805_2012Metric" H 8360 4510 60  0001 C CNN
F 3 "" H 8360 4510 60  0000 C CNN
	1    8500 4600
	0    -1   -1   0   
$EndComp
$Comp
L Device:R R6
U 1 1 5BD43C10
P 4300 4400
F 0 "R6" V 4350 4550 60  0000 R TNN
F 1 "10KO" V 4350 4400 60  0000 R TNN
F 2 "Resistor_SMD:R_0805_2012Metric" H 4160 4310 60  0001 C CNN
F 3 "" H 4160 4310 60  0000 C CNN
	1    4300 4400
	0    -1   -1   0   
$EndComp
$Comp
L Device:C C8
U 1 1 5BD43C0F
P 8500 4300
F 0 "C8" V 8500 4600 60  0000 R TNN
F 1 "10uF" V 8350 4450 60  0000 R TNN
F 2 "Capacitor_SMD:C_0805_2012Metric_Pad1.15x1.40mm_HandSolder" H 8300 4210 60  0001 C CNN
F 3 "" H 8300 4210 60  0000 C CNN
	1    8500 4300
	0    -1   -1   0   
$EndComp
$Comp
L Device:R R14
U 1 1 5BD43C0E
P 8300 6400
F 0 "R14" V 8450 6450 60  0000 R TNN
F 1 "680kO" V 8350 6500 60  0000 R TNN
F 2 "Resistor_SMD:R_0805_2012Metric" H 8160 6310 60  0001 C CNN
F 3 "" H 8160 6310 60  0000 C CNN
	1    8300 6400
	0    -1   -1   0   
$EndComp
$Comp
L Device:C C7
U 1 1 5BD43C0D
P 8300 6750
F 0 "C7" V 8400 6800 60  0000 R TNN
F 1 "10uF" V 8100 6850 60  0000 R TNN
F 2 "Capacitor_SMD:C_0805_2012Metric_Pad1.15x1.40mm_HandSolder" H 8100 6660 60  0001 C CNN
F 3 "" H 8100 6660 60  0000 C CNN
	1    8300 6750
	0    -1   -1   0   
$EndComp
$Comp
L Device:R R17
U 1 1 5BD43C0C
P 8650 7750
F 0 "R17" H 8700 7750 60  0000 L BNN
F 1 "500O" H 8700 7650 60  0000 L BNN
F 2 "Resistor_SMD:R_0805_2012Metric" H 8690 7460 60  0001 C CNN
F 3 "" H 8690 7460 60  0000 C CNN
	1    8650 7750
	1    0    0    -1  
$EndComp
$Comp
L Device:R R19
U 1 1 5C892D4B
P 9150 7050
F 0 "R19" H 9200 7050 60  0000 L BNN
F 1 "500O" H 9200 6950 60  0000 L BNN
F 2 "Resistor_SMD:R_0805_2012Metric" H 9190 6760 60  0001 C CNN
F 3 "" H 9190 6760 60  0000 C CNN
	1    9150 7050
	1    0    0    -1  
$EndComp
$Comp
L Device:C C10
U 1 1 5C892D4A
P 8900 7300
F 0 "C10" V 9000 7350 60  0000 R TNN
F 1 "10nF" V 8700 7400 60  0000 R TNN
F 2 "Capacitor_SMD:C_0805_2012Metric_Pad1.15x1.40mm_HandSolder" H 8700 7210 60  0001 C CNN
F 3 "" H 8700 7210 60  0000 C CNN
	1    8900 7300
	0    -1   -1   0   
$EndComp
$Comp
L Device:R R18
U 1 1 5C892D49
P 8850 3450
F 0 "R18" H 8890 3260 60  0000 L BNN
F 1 "500O" H 8890 3160 60  0000 L BNN
F 2 "Resistor_SMD:R_0805_2012Metric" H 8890 3160 60  0001 C CNN
F 3 "" H 8890 3160 60  0000 C CNN
	1    8850 3450
	1    0    0    -1  
$EndComp
$Comp
L Device:C C9
U 1 1 5BD43C08
P 8600 3600
F 0 "C9" V 8700 3650 60  0000 R TNN
F 1 "10nF" V 8400 3700 60  0000 R TNN
F 2 "Capacitor_SMD:C_0805_2012Metric_Pad1.15x1.40mm_HandSolder" H 8400 3510 60  0001 C CNN
F 3 "" H 8400 3510 60  0000 C CNN
	1    8600 3600
	0    -1   -1   0   
$EndComp
$Comp
L main_board2-rescue:LVK12_Kelvin_Sense_Resistor-Mppt RKOUT1
U 1 1 5C892D47
P 11900 8000
F 0 "RKOUT1" H 11600 8200 60  0000 L BNN
F 1 "10mO" H 11600 7700 60  0000 L BNN
F 2 "CustomFootprints:LVK12" H 11600 7700 60  0001 C CNN
F 3 "" H 11600 7700 60  0000 C CNN
	1    11900 8000
	1    0    0    -1  
$EndComp
$Comp
L Device:R R7
U 1 1 5C892D46
P 4300 4600
F 0 "R7" V 4350 4750 60  0000 R TNN
F 1 "10KO" V 4350 4600 60  0000 R TNN
F 2 "Resistor_SMD:R_0805_2012Metric" H 4160 4510 60  0001 C CNN
F 3 "" H 4160 4510 60  0000 C CNN
	1    4300 4600
	0    -1   -1   0   
$EndComp
$Comp
L main_board2-rescue:LVK12_Kelvin_Sense_Resistor-Mppt RKIN1
U 1 1 5BD43C03
P 11900 7300
F 0 "RKIN1" H 11600 7500 60  0000 L BNN
F 1 "10mO" H 11600 7000 60  0000 L BNN
F 2 "CustomFootprints:LVK12" H 11600 7000 60  0001 C CNN
F 3 "" H 11600 7000 60  0000 C CNN
	1    11900 7300
	1    0    0    -1  
$EndComp
$Comp
L Device:C C21
U 1 1 5C892D44
P 14100 1750
F 0 "C21" H 14250 1750 60  0000 L BNN
F 1 "10nF" H 14200 1650 60  0000 L BNN
F 2 "Capacitor_SMD:C_0805_2012Metric_Pad1.15x1.40mm_HandSolder" H 14200 1460 60  0001 C CNN
F 3 "" H 14200 1460 60  0000 C CNN
	1    14100 1750
	1    0    0    -1  
$EndComp
$Comp
L main_board2-rescue:FDS6298-Mppt Q_HI_A1
U 1 1 5C892D43
P 13100 3350
F 0 "Q_HI_A1" H 12300 4350 60  0000 L BNN
F 1 "FDS6298" H 13100 3350 50  0001 C CNN
F 2 "Package_SO:SO-8_5.3x6.2mm_P1.27mm" H 13100 3350 50  0001 C CNN
F 3 "" H 13100 3350 50  0001 C CNN
	1    13100 3350
	1    0    0    -1  
$EndComp
$Comp
L main_board2-rescue:FDS6298-Mppt Q_LO_A1
U 1 1 5BD43C00
P 14550 4800
F 0 "Q_LO_A1" H 13750 5800 60  0000 L BNN
F 1 "FDS6298" H 14550 4800 50  0001 C CNN
F 2 "Package_SO:SO-8_5.3x6.2mm_P1.27mm" H 14550 4800 50  0001 C CNN
F 3 "" H 14550 4800 50  0001 C CNN
	1    14550 4800
	1    0    0    -1  
$EndComp
$Comp
L main_board2-rescue:FDS6298-Mppt Q_LO_B1
U 1 1 5C892D41
P 14550 6000
F 0 "Q_LO_B1" H 13750 7000 60  0000 L BNN
F 1 "FDS6298" H 14550 6000 50  0001 C CNN
F 2 "Package_SO:SO-8_5.3x6.2mm_P1.27mm" H 14550 6000 50  0001 C CNN
F 3 "" H 14550 6000 50  0001 C CNN
	1    14550 6000
	1    0    0    -1  
$EndComp
$Comp
L main_board2-rescue:FDS6298-Mppt Q_HI_B1
U 1 1 5BD43BFE
P 15650 3400
F 0 "Q_HI_B1" H 14850 4400 60  0000 L BNN
F 1 "FDS6298" H 15650 3400 50  0001 C CNN
F 2 "Package_SO:SO-8_5.3x6.2mm_P1.27mm" H 15650 3400 50  0001 C CNN
F 3 "" H 15650 3400 50  0001 C CNN
	1    15650 3400
	1    0    0    -1  
$EndComp
$Comp
L Device:R R22
U 1 1 5C892D3F
P 11700 3150
F 0 "R22" V 11750 3200 60  0000 R TNN
F 1 "150O" V 11550 3300 60  0000 R TNN
F 2 "Resistor_SMD:R_0805_2012Metric" H 11560 3060 60  0001 C CNN
F 3 "" H 11560 3060 60  0000 C CNN
	1    11700 3150
	0    -1   -1   0   
$EndComp
$Comp
L Device:C C12
U 1 1 5C892D3E
P 11250 4050
F 0 "C12" H 11350 4100 60  0000 L BNN
F 1 "0.47uF" H 11400 4000 60  0000 L BNN
F 2 "Capacitor_SMD:C_0805_2012Metric_Pad1.15x1.40mm_HandSolder" H 11350 3760 60  0001 C CNN
F 3 "" H 11350 3760 60  0000 C CNN
	1    11250 4050
	1    0    0    -1  
$EndComp
$Comp
L Device:C C13
U 1 1 5C892D3D
P 11300 4800
F 0 "C13" V 11400 4900 60  0000 R TNN
F 1 "2uF" V 11100 4850 60  0000 R TNN
F 2 "Capacitor_SMD:C_0805_2012Metric_Pad1.15x1.40mm_HandSolder" H 11100 4710 60  0001 C CNN
F 3 "" H 11100 4710 60  0000 C CNN
	1    11300 4800
	0    -1   -1   0   
$EndComp
$Comp
L Device:R R8
U 1 1 5C892D3C
P 4300 4800
F 0 "R8" V 4350 4950 60  0000 R TNN
F 1 "10KO" V 4350 4800 60  0000 R TNN
F 2 "Resistor_SMD:R_0805_2012Metric" H 4160 4710 60  0001 C CNN
F 3 "" H 4160 4710 60  0000 C CNN
	1    4300 4800
	0    -1   -1   0   
$EndComp
$Comp
L Device:R R24
U 1 1 5C892D3B
P 13250 4600
F 0 "R24" V 13300 4700 60  0000 R TNN
F 1 "150O" V 13100 4700 60  0000 R TNN
F 2 "Resistor_SMD:R_0805_2012Metric" H 13110 4510 60  0001 C CNN
F 3 "" H 13110 4510 60  0000 C CNN
	1    13250 4600
	0    -1   -1   0   
$EndComp
$Comp
L Device:C C22
U 1 1 5C892D3A
P 14400 2600
F 0 "C22" V 14500 2700 60  0000 R TNN
F 1 "0.47uF" V 14200 2850 60  0000 R TNN
F 2 "Capacitor_SMD:C_0805_2012Metric_Pad1.15x1.40mm_HandSolder" H 14200 2510 60  0001 C CNN
F 3 "" H 14200 2510 60  0000 C CNN
	1    14400 2600
	0    -1   -1   0   
$EndComp
$Comp
L Device:R R25
U 1 1 5BD43BF7
P 14300 3200
F 0 "R25" V 14350 3250 60  0000 R TNN
F 1 "150O" V 14150 3300 60  0000 R TNN
F 2 "Resistor_SMD:R_0805_2012Metric" H 14160 3110 60  0001 C CNN
F 3 "" H 14160 3110 60  0000 C CNN
	1    14300 3200
	0    -1   -1   0   
$EndComp
$Comp
L Device:C C11
U 1 1 5C892D38
P 9750 7650
F 0 "C11" H 9550 7700 60  0000 L BNN
F 1 "25uF" H 9450 7550 60  0000 L BNN
F 2 "Capacitor_SMD:C_0805_2012Metric_Pad1.15x1.40mm_HandSolder" H 9850 7360 60  0001 C CNN
F 3 "" H 9850 7360 60  0000 C CNN
	1    9750 7650
	1    0    0    -1  
$EndComp
$Comp
L Device:R R20
U 1 1 5BD43BF5
P 10150 7450
F 0 "R20" H 10250 7450 60  0000 L BNN
F 1 "10kO" H 10250 7350 60  0000 L BNN
F 2 "Resistor_SMD:R_0805_2012Metric" H 10190 7160 60  0001 C CNN
F 3 "" H 10190 7160 60  0000 C CNN
	1    10150 7450
	1    0    0    -1  
$EndComp
$Comp
L Device:R R21
U 1 1 5BD43BF4
P 10150 7950
F 0 "R21" H 10250 7950 60  0000 L BNN
F 1 "10kO" H 10250 7850 60  0000 L BNN
F 2 "Resistor_SMD:R_0805_2012Metric" H 10190 7660 60  0001 C CNN
F 3 "" H 10190 7660 60  0000 C CNN
	1    10150 7950
	1    0    0    -1  
$EndComp
$Comp
L Device:C C17
U 1 1 5BD43BF3
P 11950 1750
F 0 "C17" H 12050 1800 60  0000 L BNN
F 1 "10uF" H 12050 1600 60  0000 L BNN
F 2 "Capacitor_SMD:C_0805_2012Metric_Pad1.15x1.40mm_HandSolder" H 12050 1460 60  0001 C CNN
F 3 "" H 12050 1460 60  0000 C CNN
	1    11950 1750
	1    0    0    -1  
$EndComp
$Comp
L Device:R R23
U 1 1 5C892D34
P 13200 5800
F 0 "R23" V 13250 5900 60  0000 R TNN
F 1 "150O" V 13050 5900 60  0000 R TNN
F 2 "Resistor_SMD:R_0805_2012Metric" H 13060 5710 60  0001 C CNN
F 3 "" H 13060 5710 60  0000 C CNN
	1    13200 5800
	0    -1   -1   0   
$EndComp
$Comp
L Device:C C23
U 1 1 5BD43BF1
P 14700 1750
F 0 "C23" H 14800 1800 60  0000 L BNN
F 1 "10uF" H 14800 1650 60  0000 L BNN
F 2 "Capacitor_SMD:C_0805_2012Metric_Pad1.15x1.40mm_HandSolder" H 14800 1460 60  0001 C CNN
F 3 "" H 14800 1460 60  0000 C CNN
	1    14700 1750
	1    0    0    -1  
$EndComp
$Comp
L Device:C C18
U 1 1 5C892D32
P 12350 1750
F 0 "C18" H 12450 1750 60  0000 L BNN
F 1 "10uF" H 12450 1600 60  0000 L BNN
F 2 "Capacitor_SMD:C_0805_2012Metric_Pad1.15x1.40mm_HandSolder" H 12450 1460 60  0001 C CNN
F 3 "" H 12450 1460 60  0000 C CNN
	1    12350 1750
	1    0    0    -1  
$EndComp
$Comp
L Device:C C1
U 1 1 5C892D31
P 4000 5850
F 0 "C1" H 3800 5850 60  0000 L BNN
F 1 "1uF" H 3750 5750 60  0000 L BNN
F 2 "Capacitor_SMD:C_0805_2012Metric_Pad1.15x1.40mm_HandSolder" H 4100 5560 60  0001 C CNN
F 3 "" H 4100 5560 60  0000 C CNN
	1    4000 5850
	1    0    0    -1  
$EndComp
$Comp
L Connector:Conn_01x02_Male K5
U 1 1 5C892D30
P 2150 6050
F 0 "K5" H 2000 6000 60  0000 L BNN
F 1 "HEADER-1X2" H 1500 5900 60  0000 L BNN
F 2 "Connector_PinHeader_2.54mm:PinHeader_1x02_P2.54mm_Vertical" H 2290 5740 60  0001 C CNN
F 3 "" H 2290 5740 60  0000 C CNN
	1    2150 6050
	-1   0    0    1   
$EndComp
$Comp
L Connector:Conn_01x02_Male K6
U 1 1 5C892D2F
P 10150 3750
F 0 "K6" H 10150 3800 60  0000 L BNN
F 1 "HEADER-1X2" H 9950 3500 60  0000 L BNN
F 2 "Connector_PinHeader_2.54mm:PinHeader_1x02_P2.54mm_Vertical" H 10290 3440 60  0001 C CNN
F 3 "" H 10290 3440 60  0000 C CNN
	1    10150 3750
	-1   0    0    1   
$EndComp
$Comp
L Connector:Conn_01x02_Male K1
U 1 1 5C892D2E
P 2150 3700
F 0 "K1" H 2200 3800 60  0000 L BNN
F 1 "HEADER-1X2" H 1650 3500 60  0000 L BNN
F 2 "Connector_PinHeader_2.54mm:PinHeader_1x02_P2.54mm_Vertical" H 2290 3390 60  0001 C CNN
F 3 "" H 2290 3390 60  0000 C CNN
	1    2150 3700
	-1   0    0    1   
$EndComp
$Comp
L Device:C C24
U 1 1 5BD43BE7
P 15200 1750
F 0 "C24" H 15400 1700 60  0000 R TNN
F 1 "???" H 15400 1850 60  0000 R TNN
F 2 "Capacitor_SMD:C_0805_2012Metric_Pad1.15x1.40mm_HandSolder" H 15210 1650 60  0001 C CNN
F 3 "" H 15210 1650 60  0000 C CNN
	1    15200 1750
	1    0    0    -1  
$EndComp
$Comp
L Device:C C25
U 1 1 5BD43BE6
P 15600 1750
F 0 "C25" H 15800 1650 60  0000 R TNN
F 1 "1uF" H 15850 1800 60  0000 R TNN
F 2 "Capacitor_SMD:C_0805_2012Metric_Pad1.15x1.40mm_HandSolder" H 15610 1650 60  0001 C CNN
F 3 "" H 15610 1650 60  0000 C CNN
	1    15600 1750
	1    0    0    -1  
$EndComp
$Comp
L Device:C C19
U 1 1 5BD43BE5
P 12850 1750
F 0 "C19" H 13100 1700 60  0000 R TNN
F 1 "???" H 13100 1850 60  0000 R TNN
F 2 "Capacitor_SMD:C_0805_2012Metric_Pad1.15x1.40mm_HandSolder" H 12860 1650 60  0001 C CNN
F 3 "" H 12860 1650 60  0000 C CNN
	1    12850 1750
	1    0    0    -1  
$EndComp
$Comp
L Device:C C4
U 1 1 5BD43BE4
P 4300 5850
F 0 "C4" H 4400 5800 60  0000 L BNN
F 1 "0.1uF" H 4350 5700 60  0000 L BNN
F 2 "Capacitor_SMD:C_0805_2012Metric_Pad1.15x1.40mm_HandSolder" H 4400 5560 60  0001 C CNN
F 3 "" H 4400 5560 60  0000 C CNN
	1    4300 5850
	1    0    0    -1  
$EndComp
$Comp
L Device:C C20
U 1 1 5BD43BE3
P 13450 1750
F 0 "C20" H 13700 1700 60  0000 R TNN
F 1 "???" H 13650 1850 60  0000 R TNN
F 2 "Capacitor_SMD:C_0805_2012Metric_Pad1.15x1.40mm_HandSolder" H 13460 1650 60  0001 C CNN
F 3 "" H 13460 1650 60  0000 C CNN
	1    13450 1750
	1    0    0    -1  
$EndComp
$Comp
L Device:C C15
U 1 1 5BD43BE2
P 11550 5750
F 0 "C15" H 11450 5750 60  0000 R TNN
F 1 "2uF" H 11450 5850 60  0000 R TNN
F 2 "Capacitor_SMD:C_0805_2012Metric_Pad1.15x1.40mm_HandSolder" H 11450 5740 60  0001 C CNN
F 3 "" H 11450 5740 60  0000 C CNN
	1    11550 5750
	-1   0    0    1   
$EndComp
$Comp
L Device:LED D1
U 1 1 5BD43BDB
P 2000 7250
F 0 "D1" V 1950 7410 60  0000 L BNN
F 1 "SOLAR PWR GOOD" V 2050 7410 60  0000 L BNN
F 2 "LED_SMD:LED_0805_2012Metric_Pad1.15x1.40mm_HandSolder" H 2050 7410 60  0001 C CNN
F 3 "" H 2050 7410 60  0000 C CNN
	1    2000 7250
	0    -1   -1   0   
$EndComp
$Comp
L Device:LED D2
U 1 1 5C892D26
P 15050 6750
F 0 "D2" V 15000 6910 60  0000 L BNN
F 1 "OUTPUT PWR GOOD" V 15100 6910 60  0000 L BNN
F 2 "LED_SMD:LED_0805_2012Metric_Pad1.15x1.40mm_HandSolder" H 15100 6910 60  0001 C CNN
F 3 "" H 15100 6910 60  0000 C CNN
	1    15050 6750
	0    -1   -1   0   
$EndComp
$Comp
L Device:R RT1
U 1 1 5C892D25
P 4250 6200
F 0 "RT1" V 4300 6250 60  0000 R TNN
F 1 "10kO" V 4100 6300 60  0000 R TNN
F 2 "Resistor_SMD:R_0805_2012Metric" H 4110 6110 60  0001 C CNN
F 3 "" H 4110 6110 60  0000 C CNN
	1    4250 6200
	0    -1   -1   0   
$EndComp
$Comp
L Device:R R2
U 1 1 5C892D24
P 2000 7700
F 0 "R2" H 2100 7700 60  0000 L BNN
F 1 "2.2kO" H 2100 7600 60  0000 L BNN
F 2 "Resistor_SMD:R_0805_2012Metric" H 2040 7410 60  0001 C CNN
F 3 "" H 2040 7410 60  0000 C CNN
	1    2000 7700
	1    0    0    -1  
$EndComp
$Comp
L Device:R R26
U 1 1 5C892D23
P 15050 7300
F 0 "R26" H 15100 7350 60  0000 L BNN
F 1 "2.2kO" H 15100 7250 60  0000 L BNN
F 2 "Resistor_SMD:R_0805_2012Metric" H 15090 7010 60  0001 C CNN
F 3 "" H 15090 7010 60  0000 C CNN
	1    15050 7300
	1    0    0    -1  
$EndComp
$Comp
L main_board2-rescue:SM72445-Mppt IC1
U 1 1 5C892D22
P 6100 6400
F 0 "IC1" H 4800 9400 60  0000 L BNN
F 1 "SM72445" H 4800 6300 60  0000 L BNN
F 2 "Package_SO:TSSOP-28_4.4x9.7mm_P0.65mm" H 4800 6300 60  0001 C CNN
F 3 "" H 4800 6300 60  0000 C CNN
	1    6100 6400
	1    0    0    -1  
$EndComp
$Comp
L Connector:Conn_01x02_Male K2
U 1 1 5BD43BD3
P 2150 4300
F 0 "K2" H 2000 4150 60  0000 L BNN
F 1 "HEADER-1X2" H 1500 4250 60  0000 L BNN
F 2 "Connector_PinHeader_2.54mm:PinHeader_1x02_P2.54mm_Vertical" H 2290 3990 60  0001 C CNN
F 3 "" H 2290 3990 60  0000 C CNN
	1    2150 4300
	-1   0    0    1   
$EndComp
$Comp
L main_board2-rescue:SM72295-Mppt IC2
U 1 1 5C892D20
P 10750 7000
F 0 "IC2" H 9450 10000 60  0000 L BNN
F 1 "SM72295" H 10400 6900 60  0000 L BNN
F 2 "Package_SO:SOIC-28W_7.5x17.9mm_P1.27mm" H 9450 6900 60  0001 C CNN
F 3 "" H 9450 6900 60  0000 C CNN
	1    10750 7000
	1    0    0    -1  
$EndComp
$Comp
L Connector:Conn_01x02_Male K4
U 1 1 5BD43BCF
P 2150 5550
F 0 "K4" H 2000 5400 60  0000 L BNN
F 1 "HEADER-1X2" H 1550 5500 60  0000 L BNN
F 2 "Connector_PinHeader_2.54mm:PinHeader_1x02_P2.54mm_Vertical" H 2290 5240 60  0001 C CNN
F 3 "" H 2290 5240 60  0000 C CNN
	1    2150 5550
	-1   0    0    1   
$EndComp
$Comp
L Device:R RB2
U 1 1 5BD43BCE
P 4500 6400
F 0 "RB2" H 4450 6350 60  0000 R TNN
F 1 "10kO" H 4450 6450 60  0000 R TNN
F 2 "Resistor_SMD:R_0805_2012Metric" H 4460 6190 60  0001 C CNN
F 3 "" H 4460 6190 60  0000 C CNN
	1    4500 6400
	-1   0    0    1   
$EndComp
$Comp
L Device:L L1
U 1 1 5BD43BCD
P 15050 4850
F 0 "L1" V 15150 4800 60  0000 L BNN
F 1 "33uH" V 15250 4750 60  0000 L BNN
F 2 "CustomFootprints:L1" H 15049 4956 60  0001 C CNN
F 3 "" H 15049 4956 60  0000 C CNN
	1    15050 4850
	1    0    0    -1  
$EndComp
$Comp
L Connector:Conn_01x02_Male K7
U 1 1 5C892D1C
P 15100 8300
F 0 "K7" H 15000 8100 60  0000 L BNN
F 1 "HEADER-1X2" H 14500 8200 60  0000 L BNN
F 2 "Connector_PinHeader_2.54mm:PinHeader_1x02_P2.54mm_Vertical" H 15240 7990 60  0001 C CNN
F 3 "" H 15240 7990 60  0000 C CNN
	1    15100 8300
	-1   0    0    1   
$EndComp
$Comp
L power:GND #GND_0113
U 1 1 5C892D62
P 1950 5550
F 0 "#GND_0113" H 2000 5400 20  0000 C CNN
F 1 "GND" H 2000 5450 30  0000 C CNN
F 2 "" H 1950 5550 70  0000 C CNN
F 3 "" H 1950 5550 70  0000 C CNN
	1    1950 5550
	1    0    0    -1  
$EndComp
$Comp
L power:GND #GND_0114
U 1 1 5C892D74
P 4400 8400
F 0 "#GND_0114" H 4400 8540 20  0000 C CNN
F 1 "GND" H 4400 8510 30  0000 C CNN
F 2 "" H 4400 8400 70  0000 C CNN
F 3 "" H 4400 8400 70  0000 C CNN
	1    4400 8400
	1    0    0    -1  
$EndComp
$Comp
L power:GND #GND_0115
U 1 1 5C892D75
P 6350 7300
F 0 "#GND_0115" H 6350 7440 20  0000 C CNN
F 1 "GND" H 6350 7410 30  0000 C CNN
F 2 "" H 6350 7300 70  0000 C CNN
F 3 "" H 6350 7300 70  0000 C CNN
	1    6350 7300
	1    0    0    -1  
$EndComp
$Comp
L power:GND #GND_0116
U 1 1 5BD43C56
P 5250 7300
F 0 "#GND_0116" H 5250 7440 20  0000 C CNN
F 1 "GND" H 5250 7410 30  0000 C CNN
F 2 "" H 5250 7300 70  0000 C CNN
F 3 "" H 5250 7300 70  0000 C CNN
	1    5250 7300
	1    0    0    -1  
$EndComp
$Comp
L power:GND #GND_0117
U 1 1 5BD43C6B
P 4500 6700
F 0 "#GND_0117" H 4500 6840 20  0000 C CNN
F 1 "GND" H 4500 6810 30  0000 C CNN
F 2 "" H 4500 6700 70  0000 C CNN
F 3 "" H 4500 6700 70  0000 C CNN
	1    4500 6700
	1    0    0    -1  
$EndComp
$Comp
L power:GND #GND0101
U 1 1 5C892D7D
P 4500 3800
F 0 "#GND0101" H 4500 3940 20  0000 C CNN
F 1 "GND" H 4500 3910 30  0000 C CNN
F 2 "" H 4500 3800 70  0000 C CNN
F 3 "" H 4500 3800 70  0000 C CNN
	1    4500 3800
	1    0    0    -1  
$EndComp
$Comp
L power:GND #GND_0118
U 1 1 5BD43C72
P 3900 4200
F 0 "#GND_0118" H 3900 4340 20  0000 C CNN
F 1 "GND" H 3900 4310 30  0000 C CNN
F 2 "" H 3900 4200 70  0000 C CNN
F 3 "" H 3900 4200 70  0000 C CNN
	1    3900 4200
	1    0    0    -1  
$EndComp
$Comp
L power:GND #GND_0119
U 1 1 5BD43C3F
P 1950 4300
F 0 "#GND_0119" H 1950 4100 20  0000 C CNN
F 1 "GND" H 1950 4150 30  0000 C CNN
F 2 "" H 1950 4300 70  0000 C CNN
F 3 "" H 1950 4300 70  0000 C CNN
	1    1950 4300
	1    0    0    -1  
$EndComp
$Comp
L power:GND #GND_0120
U 1 1 5BD43C58
P 8250 4600
F 0 "#GND_0120" H 8250 4740 20  0000 C CNN
F 1 "GND" H 8250 4710 30  0000 C CNN
F 2 "" H 8250 4600 70  0000 C CNN
F 3 "" H 8250 4600 70  0000 C CNN
	1    8250 4600
	1    0    0    -1  
$EndComp
$Comp
L power:GND #GND_0121
U 1 1 5BD43C2E
P 15050 7600
F 0 "#GND_0121" H 15050 7740 20  0000 C CNN
F 1 "GND" H 15050 7710 30  0000 C CNN
F 2 "" H 15050 7600 70  0000 C CNN
F 3 "" H 15050 7600 70  0000 C CNN
	1    15050 7600
	1    0    0    -1  
$EndComp
$Comp
L power:GND #GND_0122
U 1 1 5BD43C2F
P 2000 8000
F 0 "#GND_0122" H 2000 8140 20  0000 C CNN
F 1 "GND" H 2000 8110 30  0000 C CNN
F 2 "" H 2000 8000 70  0000 C CNN
F 3 "" H 2000 8000 70  0000 C CNN
	1    2000 8000
	1    0    0    -1  
$EndComp
$Comp
L power:GND #PWR0101
U 1 1 5C892D7E
P 14100 1900
F 0 "#PWR0101" H 14100 1650 50  0001 C CNN
F 1 "GND" H 14105 1727 50  0000 C CNN
F 2 "" H 14100 1900 50  0001 C CNN
F 3 "" H 14100 1900 50  0001 C CNN
	1    14100 1900
	1    0    0    -1  
$EndComp
Connection ~ 8250 4600
Text Label 1800 4850 0    60   ~ 0
RST
$Comp
L Connector:Conn_01x02_Male K3
U 1 1 5C892D7F
P 2150 4950
F 0 "K3" H 1950 4800 60  0000 L BNN
F 1 "HEADER-1X2" H 1500 4900 60  0000 L BNN
F 2 "Connector_PinHeader_2.54mm:PinHeader_1x02_P2.54mm_Vertical" H 2290 4640 60  0001 C CNN
F 3 "" H 2290 4640 60  0000 C CNN
	1    2150 4950
	-1   0    0    1   
$EndComp
NoConn ~ 1950 4950
NoConn ~ 4500 5600
Wire Wire Line
	4500 5000 3700 5000
Wire Wire Line
	5950 7850 5950 7900
NoConn ~ 14900 8300
$Comp
L power:GNDA #PWR0102
U 1 1 5BFD0AFF
P 1950 4200
F 0 "#PWR0102" H 1950 3950 50  0001 C CNN
F 1 "GNDA" V 1850 4150 50  0000 C CNN
F 2 "" H 1950 4200 50  0001 C CNN
F 3 "" H 1950 4200 50  0001 C CNN
	1    1950 4200
	0    1    1    0   
$EndComp
$Comp
L power:GNDA #PWR0103
U 1 1 5BFD33A5
P 3900 6000
F 0 "#PWR0103" H 3900 5750 50  0001 C CNN
F 1 "GNDA" V 3800 5900 50  0000 C CNN
F 2 "" H 3900 6000 50  0001 C CNN
F 3 "" H 3900 6000 50  0001 C CNN
	1    3900 6000
	1    0    0    -1  
$EndComp
Wire Wire Line
	3900 4200 4200 4200
Text Notes 14900 8500 0    50   ~ 0
Actual output is here.
Text Notes 10350 3700 0    50   ~ 0
Test points
Text Notes 5550 6650 0    50   ~ 0
Voltage sensing for the SM72445 control chip.
Text Label 9100 5800 0    60   ~ 0
LIB
Text Label 9100 5600 0    60   ~ 0
HIB
Text Label 9100 5400 0    60   ~ 0
HIA
Text Label 9100 5200 0    60   ~ 0
LIA
Text Label 6400 6000 0    60   ~ 0
A2
Text Label 6400 6200 0    60   ~ 0
AVIN
Wire Wire Line
	9100 5200 9150 5200
Wire Wire Line
	9150 5400 9100 5400
Wire Wire Line
	9100 5600 9150 5600
Wire Wire Line
	9150 5800 9100 5800
$Comp
L power:GNDA #PWR0104
U 1 1 5C0E9EAC
P 9150 5000
F 0 "#PWR0104" H 9150 4750 50  0001 C CNN
F 1 "GNDA" H 9100 5050 50  0000 C CNN
F 2 "" H 9150 5000 50  0001 C CNN
F 3 "" H 9150 5000 50  0001 C CNN
	1    9150 5000
	1    0    0    -1  
$EndComp
Text Label 11250 4200 0    60   ~ 0
HSA
Text Label 11050 4400 0    50   ~ 0
HOA
Text Label 11350 3150 0    50   ~ 0
HOA
Text Label 12850 4600 0    60   ~ 0
LOA
Text Label 6400 5200 0    50   ~ 0
A6
Text Label 6400 7900 0    50   ~ 0
A6
Text Label 5400 7900 0    50   ~ 0
A4
Text Label 6400 5600 0    50   ~ 0
A4
$Comp
L Device:C C3
U 1 1 5C18A091
P 4200 8100
F 0 "C3" H 3950 8150 60  0000 L BNN
F 1 "0.1uF" H 3950 7950 60  0000 L BNN
F 2 "Capacitor_SMD:C_0805_2012Metric_Pad1.15x1.40mm_HandSolder" H 4300 7810 60  0001 C CNN
F 3 "" H 4300 7810 60  0000 C CNN
	1    4200 8100
	1    0    0    -1  
$EndComp
$Comp
L Device:C C5
U 1 1 5C19817F
P 5250 8100
F 0 "C5" H 5050 8150 60  0000 L BNN
F 1 "0.1uF" H 5000 7950 60  0000 L BNN
F 2 "Capacitor_SMD:C_0805_2012Metric_Pad1.15x1.40mm_HandSolder" H 5350 7810 60  0001 C CNN
F 3 "" H 5350 7810 60  0000 C CNN
	1    5250 8100
	1    0    0    -1  
$EndComp
$Comp
L Device:C C6
U 1 1 5C1982B5
P 6300 8150
F 0 "C6" H 6100 8200 60  0000 L BNN
F 1 "0.1uF" H 6050 8050 60  0000 L BNN
F 2 "Capacitor_SMD:C_0805_2012Metric_Pad1.15x1.40mm_HandSolder" H 6400 7860 60  0001 C CNN
F 3 "" H 6400 7860 60  0000 C CNN
	1    6300 8150
	1    0    0    -1  
$EndComp
Wire Wire Line
	4200 7900 4200 7950
Wire Wire Line
	4200 8250 4200 8400
Wire Wire Line
	4200 8400 4400 8400
Wire Wire Line
	5250 8250 5250 8400
Wire Wire Line
	5250 8400 5450 8400
Wire Wire Line
	5250 7950 5250 7900
Wire Wire Line
	6300 7900 6300 8000
Wire Wire Line
	6300 8300 6300 8400
Wire Wire Line
	6300 8400 6550 8400
Connection ~ 14850 5600
Connection ~ 13450 5400
Wire Wire Line
	14850 5800 14850 5600
Wire Wire Line
	13450 5600 13450 5400
Wire Wire Line
	13450 5400 13450 5200
Wire Wire Line
	15050 4400 14850 4400
Wire Wire Line
	8050 6400 8050 6750
Wire Wire Line
	8050 6750 8150 6750
Wire Wire Line
	8450 6750 8550 6750
Wire Wire Line
	8550 6750 8550 6400
Wire Wire Line
	8050 6750 8050 6800
Connection ~ 8050 6750
Wire Wire Line
	11300 7200 11100 7200
Text Label 14700 1600 0    50   ~ 0
VIN
$Comp
L power:+12V #PWR0105
U 1 1 5C892D90
P 1700 3700
F 0 "#PWR0105" H 1700 3550 50  0001 C CNN
F 1 "+12V" H 1715 3873 50  0000 C CNN
F 2 "" H 1700 3700 50  0001 C CNN
F 3 "" H 1700 3700 50  0001 C CNN
	1    1700 3700
	1    0    0    -1  
$EndComp
Wire Wire Line
	1700 3700 1950 3700
$Comp
L power:+12V #PWR0106
U 1 1 5C892D91
P 11650 5600
F 0 "#PWR0106" H 11650 5450 50  0001 C CNN
F 1 "+12V" H 11665 5773 50  0000 C CNN
F 2 "" H 11650 5600 50  0001 C CNN
F 3 "" H 11650 5600 50  0001 C CNN
	1    11650 5600
	1    0    0    -1  
$EndComp
$Comp
L power:+5V #PWR0107
U 1 1 5C892D92
P 1950 3600
F 0 "#PWR0107" H 1950 3450 50  0001 C CNN
F 1 "+5V" H 1965 3773 50  0000 C CNN
F 2 "" H 1950 3600 50  0001 C CNN
F 3 "" H 1950 3600 50  0001 C CNN
	1    1950 3600
	1    0    0    -1  
$EndComp
$Comp
L power:+5V #PWR0108
U 1 1 5C892D93
P 11050 6400
F 0 "#PWR0108" H 11050 6250 50  0001 C CNN
F 1 "+5V" H 11150 6450 50  0000 C CNN
F 2 "" H 11050 6400 50  0001 C CNN
F 3 "" H 11050 6400 50  0001 C CNN
	1    11050 6400
	1    0    0    -1  
$EndComp
$Comp
L power:+5V #PWR0109
U 1 1 5C223777
P 4000 3900
F 0 "#PWR0109" H 4000 3750 50  0001 C CNN
F 1 "+5V" H 4100 3950 50  0000 C CNN
F 2 "" H 4000 3900 50  0001 C CNN
F 3 "" H 4000 3900 50  0001 C CNN
	1    4000 3900
	1    0    0    -1  
$EndComp
Wire Wire Line
	11950 1900 12350 1900
Connection ~ 12350 1900
Wire Wire Line
	12350 1900 12850 1900
Connection ~ 12850 1900
Wire Wire Line
	12850 1900 13450 1900
$Comp
L power:GND #PWR0110
U 1 1 5C892D95
P 11950 1900
F 0 "#PWR0110" H 11950 1650 50  0001 C CNN
F 1 "GND" H 11955 1727 50  0000 C CNN
F 2 "" H 11950 1900 50  0001 C CNN
F 3 "" H 11950 1900 50  0001 C CNN
	1    11950 1900
	1    0    0    -1  
$EndComp
Connection ~ 11950 1900
Wire Wire Line
	11950 1600 12350 1600
Connection ~ 12350 1600
Wire Wire Line
	12350 1600 12850 1600
Connection ~ 12850 1600
Wire Wire Line
	12850 1600 13450 1600
Text Label 12850 1600 0    50   ~ 0
VO
$Comp
L power:+5V #PWR0111
U 1 1 5C892D96
P 6900 4600
F 0 "#PWR0111" H 6900 4450 50  0001 C CNN
F 1 "+5V" H 7000 4650 50  0000 C CNN
F 2 "" H 6900 4600 50  0001 C CNN
F 3 "" H 6900 4600 50  0001 C CNN
	1    6900 4600
	1    0    0    -1  
$EndComp
Text Label 15050 6450 0    50   ~ 0
VO
Text Notes 13450 7050 0    50   ~ 0
All LEDs are for debug. \nThe final board should not have them.
Text Notes 2300 7500 0    50   ~ 0
For debug.\nRemove for final board.
Wire Wire Line
	14100 1600 14700 1600
Connection ~ 14700 1600
Wire Wire Line
	14700 1600 15200 1600
Connection ~ 15200 1600
Wire Wire Line
	14100 1900 14700 1900
Connection ~ 14700 1900
Wire Wire Line
	14700 1900 15200 1900
Connection ~ 15200 1900
Wire Wire Line
	15200 1900 15600 1900
Connection ~ 14100 1900
$Comp
L power:+5V #PWR0112
U 1 1 5C26E084
P 4000 4400
F 0 "#PWR0112" H 4000 4250 50  0001 C CNN
F 1 "+5V" H 4050 4550 50  0000 C CNN
F 2 "" H 4000 4400 50  0001 C CNN
F 3 "" H 4000 4400 50  0001 C CNN
	1    4000 4400
	1    0    0    -1  
$EndComp
$Comp
L power:+5V #PWR0113
U 1 1 5C26E175
P 4000 4600
F 0 "#PWR0113" H 4000 4450 50  0001 C CNN
F 1 "+5V" H 3900 4700 50  0000 C CNN
F 2 "" H 4000 4600 50  0001 C CNN
F 3 "" H 4000 4600 50  0001 C CNN
	1    4000 4600
	1    0    0    -1  
$EndComp
$Comp
L power:+5V #PWR0114
U 1 1 5C26E266
P 4000 4800
F 0 "#PWR0114" H 4000 4650 50  0001 C CNN
F 1 "+5V" H 4000 4700 50  0000 C CNN
F 2 "" H 4000 4800 50  0001 C CNN
F 3 "" H 4000 4800 50  0001 C CNN
	1    4000 4800
	1    0    0    -1  
$EndComp
$Comp
L Device:R R5
U 1 1 5C26F04E
P 3700 4750
F 0 "R5" V 3750 4950 60  0000 R TNN
F 1 "4.7KO" V 3750 4800 60  0000 R TNN
F 2 "Resistor_SMD:R_0805_2012Metric" H 3560 4660 60  0001 C CNN
F 3 "" H 3560 4660 60  0000 C CNN
	1    3700 4750
	1    0    0    -1  
$EndComp
$Comp
L power:+5V #PWR0115
U 1 1 5C28FAF0
P 3700 4500
F 0 "#PWR0115" H 3700 4350 50  0001 C CNN
F 1 "+5V" H 3700 4650 50  0000 C CNN
F 2 "" H 3700 4500 50  0001 C CNN
F 3 "" H 3700 4500 50  0001 C CNN
	1    3700 4500
	1    0    0    -1  
$EndComp
$Comp
L power:+5V #PWR0116
U 1 1 5C28FBE5
P 3400 4700
F 0 "#PWR0116" H 3400 4550 50  0001 C CNN
F 1 "+5V" H 3400 4850 50  0000 C CNN
F 2 "" H 3400 4700 50  0001 C CNN
F 3 "" H 3400 4700 50  0001 C CNN
	1    3400 4700
	1    0    0    -1  
$EndComp
$Comp
L Device:R R4
U 1 1 5C28FCDA
P 3400 4950
F 0 "R4" V 3550 5000 60  0000 R TNN
F 1 "4.7KO" V 3450 5100 60  0000 R TNN
F 2 "Resistor_SMD:R_0805_2012Metric" H 3260 4860 60  0001 C CNN
F 3 "" H 3260 4860 60  0000 C CNN
	1    3400 4950
	-1   0    0    1   
$EndComp
Text Label 4200 5000 0    60   ~ 0
SCL
Text Label 4200 5200 0    60   ~ 0
SDA
Wire Wire Line
	3400 5200 4500 5200
Wire Wire Line
	9150 4800 9100 4800
$Comp
L power:GNDA #PWR0117
U 1 1 5C2AA265
P 1950 2950
F 0 "#PWR0117" H 1950 2700 50  0001 C CNN
F 1 "GNDA" V 1850 2900 50  0000 C CNN
F 2 "" H 1950 2950 50  0001 C CNN
F 3 "" H 1950 2950 50  0001 C CNN
	1    1950 2950
	1    0    0    -1  
$EndComp
$Comp
L power:GND #GND_0123
U 1 1 5C892D9F
P 2450 2950
F 0 "#GND_0123" H 2450 2750 20  0000 C CNN
F 1 "GND" H 2450 2800 30  0000 C CNN
F 2 "" H 2450 2950 70  0000 C CNN
F 3 "" H 2450 2950 70  0000 C CNN
	1    2450 2950
	1    0    0    -1  
$EndComp
Wire Wire Line
	1950 2800 1950 2950
Wire Wire Line
	2450 2800 2450 2950
$Comp
L power:+5V #PWR0118
U 1 1 5C892DA1
P 6900 3600
F 0 "#PWR0118" H 6900 3450 50  0001 C CNN
F 1 "+5V" H 7000 3650 50  0000 C CNN
F 2 "" H 6900 3600 50  0001 C CNN
F 3 "" H 6900 3600 50  0001 C CNN
	1    6900 3600
	1    0    0    -1  
$EndComp
Wire Wire Line
	11300 7400 11200 7400
Wire Wire Line
	11300 7200 11300 7400
Wire Wire Line
	12500 7200 12500 7400
Wire Wire Line
	11300 7900 11300 8100
Wire Wire Line
	12500 7900 12500 8100
Text Notes 11150 8700 0    50   ~ 0
Current sensing resistors. \nShorting pins 1/2 and 3/4 is the fastest and \nclearest way to indicate\nthat the resistor has two legs per side.
$Comp
L power:+5V #PWR0119
U 1 1 5C892D80
P 3800 5700
F 0 "#PWR0119" H 3800 5550 50  0001 C CNN
F 1 "+5V" H 3800 5850 50  0000 C CNN
F 2 "" H 3800 5700 50  0001 C CNN
F 3 "" H 3800 5700 50  0001 C CNN
	1    3800 5700
	1    0    0    -1  
$EndComp
$Comp
L power:+5V #PWR0120
U 1 1 5BF9BF3E
P 4900 7900
F 0 "#PWR0120" H 4900 7750 50  0001 C CNN
F 1 "+5V" H 4900 8050 50  0000 C CNN
F 2 "" H 4900 7900 50  0001 C CNN
F 3 "" H 4900 7900 50  0001 C CNN
	1    4900 7900
	1    0    0    -1  
$EndComp
$Comp
L power:+5V #PWR0121
U 1 1 5C892D82
P 5950 7850
F 0 "#PWR0121" H 5950 7700 50  0001 C CNN
F 1 "+5V" H 5950 8000 50  0000 C CNN
F 2 "" H 5950 7850 50  0001 C CNN
F 3 "" H 5950 7850 50  0001 C CNN
	1    5950 7850
	1    0    0    -1  
$EndComp
$Comp
L power:+5V #PWR0122
U 1 1 5BF9C3DD
P 7050 7900
F 0 "#PWR0122" H 7050 7750 50  0001 C CNN
F 1 "+5V" H 7050 8050 50  0000 C CNN
F 2 "" H 7050 7900 50  0001 C CNN
F 3 "" H 7050 7900 50  0001 C CNN
	1    7050 7900
	1    0    0    -1  
$EndComp
$Comp
L power:+5V #PWR0123
U 1 1 5BF9D17E
P 1200 4850
F 0 "#PWR0123" H 1200 4700 50  0001 C CNN
F 1 "+5V" H 1215 5023 50  0000 C CNN
F 2 "" H 1200 4850 50  0001 C CNN
F 3 "" H 1200 4850 50  0001 C CNN
	1    1200 4850
	1    0    0    -1  
$EndComp
$Comp
L power:+5V #PWR0124
U 1 1 5BF9D3C4
P 4000 6200
F 0 "#PWR0124" H 4000 6050 50  0001 C CNN
F 1 "+5V" H 3950 6100 50  0000 C CNN
F 2 "" H 4000 6200 50  0001 C CNN
F 3 "" H 4000 6200 50  0001 C CNN
	1    4000 6200
	1    0    0    -1  
$EndComp
$Comp
L Device:C C14
U 1 1 5BFE755B
P 11350 6400
F 0 "C14" H 11650 6450 60  0000 R TNN
F 1 "100nF" H 11750 6550 60  0000 R TNN
F 2 "Capacitor_SMD:C_0805_2012Metric_Pad1.15x1.40mm_HandSolder" H 11250 6390 60  0001 C CNN
F 3 "" H 11250 6390 60  0000 C CNN
	1    11350 6400
	0    1    1    0   
$EndComp
$Comp
L power:GND #GND_0124
U 1 1 5C00F636
P 11500 6400
F 0 "#GND_0124" H 11500 6540 20  0000 C CNN
F 1 "GND" H 11500 6510 30  0000 C CNN
F 2 "" H 11500 6400 70  0000 C CNN
F 3 "" H 11500 6400 70  0000 C CNN
	1    11500 6400
	1    0    0    -1  
$EndComp
Wire Wire Line
	11050 6400 11200 6400
Text Notes 5300 7650 0    50   ~ 0
Max output current\n
Text Notes 3700 6500 0    50   ~ 0
Max output voltage\n\n
Text Notes 4150 7650 0    50   ~ 0
SM72445 config.\n
Text Notes 6400 7650 0    50   ~ 0
SM72445 config.\n
$Comp
L Device:R R3
U 1 1 5C892DA0
P 2200 2800
F 0 "R3" V 2250 2750 60  0000 R TNN
F 1 "10O" V 2250 2600 60  0000 R TNN
F 2 "Resistor_SMD:R_0805_2012Metric" H 2060 2710 60  0001 C CNN
F 3 "" H 2060 2710 60  0000 C CNN
	1    2200 2800
	0    -1   -1   0   
$EndComp
Text Notes 1700 2650 0    50   ~ 0
Dummy resistor to create 2 grounds.
NoConn ~ 9150 6000
NoConn ~ 11050 6800
$Comp
L Device:C C16
U 1 1 5C07909D
P 11850 6200
F 0 "C16" H 11950 6250 60  0000 L BNN
F 1 "0.47uF" H 11950 6150 60  0000 L BNN
F 2 "Capacitor_SMD:C_0805_2012Metric_Pad1.15x1.40mm_HandSolder" H 11950 5910 60  0001 C CNN
F 3 "" H 11950 5910 60  0000 C CNN
	1    11850 6200
	1    0    0    -1  
$EndComp
Text Label 11850 6050 0    60   ~ 0
HBB
Text Label 11850 6350 0    60   ~ 0
HSB
$Comp
L main_board2-rescue:V0-Mppt #V0102
U 1 1 5C892D8B
P 14850 8200
F 0 "#V0102" H 14850 8200 20  0000 C CNN
F 1 "V0" H 14850 8130 30  0000 C CNN
F 2 "" H 14850 8200 70  0000 C CNN
F 3 "" H 14850 8200 70  0000 C CNN
	1    14850 8200
	1    0    0    -1  
$EndComp
$Comp
L power:GND #GND_0125
U 1 1 5C892DA2
P 13900 7800
F 0 "#GND_0125" H 13900 7940 20  0000 C CNN
F 1 "GND" H 13900 7910 30  0000 C CNN
F 2 "" H 13900 7800 70  0000 C CNN
F 3 "" H 13900 7800 70  0000 C CNN
	1    13900 7800
	1    0    0    -1  
$EndComp
$Comp
L power:PWR_FLAG #FLG0101
U 1 1 5C892DA3
P 13900 7600
F 0 "#FLG0101" H 13900 7675 50  0001 C CNN
F 1 "PWR_FLAG" H 13900 7774 50  0000 C CNN
F 2 "" H 13900 7600 50  0001 C CNN
F 3 "~" H 13900 7600 50  0001 C CNN
	1    13900 7600
	1    0    0    -1  
$EndComp
Wire Wire Line
	13900 7600 13900 7800
Text HLabel 15050 6500 2    50   Output ~ 0
V0
Text HLabel 15700 1600 2    50   Input ~ 0
VIN
Text HLabel 1000 4850 0    50   Input ~ 0
V_5V
Wire Wire Line
	1200 4850 1000 4850
Connection ~ 1200 4850
Text HLabel 1650 5950 0    50   Input ~ 0
SCL
Text HLabel 1650 6050 0    50   Input ~ 0
SDA
Wire Wire Line
	1650 5950 1950 5950
Wire Wire Line
	1650 6050 1950 6050
Text HLabel 1450 3700 0    50   Input ~ 0
V_12V
Wire Wire Line
	1700 3700 1450 3700
Connection ~ 1700 3700
Text HLabel 2550 2800 2    50   Input ~ 0
GND
Wire Wire Line
	2450 2800 2550 2800
Text HLabel 4150 3600 0    50   Input ~ 0
RST
Wire Wire Line
	4150 3600 4500 3600
Wire Wire Line
	1950 2800 2050 2800
Wire Wire Line
	2350 2800 2450 2800
Connection ~ 2450 2800
Wire Wire Line
	1200 4850 1350 4850
Wire Wire Line
	1650 4850 1950 4850
Wire Wire Line
	2000 7850 2000 8000
Wire Wire Line
	2000 6850 2000 7100
Wire Wire Line
	2000 7400 2000 7550
Wire Wire Line
	4500 4400 4450 4400
Wire Wire Line
	4000 4400 4150 4400
Wire Wire Line
	4500 4600 4450 4600
Wire Wire Line
	4000 4600 4150 4600
Wire Wire Line
	4500 4800 4450 4800
Wire Wire Line
	4000 4800 4150 4800
Wire Wire Line
	3700 4500 3700 4600
Wire Wire Line
	3700 4900 3700 5000
Wire Wire Line
	3400 4700 3400 4800
Wire Wire Line
	3400 5100 3400 5200
Wire Wire Line
	4000 6200 4100 6200
Wire Wire Line
	4400 6200 4500 6200
Wire Wire Line
	4500 6200 4500 6250
Wire Wire Line
	4500 6550 4500 6700
Wire Wire Line
	5250 6800 5300 6800
Wire Wire Line
	5600 6800 5800 6800
Wire Wire Line
	5250 6800 5250 6850
Wire Wire Line
	5250 7150 5250 7300
Wire Wire Line
	4900 7900 4800 7900
Wire Wire Line
	4500 7900 4400 7900
Connection ~ 4400 7900
Wire Wire Line
	4400 7900 4400 7950
Wire Wire Line
	4400 8250 4400 8400
Connection ~ 4400 8400
Wire Wire Line
	5250 7900 5450 7900
Wire Wire Line
	5450 7900 5450 8000
Connection ~ 5450 7900
Wire Wire Line
	5450 7900 5550 7900
Wire Wire Line
	5450 8300 5450 8400
Connection ~ 5450 8400
Wire Wire Line
	5850 7900 5950 7900
Wire Wire Line
	6300 7900 6550 7900
Wire Wire Line
	6550 7900 6550 8000
Connection ~ 6550 7900
Wire Wire Line
	6550 7900 6650 7900
Wire Wire Line
	6950 7900 7050 7900
Wire Wire Line
	6550 8300 6550 8400
Connection ~ 6550 8400
Wire Wire Line
	6050 6800 6350 6800
Wire Wire Line
	6350 6800 6350 6850
Connection ~ 6350 6800
Wire Wire Line
	6350 6800 6450 6800
Wire Wire Line
	6350 7150 6350 7300
Wire Wire Line
	6750 6800 6850 6800
Wire Wire Line
	6750 3600 6900 3600
Wire Wire Line
	6450 3600 6400 3600
Wire Wire Line
	6400 4600 6500 4600
Wire Wire Line
	6800 4600 6900 4600
Wire Wire Line
	6400 4800 6500 4800
Wire Wire Line
	6800 4800 6900 4800
Wire Wire Line
	8350 3600 8350 3800
Wire Wire Line
	8350 4100 8350 4200
Wire Wire Line
	8250 4600 8350 4600
Wire Wire Line
	8650 4600 8750 4600
Connection ~ 8750 4600
Wire Wire Line
	8050 6400 8150 6400
Wire Wire Line
	8450 6400 8550 6400
Connection ~ 8550 6400
Wire Wire Line
	9150 6800 9150 6900
Wire Wire Line
	9150 7200 9150 7300
Wire Wire Line
	8650 7300 8650 7600
Wire Wire Line
	8650 7900 8650 8000
Wire Wire Line
	10150 7200 10150 7300
Wire Wire Line
	10150 7600 10150 7700
Connection ~ 10150 7700
Wire Wire Line
	10150 7700 10150 7800
Wire Wire Line
	10150 8100 10150 8200
Wire Wire Line
	11350 3150 11550 3150
Wire Wire Line
	11850 3150 12000 3150
Wire Wire Line
	13850 3200 14150 3200
Wire Wire Line
	14450 3200 14550 3200
Wire Wire Line
	12850 4600 13100 4600
Wire Wire Line
	13400 4600 13450 4600
Wire Wire Line
	13350 5800 13450 5800
Wire Wire Line
	12750 5800 13050 5800
Wire Wire Line
	15050 6450 15050 6600
Wire Wire Line
	15050 6900 15050 7150
Wire Wire Line
	15050 7450 15050 7600
Wire Wire Line
	15050 4400 15050 4700
Wire Wire Line
	15050 5000 15050 5600
Connection ~ 15600 1600
Wire Wire Line
	15600 1600 15700 1600
Wire Wire Line
	15200 1600 15600 1600
Wire Wire Line
	12000 2550 12000 2750
Wire Wire Line
	13400 2550 13400 2750
Wire Wire Line
	15950 2600 15950 2800
Wire Wire Line
	14550 2600 14550 2800
Wire Wire Line
	14850 4000 14850 4200
Wire Wire Line
	14700 8200 14900 8200
Wire Wire Line
	14850 5200 14850 5400
NoConn ~ 6350 6900
Connection ~ 14550 3000
Connection ~ 14550 2600
Connection ~ 14550 2800
Wire Wire Line
	14550 2800 14550 3000
Connection ~ 15950 2800
Wire Wire Line
	15950 2800 15950 3000
Connection ~ 15950 3000
Wire Wire Line
	15950 3000 15950 3200
Connection ~ 14850 4200
Wire Wire Line
	14850 4200 14850 4400
Connection ~ 14850 5400
Wire Wire Line
	14850 5400 14850 5600
Connection ~ 12000 2750
Wire Wire Line
	12000 2750 12000 2950
Connection ~ 13400 2750
Wire Wire Line
	13400 2750 13400 2950
Connection ~ 13400 2950
Wire Wire Line
	13400 2950 13400 3150
$EndSCHEMATC
