EESchema Schematic File Version 4
LIBS:main_board2-cache
EELAYER 26 0
EELAYER END
$Descr A4 11693 8268
encoding utf-8
Sheet 7 7
Title ""
Date ""
Rev ""
Comp ""
Comment1 ""
Comment2 ""
Comment3 ""
Comment4 ""
$EndDescr
$Comp
L Connector_Generic:Conn_02x08_Odd_Even J8
U 1 1 5C96F93A
P 3250 2200
F 0 "J8" H 3300 2717 50  0000 C CNN
F 1 "Conn_02x08_Odd_Even" H 3300 2626 50  0000 C CNN
F 2 "Connector_PinSocket_2.54mm:PinSocket_2x08_P2.54mm_Vertical" H 3250 2200 50  0001 C CNN
F 3 "~" H 3250 2200 50  0001 C CNN
	1    3250 2200
	-1   0    0    -1  
$EndComp
Text HLabel 3450 1900 2    50   Input ~ 0
GND
Text HLabel 3450 2100 2    50   Input ~ 0
5V_VCC
Text HLabel 3450 2200 2    50   Input ~ 0
CS
Text HLabel 3450 2300 2    50   Input ~ 0
MOSI
Text HLabel 3450 2400 2    50   Input ~ 0
SCK
Text HLabel 3450 2500 2    50   Input ~ 0
MISO
NoConn ~ 3450 2000
NoConn ~ 3450 2600
NoConn ~ 2950 2600
Text HLabel 2950 1900 0    50   Input ~ 0
GND
Text HLabel 2950 2100 0    50   Input ~ 0
5V_VCC
Text HLabel 2950 2200 0    50   Input ~ 0
CS
Text HLabel 2950 2300 0    50   Input ~ 0
MOSI
Text HLabel 2950 2400 0    50   Input ~ 0
SCK
Text HLabel 2950 2500 0    50   Input ~ 0
MISO
NoConn ~ 2950 2000
$EndSCHEMATC
