EESchema Schematic File Version 4
LIBS:Battery_charging-cache
EELAYER 26 0
EELAYER END
$Descr A4 11693 8268
encoding utf-8
Sheet 1 1
Title ""
Date ""
Rev ""
Comp ""
Comment1 ""
Comment2 ""
Comment3 ""
Comment4 ""
$EndDescr
$Comp
L Battery_charging-rescue:MAX1737-Battery_charger-Battery_charging-rescue MAX1
U 1 1 5EEE2968
P 4850 3950
F 0 "MAX1" H 4925 2477 50  0000 C CNN
F 1 "MAX1737" H 4925 2386 50  0000 C CNN
F 2 "battery_charging:SOP63P602X175-28N" H 4950 3950 50  0001 C CNN
F 3 "" H 4950 3950 50  0001 C CNN
	1    4850 3950
	1    0    0    -1  
$EndComp
Wire Wire Line
	2000 1600 2100 1600
Wire Wire Line
	1500 1600 1500 1200
Wire Wire Line
	2850 1200 6750 1200
Wire Wire Line
	1500 4600 1500 5750
Wire Wire Line
	1500 5750 2600 5750
Wire Wire Line
	2900 5750 4200 5750
Wire Wire Line
	1500 4150 1250 4150
Wire Wire Line
	1250 4150 1250 4300
Wire Wire Line
	1500 4150 1500 4300
Wire Wire Line
	1250 4150 1000 4150
Wire Wire Line
	1000 4150 1000 4300
Connection ~ 1250 4150
Wire Wire Line
	1000 4600 1000 6050
Wire Wire Line
	1000 6050 2600 6050
Wire Wire Line
	1250 4600 1250 5900
Wire Wire Line
	1250 5900 2600 5900
Wire Wire Line
	2900 5900 4200 5900
Wire Wire Line
	2900 6050 4200 6050
Wire Wire Line
	6750 1200 6750 1600
Wire Wire Line
	6750 2000 6750 1900
Wire Wire Line
	5700 2900 5850 2900
Connection ~ 6750 2000
Wire Wire Line
	5700 3400 5850 3400
Wire Wire Line
	5850 3350 5850 3400
Wire Wire Line
	5700 4000 6750 4000
Wire Wire Line
	6750 4000 6750 3900
$Comp
L pspice:INDUCTOR 6.2µH1
U 1 1 5EFB3271
P 8100 3050
F 0 "6.2µH1" H 8100 3250 50  0000 C CNN
F 1 "INDUCTOR" H 8100 3174 50  0000 C CNN
F 2 "battery_charging:SRU10386R2Y" H 8100 3050 50  0001 C CNN
F 3 "" H 8100 3050 50  0001 C CNN
	1    8100 3050
	1    0    0    -1  
$EndComp
Wire Wire Line
	8350 3050 8400 3050
Connection ~ 8350 3050
Wire Wire Line
	8800 3050 8700 3050
Connection ~ 8800 3050
Wire Wire Line
	9550 3050 9550 3950
Wire Wire Line
	9050 4500 9300 4500
Wire Wire Line
	9300 5000 9300 5100
Wire Wire Line
	9300 5100 9600 5100
Wire Wire Line
	9600 5100 9600 5000
Connection ~ 6750 2250
Wire Wire Line
	6750 2250 6750 2000
Wire Wire Line
	4200 5450 3950 5450
Wire Wire Line
	4200 5150 3950 5150
Wire Wire Line
	4200 4800 3950 4800
Wire Wire Line
	4200 4500 3950 4500
Wire Wire Line
	1200 1600 1500 1600
Wire Wire Line
	4200 3700 3900 3700
Wire Wire Line
	3900 3700 3900 3550
Wire Wire Line
	3900 3550 4200 3550
Wire Wire Line
	4200 3300 3100 3300
Wire Wire Line
	3100 3300 3100 3150
Wire Wire Line
	3100 2850 3100 2700
Wire Wire Line
	3100 3450 3100 3300
Connection ~ 3100 3300
Wire Wire Line
	3100 2700 2400 2700
Wire Wire Line
	2400 2700 2400 3200
Connection ~ 3100 2700
Wire Wire Line
	4200 4150 4050 4150
Wire Wire Line
	3500 4150 3200 4150
Wire Wire Line
	3500 4350 4050 4350
Wire Wire Line
	4050 4350 4050 4150
Connection ~ 4050 4150
Wire Wire Line
	4050 4150 3800 4150
Wire Wire Line
	2750 4350 2750 4150
Wire Wire Line
	4200 2250 3900 2250
Wire Wire Line
	3900 2250 3900 2000
Wire Wire Line
	3900 2000 4200 2000
Connection ~ 3900 2000
$Comp
L power:GND #PWR018
U 1 1 5EFFE0FE
P 7250 2550
F 0 "#PWR018" H 7250 2300 50  0001 C CNN
F 1 "GND" H 7255 2377 50  0000 C CNN
F 2 "" H 7250 2550 50  0001 C CNN
F 3 "" H 7250 2550 50  0001 C CNN
	1    7250 2550
	1    0    0    -1  
$EndComp
$Comp
L power:GND #PWR019
U 1 1 5EFFEDBF
P 7750 2550
F 0 "#PWR019" H 7750 2300 50  0001 C CNN
F 1 "GND" H 7755 2377 50  0000 C CNN
F 2 "" H 7750 2550 50  0001 C CNN
F 3 "" H 7750 2550 50  0001 C CNN
	1    7750 2550
	1    0    0    -1  
$EndComp
$Comp
L power:GND #PWR020
U 1 1 5EFFF239
P 9200 3350
F 0 "#PWR020" H 9200 3100 50  0001 C CNN
F 1 "GND" H 9205 3177 50  0000 C CNN
F 2 "" H 9200 3350 50  0001 C CNN
F 3 "" H 9200 3350 50  0001 C CNN
	1    9200 3350
	1    0    0    -1  
$EndComp
$Comp
L power:GND #PWR017
U 1 1 5EFFF76E
P 6750 4000
F 0 "#PWR017" H 6750 3750 50  0001 C CNN
F 1 "GND" H 6755 3827 50  0000 C CNN
F 2 "" H 6750 4000 50  0001 C CNN
F 3 "" H 6750 4000 50  0001 C CNN
	1    6750 4000
	1    0    0    -1  
$EndComp
Connection ~ 6750 4000
$Comp
L power:GND #PWR021
U 1 1 5EFFFC6A
P 9600 5100
F 0 "#PWR021" H 9600 4850 50  0001 C CNN
F 1 "GND" H 9605 4927 50  0000 C CNN
F 2 "" H 9600 5100 50  0001 C CNN
F 3 "" H 9600 5100 50  0001 C CNN
	1    9600 5100
	1    0    0    -1  
$EndComp
Connection ~ 9600 5100
Wire Wire Line
	5850 3100 5850 3150
Wire Wire Line
	1500 4150 1500 1800
Wire Wire Line
	1500 1800 2100 1800
Wire Wire Line
	2100 1800 2100 1600
Connection ~ 1500 4150
Connection ~ 2100 1600
Wire Wire Line
	2100 1600 4000 1600
Wire Wire Line
	5700 1600 5950 1600
Wire Wire Line
	5700 2000 6050 2000
Wire Wire Line
	8800 3050 9200 3050
Wire Wire Line
	6750 2250 7250 2250
Wire Wire Line
	3000 2000 3700 2000
Wire Wire Line
	6750 3250 6900 3250
Wire Wire Line
	6750 2250 6750 3250
Wire Wire Line
	6900 3100 6900 2900
Wire Wire Line
	6900 2900 7700 2900
Wire Wire Line
	7700 2900 7700 3550
Wire Wire Line
	7700 3550 7400 3550
Wire Wire Line
	5700 3100 6900 3100
Wire Wire Line
	6600 3350 6600 3600
Wire Wire Line
	6600 3600 6800 3600
Wire Wire Line
	7550 3600 7550 3450
Wire Wire Line
	7550 3450 7400 3450
$Comp
L Battery_charging-rescue:AS_1-FDS6990AS_1 U1
U 1 1 5F01A28B
P 7150 3350
F 0 "U1" H 7150 3675 50  0000 C CNN
F 1 "AS_1" H 7150 3584 50  0000 C CNN
F 2 "battery_charging:SO-8" H 7150 3350 50  0001 C CNN
F 3 "" H 7150 3350 50  0001 C CNN
	1    7150 3350
	1    0    0    -1  
$EndComp
Wire Wire Line
	6800 3550 6900 3550
Wire Wire Line
	6800 3550 6800 3600
Connection ~ 6800 3600
Wire Wire Line
	6800 3600 7550 3600
Wire Wire Line
	7650 3700 7650 3350
Wire Wire Line
	7650 3350 7400 3350
Wire Wire Line
	5700 3700 7650 3700
Wire Wire Line
	7400 3250 7850 3250
Wire Wire Line
	7850 3250 7850 3900
Wire Wire Line
	7850 3900 6750 3900
Wire Wire Line
	6900 3450 6800 3450
Wire Wire Line
	6800 3450 6800 2750
Wire Wire Line
	6800 2750 7850 2750
Wire Wire Line
	7850 2750 7850 3050
NoConn ~ 6900 3350
Wire Wire Line
	8350 3050 8350 4300
Wire Wire Line
	5700 4300 5900 4300
Wire Wire Line
	5700 4700 5900 4700
Wire Wire Line
	8800 3050 8800 4700
Wire Wire Line
	9600 5000 10000 5000
Wire Wire Line
	10000 3950 9550 3950
$Comp
L Device:C 4.7uF1
U 1 1 5F05831A
P 3000 2150
F 0 "4.7uF1" H 3115 2196 50  0000 L CNN
F 1 "C" H 3115 2105 50  0000 L CNN
F 2 "Capacitor_SMD:C_0805_2012Metric_Pad1.15x1.40mm_HandSolder" H 3038 2000 50  0001 C CNN
F 3 "~" H 3000 2150 50  0001 C CNN
	1    3000 2150
	1    0    0    -1  
$EndComp
$Comp
L Device:C 0.1uF3
U 1 1 5F05861D
P 4000 1750
F 0 "0.1uF3" H 4115 1796 50  0000 L CNN
F 1 "C" H 4115 1705 50  0000 L CNN
F 2 "Capacitor_SMD:C_0805_2012Metric_Pad1.15x1.40mm_HandSolder" H 4038 1600 50  0001 C CNN
F 3 "~" H 4000 1750 50  0001 C CNN
	1    4000 1750
	1    0    0    -1  
$EndComp
Connection ~ 4000 1600
Wire Wire Line
	4000 1600 4200 1600
$Comp
L Device:C 0.1uF2
U 1 1 5F0588F4
P 3700 2150
F 0 "0.1uF2" H 3815 2196 50  0000 L CNN
F 1 "C" H 3815 2105 50  0000 L CNN
F 2 "Capacitor_SMD:C_0805_2012Metric_Pad1.15x1.40mm_HandSolder" H 3738 2000 50  0001 C CNN
F 3 "~" H 3700 2150 50  0001 C CNN
	1    3700 2150
	1    0    0    -1  
$EndComp
Connection ~ 3700 2000
Wire Wire Line
	3700 2000 3900 2000
$Comp
L Device:C 1uF1
U 1 1 5F059699
P 2400 3350
F 0 "1uF1" H 2515 3396 50  0000 L CNN
F 1 "C" H 2515 3305 50  0000 L CNN
F 2 "Capacitor_SMD:C_0805_2012Metric_Pad1.15x1.40mm_HandSolder" H 2438 3200 50  0001 C CNN
F 3 "~" H 2400 3350 50  0001 C CNN
	1    2400 3350
	1    0    0    -1  
$EndComp
$Comp
L Device:R 10k1
U 1 1 5F05995D
P 3100 3000
F 0 "10k1" H 3170 3046 50  0000 L CNN
F 1 "R" H 3170 2955 50  0000 L CNN
F 2 "Resistor_SMD:R_0805_2012Metric_Pad1.15x1.40mm_HandSolder" V 3030 3000 50  0001 C CNN
F 3 "~" H 3100 3000 50  0001 C CNN
	1    3100 3000
	1    0    0    -1  
$EndComp
$Comp
L Device:R 10k2
U 1 1 5F059A84
P 3100 3600
F 0 "10k2" H 3170 3646 50  0000 L CNN
F 1 "R" H 3170 3555 50  0000 L CNN
F 2 "Resistor_SMD:R_0805_2012Metric_Pad1.15x1.40mm_HandSolder" V 3030 3600 50  0001 C CNN
F 3 "~" H 3100 3600 50  0001 C CNN
	1    3100 3600
	1    0    0    -1  
$EndComp
$Comp
L Device:R 10k3
U 1 1 5F05BC96
P 3650 4150
F 0 "10k3" V 3443 4150 50  0000 C CNN
F 1 "R" V 3534 4150 50  0000 C CNN
F 2 "Resistor_SMD:R_0805_2012Metric_Pad1.15x1.40mm_HandSolder" V 3580 4150 50  0001 C CNN
F 3 "~" H 3650 4150 50  0001 C CNN
	1    3650 4150
	0    1    1    0   
$EndComp
$Comp
L Device:C 0.1uF1
U 1 1 5F05C6F1
P 3050 4150
F 0 "0.1uF1" V 2798 4150 50  0000 C CNN
F 1 "C" V 2889 4150 50  0000 C CNN
F 2 "Capacitor_SMD:C_0805_2012Metric_Pad1.15x1.40mm_HandSolder" H 3088 4000 50  0001 C CNN
F 3 "~" H 3050 4150 50  0001 C CNN
	1    3050 4150
	0    1    1    0   
$EndComp
Wire Wire Line
	2900 4150 2750 4150
$Comp
L Device:C 1uF2
U 1 1 5F060B6E
P 3350 4350
F 0 "1uF2" V 3098 4350 50  0000 C CNN
F 1 "C" V 3189 4350 50  0000 C CNN
F 2 "Capacitor_SMD:C_0805_2012Metric_Pad1.15x1.40mm_HandSolder" H 3388 4200 50  0001 C CNN
F 3 "~" H 3350 4350 50  0001 C CNN
	1    3350 4350
	0    1    1    0   
$EndComp
Wire Wire Line
	3200 4350 2750 4350
$Comp
L Device:C 47uF1
U 1 1 5F064D18
P 3800 4500
F 0 "47uF1" V 3548 4500 50  0000 C CNN
F 1 "C" V 3639 4500 50  0000 C CNN
F 2 "Capacitor_SMD:C_0805_2012Metric_Pad1.15x1.40mm_HandSolder" H 3838 4350 50  0001 C CNN
F 3 "~" H 3800 4500 50  0001 C CNN
	1    3800 4500
	0    1    1    0   
$EndComp
$Comp
L Device:C 47uF2
U 1 1 5F064E6D
P 3800 4800
F 0 "47uF2" V 3548 4800 50  0000 C CNN
F 1 "C" V 3639 4800 50  0000 C CNN
F 2 "Capacitor_SMD:C_0805_2012Metric_Pad1.15x1.40mm_HandSolder" H 3838 4650 50  0001 C CNN
F 3 "~" H 3800 4800 50  0001 C CNN
	1    3800 4800
	0    1    1    0   
$EndComp
Wire Wire Line
	3650 4800 3350 4800
Wire Wire Line
	3650 4500 3350 4500
$Comp
L Device:C 1uF3
U 1 1 5F06C7EE
P 3800 5150
F 0 "1uF3" V 3548 5150 50  0000 C CNN
F 1 "C" V 3639 5150 50  0000 C CNN
F 2 "Capacitor_SMD:C_0805_2012Metric_Pad1.15x1.40mm_HandSolder" H 3838 5000 50  0001 C CNN
F 3 "~" H 3800 5150 50  0001 C CNN
	1    3800 5150
	0    1    1    0   
$EndComp
$Comp
L Device:C 1uF4
U 1 1 5F06C864
P 3800 5450
F 0 "1uF4" V 3548 5450 50  0000 C CNN
F 1 "C" V 3639 5450 50  0000 C CNN
F 2 "Capacitor_SMD:C_0805_2012Metric_Pad1.15x1.40mm_HandSolder" H 3838 5300 50  0001 C CNN
F 3 "~" H 3800 5450 50  0001 C CNN
	1    3800 5450
	0    1    1    0   
$EndComp
Wire Wire Line
	3650 5150 3350 5150
Wire Wire Line
	3650 5450 3350 5450
$Comp
L Device:R 1k1
U 1 1 5F074214
P 1000 4450
F 0 "1k1" H 1070 4496 50  0000 L CNN
F 1 "R" H 1070 4405 50  0000 L CNN
F 2 "Resistor_SMD:R_0805_2012Metric_Pad1.15x1.40mm_HandSolder" V 930 4450 50  0001 C CNN
F 3 "~" H 1000 4450 50  0001 C CNN
	1    1000 4450
	1    0    0    -1  
$EndComp
$Comp
L Device:R 1k2
U 1 1 5F074296
P 1250 4450
F 0 "1k2" H 1320 4496 50  0000 L CNN
F 1 "R" H 1320 4405 50  0000 L CNN
F 2 "Resistor_SMD:R_0805_2012Metric_Pad1.15x1.40mm_HandSolder" V 1180 4450 50  0001 C CNN
F 3 "~" H 1250 4450 50  0001 C CNN
	1    1250 4450
	1    0    0    -1  
$EndComp
$Comp
L Device:R 1k3
U 1 1 5F0742F6
P 1500 4450
F 0 "1k3" H 1570 4496 50  0000 L CNN
F 1 "R" H 1570 4405 50  0000 L CNN
F 2 "Resistor_SMD:R_0805_2012Metric_Pad1.15x1.40mm_HandSolder" V 1430 4450 50  0001 C CNN
F 3 "~" H 1500 4450 50  0001 C CNN
	1    1500 4450
	1    0    0    -1  
$EndComp
$Comp
L Device:LED D3
U 1 1 5F074B5A
P 2750 5750
F 0 "D3" H 2742 5495 50  0000 C CNN
F 1 "LED" H 2742 5586 50  0000 C CNN
F 2 "Diode_SMD:D_0805_2012Metric_Pad1.15x1.40mm_HandSolder" H 2750 5750 50  0001 C CNN
F 3 "~" H 2750 5750 50  0001 C CNN
	1    2750 5750
	-1   0    0    1   
$EndComp
$Comp
L Device:LED D4
U 1 1 5F074C36
P 2750 5900
F 0 "D4" H 2742 5645 50  0000 C CNN
F 1 "LED" H 2742 5736 50  0000 C CNN
F 2 "Diode_SMD:D_0805_2012Metric_Pad1.15x1.40mm_HandSolder" H 2750 5900 50  0001 C CNN
F 3 "~" H 2750 5900 50  0001 C CNN
	1    2750 5900
	-1   0    0    1   
$EndComp
$Comp
L Device:LED D5
U 1 1 5F074C92
P 2750 6050
F 0 "D5" H 2742 5795 50  0000 C CNN
F 1 "LED" H 2742 5886 50  0000 C CNN
F 2 "Diode_SMD:D_0805_2012Metric_Pad1.15x1.40mm_HandSolder" H 2750 6050 50  0001 C CNN
F 3 "~" H 2750 6050 50  0001 C CNN
	1    2750 6050
	-1   0    0    1   
$EndComp
$Comp
L Device:C 0.1uF7
U 1 1 5F076DC1
P 5950 1750
F 0 "0.1uF7" H 6065 1796 50  0000 L CNN
F 1 "C" H 6065 1705 50  0000 L CNN
F 2 "Capacitor_SMD:C_0805_2012Metric_Pad1.15x1.40mm_HandSolder" H 5988 1600 50  0001 C CNN
F 3 "~" H 5950 1750 50  0001 C CNN
	1    5950 1750
	1    0    0    -1  
$EndComp
Connection ~ 5950 1600
Wire Wire Line
	5950 1600 6750 1600
$Comp
L Device:C 0.1uF8
U 1 1 5F076E4D
P 6050 2150
F 0 "0.1uF8" H 6165 2196 50  0000 L CNN
F 1 "C" H 6165 2105 50  0000 L CNN
F 2 "Capacitor_SMD:C_0805_2012Metric_Pad1.15x1.40mm_HandSolder" H 6088 2000 50  0001 C CNN
F 3 "~" H 6050 2150 50  0001 C CNN
	1    6050 2150
	1    0    0    -1  
$EndComp
Connection ~ 6050 2000
Wire Wire Line
	6050 2000 6750 2000
$Comp
L Device:R 0.17
U 1 1 5F076FD7
P 6750 1750
F 0 "0.17" H 6820 1796 50  0000 L CNN
F 1 "R" H 6820 1705 50  0000 L CNN
F 2 "Resistor_SMD:R_0805_2012Metric_Pad1.15x1.40mm_HandSolder" V 6680 1750 50  0001 C CNN
F 3 "~" H 6750 1750 50  0001 C CNN
	1    6750 1750
	1    0    0    -1  
$EndComp
Connection ~ 6750 1600
$Comp
L Device:CP1 CP1
U 1 1 5F077332
P 7250 2400
F 0 "CP1" H 7365 2446 50  0000 L CNN
F 1 "47uF" H 7365 2355 50  0000 L CNN
F 2 "battery_charging:UUA1A470MCL1GS" H 7250 2400 50  0001 C CNN
F 3 "~" H 7250 2400 50  0001 C CNN
	1    7250 2400
	1    0    0    -1  
$EndComp
Connection ~ 7250 2250
Wire Wire Line
	7250 2250 7750 2250
$Comp
L Device:CP1 CP2
U 1 1 5F0773E8
P 7750 2400
F 0 "CP2" H 7865 2446 50  0000 L CNN
F 1 "47uF" H 7865 2355 50  0000 L CNN
F 2 "battery_charging:UUA1A470MCL1GS" H 7750 2400 50  0001 C CNN
F 3 "~" H 7750 2400 50  0001 C CNN
	1    7750 2400
	1    0    0    -1  
$EndComp
Connection ~ 7750 2250
Wire Wire Line
	7750 2250 8100 2250
$Comp
L Device:C 0.1uF9
U 1 1 5F077682
P 6300 2700
F 0 "0.1uF9" H 6415 2746 50  0000 L CNN
F 1 "C" H 6415 2655 50  0000 L CNN
F 2 "Capacitor_SMD:C_0805_2012Metric_Pad1.15x1.40mm_HandSolder" H 6338 2550 50  0001 C CNN
F 3 "~" H 6300 2700 50  0001 C CNN
	1    6300 2700
	1    0    0    -1  
$EndComp
Wire Wire Line
	5850 3350 6600 3350
$Comp
L Device:C_Small 0.1uF4
U 1 1 5F07BCC4
P 5850 3250
F 0 "0.1uF4" H 5942 3296 50  0000 L CNN
F 1 "C_Small" H 5942 3205 50  0000 L CNN
F 2 "Capacitor_SMD:C_0805_2012Metric_Pad1.15x1.40mm_HandSolder" H 5850 3250 50  0001 C CNN
F 3 "~" H 5850 3250 50  0001 C CNN
	1    5850 3250
	1    0    0    -1  
$EndComp
Connection ~ 5850 3350
$Comp
L Device:R 0.33
U 1 1 5F07C3D1
P 8550 3050
F 0 "0.33" V 8343 3050 50  0000 C CNN
F 1 "R" V 8434 3050 50  0000 C CNN
F 2 "Resistor_SMD:R_0805_2012Metric_Pad1.15x1.40mm_HandSolder" V 8480 3050 50  0001 C CNN
F 3 "~" H 8550 3050 50  0001 C CNN
	1    8550 3050
	0    1    1    0   
$EndComp
$Comp
L Device:CP1 CP3
U 1 1 5F07D2C5
P 9200 3200
F 0 "CP3" H 9315 3246 50  0000 L CNN
F 1 "100uF" H 9315 3155 50  0000 L CNN
F 2 "battery_charging:UUD1A101MCL1GS" H 9200 3200 50  0001 C CNN
F 3 "~" H 9200 3200 50  0001 C CNN
	1    9200 3200
	1    0    0    -1  
$EndComp
Connection ~ 9200 3050
Wire Wire Line
	9200 3050 9550 3050
$Comp
L Device:C_Small 0.1uF5
U 1 1 5F07D499
P 5900 4400
F 0 "0.1uF5" H 5992 4446 50  0000 L CNN
F 1 "C_Small" H 5992 4355 50  0000 L CNN
F 2 "Capacitor_SMD:C_0805_2012Metric_Pad1.15x1.40mm_HandSolder" H 5900 4400 50  0001 C CNN
F 3 "~" H 5900 4400 50  0001 C CNN
	1    5900 4400
	1    0    0    -1  
$EndComp
Connection ~ 5900 4300
Wire Wire Line
	5900 4300 8350 4300
$Comp
L Device:C_Small 0.1uF6
U 1 1 5F07D50B
P 5900 4800
F 0 "0.1uF6" H 5992 4846 50  0000 L CNN
F 1 "C_Small" H 5992 4755 50  0000 L CNN
F 2 "Capacitor_SMD:C_0805_2012Metric_Pad1.15x1.40mm_HandSolder" H 5900 4800 50  0001 C CNN
F 3 "~" H 5900 4800 50  0001 C CNN
	1    5900 4800
	1    0    0    -1  
$EndComp
Connection ~ 5900 4700
Wire Wire Line
	5900 4700 8800 4700
$Comp
L Device:Thermistor TH1
U 1 1 5F07D9B7
P 9300 4800
F 0 "TH1" H 9405 4846 50  0000 L CNN
F 1 "Thermistor" H 9405 4755 50  0000 L CNN
F 2 "Resistor_SMD:R_0805_2012Metric_Pad1.15x1.40mm_HandSolder" H 9300 4800 50  0001 C CNN
F 3 "~" H 9300 4800 50  0001 C CNN
	1    9300 4800
	1    0    0    -1  
$EndComp
Wire Wire Line
	9300 4500 9300 4600
Wire Wire Line
	9050 5100 9050 4500
Wire Wire Line
	5700 5100 9050 5100
$Comp
L power:GND #PWR0101
U 1 1 5F0961B2
P 3350 5450
F 0 "#PWR0101" H 3350 5200 50  0001 C CNN
F 1 "GND" H 3355 5277 50  0000 C CNN
F 2 "" H 3350 5450 50  0001 C CNN
F 3 "" H 3350 5450 50  0001 C CNN
	1    3350 5450
	1    0    0    -1  
$EndComp
Wire Wire Line
	3100 2700 3700 2700
$Comp
L Device:R R1
U 1 1 5F097EF0
P 3850 2900
F 0 "R1" V 3643 2900 50  0000 C CNN
F 1 "10k" V 3734 2900 50  0000 C CNN
F 2 "Resistor_SMD:R_0805_2012Metric_Pad1.15x1.40mm_HandSolder" V 3780 2900 50  0001 C CNN
F 3 "~" H 3850 2900 50  0001 C CNN
	1    3850 2900
	0    1    1    0   
$EndComp
$Comp
L Device:R 10k4
U 1 1 5F097FC0
P 3850 3200
F 0 "10k4" V 3643 3200 50  0000 C CNN
F 1 "R" V 3734 3200 50  0000 C CNN
F 2 "Resistor_SMD:R_0805_2012Metric_Pad1.15x1.40mm_HandSolder" V 3780 3200 50  0001 C CNN
F 3 "~" H 3850 3200 50  0001 C CNN
	1    3850 3200
	0    1    1    0   
$EndComp
Connection ~ 3700 2700
Wire Wire Line
	3700 2700 4200 2700
Connection ~ 3700 2900
Wire Wire Line
	3700 2900 3700 2700
Wire Wire Line
	4000 2900 4050 2900
Wire Wire Line
	3700 2900 3700 3200
Wire Wire Line
	4000 3200 4100 3200
Wire Wire Line
	4200 3200 4200 3100
$Comp
L Device:R_Small 10k5
U 1 1 5F0A6E8A
P 4050 3000
F 0 "10k5" H 4109 3046 50  0000 L CNN
F 1 "R_Small" H 4109 2955 50  0000 L CNN
F 2 "Resistor_SMD:R_0805_2012Metric_Pad1.15x1.40mm_HandSolder" H 4050 3000 50  0001 C CNN
F 3 "~" H 4050 3000 50  0001 C CNN
	1    4050 3000
	1    0    0    -1  
$EndComp
Connection ~ 4050 2900
Wire Wire Line
	4050 2900 4200 2900
$Comp
L Device:R_Small 10k6
U 1 1 5F0A6F1E
P 4100 3300
F 0 "10k6" H 4159 3346 50  0000 L CNN
F 1 "R_Small" H 4159 3255 50  0000 L CNN
F 2 "Resistor_SMD:R_0805_2012Metric_Pad1.15x1.40mm_HandSolder" H 4100 3300 50  0001 C CNN
F 3 "~" H 4100 3300 50  0001 C CNN
	1    4100 3300
	1    0    0    -1  
$EndComp
Connection ~ 4100 3200
Wire Wire Line
	4100 3200 4200 3200
$Comp
L power:GND #PWR022
U 1 1 5F0A719E
P 4100 3400
F 0 "#PWR022" H 4100 3150 50  0001 C CNN
F 1 "GND" H 4105 3227 50  0000 C CNN
F 2 "" H 4100 3400 50  0001 C CNN
F 3 "" H 4100 3400 50  0001 C CNN
	1    4100 3400
	1    0    0    -1  
$EndComp
$Comp
L power:GND #PWR08
U 1 1 5F0A7138
P 4050 3100
F 0 "#PWR08" H 4050 2850 50  0001 C CNN
F 1 "GND" H 4055 2927 50  0000 C CNN
F 2 "" H 4050 3100 50  0001 C CNN
F 3 "" H 4050 3100 50  0001 C CNN
	1    4050 3100
	1    0    0    -1  
$EndComp
$Comp
L power:GND #PWR011
U 1 1 5F0ABF24
P 4000 1900
F 0 "#PWR011" H 4000 1650 50  0001 C CNN
F 1 "GND" H 4005 1727 50  0000 C CNN
F 2 "" H 4000 1900 50  0001 C CNN
F 3 "" H 4000 1900 50  0001 C CNN
	1    4000 1900
	1    0    0    -1  
$EndComp
$Comp
L power:GND #PWR09
U 1 1 5F0ABF8A
P 3700 2300
F 0 "#PWR09" H 3700 2050 50  0001 C CNN
F 1 "GND" H 3705 2127 50  0000 C CNN
F 2 "" H 3700 2300 50  0001 C CNN
F 3 "" H 3700 2300 50  0001 C CNN
	1    3700 2300
	1    0    0    -1  
$EndComp
$Comp
L power:GND #PWR03
U 1 1 5F0ABFE9
P 3000 2300
F 0 "#PWR03" H 3000 2050 50  0001 C CNN
F 1 "GND" H 3005 2127 50  0000 C CNN
F 2 "" H 3000 2300 50  0001 C CNN
F 3 "" H 3000 2300 50  0001 C CNN
	1    3000 2300
	1    0    0    -1  
$EndComp
$Comp
L power:GND #PWR01
U 1 1 5F0AC048
P 2400 3500
F 0 "#PWR01" H 2400 3250 50  0001 C CNN
F 1 "GND" H 2405 3327 50  0000 C CNN
F 2 "" H 2400 3500 50  0001 C CNN
F 3 "" H 2400 3500 50  0001 C CNN
	1    2400 3500
	1    0    0    -1  
$EndComp
$Comp
L power:GND #PWR04
U 1 1 5F0AC0A7
P 3100 3750
F 0 "#PWR04" H 3100 3500 50  0001 C CNN
F 1 "GND" H 3105 3577 50  0000 C CNN
F 2 "" H 3100 3750 50  0001 C CNN
F 3 "" H 3100 3750 50  0001 C CNN
	1    3100 3750
	1    0    0    -1  
$EndComp
$Comp
L power:GND #PWR010
U 1 1 5F0AC106
P 3900 3700
F 0 "#PWR010" H 3900 3450 50  0001 C CNN
F 1 "GND" H 3905 3527 50  0000 C CNN
F 2 "" H 3900 3700 50  0001 C CNN
F 3 "" H 3900 3700 50  0001 C CNN
	1    3900 3700
	1    0    0    -1  
$EndComp
Connection ~ 3900 3700
$Comp
L power:GND #PWR07
U 1 1 5F0AD3F3
P 3350 5150
F 0 "#PWR07" H 3350 4900 50  0001 C CNN
F 1 "GND" H 3355 4977 50  0000 C CNN
F 2 "" H 3350 5150 50  0001 C CNN
F 3 "" H 3350 5150 50  0001 C CNN
	1    3350 5150
	1    0    0    -1  
$EndComp
$Comp
L power:GND #PWR06
U 1 1 5F0AD452
P 3350 4800
F 0 "#PWR06" H 3350 4550 50  0001 C CNN
F 1 "GND" H 3355 4627 50  0000 C CNN
F 2 "" H 3350 4800 50  0001 C CNN
F 3 "" H 3350 4800 50  0001 C CNN
	1    3350 4800
	1    0    0    -1  
$EndComp
$Comp
L power:GND #PWR05
U 1 1 5F0AD4B1
P 3350 4500
F 0 "#PWR05" H 3350 4250 50  0001 C CNN
F 1 "GND" H 3355 4327 50  0000 C CNN
F 2 "" H 3350 4500 50  0001 C CNN
F 3 "" H 3350 4500 50  0001 C CNN
	1    3350 4500
	1    0    0    -1  
$EndComp
$Comp
L power:GND #PWR02
U 1 1 5F0AD510
P 2750 4350
F 0 "#PWR02" H 2750 4100 50  0001 C CNN
F 1 "GND" H 2755 4177 50  0000 C CNN
F 2 "" H 2750 4350 50  0001 C CNN
F 3 "" H 2750 4350 50  0001 C CNN
	1    2750 4350
	1    0    0    -1  
$EndComp
Connection ~ 2750 4350
$Comp
L power:GND #PWR013
U 1 1 5F0AE141
P 5900 4900
F 0 "#PWR013" H 5900 4650 50  0001 C CNN
F 1 "GND" H 5905 4727 50  0000 C CNN
F 2 "" H 5900 4900 50  0001 C CNN
F 3 "" H 5900 4900 50  0001 C CNN
	1    5900 4900
	1    0    0    -1  
$EndComp
$Comp
L power:GND #PWR012
U 1 1 5F0AE1A0
P 5900 4500
F 0 "#PWR012" H 5900 4250 50  0001 C CNN
F 1 "GND" H 5905 4327 50  0000 C CNN
F 2 "" H 5900 4500 50  0001 C CNN
F 3 "" H 5900 4500 50  0001 C CNN
	1    5900 4500
	1    0    0    -1  
$EndComp
$Comp
L power:GND #PWR016
U 1 1 5F0AFA9E
P 6300 2850
F 0 "#PWR016" H 6300 2600 50  0001 C CNN
F 1 "GND" H 6305 2677 50  0000 C CNN
F 2 "" H 6300 2850 50  0001 C CNN
F 3 "" H 6300 2850 50  0001 C CNN
	1    6300 2850
	1    0    0    -1  
$EndComp
$Comp
L power:GND #PWR015
U 1 1 5F0AFAFD
P 6050 2300
F 0 "#PWR015" H 6050 2050 50  0001 C CNN
F 1 "GND" H 6055 2127 50  0000 C CNN
F 2 "" H 6050 2300 50  0001 C CNN
F 3 "" H 6050 2300 50  0001 C CNN
	1    6050 2300
	1    0    0    -1  
$EndComp
$Comp
L power:GND #PWR014
U 1 1 5F0AFB5C
P 5950 1900
F 0 "#PWR014" H 5950 1650 50  0001 C CNN
F 1 "GND" H 5955 1727 50  0000 C CNN
F 2 "" H 5950 1900 50  0001 C CNN
F 3 "" H 5950 1900 50  0001 C CNN
	1    5950 1900
	1    0    0    -1  
$EndComp
$Comp
L Connector:Conn_01x01_Female J2
U 1 1 5F0B1818
P 8300 2250
F 0 "J2" H 8327 2276 50  0000 L CNN
F 1 "Conn_01x01_Female" H 8327 2185 50  0000 L CNN
F 2 "Connector_PinHeader_1.00mm:PinHeader_1x01_P1.00mm_Vertical" H 8300 2250 50  0001 C CNN
F 3 "~" H 8300 2250 50  0001 C CNN
	1    8300 2250
	1    0    0    -1  
$EndComp
$Comp
L Connector:Conn_01x01_Female J1
U 1 1 5F0B3DA5
P 1000 1600
F 0 "J1" H 894 1375 50  0000 C CNN
F 1 "Conn_01x01_Female" H 894 1466 50  0000 C CNN
F 2 "Connector_PinHeader_1.00mm:PinHeader_1x01_P1.00mm_Vertical" H 1000 1600 50  0001 C CNN
F 3 "~" H 1000 1600 50  0001 C CNN
	1    1000 1600
	-1   0    0    1   
$EndComp
$Comp
L Connector:Conn_01x02_Female J3
U 1 1 5F0B4E6D
P 10200 4450
F 0 "J3" H 10227 4426 50  0000 L CNN
F 1 "Conn_01x02_Female" H 10227 4335 50  0000 L CNN
F 2 "Connector_PinHeader_2.00mm:PinHeader_1x02_P2.00mm_Vertical" H 10200 4450 50  0001 C CNN
F 3 "~" H 10200 4450 50  0001 C CNN
	1    10200 4450
	1    0    0    -1  
$EndComp
Wire Wire Line
	10000 3950 10000 4450
Wire Wire Line
	10000 4550 10000 5000
$Comp
L MBRS340:MBRS340 D2
U 1 1 5F0B54D5
P 2650 1200
F 0 "D2" H 2650 1417 50  0000 C CNN
F 1 "MBRS340" H 2650 1326 50  0000 C CNN
F 2 "battery_charging:DIOM7959X261N" H 2650 1200 50  0001 L BNN
F 3 "IPC-7351B" H 2650 1200 50  0001 L BNN
F 4 "14" H 2650 1200 50  0001 L BNN "Field4"
F 5 "ON Semiconductor" H 2650 1200 50  0001 L BNN "Field5"
F 6 "2.61mm" H 2650 1200 50  0001 L BNN "Field6"
	1    2650 1200
	1    0    0    -1  
$EndComp
Wire Wire Line
	2450 1200 1500 1200
$Comp
L 1N4148:1N4148 D1
U 1 1 5F0BA2B1
P 1800 1600
F 0 "D1" H 1800 1817 50  0000 C CNN
F 1 "1N4148" H 1800 1726 50  0000 C CNN
F 2 "battery_charging:DIOAD829W49L456D191" H 1800 1600 50  0001 L BNN
F 3 "Diode Small Signal Switching 100V 0.3A 2-Pin DO-35" H 1800 1600 50  0001 L BNN
F 4 "1N4148" H 1800 1600 50  0001 L BNN "Field4"
F 5 "None" H 1800 1600 50  0001 L BNN "Field5"
F 6 "Unavailable" H 1800 1600 50  0001 L BNN "Field6"
F 7 "IPC-7251" H 1800 1600 50  0001 L BNN "Field7"
F 8 "MICROSS/On Semiconductor" H 1800 1600 50  0001 L BNN "Field8"
F 9 "DO-35 Vishay" H 1800 1600 50  0001 L BNN "Field9"
	1    1800 1600
	1    0    0    -1  
$EndComp
Wire Wire Line
	1600 1600 1500 1600
Connection ~ 1500 1600
$Comp
L 1N4148:1N4148 D6
U 1 1 5F0C1601
P 5850 2700
F 0 "D6" V 5804 2780 50  0000 L CNN
F 1 "1N4148" V 5895 2780 50  0000 L CNN
F 2 "battery_charging:DIOAD829W49L456D191" H 5850 2700 50  0001 L BNN
F 3 "Diode Small Signal Switching 100V 0.3A 2-Pin DO-35" H 5850 2700 50  0001 L BNN
F 4 "1N4148" H 5850 2700 50  0001 L BNN "Field4"
F 5 "None" H 5850 2700 50  0001 L BNN "Field5"
F 6 "Unavailable" H 5850 2700 50  0001 L BNN "Field6"
F 7 "IPC-7251" H 5850 2700 50  0001 L BNN "Field7"
F 8 "MICROSS/On Semiconductor" H 5850 2700 50  0001 L BNN "Field8"
F 9 "DO-35 Vishay" H 5850 2700 50  0001 L BNN "Field9"
	1    5850 2700
	0    1    1    0   
$EndComp
Wire Wire Line
	5950 2550 6300 2550
Connection ~ 5850 2900
Wire Wire Line
	5850 2900 5850 3100
Wire Wire Line
	5650 2550 5650 2500
Wire Wire Line
	5650 2500 5850 2500
Wire Wire Line
	5950 2500 5950 2550
Wire Wire Line
	5950 2500 5850 2500
Connection ~ 5850 2500
$EndSCHEMATC
