%TF.GenerationSoftware,KiCad,Pcbnew,(5.0.0)*%
%TF.CreationDate,2019-08-13T12:49:16+10:00*%
%TF.ProjectId,footprint,666F6F747072696E742E6B696361645F,rev?*%
%TF.SameCoordinates,Original*%
%TF.FileFunction,Paste,Top*%
%TF.FilePolarity,Positive*%
%FSLAX46Y46*%
G04 Gerber Fmt 4.6, Leading zero omitted, Abs format (unit mm)*
G04 Created by KiCad (PCBNEW (5.0.0)) date 08/13/19 12:49:16*
%MOMM*%
%LPD*%
G01*
G04 APERTURE LIST*
%ADD10C,0.150000*%
%ADD11R,2.500000X1.840000*%
%ADD12R,2.057400X0.609600*%
%ADD13R,1.250000X1.000000*%
%ADD14R,1.000000X1.250000*%
%ADD15R,1.300000X0.700000*%
%ADD16R,0.700000X1.300000*%
%ADD17R,1.473200X0.508000*%
%ADD18R,0.508000X1.473200*%
%ADD19R,1.450000X0.300000*%
G04 APERTURE END LIST*
D10*
X75000000Y-147500000D02*
X75000000Y-85000000D01*
X175000000Y-147500000D02*
X75000000Y-147500000D01*
X175000000Y-85000000D02*
X175000000Y-147500000D01*
X75000000Y-85000000D02*
X175000000Y-85000000D01*
D11*
X160800000Y-94750000D03*
X164500000Y-94750000D03*
X163950000Y-135750000D03*
X160250000Y-135750000D03*
D12*
X121000000Y-111360000D03*
X121000000Y-112630000D03*
X121000000Y-113900000D03*
X121000000Y-115170000D03*
X121000000Y-116440000D03*
X121000000Y-117710000D03*
X121000000Y-118980000D03*
X121000000Y-120250000D03*
X116199400Y-120250000D03*
X116199400Y-118980000D03*
X116199400Y-117710000D03*
X116199400Y-116440000D03*
X116199400Y-115170000D03*
X116199400Y-113900000D03*
X116199400Y-112630000D03*
X116199400Y-111360000D03*
X116199400Y-99360000D03*
X116199400Y-100630000D03*
X116199400Y-101900000D03*
X116199400Y-103170000D03*
X116199400Y-104440000D03*
X116199400Y-105710000D03*
X116199400Y-106980000D03*
X116199400Y-108250000D03*
X121000000Y-108250000D03*
X121000000Y-106980000D03*
X121000000Y-105710000D03*
X121000000Y-104440000D03*
X121000000Y-103170000D03*
X121000000Y-101900000D03*
X121000000Y-100630000D03*
X121000000Y-99360000D03*
D13*
X154000000Y-132000000D03*
X154000000Y-130000000D03*
X154000000Y-139500000D03*
X154000000Y-141500000D03*
D14*
X161000000Y-133000000D03*
X163000000Y-133000000D03*
X161000000Y-141500000D03*
X163000000Y-141500000D03*
X161500000Y-88500000D03*
X163500000Y-88500000D03*
X162000000Y-97500000D03*
X164000000Y-97500000D03*
X161000000Y-104000000D03*
X163000000Y-104000000D03*
X161000000Y-113500000D03*
X163000000Y-113500000D03*
X163500000Y-116500000D03*
X161500000Y-116500000D03*
X163500000Y-127000000D03*
X161500000Y-127000000D03*
D15*
X138000000Y-130600000D03*
X138000000Y-132500000D03*
X138000000Y-139100000D03*
X138000000Y-141000000D03*
D16*
X112500000Y-114250000D03*
X110600000Y-114250000D03*
D11*
X160300000Y-138750000D03*
X164000000Y-138750000D03*
X164500000Y-91250000D03*
X160800000Y-91250000D03*
X163700000Y-107000000D03*
X160000000Y-107000000D03*
X160000000Y-110500000D03*
X163700000Y-110500000D03*
D15*
X126050000Y-135200000D03*
X126050000Y-133300000D03*
D16*
X118900000Y-138750000D03*
X117000000Y-138750000D03*
D11*
X164200000Y-120250000D03*
X160500000Y-120250000D03*
X160500000Y-124000000D03*
X164200000Y-124000000D03*
D17*
X92000000Y-114861400D03*
X92000000Y-115648800D03*
X92000000Y-116461600D03*
X92000000Y-117249000D03*
X92000000Y-118061800D03*
X92000000Y-118849200D03*
X92000000Y-119662000D03*
X92000000Y-120449400D03*
X92000000Y-121262200D03*
X92000000Y-122049600D03*
X92000000Y-122862400D03*
X92000000Y-123649800D03*
X92000000Y-124462600D03*
X92000000Y-125250000D03*
X92000000Y-126062800D03*
X92000000Y-126850200D03*
D18*
X93625600Y-128475800D03*
X94413000Y-128475800D03*
X95225800Y-128475800D03*
X96013200Y-128475800D03*
X96826000Y-128475800D03*
X97613400Y-128475800D03*
X98426200Y-128475800D03*
X99213600Y-128475800D03*
X100026400Y-128475800D03*
X100813800Y-128475800D03*
X101626600Y-128475800D03*
X102414000Y-128475800D03*
X103226800Y-128475800D03*
X104014200Y-128475800D03*
X104827000Y-128475800D03*
X105614400Y-128475800D03*
D17*
X107240000Y-126850200D03*
X107240000Y-126062800D03*
X107240000Y-125250000D03*
X107240000Y-124462600D03*
X107240000Y-123649800D03*
X107240000Y-122862400D03*
X107240000Y-122049600D03*
X107240000Y-121262200D03*
X107240000Y-120449400D03*
X107240000Y-119662000D03*
X107240000Y-118849200D03*
X107240000Y-118061800D03*
X107240000Y-117249000D03*
X107240000Y-116461600D03*
X107240000Y-115648800D03*
X107240000Y-114861400D03*
D18*
X105614400Y-113235800D03*
X104827000Y-113235800D03*
X104014200Y-113235800D03*
X103226800Y-113235800D03*
X102414000Y-113235800D03*
X101626600Y-113235800D03*
X100813800Y-113235800D03*
X100026400Y-113235800D03*
X99213600Y-113235800D03*
X98426200Y-113235800D03*
X97613400Y-113235800D03*
X96826000Y-113235800D03*
X96013200Y-113235800D03*
X95225800Y-113235800D03*
X94413000Y-113235800D03*
X93625600Y-113235800D03*
D19*
X113600000Y-133750000D03*
X113600000Y-134250000D03*
X113600000Y-134750000D03*
X113600000Y-135250000D03*
X113600000Y-135750000D03*
X118000000Y-135750000D03*
X118000000Y-135250000D03*
X118000000Y-134750000D03*
X118000000Y-134250000D03*
X118000000Y-133750000D03*
M02*
