M48
;DRILL file {KiCad (5.0.2)-1} date 23/03/2019 2:43:33 PM
;FORMAT={-:-/ absolute / inch / decimal}
FMAT,2
INCH,TZ
T1C0.0157
T2C0.0300
T3C0.0315
%
G90
G05
T1
X0.225Y-0.625
X0.325Y-0.625
X0.39Y-0.26
X0.425Y-0.625
X0.525Y-0.625
X0.62Y-1.76
X0.625Y-0.625
X0.725Y-0.625
X0.825Y-0.625
X0.85Y-1.125
X0.85Y-1.25
X0.85Y-1.45
X0.925Y-0.625
X0.975Y-1.46
X1.07Y-1.7
X1.0852Y-1.25
X1.15Y-1.15
X1.25Y-1.42
X1.35Y-1.6
X1.4102Y-1.1
X1.45Y-1.42
X1.5Y-0.895
X1.58Y-0.665
X1.645Y-1.41
X1.71Y-0.64
X1.735Y-0.785
X1.77Y-0.95
X1.815Y-1.05
X1.85Y-0.05
X1.85Y-1.41
X1.9Y-1.03
X1.96Y-0.64
X2.05Y-1.415
X2.06Y-1.07
X2.14Y-1.25
X2.29Y-1.43
X2.305Y-1.295
X2.3305Y-1.255
X2.39Y-1.16
X2.415Y-1.015
X2.47Y-1.45
X2.49Y-1.2
X2.6Y-0.85
X2.8Y-0.85
X3.Y-0.85
X3.2Y-0.85
T2
X0.2116Y-0.3236
X0.2116Y-0.4236
X0.3116Y-0.3236
X0.3116Y-0.4236
X0.4116Y-0.3236
X0.4116Y-0.4236
X0.5116Y-0.3236
X0.5116Y-0.4236
X0.6116Y-0.1236
X0.6116Y-0.2236
X0.6116Y-0.3236
X0.6116Y-0.4236
X0.7116Y-0.1236
X0.7116Y-0.2236
X0.7116Y-0.3236
X0.7116Y-0.4236
X0.8116Y-0.1236
X0.8116Y-0.2236
X0.8116Y-0.3236
X0.8116Y-0.4236
X0.9116Y-0.1236
X0.9116Y-0.2236
X0.9116Y-0.3236
X0.9116Y-0.4236
X1.0116Y-0.1236
X1.0116Y-0.2236
X1.0116Y-0.3236
X1.0116Y-0.4236
X1.1116Y-0.1236
X1.1116Y-0.2236
X1.1116Y-0.3236
X1.1116Y-0.4236
X1.2116Y-0.1236
X1.2116Y-0.2236
X1.2116Y-0.3236
X1.2116Y-0.4236
X1.3116Y-0.1236
X1.3116Y-0.2236
X1.3116Y-0.3236
X1.3116Y-0.4236
X1.4116Y-0.1236
X1.4116Y-0.2236
X1.4116Y-0.3236
X1.4116Y-0.4236
X1.5116Y-0.1236
X1.5116Y-0.2236
X1.5116Y-0.3236
X1.5116Y-0.4236
X1.6116Y-0.1236
X1.6116Y-0.2236
X1.6116Y-0.3236
X1.6116Y-0.4236
X1.7116Y-0.1236
X1.7116Y-0.2236
X1.7116Y-0.3236
X1.7116Y-0.4236
X1.8116Y-0.1236
X1.8116Y-0.2236
X1.8116Y-0.3236
X1.8116Y-0.4236
X1.9116Y-0.1236
X1.9116Y-0.2236
X1.9116Y-0.3236
X1.9116Y-0.4236
X2.0116Y-0.1236
X2.0116Y-0.2236
X2.0116Y-0.3236
X2.0116Y-0.4236
X2.1116Y-0.1236
X2.1116Y-0.2236
X2.1116Y-0.3236
X2.1116Y-0.4236
X2.2116Y-0.1236
X2.2116Y-0.2236
X2.2116Y-0.3236
X2.2116Y-0.4236
X2.3116Y-0.1236
X2.3116Y-0.2236
X2.3116Y-0.3236
X2.3116Y-0.4236
X2.4116Y-0.1236
X2.4116Y-0.2236
X2.4116Y-0.3236
X2.4116Y-0.4236
X2.5116Y-0.1236
X2.5116Y-0.2236
X2.5116Y-0.3236
X2.5116Y-0.4236
X2.6116Y-0.3236
X2.6116Y-0.4236
X2.7116Y-0.3236
X2.7116Y-0.4236
X2.8116Y-0.3236
X2.8116Y-0.4236
X2.9116Y-0.3236
X2.9116Y-0.4236
X3.0116Y-0.3236
X3.0116Y-0.4236
X3.1116Y-0.3236
X3.1116Y-0.4236
X3.2116Y-0.3236
X3.2116Y-0.4236
X3.3116Y-0.3236
X3.3116Y-0.4236
T3
X0.5Y-2.85
X0.65Y-1.57
X0.9Y-1.52
X0.91Y-1.6716
X1.16Y-1.57
X2.4Y-1.53
X2.6Y-1.25
T0
M30
