M48
;DRILL file {KiCad (5.0.2)-1} date 23/03/2019 2:43:33 PM
;FORMAT={-:-/ absolute / inch / decimal}
FMAT,2
INCH,TZ
T1C0.0941
T2C0.1181
T3C0.1248
T4C0.1358
%
G90
G05
T1
X3.2102Y-3.239
T2
X3.4252Y-3.4252
X0.1181Y-0.1181
X0.1181Y-3.4252
X3.4252Y-0.1181
T3
X0.7134Y-2.55
X2.8866Y-2.55
T4
X0.7134Y-3.239
X2.8866Y-1.861
T0
M30
