%TF.GenerationSoftware,KiCad,Pcbnew,(5.0.0)*%
%TF.CreationDate,2019-03-25T10:18:54+11:00*%
%TF.ProjectId,MainMk1,4D61696E4D6B312E6B696361645F7063,rev?*%
%TF.SameCoordinates,Original*%
%TF.FileFunction,Soldermask,Bot*%
%TF.FilePolarity,Negative*%
%FSLAX46Y46*%
G04 Gerber Fmt 4.6, Leading zero omitted, Abs format (unit mm)*
G04 Created by KiCad (PCBNEW (5.0.0)) date 03/25/19 10:18:54*
%MOMM*%
%LPD*%
G01*
G04 APERTURE LIST*
%ADD10C,0.150000*%
%ADD11R,1.600000X1.350000*%
%ADD12C,3.100000*%
%ADD13C,1.624000*%
%ADD14R,1.900000X1.100000*%
%ADD15R,1.200000X1.800000*%
%ADD16R,0.350000X2.100000*%
%ADD17R,2.800000X0.900000*%
%ADD18R,1.350000X1.600000*%
%ADD19R,1.400000X1.600000*%
%ADD20R,1.600000X1.400000*%
%ADD21R,3.600000X10.300000*%
%ADD22R,1.800000X1.200000*%
%ADD23R,3.100000X3.100000*%
%ADD24R,0.950000X1.050000*%
%ADD25R,1.000000X1.950000*%
%ADD26R,1.550000X1.050000*%
%ADD27R,1.050000X0.950000*%
%ADD28R,1.950000X1.000000*%
%ADD29R,1.050000X1.550000*%
%ADD30C,0.100000*%
%ADD31C,1.075000*%
%ADD32R,2.550000X3.400000*%
%ADD33R,0.900000X0.300000*%
%ADD34R,3.300000X2.800000*%
%ADD35C,3.270000*%
%ADD36C,3.550000*%
%ADD37C,2.490000*%
G04 APERTURE END LIST*
D10*
X90000000Y0D02*
X90000000Y-12030000D01*
X90000000Y-90000000D02*
X90000000Y-49000000D01*
X85000000Y-17030000D02*
X85000000Y-44000000D01*
X85000000Y-44000000D02*
G75*
G02X90000000Y-49000000I0J-5000000D01*
G01*
X85000000Y-17030000D02*
G75*
G03X90000000Y-12030000I0J5000000D01*
G01*
X0Y-90000000D02*
X0Y0D01*
X90000000Y-90000000D02*
X0Y-90000000D01*
X0Y0D02*
X90000000Y0D01*
D11*
X29504000Y-56845200D03*
X32004000Y-56845200D03*
D12*
X3000000Y-3000000D03*
X87000000Y-3000000D03*
X3000000Y-87000000D03*
X87000000Y-87000000D03*
D13*
X40935000Y-3140000D03*
X43475000Y-3140000D03*
X38395000Y-3140000D03*
X48555000Y-3140000D03*
X46015000Y-3140000D03*
X51095000Y-3140000D03*
X58715000Y-3140000D03*
X53635000Y-3140000D03*
X56175000Y-3140000D03*
X63795000Y-3140000D03*
X61255000Y-3140000D03*
X30775000Y-3140000D03*
X20615000Y-3140000D03*
X25695000Y-3140000D03*
X28235000Y-3140000D03*
X15535000Y-3140000D03*
X18075000Y-3140000D03*
X23155000Y-3140000D03*
X33315000Y-3140000D03*
X35855000Y-3140000D03*
X40935000Y-5680000D03*
X43475000Y-5680000D03*
X38395000Y-5680000D03*
X48555000Y-5680000D03*
X46015000Y-5680000D03*
X51095000Y-5680000D03*
X58715000Y-5680000D03*
X53635000Y-5680000D03*
X56175000Y-5680000D03*
X63795000Y-5680000D03*
X61255000Y-5680000D03*
X30775000Y-5680000D03*
X20615000Y-5680000D03*
X25695000Y-5680000D03*
X28235000Y-5680000D03*
X15535000Y-5680000D03*
X18075000Y-5680000D03*
X23155000Y-5680000D03*
X33315000Y-5680000D03*
X35855000Y-5680000D03*
X7915000Y-8220000D03*
X5375000Y-8220000D03*
X40935000Y-8220000D03*
X43475000Y-8220000D03*
X38395000Y-8220000D03*
X48555000Y-8220000D03*
X46015000Y-8220000D03*
X51095000Y-8220000D03*
X58715000Y-8220000D03*
X53635000Y-8220000D03*
X56175000Y-8220000D03*
X66335000Y-8220000D03*
X63795000Y-8220000D03*
X61255000Y-8220000D03*
X30775000Y-8220000D03*
X12995000Y-8220000D03*
X20615000Y-8220000D03*
X25695000Y-8220000D03*
X10455000Y-8220000D03*
X28235000Y-8220000D03*
X15535000Y-8220000D03*
X18075000Y-8220000D03*
X23155000Y-8220000D03*
X33315000Y-8220000D03*
X35855000Y-8220000D03*
X71415000Y-8220000D03*
X68875000Y-8220000D03*
X76495000Y-8220000D03*
X73955000Y-8220000D03*
X79035000Y-8220000D03*
X81575000Y-8220000D03*
X84115000Y-8220000D03*
X84115000Y-10760000D03*
X81575000Y-10760000D03*
X79035000Y-10760000D03*
X76495000Y-10760000D03*
X73955000Y-10760000D03*
X71415000Y-10760000D03*
X68875000Y-10760000D03*
X66335000Y-10760000D03*
X63795000Y-10760000D03*
X61255000Y-10760000D03*
X58715000Y-10760000D03*
X56175000Y-10760000D03*
X53635000Y-10760000D03*
X51095000Y-10760000D03*
X48555000Y-10760000D03*
X46015000Y-10760000D03*
X43475000Y-10760000D03*
X40935000Y-10760000D03*
X38395000Y-10760000D03*
X35855000Y-10760000D03*
X33315000Y-10760000D03*
X30775000Y-10760000D03*
X28235000Y-10760000D03*
X25695000Y-10760000D03*
X23155000Y-10760000D03*
X20615000Y-10760000D03*
X18075000Y-10760000D03*
X15535000Y-10760000D03*
X12995000Y-10760000D03*
X10455000Y-10760000D03*
X7915000Y-10760000D03*
X5375000Y-10760000D03*
D14*
X53135772Y-61487057D03*
X55535772Y-60537057D03*
X55535772Y-62437057D03*
D15*
X72675000Y-68475000D03*
X74075000Y-68475000D03*
X72675000Y-71225000D03*
X74075000Y-71225000D03*
D16*
X69202500Y-57600000D03*
X69202500Y-50600000D03*
X69837500Y-57600000D03*
X69837500Y-50600000D03*
X70472500Y-57600000D03*
X70472500Y-50600000D03*
X71107500Y-57600000D03*
X71107500Y-50600000D03*
X71742500Y-57600000D03*
X71742500Y-50600000D03*
X72377500Y-57600000D03*
X72377500Y-50600000D03*
X73012500Y-57600000D03*
X73012500Y-50600000D03*
X73647500Y-57600000D03*
X73647500Y-50600000D03*
D17*
X62570000Y-70105000D03*
X56830000Y-70105000D03*
X62570000Y-68835000D03*
X56830000Y-68835000D03*
X62570000Y-67565000D03*
X56830000Y-67565000D03*
X62570000Y-66295000D03*
X56830000Y-66295000D03*
D18*
X80575000Y-47550000D03*
X80575000Y-45050000D03*
D11*
X78250000Y-42100000D03*
X75750000Y-42100000D03*
X50585772Y-56387057D03*
X53085772Y-56387057D03*
D18*
X63875000Y-52300000D03*
X63875000Y-54800000D03*
D11*
X75250000Y-74900000D03*
X72750000Y-74900000D03*
X66150000Y-63775000D03*
X68650000Y-63775000D03*
X65700000Y-58175000D03*
X63200000Y-58175000D03*
D19*
X75750000Y-44875000D03*
X75750000Y-47575000D03*
D20*
X60875000Y-44600000D03*
X58175000Y-44600000D03*
D19*
X60075000Y-55000000D03*
X60075000Y-52300000D03*
D20*
X63425000Y-49100000D03*
X66125000Y-49100000D03*
X66150000Y-44600000D03*
X63450000Y-44600000D03*
D21*
X63550000Y-77825000D03*
X56950000Y-77825000D03*
D22*
X60750000Y-62450000D03*
X60750000Y-61050000D03*
X63500000Y-62450000D03*
X63500000Y-61050000D03*
D23*
X48025000Y-47725000D03*
D12*
X53105000Y-47725000D03*
D24*
X16045000Y-74835000D03*
D25*
X13970000Y-76010000D03*
X13970000Y-73660000D03*
X20370000Y-76010000D03*
X20370000Y-73660000D03*
D26*
X17865000Y-75535000D03*
X17865000Y-74135000D03*
X17815000Y-67785000D03*
X17815000Y-69185000D03*
D25*
X20320000Y-67310000D03*
X20320000Y-69660000D03*
X13920000Y-67310000D03*
X13920000Y-69660000D03*
D24*
X15995000Y-68485000D03*
D27*
X13970000Y-55735000D03*
D28*
X15145000Y-57810000D03*
X12795000Y-57810000D03*
X15145000Y-51410000D03*
X12795000Y-51410000D03*
D29*
X14670000Y-53915000D03*
X13270000Y-53915000D03*
D30*
G36*
X31034172Y-72512514D02*
X31060261Y-72516384D01*
X31085844Y-72522792D01*
X31110676Y-72531677D01*
X31134518Y-72542954D01*
X31157140Y-72556513D01*
X31178323Y-72572223D01*
X31197865Y-72589935D01*
X31215577Y-72609477D01*
X31231287Y-72630660D01*
X31244846Y-72653282D01*
X31256123Y-72677124D01*
X31265008Y-72701956D01*
X31271416Y-72727539D01*
X31275286Y-72753628D01*
X31276580Y-72779970D01*
X31276580Y-73742470D01*
X31275286Y-73768812D01*
X31271416Y-73794901D01*
X31265008Y-73820484D01*
X31256123Y-73845316D01*
X31244846Y-73869158D01*
X31231287Y-73891780D01*
X31215577Y-73912963D01*
X31197865Y-73932505D01*
X31178323Y-73950217D01*
X31157140Y-73965927D01*
X31134518Y-73979486D01*
X31110676Y-73990763D01*
X31085844Y-73999648D01*
X31060261Y-74006056D01*
X31034172Y-74009926D01*
X31007830Y-74011220D01*
X30470330Y-74011220D01*
X30443988Y-74009926D01*
X30417899Y-74006056D01*
X30392316Y-73999648D01*
X30367484Y-73990763D01*
X30343642Y-73979486D01*
X30321020Y-73965927D01*
X30299837Y-73950217D01*
X30280295Y-73932505D01*
X30262583Y-73912963D01*
X30246873Y-73891780D01*
X30233314Y-73869158D01*
X30222037Y-73845316D01*
X30213152Y-73820484D01*
X30206744Y-73794901D01*
X30202874Y-73768812D01*
X30201580Y-73742470D01*
X30201580Y-72779970D01*
X30202874Y-72753628D01*
X30206744Y-72727539D01*
X30213152Y-72701956D01*
X30222037Y-72677124D01*
X30233314Y-72653282D01*
X30246873Y-72630660D01*
X30262583Y-72609477D01*
X30280295Y-72589935D01*
X30299837Y-72572223D01*
X30321020Y-72556513D01*
X30343642Y-72542954D01*
X30367484Y-72531677D01*
X30392316Y-72522792D01*
X30417899Y-72516384D01*
X30443988Y-72512514D01*
X30470330Y-72511220D01*
X31007830Y-72511220D01*
X31034172Y-72512514D01*
X31034172Y-72512514D01*
G37*
D31*
X30739080Y-73261220D03*
D30*
G36*
X29159172Y-72512514D02*
X29185261Y-72516384D01*
X29210844Y-72522792D01*
X29235676Y-72531677D01*
X29259518Y-72542954D01*
X29282140Y-72556513D01*
X29303323Y-72572223D01*
X29322865Y-72589935D01*
X29340577Y-72609477D01*
X29356287Y-72630660D01*
X29369846Y-72653282D01*
X29381123Y-72677124D01*
X29390008Y-72701956D01*
X29396416Y-72727539D01*
X29400286Y-72753628D01*
X29401580Y-72779970D01*
X29401580Y-73742470D01*
X29400286Y-73768812D01*
X29396416Y-73794901D01*
X29390008Y-73820484D01*
X29381123Y-73845316D01*
X29369846Y-73869158D01*
X29356287Y-73891780D01*
X29340577Y-73912963D01*
X29322865Y-73932505D01*
X29303323Y-73950217D01*
X29282140Y-73965927D01*
X29259518Y-73979486D01*
X29235676Y-73990763D01*
X29210844Y-73999648D01*
X29185261Y-74006056D01*
X29159172Y-74009926D01*
X29132830Y-74011220D01*
X28595330Y-74011220D01*
X28568988Y-74009926D01*
X28542899Y-74006056D01*
X28517316Y-73999648D01*
X28492484Y-73990763D01*
X28468642Y-73979486D01*
X28446020Y-73965927D01*
X28424837Y-73950217D01*
X28405295Y-73932505D01*
X28387583Y-73912963D01*
X28371873Y-73891780D01*
X28358314Y-73869158D01*
X28347037Y-73845316D01*
X28338152Y-73820484D01*
X28331744Y-73794901D01*
X28327874Y-73768812D01*
X28326580Y-73742470D01*
X28326580Y-72779970D01*
X28327874Y-72753628D01*
X28331744Y-72727539D01*
X28338152Y-72701956D01*
X28347037Y-72677124D01*
X28358314Y-72653282D01*
X28371873Y-72630660D01*
X28387583Y-72609477D01*
X28405295Y-72589935D01*
X28424837Y-72572223D01*
X28446020Y-72556513D01*
X28468642Y-72542954D01*
X28492484Y-72531677D01*
X28517316Y-72522792D01*
X28542899Y-72516384D01*
X28568988Y-72512514D01*
X28595330Y-72511220D01*
X29132830Y-72511220D01*
X29159172Y-72512514D01*
X29159172Y-72512514D01*
G37*
D31*
X28864080Y-73261220D03*
D32*
X34163000Y-61849000D03*
D33*
X36239600Y-62798200D03*
X32289600Y-62798200D03*
X36239600Y-62398200D03*
X32289600Y-62398200D03*
X36239600Y-61998200D03*
X32289600Y-61998200D03*
X36239600Y-61598200D03*
X32289600Y-61598200D03*
X36239600Y-61198200D03*
X32289600Y-61198200D03*
X36239600Y-60798200D03*
X32289600Y-60798200D03*
D11*
X37958400Y-71043800D03*
X35458400Y-71043800D03*
X25004400Y-79527400D03*
X22504400Y-79527400D03*
X26265780Y-76131420D03*
X28765780Y-76131420D03*
X35390100Y-73787000D03*
X32890100Y-73787000D03*
X32867600Y-76149200D03*
X35367600Y-76149200D03*
X25054440Y-73121520D03*
X22554440Y-73121520D03*
D18*
X26593800Y-65669800D03*
X26593800Y-63169800D03*
D11*
X37312600Y-55346600D03*
X34812600Y-55346600D03*
X37348480Y-57294780D03*
X34848480Y-57294780D03*
D20*
X40622200Y-73812400D03*
X37922200Y-73812400D03*
D34*
X9169400Y-58394600D03*
X9169400Y-66294600D03*
D20*
X32918400Y-78536800D03*
X35618400Y-78536800D03*
D19*
X10414000Y-76708000D03*
X10414000Y-79408000D03*
D20*
X23288220Y-63987680D03*
X20588220Y-63987680D03*
X28987500Y-68635880D03*
X26287500Y-68635880D03*
D19*
X19050000Y-56897500D03*
X19050000Y-54197500D03*
D20*
X23704800Y-60020200D03*
X26404800Y-60020200D03*
D19*
X24130000Y-56897500D03*
X24130000Y-54197500D03*
D20*
X29329400Y-52120800D03*
X32029400Y-52120800D03*
X34768800Y-52425600D03*
X37468800Y-52425600D03*
D19*
X21590000Y-54197500D03*
X21590000Y-56897500D03*
D35*
X16900000Y-62500000D03*
X72100000Y-62500000D03*
D36*
X16900000Y-80000000D03*
X72100000Y-45000000D03*
D37*
X80320000Y-80000000D03*
M02*
