EESchema Schematic File Version 4
LIBS:MainMk1-cache
EELAYER 29 0
EELAYER END
$Descr A4 11693 8268
encoding utf-8
Sheet 5 5
Title ""
Date ""
Rev ""
Comp ""
Comment1 ""
Comment2 ""
Comment3 ""
Comment4 ""
$EndDescr
Wire Wire Line
	4600 3450 4050 3450
Wire Wire Line
	4050 3450 4050 3100
$Comp
L power:GND #PWR0129
U 1 1 5C834712
P 4050 3100
F 0 "#PWR0129" H 4050 2850 50  0001 C CNN
F 1 "GND" H 4055 2927 50  0000 C CNN
F 2 "" H 4050 3100 50  0001 C CNN
F 3 "" H 4050 3100 50  0001 C CNN
	1    4050 3100
	-1   0    0    1   
$EndComp
Wire Wire Line
	5100 4400 5100 4650
$Comp
L power:GND #PWR0130
U 1 1 5C834957
P 5100 4650
F 0 "#PWR0130" H 5100 4400 50  0001 C CNN
F 1 "GND" H 5105 4477 50  0000 C CNN
F 2 "" H 5100 4650 50  0001 C CNN
F 3 "" H 5100 4650 50  0001 C CNN
	1    5100 4650
	1    0    0    -1  
$EndComp
Wire Wire Line
	5650 3750 6600 3750
$Comp
L MainMk1-rescue:C-Device C50
U 1 1 5C834DFF
P 6750 3750
F 0 "C50" V 6498 3750 50  0000 C CNN
F 1 "2.2uF" V 6589 3750 50  0000 C CNN
F 2 "Capacitors_SMD:C_0805_HandSoldering" H 6788 3600 50  0001 C CNN
F 3 "~" H 6750 3750 50  0001 C CNN
	1    6750 3750
	0    1    1    0   
$EndComp
$Comp
L power:GND #PWR0131
U 1 1 5C834EC1
P 6900 3750
F 0 "#PWR0131" H 6900 3500 50  0001 C CNN
F 1 "GND" V 6905 3622 50  0000 R CNN
F 2 "" H 6900 3750 50  0001 C CNN
F 3 "" H 6900 3750 50  0001 C CNN
	1    6900 3750
	0    -1   -1   0   
$EndComp
Wire Wire Line
	4600 3900 3450 3900
Wire Wire Line
	3450 3900 3450 4300
$Comp
L MainMk1-rescue:R-Device RT1
U 1 1 5C835189
P 3450 4450
F 0 "RT1" H 3520 4496 50  0000 L CNN
F 1 "10K" H 3520 4405 50  0000 L CNN
F 2 "Resistor_SMD:R_0805_2012Metric" V 3380 4450 50  0001 C CNN
F 3 "~" H 3450 4450 50  0001 C CNN
	1    3450 4450
	1    0    0    -1  
$EndComp
$Comp
L power:GND #PWR0132
U 1 1 5C8351F6
P 3450 4600
F 0 "#PWR0132" H 3450 4350 50  0001 C CNN
F 1 "GND" H 3455 4427 50  0000 C CNN
F 2 "" H 3450 4600 50  0001 C CNN
F 3 "" H 3450 4600 50  0001 C CNN
	1    3450 4600
	1    0    0    -1  
$EndComp
$Comp
L MainMk1-rescue:C-Device C46
U 1 1 5C835B78
P 2800 5300
F 0 "C46" V 2548 5300 50  0000 C CNN
F 1 "0.1uF" V 2639 5300 50  0000 C CNN
F 2 "Capacitors_SMD:C_0805_HandSoldering" H 2838 5150 50  0001 C CNN
F 3 "~" H 2800 5300 50  0001 C CNN
	1    2800 5300
	0    1    1    0   
$EndComp
Wire Wire Line
	2500 5300 2650 5300
Wire Wire Line
	2950 5300 3150 5300
Wire Wire Line
	2500 5300 2500 5450
Wire Wire Line
	2500 5450 2200 5450
Connection ~ 2500 5450
Wire Wire Line
	2500 5450 2500 5650
$Comp
L MainMk1-rescue:C-Device C43
U 1 1 5C8362C0
P 2050 5450
F 0 "C43" V 1798 5450 50  0000 C CNN
F 1 "0.1uF" V 1889 5450 50  0000 C CNN
F 2 "Capacitors_SMD:C_0805_HandSoldering" H 2088 5300 50  0001 C CNN
F 3 "~" H 2050 5450 50  0001 C CNN
	1    2050 5450
	0    1    1    0   
$EndComp
$Comp
L power:GND #PWR0133
U 1 1 5C8364AB
P 1900 5450
F 0 "#PWR0133" H 1900 5200 50  0001 C CNN
F 1 "GND" V 1905 5322 50  0000 R CNN
F 2 "" H 1900 5450 50  0001 C CNN
F 3 "" H 1900 5450 50  0001 C CNN
	1    1900 5450
	0    1    1    0   
$EndComp
$Comp
L MainMk1-rescue:R-Device R19
U 1 1 5C8365D6
P 2500 5800
F 0 "R19" H 2570 5846 50  0000 L CNN
F 1 "100" H 2570 5755 50  0000 L CNN
F 2 "Resistors_SMD:R_0805_HandSoldering" V 2430 5800 50  0001 C CNN
F 3 "~" H 2500 5800 50  0001 C CNN
	1    2500 5800
	1    0    0    -1  
$EndComp
Wire Wire Line
	2500 5950 2500 6150
$Comp
L MainMk1-rescue:R-Device R20
U 1 1 5C836C67
P 2800 6150
F 0 "R20" V 3007 6150 50  0000 C CNN
F 1 "0.001" V 2916 6150 50  0000 C CNN
F 2 "Resistors_SMD:R_2512_HandSoldering" V 2730 6150 50  0001 C CNN
F 3 "~" H 2800 6150 50  0001 C CNN
	1    2800 6150
	0    -1   -1   0   
$EndComp
$Comp
L MainMk1-rescue:R-Device R21
U 1 1 5C837346
P 3150 5800
F 0 "R21" H 3220 5846 50  0000 L CNN
F 1 "100" H 3220 5755 50  0000 L CNN
F 2 "Resistors_SMD:R_0805_HandSoldering" V 3080 5800 50  0001 C CNN
F 3 "~" H 3150 5800 50  0001 C CNN
	1    3150 5800
	1    0    0    -1  
$EndComp
Wire Wire Line
	3150 6150 3150 5950
Wire Wire Line
	3150 5300 3150 5450
Wire Wire Line
	3150 5450 3450 5450
$Comp
L MainMk1-rescue:C-Device C47
U 1 1 5C837A0D
P 3600 5450
F 0 "C47" V 3852 5450 50  0000 C CNN
F 1 "0.1uF" V 3761 5450 50  0000 C CNN
F 2 "Capacitors_SMD:C_0805_HandSoldering" H 3638 5300 50  0001 C CNN
F 3 "~" H 3600 5450 50  0001 C CNN
	1    3600 5450
	0    -1   -1   0   
$EndComp
$Comp
L power:GND #PWR0134
U 1 1 5C837A14
P 3750 5450
F 0 "#PWR0134" H 3750 5200 50  0001 C CNN
F 1 "GND" V 3755 5322 50  0000 R CNN
F 2 "" H 3750 5450 50  0001 C CNN
F 3 "" H 3750 5450 50  0001 C CNN
	1    3750 5450
	0    -1   -1   0   
$EndComp
Connection ~ 3150 5450
Wire Wire Line
	3150 5450 3150 5650
Wire Wire Line
	2100 1700 2500 1700
Wire Wire Line
	5650 4050 6700 4050
Wire Wire Line
	6700 4050 6700 4350
$Comp
L MainMk1-rescue:R-Device R28
U 1 1 5C839C40
P 6700 4500
F 0 "R28" H 6770 4546 50  0000 L CNN
F 1 "10" H 6770 4455 50  0000 L CNN
F 2 "Resistors_SMD:R_0805_HandSoldering" V 6630 4500 50  0001 C CNN
F 3 "~" H 6700 4500 50  0001 C CNN
	1    6700 4500
	1    0    0    -1  
$EndComp
$Comp
L MainMk1-rescue:C-Device C44
U 1 1 5C83CD16
P 2500 1850
F 0 "C44" H 2615 1896 50  0000 L CNN
F 1 "0.1uF" H 2615 1805 50  0000 L CNN
F 2 "Capacitors_SMD:C_0805_HandSoldering" H 2538 1700 50  0001 C CNN
F 3 "~" H 2500 1850 50  0001 C CNN
	1    2500 1850
	1    0    0    -1  
$EndComp
$Comp
L MainMk1-rescue:C-Device C45
U 1 1 5C83CE33
P 2500 2400
F 0 "C45" H 2615 2446 50  0000 L CNN
F 1 "0.1uF" H 2615 2355 50  0000 L CNN
F 2 "Capacitors_SMD:C_0805_HandSoldering" H 2538 2250 50  0001 C CNN
F 3 "~" H 2500 2400 50  0001 C CNN
	1    2500 2400
	1    0    0    -1  
$EndComp
Wire Wire Line
	2500 2000 2500 2250
Wire Wire Line
	2500 2550 3250 2550
$Comp
L MainMk1-rescue:R-Device R22
U 1 1 5C83DFDE
P 3250 2400
F 0 "R22" H 3320 2446 50  0000 L CNN
F 1 "10K" H 3320 2355 50  0000 L CNN
F 2 "Resistors_SMD:R_0805_HandSoldering" V 3180 2400 50  0001 C CNN
F 3 "~" H 3250 2400 50  0001 C CNN
	1    3250 2400
	1    0    0    -1  
$EndComp
Wire Wire Line
	3250 2250 3250 2100
Wire Wire Line
	3250 2100 3450 2100
$Comp
L MainMk1-rescue:MNMOS-pspice Q2
U 1 1 5C83EA86
P 3650 2100
F 0 "Q2" H 3937 2146 50  0000 L CNN
F 1 "FET-N" H 3937 2055 50  0000 L CNN
F 2 "Package_DirectFET:DirectFET_MN" H 3625 2100 50  0001 C CNN
F 3 "" H 3625 2100 50  0001 C CNN
	1    3650 2100
	1    0    0    -1  
$EndComp
Wire Wire Line
	3750 2300 3850 2300
Wire Wire Line
	2500 1700 3750 1700
Wire Wire Line
	3750 1700 3750 1900
Connection ~ 2500 1700
Text Notes 3300 2550 0    39   ~ 0
Reverse Polarity Protection\n
Wire Wire Line
	3850 2300 3850 2450
Wire Wire Line
	3850 2450 4500 2450
Connection ~ 3850 2300
Connection ~ 3750 1700
$Comp
L MainMk1-rescue:R-Device R23
U 1 1 5C8404F3
P 4500 1850
F 0 "R23" H 4570 1896 50  0000 L CNN
F 1 "10M" H 4570 1805 50  0000 L CNN
F 2 "Resistors_SMD:R_0805_HandSoldering" V 4430 1850 50  0001 C CNN
F 3 "~" H 4500 1850 50  0001 C CNN
	1    4500 1850
	1    0    0    -1  
$EndComp
Wire Wire Line
	4500 2000 4500 2450
Wire Wire Line
	4500 1700 4900 1700
Connection ~ 4500 1700
$Comp
L MainMk1-rescue:MNMOS-pspice Q3
U 1 1 5C843868
P 5100 1900
F 0 "Q3" V 5525 1900 50  0000 C CNN
F 1 "FET-N" V 5434 1900 50  0000 C CNN
F 2 "Package_DirectFET:DirectFET_MN" H 5075 1900 50  0001 C CNN
F 3 "" H 5075 1900 50  0001 C CNN
	1    5100 1900
	0    1    -1   0   
$EndComp
Wire Wire Line
	4900 1800 4900 1700
Connection ~ 4900 1700
Wire Wire Line
	4500 2450 5100 2450
Connection ~ 4500 2450
Wire Wire Line
	5100 2100 5100 2450
$Comp
L MainMk1-rescue:R-Device R24
U 1 1 5C848A23
P 5100 2600
F 0 "R24" H 5170 2646 50  0000 L CNN
F 1 "5.1K" H 5170 2555 50  0000 L CNN
F 2 "Resistors_SMD:R_0805_HandSoldering" V 5030 2600 50  0001 C CNN
F 3 "~" H 5100 2600 50  0001 C CNN
	1    5100 2600
	1    0    0    -1  
$EndComp
Connection ~ 5100 2450
Wire Wire Line
	5300 1800 5850 1800
$Comp
L MainMk1-rescue:MNMOS-pspice Q4
U 1 1 5C84B500
P 6050 1900
F 0 "Q4" V 6475 1900 50  0000 C CNN
F 1 "FET-N" V 6384 1900 50  0000 C CNN
F 2 "Package_DirectFET:DirectFET_MN" H 6025 1900 50  0001 C CNN
F 3 "" H 6025 1900 50  0001 C CNN
	1    6050 1900
	0    -1   -1   0   
$EndComp
$Comp
L MainMk1-rescue:R-Device R26
U 1 1 5C84CDE9
P 6050 2600
F 0 "R26" H 6120 2646 50  0000 L CNN
F 1 "5.1K" H 6120 2555 50  0000 L CNN
F 2 "Resistors_SMD:R_0805_HandSoldering" V 5980 2600 50  0001 C CNN
F 3 "~" H 6050 2600 50  0001 C CNN
	1    6050 2600
	1    0    0    -1  
$EndComp
Wire Wire Line
	6050 2100 6050 2350
Wire Wire Line
	6250 1700 6250 1800
Wire Wire Line
	6250 1700 6500 1700
Connection ~ 6250 1700
$Comp
L MainMk1-rescue:R-Device R27
U 1 1 5C84F188
P 6500 1850
F 0 "R27" H 6570 1896 50  0000 L CNN
F 1 "10M" H 6570 1805 50  0000 L CNN
F 2 "Resistors_SMD:R_0805_HandSoldering" V 6430 1850 50  0001 C CNN
F 3 "~" H 6500 1850 50  0001 C CNN
	1    6500 1850
	1    0    0    -1  
$EndComp
Wire Wire Line
	6500 2000 6500 2350
Wire Wire Line
	6500 2350 6050 2350
Connection ~ 6050 2350
Wire Wire Line
	6050 2350 6050 2450
$Comp
L MainMk1-rescue:R-Device R25
U 1 1 5C851BA5
P 5250 800
F 0 "R25" V 5457 800 50  0000 C CNN
F 1 "1K" V 5366 800 50  0000 C CNN
F 2 "Resistors_SMD:R_0805_HandSoldering" V 5180 800 50  0001 C CNN
F 3 "~" H 5250 800 50  0001 C CNN
	1    5250 800 
	0    -1   -1   0   
$EndComp
Wire Wire Line
	3750 1700 4150 1700
Wire Wire Line
	4150 1700 4150 800 
Wire Wire Line
	4150 800  5100 800 
Connection ~ 4150 1700
Wire Wire Line
	4150 1700 4250 1700
Wire Wire Line
	5400 800  6650 800 
Wire Wire Line
	6650 800  6650 1700
Wire Wire Line
	4250 1700 4250 1150
Wire Wire Line
	4250 1150 4700 1150
Connection ~ 4250 1700
Wire Wire Line
	4250 1700 4500 1700
$Comp
L MainMk1-rescue:C-Device C48
U 1 1 5C8578AC
P 4850 1150
F 0 "C48" V 5102 1150 50  0000 C CNN
F 1 "0.1uF" V 5011 1150 50  0000 C CNN
F 2 "Capacitors_SMD:C_0805_HandSoldering" H 4888 1000 50  0001 C CNN
F 3 "~" H 4850 1150 50  0001 C CNN
	1    4850 1150
	0    -1   -1   0   
$EndComp
$Comp
L MainMk1-rescue:C-Device C49
U 1 1 5C85A00B
P 5450 1150
F 0 "C49" V 5702 1150 50  0000 C CNN
F 1 "0.1uF" V 5611 1150 50  0000 C CNN
F 2 "Capacitors_SMD:C_0805_HandSoldering" H 5488 1000 50  0001 C CNN
F 3 "~" H 5450 1150 50  0001 C CNN
	1    5450 1150
	0    -1   -1   0   
$EndComp
Wire Wire Line
	5000 1150 5300 1150
Wire Wire Line
	5600 1150 6550 1150
Wire Wire Line
	6550 1150 6550 1700
$Comp
L MainMk1-rescue:R-Device R30
U 1 1 5C85EBE9
P 9350 3250
F 0 "R30" V 9557 3250 50  0000 C CNN
F 1 "5" V 9466 3250 50  0000 C CNN
F 2 "Resistors_SMD:R_0805_HandSoldering" V 9280 3250 50  0001 C CNN
F 3 "~" H 9350 3250 50  0001 C CNN
	1    9350 3250
	0    -1   -1   0   
$EndComp
$Comp
L MainMk1-rescue:R-Device R29
U 1 1 5C86476E
P 8950 3350
F 0 "R29" V 9157 3350 50  0000 C CNN
F 1 "100" V 9066 3350 50  0000 C CNN
F 2 "Resistors_SMD:R_0805_HandSoldering" V 8880 3350 50  0001 C CNN
F 3 "~" H 8950 3350 50  0001 C CNN
	1    8950 3350
	0    -1   -1   0   
$EndComp
Wire Wire Line
	8800 3350 8700 3350
Wire Wire Line
	8700 3350 8700 3500
Connection ~ 8700 3350
$Comp
L MainMk1-rescue:C-Device C52
U 1 1 5C86E436
P 8700 3650
F 0 "C52" H 8815 3696 50  0000 L CNN
F 1 "0.1uF" H 8815 3605 50  0000 L CNN
F 2 "Capacitors_SMD:C_0805_HandSoldering" H 8738 3500 50  0001 C CNN
F 3 "~" H 8700 3650 50  0001 C CNN
	1    8700 3650
	1    0    0    -1  
$EndComp
Wire Wire Line
	8500 3350 8700 3350
$Comp
L power:GND #PWR0136
U 1 1 5C8716FD
P 8700 3800
F 0 "#PWR0136" H 8700 3550 50  0001 C CNN
F 1 "GND" H 8705 3627 50  0000 C CNN
F 2 "" H 8700 3800 50  0001 C CNN
F 3 "" H 8700 3800 50  0001 C CNN
	1    8700 3800
	1    0    0    -1  
$EndComp
Wire Wire Line
	8500 3350 8500 3750
Wire Wire Line
	8500 3750 8050 3750
$Comp
L MainMk1-rescue:C-Device C51
U 1 1 5C87289A
P 8050 3500
F 0 "C51" H 8165 3546 50  0000 L CNN
F 1 "1uF" H 8165 3455 50  0000 L CNN
F 2 "Capacitors_SMD:C_0805_HandSoldering" H 8088 3350 50  0001 C CNN
F 3 "~" H 8050 3500 50  0001 C CNN
	1    8050 3500
	1    0    0    -1  
$EndComp
Wire Wire Line
	8050 3350 8050 3250
Wire Wire Line
	8050 3650 8050 3750
Text Notes 7900 6950 0    197  ~ 39
Battery Monitor
Text Notes 7450 7500 0    59   ~ 0
Battery Monitor
Text Notes 8200 7650 0    59   ~ 0
09/03/2019\n
Text Notes 10600 7650 0    59   ~ 0
AA\n
Text Notes 8300 7750 0    59   ~ 0
Raymond Zhou & Yuchen Wang
Wire Wire Line
	4600 4050 4100 4050
Wire Wire Line
	4600 4200 4100 4200
Text HLabel 4100 4050 0    50   Input ~ 0
SCL
Text HLabel 4100 4200 0    50   Input ~ 0
SDA
Wire Wire Line
	4600 3750 3150 3750
Wire Wire Line
	3150 3750 3150 5300
Connection ~ 3150 5300
Wire Wire Line
	4600 3600 2500 3600
Wire Wire Line
	2500 3600 2500 5300
Connection ~ 2500 5300
Wire Wire Line
	5650 3450 7350 3450
Wire Wire Line
	7350 3450 7350 3750
Wire Wire Line
	7350 3750 8050 3750
Connection ~ 8050 3750
Wire Wire Line
	9200 3250 8050 3250
Wire Wire Line
	6150 3250 6150 3600
Wire Wire Line
	6150 3600 5650 3600
Connection ~ 8050 3250
Wire Wire Line
	8050 3250 6150 3250
Wire Wire Line
	9100 3350 10450 3350
Wire Wire Line
	9500 3250 9700 3250
Wire Wire Line
	3150 6150 3750 6150
$Comp
L power:GND #PWR0137
U 1 1 5C8BAA02
P 3750 6150
F 0 "#PWR0137" H 3750 5900 50  0001 C CNN
F 1 "GND" V 3755 6022 50  0000 R CNN
F 2 "" H 3750 6150 50  0001 C CNN
F 3 "" H 3750 6150 50  0001 C CNN
	1    3750 6150
	0    -1   -1   0   
$EndComp
Text HLabel 10450 3350 2    50   Input ~ 0
VC1
Text HLabel 10450 3250 2    50   Input ~ 0
VC2
Wire Wire Line
	5650 3900 6050 3900
Wire Wire Line
	6050 3900 6050 2750
Wire Wire Line
	5650 4200 5850 4200
Wire Wire Line
	5850 4200 5850 2750
Wire Wire Line
	5850 2750 5100 2750
Wire Wire Line
	6700 4650 6700 5000
Wire Wire Line
	6700 5000 1350 5000
Wire Wire Line
	1350 5000 1350 1050
Wire Wire Line
	1350 1050 2500 1050
Wire Wire Line
	2500 1050 2500 1700
Wire Wire Line
	6500 1700 6550 1700
Wire Wire Line
	9700 1700 9700 3250
Connection ~ 6500 1700
Connection ~ 6550 1700
Wire Wire Line
	6550 1700 6650 1700
Connection ~ 6650 1700
Wire Wire Line
	6650 1700 9700 1700
Connection ~ 9700 3250
Wire Wire Line
	9700 3250 10450 3250
Text HLabel 2100 1700 0    50   Input ~ 0
SolarPannel+
$Comp
L MainMk1-rescue:BatteryGauge-Battery_Monitor U6
U 1 1 5C8AB32C
P 5100 3650
F 0 "U6" H 5125 4115 50  0000 C CNN
F 1 "BatteryGauge" H 5125 4024 50  0000 C CNN
F 2 "BatteryGauge:BQ28Z610" H 5100 4100 50  0001 C CNN
F 3 "" H 5100 4100 50  0001 C CNN
	1    5100 3650
	1    0    0    -1  
$EndComp
Wire Wire Line
	2500 2550 2000 2550
Connection ~ 2500 2550
Text HLabel 2000 2550 0    50   BiDi ~ 0
GND
$Comp
L MainMk1-rescue:GNDPWR-power #PWR0138
U 1 1 5C8F77F6
P 2500 2550
F 0 "#PWR0138" H 2500 2350 50  0001 C CNN
F 1 "GNDPWR" H 2504 2396 50  0000 C CNN
F 2 "" H 2500 2500 50  0001 C CNN
F 3 "" H 2500 2500 50  0001 C CNN
	1    2500 2550
	1    0    0    -1  
$EndComp
$Comp
L MainMk1-rescue:GNDPWR-power #PWR0139
U 1 1 5C8F7874
P 2500 6150
F 0 "#PWR0139" H 2500 5950 50  0001 C CNN
F 1 "GNDPWR" H 2504 5996 50  0000 C CNN
F 2 "" H 2500 6100 50  0001 C CNN
F 3 "" H 2500 6100 50  0001 C CNN
	1    2500 6150
	1    0    0    -1  
$EndComp
Connection ~ 2500 6150
Wire Wire Line
	2500 6150 2650 6150
Connection ~ 3150 6150
Wire Wire Line
	2950 6150 3150 6150
$EndSCHEMATC
