EESchema Schematic File Version 4
EELAYER 30 0
EELAYER END
$Descr A4 11693 8268
encoding utf-8
Sheet 3 4
Title ""
Date ""
Rev ""
Comp ""
Comment1 ""
Comment2 ""
Comment3 ""
Comment4 ""
$EndDescr
$Comp
L PCB-TEMP-rescue:MAX1737-Battery_charger-Battery_charging-rescue-Battery_charging-rescue-PCB-TEMP-rescue-PCB-TEMP-rescue-PCB-TEMP-rescue-PCB-TEMP-rescue-PCB-TEMP-rescue-PCB-TEMP-rescue-PCB-TEMP-rescue MAX1
U 1 1 5EEE2968
P 2850 4850
F 0 "MAX1" H 2925 3377 50  0000 C CNN
F 1 "MAX1737" H 2925 3286 50  0000 C CNN
F 2 "battery_charging:SOP63P602X175-28N" H 2950 4850 50  0001 C CNN
F 3 "" H 2950 4850 50  0001 C CNN
	1    2850 4850
	1    0    0    -1  
$EndComp
Wire Wire Line
	1400 2500 1500 2500
Wire Wire Line
	4750 2900 4750 2800
Wire Wire Line
	3700 3800 3750 3800
Wire Wire Line
	3850 4250 3850 4300
$Comp
L PCB-TEMP-rescue:INDUCTOR-pspice-PCB-TEMP-rescue-PCB-TEMP-rescue-PCB-TEMP-rescue 6.2µH1
U 1 1 5EFB3271
P 4450 5000
F 0 "6.2µH1" H 4450 5200 50  0000 C CNN
F 1 "INDUCTOR" H 4450 5124 50  0000 C CNN
F 2 "battery_charging:SRU10386R2Y" H 4450 5000 50  0001 C CNN
F 3 "" H 4450 5000 50  0001 C CNN
	1    4450 5000
	1    0    0    -1  
$EndComp
Wire Wire Line
	4700 5000 4750 5000
Wire Wire Line
	2200 6350 1950 6350
Wire Wire Line
	2200 6050 1950 6050
Wire Wire Line
	2200 5700 1950 5700
Wire Wire Line
	2200 5400 1950 5400
Wire Wire Line
	9750 2800 9450 2800
Wire Wire Line
	9450 2800 9450 2650
Wire Wire Line
	9450 2650 9750 2650
Wire Wire Line
	8600 1050 8600 1550
Wire Wire Line
	2200 5050 2050 5050
Wire Wire Line
	1500 5250 2050 5250
Wire Wire Line
	2050 5250 2050 5050
Connection ~ 2050 5050
Wire Wire Line
	2050 5050 1800 5050
Wire Wire Line
	850  5250 850  5050
Wire Wire Line
	2200 3150 1900 3150
Wire Wire Line
	1900 3150 1900 2900
Wire Wire Line
	1900 2900 2200 2900
Connection ~ 1900 2900
$Comp
L PCB-TEMP-rescue:GND-power-PCB-TEMP-rescue-PCB-TEMP-rescue-PCB-TEMP-rescue #PWR0101
U 1 1 5EFFE0FE
P 8900 4150
F 0 "#PWR0101" H 8900 3900 50  0001 C CNN
F 1 "GND" H 8905 3977 50  0000 C CNN
F 2 "" H 8900 4150 50  0001 C CNN
F 3 "" H 8900 4150 50  0001 C CNN
	1    8900 4150
	1    0    0    -1  
$EndComp
$Comp
L PCB-TEMP-rescue:GND-power-PCB-TEMP-rescue-PCB-TEMP-rescue-PCB-TEMP-rescue #PWR0102
U 1 1 5EFFEDBF
P 9400 4150
F 0 "#PWR0102" H 9400 3900 50  0001 C CNN
F 1 "GND" H 9405 3977 50  0000 C CNN
F 2 "" H 9400 4150 50  0001 C CNN
F 3 "" H 9400 4150 50  0001 C CNN
	1    9400 4150
	1    0    0    -1  
$EndComp
$Comp
L PCB-TEMP-rescue:GND-power-PCB-TEMP-rescue-PCB-TEMP-rescue-PCB-TEMP-rescue #PWR0103
U 1 1 5EFFF239
P 5550 5300
F 0 "#PWR0103" H 5550 5050 50  0001 C CNN
F 1 "GND" H 5555 5127 50  0000 C CNN
F 2 "" H 5550 5300 50  0001 C CNN
F 3 "" H 5550 5300 50  0001 C CNN
	1    5550 5300
	1    0    0    -1  
$EndComp
Wire Wire Line
	1500 2700 1500 2500
Wire Wire Line
	8400 3850 8900 3850
$Comp
L PCB-TEMP-rescue:AS_1-FDS6990AS_1-Battery_charging-rescue-PCB-TEMP-rescue-PCB-TEMP-rescue-PCB-TEMP-rescue-PCB-TEMP-rescue-PCB-TEMP-rescue-PCB-TEMP-rescue-PCB-TEMP-rescue U2
U 1 1 5F01A28B
P 4700 4200
F 0 "U2" H 4700 4525 50  0000 C CNN
F 1 "AS_1" H 4700 4434 50  0000 C CNN
F 2 "battery_charging:SO-8" H 4700 4200 50  0001 C CNN
F 3 "" H 4700 4200 50  0001 C CNN
	1    4700 4200
	1    0    0    -1  
$EndComp
NoConn ~ 4450 4200
Wire Wire Line
	3700 5200 3900 5200
Wire Wire Line
	3700 5600 3900 5600
$Comp
L PCB-TEMP-rescue:C-Device-Battery_charging-rescue-PCB-TEMP-rescue-PCB-TEMP-rescue-PCB-TEMP-rescue-PCB-TEMP-rescue-PCB-TEMP-rescue-PCB-TEMP-rescue-PCB-TEMP-rescue 1uF1
U 1 1 5F059699
P 8600 1700
F 0 "1uF1" H 8715 1746 50  0000 L CNN
F 1 "C" H 8715 1655 50  0000 L CNN
F 2 "Capacitor_SMD:C_0805_2012Metric_Pad1.18x1.45mm_HandSolder" H 8638 1550 50  0001 C CNN
F 3 "~" H 8600 1700 50  0001 C CNN
	1    8600 1700
	1    0    0    -1  
$EndComp
$Comp
L PCB-TEMP-rescue:R-Device-Battery_charging-rescue-PCB-TEMP-rescue-PCB-TEMP-rescue-PCB-TEMP-rescue-PCB-TEMP-rescue-PCB-TEMP-rescue-PCB-TEMP-rescue-PCB-TEMP-rescue 10k1
U 1 1 5F05995D
P 8950 1450
F 0 "10k1" H 9020 1496 50  0000 L CNN
F 1 "R" H 9020 1405 50  0000 L CNN
F 2 "Resistor_SMD:R_0805_2012Metric_Pad1.20x1.40mm_HandSolder" V 8880 1450 50  0001 C CNN
F 3 "~" H 8950 1450 50  0001 C CNN
	1    8950 1450
	1    0    0    -1  
$EndComp
$Comp
L PCB-TEMP-rescue:R-Device-Battery_charging-rescue-PCB-TEMP-rescue-PCB-TEMP-rescue-PCB-TEMP-rescue-PCB-TEMP-rescue-PCB-TEMP-rescue-PCB-TEMP-rescue-PCB-TEMP-rescue 10k2
U 1 1 5F059A84
P 8950 2650
F 0 "10k2" H 9020 2696 50  0000 L CNN
F 1 "R" H 9020 2605 50  0000 L CNN
F 2 "Resistor_SMD:R_0805_2012Metric_Pad1.20x1.40mm_HandSolder" V 8880 2650 50  0001 C CNN
F 3 "~" H 8950 2650 50  0001 C CNN
	1    8950 2650
	1    0    0    -1  
$EndComp
$Comp
L PCB-TEMP-rescue:R-Device-Battery_charging-rescue-PCB-TEMP-rescue-PCB-TEMP-rescue-PCB-TEMP-rescue-PCB-TEMP-rescue-PCB-TEMP-rescue-PCB-TEMP-rescue-PCB-TEMP-rescue 10k3
U 1 1 5F05BC96
P 1650 5050
F 0 "10k3" V 1443 5050 50  0000 C CNN
F 1 "R" V 1534 5050 50  0000 C CNN
F 2 "Resistor_SMD:R_0805_2012Metric_Pad1.20x1.40mm_HandSolder" V 1580 5050 50  0001 C CNN
F 3 "~" H 1650 5050 50  0001 C CNN
	1    1650 5050
	0    1    1    0   
$EndComp
Wire Wire Line
	1300 5250 850  5250
Wire Wire Line
	1750 5700 1450 5700
Wire Wire Line
	1750 5400 1450 5400
Wire Wire Line
	1750 6050 1450 6050
Wire Wire Line
	1750 6350 1450 6350
$Comp
L PCB-TEMP-rescue:R-Device-Battery_charging-rescue-PCB-TEMP-rescue-PCB-TEMP-rescue-PCB-TEMP-rescue-PCB-TEMP-rescue-PCB-TEMP-rescue-PCB-TEMP-rescue-PCB-TEMP-rescue 1k1
U 1 1 5F074214
P 9050 5850
F 0 "1k1" H 9120 5896 50  0000 L CNN
F 1 "R" H 9120 5805 50  0000 L CNN
F 2 "Resistor_SMD:R_0805_2012Metric_Pad1.20x1.40mm_HandSolder" V 8980 5850 50  0001 C CNN
F 3 "~" H 9050 5850 50  0001 C CNN
	1    9050 5850
	0    1    1    0   
$EndComp
$Comp
L PCB-TEMP-rescue:R-Device-Battery_charging-rescue-PCB-TEMP-rescue-PCB-TEMP-rescue-PCB-TEMP-rescue-PCB-TEMP-rescue-PCB-TEMP-rescue-PCB-TEMP-rescue-PCB-TEMP-rescue 1k2
U 1 1 5F074296
P 9050 5500
F 0 "1k2" H 9120 5546 50  0000 L CNN
F 1 "R" H 9120 5455 50  0000 L CNN
F 2 "Resistor_SMD:R_0805_2012Metric_Pad1.20x1.40mm_HandSolder" V 8980 5500 50  0001 C CNN
F 3 "~" H 9050 5500 50  0001 C CNN
	1    9050 5500
	0    1    1    0   
$EndComp
$Comp
L PCB-TEMP-rescue:R-Device-Battery_charging-rescue-PCB-TEMP-rescue-PCB-TEMP-rescue-PCB-TEMP-rescue-PCB-TEMP-rescue-PCB-TEMP-rescue-PCB-TEMP-rescue-PCB-TEMP-rescue 1k3
U 1 1 5F0742F6
P 9050 5150
F 0 "1k3" H 9120 5196 50  0000 L CNN
F 1 "R" H 9120 5105 50  0000 L CNN
F 2 "Resistor_SMD:R_0805_2012Metric_Pad1.20x1.40mm_HandSolder" V 8980 5150 50  0001 C CNN
F 3 "~" H 9050 5150 50  0001 C CNN
	1    9050 5150
	0    1    1    0   
$EndComp
$Comp
L PCB-TEMP-rescue:LED-Device-Battery_charging-rescue-PCB-TEMP-rescue-PCB-TEMP-rescue-PCB-TEMP-rescue-PCB-TEMP-rescue-PCB-TEMP-rescue-PCB-TEMP-rescue-PCB-TEMP-rescue D3
U 1 1 5F074B5A
P 9550 5150
F 0 "D3" H 9542 4895 50  0000 C CNN
F 1 "LED" H 9542 4986 50  0000 C CNN
F 2 "Diode_SMD:D_0805_2012Metric" H 9550 5150 50  0001 C CNN
F 3 "~" H 9550 5150 50  0001 C CNN
	1    9550 5150
	-1   0    0    1   
$EndComp
$Comp
L PCB-TEMP-rescue:LED-Device-Battery_charging-rescue-PCB-TEMP-rescue-PCB-TEMP-rescue-PCB-TEMP-rescue-PCB-TEMP-rescue-PCB-TEMP-rescue-PCB-TEMP-rescue-PCB-TEMP-rescue D4
U 1 1 5F074C36
P 9550 5500
F 0 "D4" H 9542 5245 50  0000 C CNN
F 1 "LED" H 9542 5336 50  0000 C CNN
F 2 "Diode_SMD:D_0805_2012Metric" H 9550 5500 50  0001 C CNN
F 3 "~" H 9550 5500 50  0001 C CNN
	1    9550 5500
	-1   0    0    1   
$EndComp
$Comp
L PCB-TEMP-rescue:LED-Device-Battery_charging-rescue-PCB-TEMP-rescue-PCB-TEMP-rescue-PCB-TEMP-rescue-PCB-TEMP-rescue-PCB-TEMP-rescue-PCB-TEMP-rescue-PCB-TEMP-rescue D5
U 1 1 5F074C92
P 9550 5850
F 0 "D5" H 9542 5595 50  0000 C CNN
F 1 "LED" H 9542 5686 50  0000 C CNN
F 2 "Diode_SMD:D_0805_2012Metric" H 9550 5850 50  0001 C CNN
F 3 "~" H 9550 5850 50  0001 C CNN
	1    9550 5850
	-1   0    0    1   
$EndComp
$Comp
L PCB-TEMP-rescue:R-Device-Battery_charging-rescue-PCB-TEMP-rescue-PCB-TEMP-rescue-PCB-TEMP-rescue-PCB-TEMP-rescue-PCB-TEMP-rescue-PCB-TEMP-rescue-PCB-TEMP-rescue 0.1
U 1 1 5F076FD7
P 4750 2650
F 0 "0.1" H 4820 2696 50  0000 L CNN
F 1 "R" H 4820 2605 50  0000 L CNN
F 2 "Resistor_SMD:R_0805_2012Metric_Pad1.20x1.40mm_HandSolder" V 4680 2650 50  0001 C CNN
F 3 "~" H 4750 2650 50  0001 C CNN
	1    4750 2650
	1    0    0    -1  
$EndComp
$Comp
L PCB-TEMP-rescue:CP1-Device-Battery_charging-rescue-PCB-TEMP-rescue-PCB-TEMP-rescue-PCB-TEMP-rescue-PCB-TEMP-rescue-PCB-TEMP-rescue-PCB-TEMP-rescue-PCB-TEMP-rescue CP1
U 1 1 5F077332
P 8900 4000
F 0 "CP1" H 9015 4046 50  0000 L CNN
F 1 "47uF" H 9015 3955 50  0000 L CNN
F 2 "battery_charging:UUA1A470MCL1GS" H 8900 4000 50  0001 C CNN
F 3 "~" H 8900 4000 50  0001 C CNN
	1    8900 4000
	1    0    0    -1  
$EndComp
Connection ~ 8900 3850
Wire Wire Line
	8900 3850 9400 3850
$Comp
L PCB-TEMP-rescue:CP1-Device-Battery_charging-rescue-PCB-TEMP-rescue-PCB-TEMP-rescue-PCB-TEMP-rescue-PCB-TEMP-rescue-PCB-TEMP-rescue-PCB-TEMP-rescue-PCB-TEMP-rescue CP2
U 1 1 5F0773E8
P 9400 4000
F 0 "CP2" H 9515 4046 50  0000 L CNN
F 1 "47uF" H 9515 3955 50  0000 L CNN
F 2 "battery_charging:UUA1A470MCL1GS" H 9400 4000 50  0001 C CNN
F 3 "~" H 9400 4000 50  0001 C CNN
	1    9400 4000
	1    0    0    -1  
$EndComp
Connection ~ 9400 3850
Wire Wire Line
	9400 3850 9750 3850
$Comp
L PCB-TEMP-rescue:C_Small-Device-Battery_charging-rescue-PCB-TEMP-rescue-PCB-TEMP-rescue-PCB-TEMP-rescue-PCB-TEMP-rescue-PCB-TEMP-rescue-PCB-TEMP-rescue-PCB-TEMP-rescue 0.1uF4
U 1 1 5F07BCC4
P 3850 4150
F 0 "0.1uF4" H 3942 4196 50  0000 L CNN
F 1 "C_Small" H 3942 4105 50  0000 L CNN
F 2 "Capacitor_SMD:C_0805_2012Metric_Pad1.18x1.45mm_HandSolder" H 3850 4150 50  0001 C CNN
F 3 "~" H 3850 4150 50  0001 C CNN
	1    3850 4150
	1    0    0    -1  
$EndComp
$Comp
L PCB-TEMP-rescue:R-Device-Battery_charging-rescue-PCB-TEMP-rescue-PCB-TEMP-rescue-PCB-TEMP-rescue-PCB-TEMP-rescue-PCB-TEMP-rescue-PCB-TEMP-rescue-PCB-TEMP-rescue 0.2
U 1 1 5F07C3D1
P 4900 5000
F 0 "0.2" V 4693 5000 50  0000 C CNN
F 1 "R" V 4784 5000 50  0000 C CNN
F 2 "Resistor_SMD:R_0805_2012Metric_Pad1.20x1.40mm_HandSolder" V 4830 5000 50  0001 C CNN
F 3 "~" H 4900 5000 50  0001 C CNN
	1    4900 5000
	0    1    1    0   
$EndComp
$Comp
L PCB-TEMP-rescue:CP1-Device-Battery_charging-rescue-PCB-TEMP-rescue-PCB-TEMP-rescue-PCB-TEMP-rescue-PCB-TEMP-rescue-PCB-TEMP-rescue-PCB-TEMP-rescue-PCB-TEMP-rescue CP3
U 1 1 5F07D2C5
P 5550 5150
F 0 "CP3" H 5665 5196 50  0000 L CNN
F 1 "100uF" H 5665 5105 50  0000 L CNN
F 2 "battery_charging:UUD1A101MCL1GS" H 5550 5150 50  0001 C CNN
F 3 "~" H 5550 5150 50  0001 C CNN
	1    5550 5150
	1    0    0    -1  
$EndComp
$Comp
L PCB-TEMP-rescue:C_Small-Device-Battery_charging-rescue-PCB-TEMP-rescue-PCB-TEMP-rescue-PCB-TEMP-rescue-PCB-TEMP-rescue-PCB-TEMP-rescue-PCB-TEMP-rescue-PCB-TEMP-rescue 0.1uF5
U 1 1 5F07D499
P 3900 5300
F 0 "0.1uF5" H 3992 5346 50  0000 L CNN
F 1 "C_Small" H 3992 5255 50  0000 L CNN
F 2 "Capacitor_SMD:C_0805_2012Metric_Pad1.18x1.45mm_HandSolder" H 3900 5300 50  0001 C CNN
F 3 "~" H 3900 5300 50  0001 C CNN
	1    3900 5300
	1    0    0    -1  
$EndComp
$Comp
L PCB-TEMP-rescue:C_Small-Device-Battery_charging-rescue-PCB-TEMP-rescue-PCB-TEMP-rescue-PCB-TEMP-rescue-PCB-TEMP-rescue-PCB-TEMP-rescue-PCB-TEMP-rescue-PCB-TEMP-rescue 0.1uF6
U 1 1 5F07D50B
P 3900 5700
F 0 "0.1uF6" H 3992 5746 50  0000 L CNN
F 1 "C_Small" H 3992 5655 50  0000 L CNN
F 2 "Capacitor_SMD:C_0805_2012Metric_Pad1.18x1.45mm_HandSolder" H 3900 5700 50  0001 C CNN
F 3 "~" H 3900 5700 50  0001 C CNN
	1    3900 5700
	1    0    0    -1  
$EndComp
$Comp
L PCB-TEMP-rescue:Thermistor-Device-Battery_charging-rescue-PCB-TEMP-rescue-PCB-TEMP-rescue-PCB-TEMP-rescue-PCB-TEMP-rescue-PCB-TEMP-rescue-PCB-TEMP-rescue-PCB-TEMP-rescue 10K1
U 1 1 5F07D9B7
P 4900 6000
F 0 "10K1" V 5000 5950 50  0000 L CNN
F 1 "-ve Thermistor" V 4750 5750 50  0000 L CNN
F 2 "Resistor_SMD:R_0805_2012Metric_Pad1.20x1.40mm_HandSolder" H 4900 6000 50  0001 C CNN
F 3 "~" H 4900 6000 50  0001 C CNN
	1    4900 6000
	0    -1   -1   0   
$EndComp
$Comp
L PCB-TEMP-rescue:GND-power-PCB-TEMP-rescue-PCB-TEMP-rescue-PCB-TEMP-rescue #PWR0106
U 1 1 5F0961B2
P 1450 6350
F 0 "#PWR0106" H 1450 6100 50  0001 C CNN
F 1 "GND" H 1455 6177 50  0000 C CNN
F 2 "" H 1450 6350 50  0001 C CNN
F 3 "" H 1450 6350 50  0001 C CNN
	1    1450 6350
	1    0    0    -1  
$EndComp
$Comp
L PCB-TEMP-rescue:R-Device-Battery_charging-rescue-PCB-TEMP-rescue-PCB-TEMP-rescue-PCB-TEMP-rescue-PCB-TEMP-rescue-PCB-TEMP-rescue-PCB-TEMP-rescue-PCB-TEMP-rescue R1
U 1 1 5F097EF0
P 9400 1350
F 0 "R1" V 9193 1350 50  0000 C CNN
F 1 "10k" V 9284 1350 50  0000 C CNN
F 2 "Resistor_SMD:R_0805_2012Metric_Pad1.20x1.40mm_HandSolder" V 9330 1350 50  0001 C CNN
F 3 "~" H 9400 1350 50  0001 C CNN
	1    9400 1350
	0    1    1    0   
$EndComp
$Comp
L PCB-TEMP-rescue:R-Device-Battery_charging-rescue-PCB-TEMP-rescue-PCB-TEMP-rescue-PCB-TEMP-rescue-PCB-TEMP-rescue-PCB-TEMP-rescue-PCB-TEMP-rescue-PCB-TEMP-rescue 10k4
U 1 1 5F097FC0
P 9400 1950
F 0 "10k4" V 9193 1950 50  0000 C CNN
F 1 "R" V 9284 1950 50  0000 C CNN
F 2 "Resistor_SMD:R_0805_2012Metric_Pad1.20x1.40mm_HandSolder" V 9330 1950 50  0001 C CNN
F 3 "~" H 9400 1950 50  0001 C CNN
	1    9400 1950
	0    1    1    0   
$EndComp
Connection ~ 9250 1050
Wire Wire Line
	9250 1050 9750 1050
$Comp
L PCB-TEMP-rescue:R_Small-Device-Battery_charging-rescue-PCB-TEMP-rescue-PCB-TEMP-rescue-PCB-TEMP-rescue-PCB-TEMP-rescue-PCB-TEMP-rescue-PCB-TEMP-rescue-PCB-TEMP-rescue 10k5
U 1 1 5F0A6E8A
P 9650 1500
F 0 "10k5" H 9709 1546 50  0000 L CNN
F 1 "R_Small" H 9709 1455 50  0000 L CNN
F 2 "Resistor_SMD:R_0805_2012Metric_Pad1.20x1.40mm_HandSolder" H 9650 1500 50  0001 C CNN
F 3 "~" H 9650 1500 50  0001 C CNN
	1    9650 1500
	1    0    0    -1  
$EndComp
$Comp
L PCB-TEMP-rescue:R_Small-Device-Battery_charging-rescue-PCB-TEMP-rescue-PCB-TEMP-rescue-PCB-TEMP-rescue-PCB-TEMP-rescue-PCB-TEMP-rescue-PCB-TEMP-rescue-PCB-TEMP-rescue 10k6
U 1 1 5F0A6F1E
P 9650 2100
F 0 "10k6" H 9709 2146 50  0000 L CNN
F 1 "R_Small" H 9709 2055 50  0000 L CNN
F 2 "Resistor_SMD:R_0805_2012Metric_Pad1.20x1.40mm_HandSolder" H 9650 2100 50  0001 C CNN
F 3 "~" H 9650 2100 50  0001 C CNN
	1    9650 2100
	1    0    0    -1  
$EndComp
$Comp
L PCB-TEMP-rescue:GND-power-PCB-TEMP-rescue-PCB-TEMP-rescue-PCB-TEMP-rescue #PWR0107
U 1 1 5F0A719E
P 9650 2200
F 0 "#PWR0107" H 9650 1950 50  0001 C CNN
F 1 "GND" H 9655 2027 50  0000 C CNN
F 2 "" H 9650 2200 50  0001 C CNN
F 3 "" H 9650 2200 50  0001 C CNN
	1    9650 2200
	1    0    0    -1  
$EndComp
$Comp
L PCB-TEMP-rescue:GND-power-PCB-TEMP-rescue-PCB-TEMP-rescue-PCB-TEMP-rescue #PWR0108
U 1 1 5F0A7138
P 9650 1600
F 0 "#PWR0108" H 9650 1350 50  0001 C CNN
F 1 "GND" H 9655 1427 50  0000 C CNN
F 2 "" H 9650 1600 50  0001 C CNN
F 3 "" H 9650 1600 50  0001 C CNN
	1    9650 1600
	1    0    0    -1  
$EndComp
$Comp
L PCB-TEMP-rescue:GND-power-PCB-TEMP-rescue-PCB-TEMP-rescue-PCB-TEMP-rescue #PWR0109
U 1 1 5F0ABF24
P 2000 2700
F 0 "#PWR0109" H 2000 2450 50  0001 C CNN
F 1 "GND" H 2005 2527 50  0000 C CNN
F 2 "" H 2000 2700 50  0001 C CNN
F 3 "" H 2000 2700 50  0001 C CNN
	1    2000 2700
	1    0    0    -1  
$EndComp
$Comp
L PCB-TEMP-rescue:GND-power-PCB-TEMP-rescue-PCB-TEMP-rescue-PCB-TEMP-rescue #PWR0110
U 1 1 5F0ABF8A
P 1700 3100
F 0 "#PWR0110" H 1700 2850 50  0001 C CNN
F 1 "GND" H 1705 2927 50  0000 C CNN
F 2 "" H 1700 3100 50  0001 C CNN
F 3 "" H 1700 3100 50  0001 C CNN
	1    1700 3100
	1    0    0    -1  
$EndComp
$Comp
L PCB-TEMP-rescue:GND-power-PCB-TEMP-rescue-PCB-TEMP-rescue-PCB-TEMP-rescue #PWR0111
U 1 1 5F0ABFE9
P 1000 3100
F 0 "#PWR0111" H 1000 2850 50  0001 C CNN
F 1 "GND" H 1005 2927 50  0000 C CNN
F 2 "" H 1000 3100 50  0001 C CNN
F 3 "" H 1000 3100 50  0001 C CNN
	1    1000 3100
	1    0    0    -1  
$EndComp
$Comp
L PCB-TEMP-rescue:GND-power-PCB-TEMP-rescue-PCB-TEMP-rescue-PCB-TEMP-rescue #PWR0112
U 1 1 5F0AC048
P 8600 1850
F 0 "#PWR0112" H 8600 1600 50  0001 C CNN
F 1 "GND" H 8605 1677 50  0000 C CNN
F 2 "" H 8600 1850 50  0001 C CNN
F 3 "" H 8600 1850 50  0001 C CNN
	1    8600 1850
	1    0    0    -1  
$EndComp
$Comp
L PCB-TEMP-rescue:GND-power-PCB-TEMP-rescue-PCB-TEMP-rescue-PCB-TEMP-rescue #PWR0113
U 1 1 5F0AC0A7
P 8950 2800
F 0 "#PWR0113" H 8950 2550 50  0001 C CNN
F 1 "GND" H 8955 2627 50  0000 C CNN
F 2 "" H 8950 2800 50  0001 C CNN
F 3 "" H 8950 2800 50  0001 C CNN
	1    8950 2800
	1    0    0    -1  
$EndComp
$Comp
L PCB-TEMP-rescue:GND-power-PCB-TEMP-rescue-PCB-TEMP-rescue-PCB-TEMP-rescue #PWR0114
U 1 1 5F0AC106
P 9450 2800
F 0 "#PWR0114" H 9450 2550 50  0001 C CNN
F 1 "GND" H 9455 2627 50  0000 C CNN
F 2 "" H 9450 2800 50  0001 C CNN
F 3 "" H 9450 2800 50  0001 C CNN
	1    9450 2800
	1    0    0    -1  
$EndComp
Connection ~ 9450 2800
$Comp
L PCB-TEMP-rescue:GND-power-PCB-TEMP-rescue-PCB-TEMP-rescue-PCB-TEMP-rescue #PWR0115
U 1 1 5F0AD3F3
P 1450 6050
F 0 "#PWR0115" H 1450 5800 50  0001 C CNN
F 1 "GND" H 1455 5877 50  0000 C CNN
F 2 "" H 1450 6050 50  0001 C CNN
F 3 "" H 1450 6050 50  0001 C CNN
	1    1450 6050
	1    0    0    -1  
$EndComp
$Comp
L PCB-TEMP-rescue:GND-power-PCB-TEMP-rescue-PCB-TEMP-rescue-PCB-TEMP-rescue #PWR0116
U 1 1 5F0AD452
P 1450 5700
F 0 "#PWR0116" H 1450 5450 50  0001 C CNN
F 1 "GND" H 1455 5527 50  0000 C CNN
F 2 "" H 1450 5700 50  0001 C CNN
F 3 "" H 1450 5700 50  0001 C CNN
	1    1450 5700
	1    0    0    -1  
$EndComp
$Comp
L PCB-TEMP-rescue:GND-power-PCB-TEMP-rescue-PCB-TEMP-rescue-PCB-TEMP-rescue #PWR0117
U 1 1 5F0AD4B1
P 1450 5400
F 0 "#PWR0117" H 1450 5150 50  0001 C CNN
F 1 "GND" H 1455 5227 50  0000 C CNN
F 2 "" H 1450 5400 50  0001 C CNN
F 3 "" H 1450 5400 50  0001 C CNN
	1    1450 5400
	1    0    0    -1  
$EndComp
$Comp
L PCB-TEMP-rescue:GND-power-PCB-TEMP-rescue-PCB-TEMP-rescue-PCB-TEMP-rescue #PWR0118
U 1 1 5F0AD510
P 850 5250
F 0 "#PWR0118" H 850 5000 50  0001 C CNN
F 1 "GND" H 855 5077 50  0000 C CNN
F 2 "" H 850 5250 50  0001 C CNN
F 3 "" H 850 5250 50  0001 C CNN
	1    850  5250
	1    0    0    -1  
$EndComp
Connection ~ 850  5250
$Comp
L PCB-TEMP-rescue:GND-power-PCB-TEMP-rescue-PCB-TEMP-rescue-PCB-TEMP-rescue #PWR0119
U 1 1 5F0AE141
P 3900 5800
F 0 "#PWR0119" H 3900 5550 50  0001 C CNN
F 1 "GND" H 3905 5627 50  0000 C CNN
F 2 "" H 3900 5800 50  0001 C CNN
F 3 "" H 3900 5800 50  0001 C CNN
	1    3900 5800
	1    0    0    -1  
$EndComp
$Comp
L PCB-TEMP-rescue:GND-power-PCB-TEMP-rescue-PCB-TEMP-rescue-PCB-TEMP-rescue #PWR0120
U 1 1 5F0AE1A0
P 3900 5400
F 0 "#PWR0120" H 3900 5150 50  0001 C CNN
F 1 "GND" H 3905 5227 50  0000 C CNN
F 2 "" H 3900 5400 50  0001 C CNN
F 3 "" H 3900 5400 50  0001 C CNN
	1    3900 5400
	1    0    0    -1  
$EndComp
$Comp
L PCB-TEMP-rescue:GND-power-PCB-TEMP-rescue-PCB-TEMP-rescue-PCB-TEMP-rescue #PWR0121
U 1 1 5F0AFA9E
P 4200 3650
F 0 "#PWR0121" H 4200 3400 50  0001 C CNN
F 1 "GND" H 4205 3477 50  0000 C CNN
F 2 "" H 4200 3650 50  0001 C CNN
F 3 "" H 4200 3650 50  0001 C CNN
	1    4200 3650
	1    0    0    -1  
$EndComp
$Comp
L PCB-TEMP-rescue:GND-power-PCB-TEMP-rescue-PCB-TEMP-rescue-PCB-TEMP-rescue #PWR0122
U 1 1 5F0AFAFD
P 3950 3100
F 0 "#PWR0122" H 3950 2850 50  0001 C CNN
F 1 "GND" H 3955 2927 50  0000 C CNN
F 2 "" H 3950 3100 50  0001 C CNN
F 3 "" H 3950 3100 50  0001 C CNN
	1    3950 3100
	1    0    0    -1  
$EndComp
$Comp
L PCB-TEMP-rescue:GND-power-PCB-TEMP-rescue-PCB-TEMP-rescue-PCB-TEMP-rescue #PWR0123
U 1 1 5F0AFB5C
P 3950 2700
F 0 "#PWR0123" H 3950 2450 50  0001 C CNN
F 1 "GND" H 3955 2527 50  0000 C CNN
F 2 "" H 3950 2700 50  0001 C CNN
F 3 "" H 3950 2700 50  0001 C CNN
	1    3950 2700
	1    0    0    -1  
$EndComp
$Comp
L PCB-TEMP-rescue:MBRS340-MBRS340-Battery_charging-rescue-PCB-TEMP-rescue-PCB-TEMP-rescue-PCB-TEMP-rescue-PCB-TEMP-rescue-PCB-TEMP-rescue-PCB-TEMP-rescue-PCB-TEMP-rescue D2
U 1 1 5F0B54D5
P 2900 2200
F 0 "D2" H 2900 2417 50  0000 C CNN
F 1 "MBRS340" H 2900 2326 50  0000 C CNN
F 2 "battery_charging:DIOM7959X261N" H 2900 2200 50  0001 L BNN
F 3 "IPC-7351B" H 2900 2200 50  0001 L BNN
F 4 "14" H 2900 2200 50  0001 L BNN "Field4"
F 5 "ON Semiconductor" H 2900 2200 50  0001 L BNN "Field5"
F 6 "2.61mm" H 2900 2200 50  0001 L BNN "Field6"
	1    2900 2200
	1    0    0    -1  
$EndComp
$Comp
L PCB-TEMP-rescue:1N4148-1N4148-Battery_charging-rescue-PCB-TEMP-rescue-PCB-TEMP-rescue-PCB-TEMP-rescue-PCB-TEMP-rescue-PCB-TEMP-rescue-PCB-TEMP-rescue-PCB-TEMP-rescue D1
U 1 1 5F0BA2B1
P 1200 2500
AR Path="/5F0BA2B1" Ref="D1"  Part="1" 
AR Path="/5F6919C1/5F0BA2B1" Ref="D1"  Part="1" 
F 0 "D1" H 1200 2717 50  0000 C CNN
F 1 "1N4148" H 1200 2626 50  0000 C CNN
F 2 "battery_charging:DIOAD829W49L456D191" H 1200 2500 50  0001 L BNN
F 3 "Diode Small Signal Switching 100V 0.3A 2-Pin DO-35" H 1200 2500 50  0001 L BNN
F 4 "1N4148" H 1200 2500 50  0001 L BNN "Field4"
F 5 "None" H 1200 2500 50  0001 L BNN "Field5"
F 6 "Unavailable" H 1200 2500 50  0001 L BNN "Field6"
F 7 "IPC-7251" H 1200 2500 50  0001 L BNN "Field7"
F 8 "MICROSS/On Semiconductor" H 1200 2500 50  0001 L BNN "Field8"
F 9 "DO-35 Vishay" H 1200 2500 50  0001 L BNN "Field9"
	1    1200 2500
	1    0    0    -1  
$EndComp
Wire Wire Line
	1000 2500 950  2500
Text HLabel 5500 6000 2    50   Output ~ 0
BATT_1
Text HLabel 5650 5000 2    50   Output ~ 0
BATT_2
Text HLabel 9750 3850 2    50   Output ~ 0
System_load
Text HLabel 900  2500 0    50   Input ~ 0
DCIN
Wire Wire Line
	3850 3800 3850 4050
Wire Wire Line
	9200 5150 9400 5150
Wire Wire Line
	9200 5500 9400 5500
Wire Wire Line
	9200 5850 9400 5850
Wire Wire Line
	9700 5150 9750 5150
Wire Wire Line
	9700 5500 9750 5500
Wire Wire Line
	9700 5850 9750 5850
Wire Wire Line
	8900 5850 8750 5850
Wire Wire Line
	8750 5850 8750 5500
Wire Wire Line
	8750 5150 8900 5150
Wire Wire Line
	8900 5500 8750 5500
Connection ~ 8750 5500
Wire Wire Line
	8750 5500 8750 5150
Wire Wire Line
	8750 5150 8650 5150
Connection ~ 8750 5150
Text Label 9750 5150 0    50   ~ 0
FASTCHG
Text Label 9750 5500 0    50   ~ 0
FULLCHG
Text Label 9750 5850 0    50   ~ 0
FAULT
Text Label 8650 5150 2    50   ~ 0
THREE_R
Text Label 1500 2700 0    50   ~ 0
THREE_R
Text Label 2200 6650 2    50   ~ 0
FASTCHG
Text Label 2200 6800 2    50   ~ 0
FULLCHG
Text Label 2200 6950 2    50   ~ 0
FAULT
$Comp
L Device:C_Small 0.1uF2
U 1 1 60379ADB
P 1700 3000
F 0 "0.1uF2" H 1500 3050 50  0000 L CNN
F 1 "C_Small" H 1550 2950 50  0000 L CNN
F 2 "Capacitor_SMD:C_0805_2012Metric_Pad1.18x1.45mm_HandSolder" H 1700 3000 50  0001 C CNN
F 3 "~" H 1700 3000 50  0001 C CNN
	1    1700 3000
	1    0    0    -1  
$EndComp
$Comp
L Device:C_Small 0.1uF1
U 1 1 6037A84D
P 1050 5050
F 0 "0.1uF1" V 950 5050 50  0000 C CNN
F 1 "C_Small" V 1150 5050 50  0000 C CNN
F 2 "Capacitor_SMD:C_0805_2012Metric_Pad1.18x1.45mm_HandSolder" H 1050 5050 50  0001 C CNN
F 3 "~" H 1050 5050 50  0001 C CNN
	1    1050 5050
	0    1    1    0   
$EndComp
$Comp
L Device:C_Small 4.7uF1
U 1 1 6037AADB
P 1000 3000
F 0 "4.7uF1" H 1092 3046 50  0000 L CNN
F 1 "C_Small" H 1092 2955 50  0000 L CNN
F 2 "Capacitor_SMD:C_0805_2012Metric_Pad1.18x1.45mm_HandSolder" H 1000 3000 50  0001 C CNN
F 3 "~" H 1000 3000 50  0001 C CNN
	1    1000 3000
	1    0    0    -1  
$EndComp
$Comp
L Device:C_Small 1uF4
U 1 1 6037AD18
P 1850 6350
F 0 "1uF4" V 1750 6350 50  0000 C CNN
F 1 "C_Small" V 1950 6350 50  0000 C CNN
F 2 "Capacitor_SMD:C_0805_2012Metric_Pad1.18x1.45mm_HandSolder" H 1850 6350 50  0001 C CNN
F 3 "~" H 1850 6350 50  0001 C CNN
	1    1850 6350
	0    1    1    0   
$EndComp
$Comp
L Device:C_Small 47uF2
U 1 1 6037AE8E
P 1850 5700
F 0 "47uF2" V 1750 5700 50  0000 C CNN
F 1 "C_Small" V 1950 5700 50  0000 C CNN
F 2 "Capacitor_SMD:C_0805_2012Metric_Pad1.18x1.45mm_HandSolder" H 1850 5700 50  0001 C CNN
F 3 "~" H 1850 5700 50  0001 C CNN
	1    1850 5700
	0    1    1    0   
$EndComp
$Comp
L Device:C_Small 0.1uF3
U 1 1 6037B058
P 2000 2600
F 0 "0.1uF3" H 2092 2646 50  0000 L CNN
F 1 "C_Small" H 2092 2555 50  0000 L CNN
F 2 "Capacitor_SMD:C_0805_2012Metric_Pad1.18x1.45mm_HandSolder" H 2000 2600 50  0001 C CNN
F 3 "~" H 2000 2600 50  0001 C CNN
	1    2000 2600
	1    0    0    -1  
$EndComp
$Comp
L Device:C_Small 0.1uF7
U 1 1 6037B209
P 3950 2600
F 0 "0.1uF7" H 4042 2646 50  0000 L CNN
F 1 "C_Small" H 4042 2555 50  0000 L CNN
F 2 "Capacitor_SMD:C_0805_2012Metric_Pad1.18x1.45mm_HandSolder" H 3950 2600 50  0001 C CNN
F 3 "~" H 3950 2600 50  0001 C CNN
	1    3950 2600
	1    0    0    -1  
$EndComp
$Comp
L Device:C_Small 0.1uF8
U 1 1 6037B34A
P 3950 3000
F 0 "0.1uF8" H 4042 3046 50  0000 L CNN
F 1 "C_Small" H 4042 2955 50  0000 L CNN
F 2 "Capacitor_SMD:C_0805_2012Metric_Pad1.18x1.45mm_HandSolder" H 3950 3000 50  0001 C CNN
F 3 "~" H 3950 3000 50  0001 C CNN
	1    3950 3000
	1    0    0    -1  
$EndComp
$Comp
L Device:C_Small 1uF2
U 1 1 6037B526
P 1400 5250
F 0 "1uF2" V 1300 5250 50  0000 C CNN
F 1 "C_Small" V 1500 5250 50  0000 C CNN
F 2 "Capacitor_SMD:C_0805_2012Metric_Pad1.18x1.45mm_HandSolder" H 1400 5250 50  0001 C CNN
F 3 "~" H 1400 5250 50  0001 C CNN
	1    1400 5250
	0    1    1    0   
$EndComp
$Comp
L Device:C_Small 47uF1
U 1 1 6037B702
P 1850 5400
F 0 "47uF1" V 1750 5400 50  0000 C CNN
F 1 "C_Small" V 1950 5400 50  0000 C CNN
F 2 "Capacitor_SMD:C_0805_2012Metric_Pad1.18x1.45mm_HandSolder" H 1850 5400 50  0001 C CNN
F 3 "~" H 1850 5400 50  0001 C CNN
	1    1850 5400
	0    1    1    0   
$EndComp
$Comp
L Device:C_Small 1uF3
U 1 1 6037B92D
P 1850 6050
F 0 "1uF3" V 1750 6050 50  0000 C CNN
F 1 "C_Small" V 1950 6050 50  0000 C CNN
F 2 "Capacitor_SMD:C_0805_2012Metric_Pad1.18x1.45mm_HandSolder" H 1850 6050 50  0001 C CNN
F 3 "~" H 1850 6050 50  0001 C CNN
	1    1850 6050
	0    1    1    0   
$EndComp
Wire Wire Line
	1000 2900 1700 2900
Wire Wire Line
	3700 2500 3950 2500
Wire Wire Line
	3700 2900 3950 2900
Connection ~ 1700 2900
Wire Wire Line
	1700 2900 1900 2900
Connection ~ 3950 2500
Wire Wire Line
	3950 2500 4750 2500
Wire Wire Line
	2000 2500 2200 2500
Connection ~ 3950 2900
Wire Wire Line
	3950 2900 4750 2900
$Comp
L Device:D_Small 1N4148
U 1 1 603A19FA
P 3750 3600
F 0 "1N4148" V 3796 3530 50  0000 R CNN
F 1 "1N4148" V 3705 3530 50  0000 R CNN
F 2 "battery_charging:DIOAD829W49L456D191" V 3750 3600 50  0001 C CNN
F 3 "~" V 3750 3600 50  0001 C CNN
	1    3750 3600
	0    -1   -1   0   
$EndComp
Wire Wire Line
	3650 3450 3750 3450
Wire Wire Line
	3750 3450 3750 3500
Wire Wire Line
	3750 3700 3750 3800
Connection ~ 3750 3800
Wire Wire Line
	3750 3800 3850 3800
$Comp
L Device:C_Small 0.1uF9
U 1 1 603BEECF
P 4200 3550
F 0 "0.1uF9" H 4292 3596 50  0000 L CNN
F 1 "C_Small" H 4292 3505 50  0000 L CNN
F 2 "Capacitor_SMD:C_0805_2012Metric_Pad1.18x1.45mm_HandSolder" H 4200 3550 50  0001 C CNN
F 3 "~" H 4200 3550 50  0001 C CNN
	1    4200 3550
	1    0    0    -1  
$EndComp
Wire Wire Line
	3750 3450 4200 3450
Connection ~ 3750 3450
Wire Wire Line
	1150 5050 1500 5050
Wire Wire Line
	850  5050 950  5050
Text Label 8400 3850 0    50   ~ 0
D1
Text Label 4750 3000 2    50   ~ 0
D1
Connection ~ 4750 2900
Wire Wire Line
	4750 2900 4750 3000
Text Label 4450 4100 2    50   ~ 0
D1
Text Label 4450 4300 2    50   ~ 0
D2
Text Label 4200 5000 2    50   ~ 0
D2
Wire Wire Line
	3900 5200 4050 5200
Connection ~ 3900 5200
Wire Wire Line
	4750 5000 4750 5100
Connection ~ 4750 5000
Wire Wire Line
	5050 5000 5250 5000
Text Label 3700 4600 0    50   ~ 0
DLO
Text Label 4950 4200 0    50   ~ 0
DLO
Text Label 4950 4400 0    50   ~ 0
DHI
Text Label 4950 4300 0    50   ~ 0
S1
Wire Wire Line
	3700 4300 3850 4300
Connection ~ 3850 4300
Wire Wire Line
	3850 4300 4000 4300
Wire Wire Line
	4000 4300 4000 4400
Wire Wire Line
	4000 4400 4450 4400
Connection ~ 4000 4300
Wire Wire Line
	4000 4300 4200 4300
Text Label 4200 4300 0    50   ~ 0
S1
Wire Wire Line
	3700 4900 3900 4900
Wire Wire Line
	4950 4100 5150 4100
$Comp
L PCB-TEMP-rescue:GND-power-PCB-TEMP-rescue-PCB-TEMP-rescue-PCB-TEMP-rescue #PWR0104
U 1 1 60385949
P 3900 4900
F 0 "#PWR0104" H 3900 4650 50  0001 C CNN
F 1 "GND" H 3905 4727 50  0000 C CNN
F 2 "" H 3900 4900 50  0001 C CNN
F 3 "" H 3900 4900 50  0001 C CNN
	1    3900 4900
	1    0    0    -1  
$EndComp
$Comp
L PCB-TEMP-rescue:GND-power-PCB-TEMP-rescue-PCB-TEMP-rescue-PCB-TEMP-rescue #PWR0105
U 1 1 60385F6D
P 5150 4100
F 0 "#PWR0105" H 5150 3850 50  0001 C CNN
F 1 "GND" H 5155 3927 50  0000 C CNN
F 2 "" H 5150 4100 50  0001 C CNN
F 3 "" H 5150 4100 50  0001 C CNN
	1    5150 4100
	1    0    0    -1  
$EndComp
Text Label 3700 4000 0    50   ~ 0
DHI
Wire Wire Line
	3700 6000 4700 6000
$Comp
L PCB-TEMP-rescue:GND-power-PCB-TEMP-rescue-PCB-TEMP-rescue-PCB-TEMP-rescue #PWR0133
U 1 1 60390C42
P 5450 6000
F 0 "#PWR0133" H 5450 5750 50  0001 C CNN
F 1 "GND" H 5455 5827 50  0000 C CNN
F 2 "" H 5450 6000 50  0001 C CNN
F 3 "" H 5450 6000 50  0001 C CNN
	1    5450 6000
	1    0    0    -1  
$EndComp
Wire Wire Line
	5100 6000 5450 6000
Text Label 4050 5200 0    50   ~ 0
CS
Text Label 4750 5100 2    50   ~ 0
CS
Wire Wire Line
	5550 5000 5650 5000
Connection ~ 5550 5000
Wire Wire Line
	3900 5600 5250 5600
Wire Wire Line
	5250 5600 5250 5000
Connection ~ 3900 5600
Connection ~ 5250 5000
Wire Wire Line
	5250 5000 5550 5000
Wire Wire Line
	5450 6000 5500 6000
Connection ~ 5450 6000
Wire Wire Line
	1500 2500 2000 2500
Connection ~ 1500 2500
Connection ~ 2000 2500
Wire Wire Line
	9250 1050 9250 1350
Connection ~ 9250 1350
Wire Wire Line
	9250 1350 9250 1950
Wire Wire Line
	9550 1350 9650 1350
Wire Wire Line
	9650 1400 9650 1350
Connection ~ 9650 1350
Wire Wire Line
	9650 1350 9750 1350
Wire Wire Line
	9550 1950 9650 1950
Wire Wire Line
	9650 2000 9650 1950
Connection ~ 9650 1950
Wire Wire Line
	9650 1950 9750 1950
Wire Wire Line
	8600 1050 8950 1050
Wire Wire Line
	8950 2450 9750 2450
Connection ~ 8950 2450
Wire Wire Line
	8950 2450 8950 2500
Wire Wire Line
	8950 1600 8950 2450
Wire Wire Line
	8950 1300 8950 1050
Connection ~ 8950 1050
Wire Wire Line
	8950 1050 9250 1050
Text Label 9750 1050 0    50   ~ 0
REF
Text Label 9750 1350 0    50   ~ 0
ISETIN
Text Label 9750 1950 0    50   ~ 0
ISETOUT
Text Label 9750 2450 0    50   ~ 0
VADJ
Text Label 9750 2650 0    50   ~ 0
CELL
Text Label 9750 2800 0    50   ~ 0
GND
Text Label 2200 4600 2    50   ~ 0
GND
Text Label 2200 4450 2    50   ~ 0
CELL
Text Label 2200 4200 2    50   ~ 0
VADJ
Text Label 2200 4000 2    50   ~ 0
ISETOUT
Text Label 2200 3800 2    50   ~ 0
ISETIN
Text Label 2200 3600 2    50   ~ 0
REF
Wire Wire Line
	950  2500 950  2200
Wire Wire Line
	950  2200 2700 2200
Connection ~ 950  2500
Wire Wire Line
	950  2500 900  2500
Wire Wire Line
	3100 2200 4750 2200
Wire Wire Line
	4750 2200 4750 2500
Connection ~ 4750 2500
$EndSCHEMATC
