(export (version D)
  (design
    (source "C:\\Users\\Bailey\\Documents\\cubesat-powersystem\\POW-03-Battery\\POW-03-Battery\\Completed battery management\\PCB TEMP.sch")
    (date "24/01/2021 11:24:52 PM")
    (tool "Eeschema (5.1.9)-1")
    (sheet (number 1) (name /) (tstamps /)
      (title_block
        (title)
        (company)
        (rev)
        (date)
        (source "PCB TEMP.sch")
        (comment (number 1) (value ""))
        (comment (number 2) (value ""))
        (comment (number 3) (value ""))
        (comment (number 4) (value ""))))
    (sheet (number 2) (name /Battery_monitoring/) (tstamps /5F689933/)
      (title_block
        (title)
        (company)
        (rev)
        (date)
        (source "Battery_monitoring 3.sch")
        (comment (number 1) (value ""))
        (comment (number 2) (value ""))
        (comment (number 3) (value ""))
        (comment (number 4) (value ""))))
    (sheet (number 3) (name /Battery_charging/) (tstamps /5F6919C1/)
      (title_block
        (title)
        (company)
        (rev)
        (date)
        (source Battery_charging.sch)
        (comment (number 1) (value ""))
        (comment (number 2) (value ""))
        (comment (number 3) (value ""))
        (comment (number 4) (value ""))))
    (sheet (number 4) (name /3v3_5v5/) (tstamps /5F840520/)
      (title_block
        (title)
        (company)
        (rev)
        (date)
        (source voltage_regulator.sch)
        (comment (number 1) (value ""))
        (comment (number 2) (value ""))
        (comment (number 3) (value ""))
        (comment (number 4) (value "")))))
  (components
    (comp (ref MH1)
      (value MountingHole)
      (footprint MountingHole:MountingHole_3mm)
      (datasheet ~)
      (libsource (lib "") (part Mechanical_MountingHole-PCB-TEMP-rescue-PCB-TEMP-rescue-PCB-TEMP-rescue-PCB-TEMP-rescue) (description ""))
      (sheetpath (names /) (tstamps /))
      (tstamp 5C70847C))
    (comp (ref MH3)
      (value MountingHole)
      (footprint MountingHole:MountingHole_3mm)
      (datasheet ~)
      (libsource (lib "") (part Mechanical_MountingHole-PCB-TEMP-rescue-PCB-TEMP-rescue-PCB-TEMP-rescue-PCB-TEMP-rescue) (description ""))
      (sheetpath (names /) (tstamps /))
      (tstamp 5C70850E))
    (comp (ref MH4)
      (value MountingHole)
      (footprint MountingHole:MountingHole_3mm)
      (datasheet ~)
      (libsource (lib "") (part Mechanical_MountingHole-PCB-TEMP-rescue-PCB-TEMP-rescue-PCB-TEMP-rescue-PCB-TEMP-rescue) (description ""))
      (sheetpath (names /) (tstamps /))
      (tstamp 5C70857C))
    (comp (ref MH2)
      (value MountingHole)
      (footprint MountingHole:MountingHole_3mm)
      (datasheet ~)
      (libsource (lib "") (part Mechanical_MountingHole-PCB-TEMP-rescue-PCB-TEMP-rescue-PCB-TEMP-rescue-PCB-TEMP-rescue) (description ""))
      (sheetpath (names /) (tstamps /))
      (tstamp 5C7085DC))
    (comp (ref U1)
      (value PCbus)
      (footprint "PC BUS:BUS PC104")
      (libsource (lib "") (part SOLAR_PCbus-PCB-TEMP-rescue-PCB-TEMP-rescue-PCB-TEMP-rescue-PCB-TEMP-rescue) (description ""))
      (sheetpath (names /) (tstamps /))
      (tstamp 5C713480))
    (comp (ref U7)
      (value BATT)
      (footprint Battery_holding:VC1)
      (libsource (lib PCB-TEMP-rescue) (part BATT-Battery_monitor) (description ""))
      (sheetpath (names /) (tstamps /))
      (tstamp 6001F1BD))
    (comp (ref D8)
      (value D_Zener_Small)
      (footprint Diode_THT:D_5W_P12.70mm_Horizontal)
      (datasheet https://en.wikipedia.org/wiki/Zener_diode)
      (libsource (lib PCB-TEMP-rescue) (part D_Zener_Small-device) (description ""))
      (sheetpath (names /Battery_monitoring/) (tstamps /5F689933/))
      (tstamp 5E358EFC))
    (comp (ref D7)
      (value D_Zener_Small)
      (footprint Diode_THT:D_5W_P12.70mm_Horizontal)
      (datasheet https://en.wikipedia.org/wiki/Zener_diode)
      (libsource (lib PCB-TEMP-rescue) (part D_Zener_Small-device) (description ""))
      (sheetpath (names /Battery_monitoring/) (tstamps /5F689933/))
      (tstamp 5E3591E8))
    (comp (ref 500K1)
      (value R_Small)
      (footprint Resistor_SMD:R_0805_2012Metric_Pad1.20x1.40mm_HandSolder)
      (libsource (lib PCB-TEMP-rescue) (part R_Small-device) (description ""))
      (sheetpath (names /Battery_monitoring/) (tstamps /5F689933/))
      (tstamp 5E3596F9))
    (comp (ref 150Ω21111111)
      (value R_Small)
      (footprint Resistor_SMD:R_0805_2012Metric_Pad1.20x1.40mm_HandSolder)
      (libsource (lib PCB-TEMP-rescue) (part R_Small-device) (description ""))
      (sheetpath (names /Battery_monitoring/) (tstamps /5F689933/))
      (tstamp 5E359A97))
    (comp (ref 150Ω11111111)
      (value R_Small)
      (footprint Resistor_SMD:R_0805_2012Metric_Pad1.20x1.40mm_HandSolder)
      (libsource (lib PCB-TEMP-rescue) (part R_Small-device) (description ""))
      (sheetpath (names /Battery_monitoring/) (tstamps /5F689933/))
      (tstamp 5E359C56))
    (comp (ref 10m1)
      (value R_Small)
      (footprint Resistor_SMD:R_0805_2012Metric_Pad1.20x1.40mm_HandSolder)
      (libsource (lib PCB-TEMP-rescue) (part R_Small-device) (description ""))
      (sheetpath (names /Battery_monitoring/) (tstamps /5F689933/))
      (tstamp 5E359E7E))
    (comp (ref 500K2)
      (value R_Small)
      (footprint Resistor_SMD:R_0805_2012Metric_Pad1.20x1.40mm_HandSolder)
      (libsource (lib PCB-TEMP-rescue) (part R_Small-device) (description ""))
      (sheetpath (names /Battery_monitoring/) (tstamps /5F689933/))
      (tstamp 5E35A067))
    (comp (ref 500Ω11111111)
      (value R_Small)
      (footprint Resistor_SMD:R_0805_2012Metric_Pad1.20x1.40mm_HandSolder)
      (libsource (lib PCB-TEMP-rescue) (part R_Small-device) (description ""))
      (sheetpath (names /Battery_monitoring/) (tstamps /5F689933/))
      (tstamp 5E35A2A4))
    (comp (ref 0.1uF10)
      (value C_Small)
      (footprint Capacitor_SMD:C_0805_2012Metric_Pad1.18x1.45mm_HandSolder)
      (libsource (lib PCB-TEMP-rescue) (part C_Small-device) (description ""))
      (sheetpath (names /Battery_monitoring/) (tstamps /5F689933/))
      (tstamp 5E38294E))
    (comp (ref 4.7uF2)
      (value C_Small)
      (footprint Capacitor_SMD:C_0805_2012Metric_Pad1.18x1.45mm_HandSolder)
      (libsource (lib PCB-TEMP-rescue) (part C_Small-device) (description ""))
      (sheetpath (names /Battery_monitoring/) (tstamps /5F689933/))
      (tstamp 5E383108))
    (comp (ref 0.1uF11)
      (value C_Small)
      (footprint Capacitor_SMD:C_0805_2012Metric_Pad1.18x1.45mm_HandSolder)
      (libsource (lib PCB-TEMP-rescue) (part C_Small-device) (description ""))
      (sheetpath (names /Battery_monitoring/) (tstamps /5F689933/))
      (tstamp 5E38331F))
    (comp (ref U3)
      (value DS2782)
      (footprint battery_charging:ds2782e&plus_)
      (libsource (lib PCB-TEMP-rescue) (part DS2782-Battery_monitor) (description ""))
      (sheetpath (names /Battery_monitoring/) (tstamps /5F689933/))
      (tstamp 5F687689))
    (comp (ref U4)
      (value MAX1616)
      (footprint battery_charging:MAX1616EUK&plus_)
      (libsource (lib PCB-TEMP-rescue) (part MAX1616-Battery_monitor) (description ""))
      (sheetpath (names /Battery_monitoring/) (tstamps /5F689933/))
      (tstamp 5F9D3976))
    (comp (ref MAX1)
      (value MAX1737)
      (footprint battery_charging:SOP63P602X175-28N)
      (libsource (lib "") (part MAX1737-Battery_charger-Battery_charging-rescue-Battery_charging-rescue-PCB-TEMP-rescue-PCB-TEMP-rescue-PCB-TEMP-rescue) (description ""))
      (sheetpath (names /Battery_charging/) (tstamps /5F6919C1/))
      (tstamp 5EEE2968))
    (comp (ref 6.2µH1)
      (value INDUCTOR)
      (footprint battery_charging:SRU10386R2Y)
      (libsource (lib PCB-TEMP-rescue) (part INDUCTOR-pspice) (description ""))
      (sheetpath (names /Battery_charging/) (tstamps /5F6919C1/))
      (tstamp 5EFB3271))
    (comp (ref U2)
      (value AS_1)
      (footprint battery_charging:SO-8)
      (libsource (lib "") (part AS_1-FDS6990AS_1-Battery_charging-rescue-PCB-TEMP-rescue-PCB-TEMP-rescue-PCB-TEMP-rescue) (description ""))
      (sheetpath (names /Battery_charging/) (tstamps /5F6919C1/))
      (tstamp 5F01A28B))
    (comp (ref 4.7uF1)
      (value C)
      (footprint Capacitor_SMD:C_0805_2012Metric_Pad1.18x1.45mm_HandSolder)
      (datasheet ~)
      (libsource (lib "") (part C-Device-Battery_charging-rescue-PCB-TEMP-rescue-PCB-TEMP-rescue-PCB-TEMP-rescue) (description ""))
      (sheetpath (names /Battery_charging/) (tstamps /5F6919C1/))
      (tstamp 5F05831A))
    (comp (ref 0.1uF3)
      (value C)
      (footprint Capacitor_SMD:C_0805_2012Metric_Pad1.18x1.45mm_HandSolder)
      (datasheet ~)
      (libsource (lib "") (part C-Device-Battery_charging-rescue-PCB-TEMP-rescue-PCB-TEMP-rescue-PCB-TEMP-rescue) (description ""))
      (sheetpath (names /Battery_charging/) (tstamps /5F6919C1/))
      (tstamp 5F05861D))
    (comp (ref 0.1uF2)
      (value C)
      (footprint Capacitor_SMD:C_0805_2012Metric_Pad1.18x1.45mm_HandSolder)
      (datasheet ~)
      (libsource (lib "") (part C-Device-Battery_charging-rescue-PCB-TEMP-rescue-PCB-TEMP-rescue-PCB-TEMP-rescue) (description ""))
      (sheetpath (names /Battery_charging/) (tstamps /5F6919C1/))
      (tstamp 5F0588F4))
    (comp (ref 1uF1)
      (value C)
      (footprint Capacitor_SMD:C_0805_2012Metric_Pad1.18x1.45mm_HandSolder)
      (datasheet ~)
      (libsource (lib "") (part C-Device-Battery_charging-rescue-PCB-TEMP-rescue-PCB-TEMP-rescue-PCB-TEMP-rescue) (description ""))
      (sheetpath (names /Battery_charging/) (tstamps /5F6919C1/))
      (tstamp 5F059699))
    (comp (ref 10k1)
      (value R)
      (footprint Resistor_SMD:R_0805_2012Metric_Pad1.20x1.40mm_HandSolder)
      (datasheet ~)
      (libsource (lib "") (part R-Device-Battery_charging-rescue-PCB-TEMP-rescue-PCB-TEMP-rescue-PCB-TEMP-rescue) (description ""))
      (sheetpath (names /Battery_charging/) (tstamps /5F6919C1/))
      (tstamp 5F05995D))
    (comp (ref 10k2)
      (value R)
      (footprint Resistor_SMD:R_0805_2012Metric_Pad1.20x1.40mm_HandSolder)
      (datasheet ~)
      (libsource (lib "") (part R-Device-Battery_charging-rescue-PCB-TEMP-rescue-PCB-TEMP-rescue-PCB-TEMP-rescue) (description ""))
      (sheetpath (names /Battery_charging/) (tstamps /5F6919C1/))
      (tstamp 5F059A84))
    (comp (ref 10k3)
      (value R)
      (footprint Resistor_SMD:R_0805_2012Metric_Pad1.20x1.40mm_HandSolder)
      (datasheet ~)
      (libsource (lib "") (part R-Device-Battery_charging-rescue-PCB-TEMP-rescue-PCB-TEMP-rescue-PCB-TEMP-rescue) (description ""))
      (sheetpath (names /Battery_charging/) (tstamps /5F6919C1/))
      (tstamp 5F05BC96))
    (comp (ref 0.1uF1)
      (value C)
      (footprint Capacitor_SMD:C_0805_2012Metric_Pad1.18x1.45mm_HandSolder)
      (datasheet ~)
      (libsource (lib "") (part C-Device-Battery_charging-rescue-PCB-TEMP-rescue-PCB-TEMP-rescue-PCB-TEMP-rescue) (description ""))
      (sheetpath (names /Battery_charging/) (tstamps /5F6919C1/))
      (tstamp 5F05C6F1))
    (comp (ref 1uF2)
      (value C)
      (footprint Capacitor_SMD:C_0805_2012Metric_Pad1.18x1.45mm_HandSolder)
      (datasheet ~)
      (libsource (lib "") (part C-Device-Battery_charging-rescue-PCB-TEMP-rescue-PCB-TEMP-rescue-PCB-TEMP-rescue) (description ""))
      (sheetpath (names /Battery_charging/) (tstamps /5F6919C1/))
      (tstamp 5F060B6E))
    (comp (ref 47uF1)
      (value C)
      (footprint Capacitor_SMD:C_0805_2012Metric_Pad1.18x1.45mm_HandSolder)
      (datasheet ~)
      (libsource (lib "") (part C-Device-Battery_charging-rescue-PCB-TEMP-rescue-PCB-TEMP-rescue-PCB-TEMP-rescue) (description ""))
      (sheetpath (names /Battery_charging/) (tstamps /5F6919C1/))
      (tstamp 5F064D18))
    (comp (ref 47uF2)
      (value C)
      (footprint Capacitor_SMD:C_0805_2012Metric_Pad1.18x1.45mm_HandSolder)
      (datasheet ~)
      (libsource (lib "") (part C-Device-Battery_charging-rescue-PCB-TEMP-rescue-PCB-TEMP-rescue-PCB-TEMP-rescue) (description ""))
      (sheetpath (names /Battery_charging/) (tstamps /5F6919C1/))
      (tstamp 5F064E6D))
    (comp (ref 1uF3)
      (value C)
      (footprint Capacitor_SMD:C_0805_2012Metric_Pad1.18x1.45mm_HandSolder)
      (datasheet ~)
      (libsource (lib "") (part C-Device-Battery_charging-rescue-PCB-TEMP-rescue-PCB-TEMP-rescue-PCB-TEMP-rescue) (description ""))
      (sheetpath (names /Battery_charging/) (tstamps /5F6919C1/))
      (tstamp 5F06C7EE))
    (comp (ref 1uF4)
      (value C)
      (footprint Capacitor_SMD:C_0805_2012Metric_Pad1.18x1.45mm_HandSolder)
      (datasheet ~)
      (libsource (lib "") (part C-Device-Battery_charging-rescue-PCB-TEMP-rescue-PCB-TEMP-rescue-PCB-TEMP-rescue) (description ""))
      (sheetpath (names /Battery_charging/) (tstamps /5F6919C1/))
      (tstamp 5F06C864))
    (comp (ref 1k1)
      (value R)
      (footprint Resistor_SMD:R_0805_2012Metric_Pad1.20x1.40mm_HandSolder)
      (datasheet ~)
      (libsource (lib "") (part R-Device-Battery_charging-rescue-PCB-TEMP-rescue-PCB-TEMP-rescue-PCB-TEMP-rescue) (description ""))
      (sheetpath (names /Battery_charging/) (tstamps /5F6919C1/))
      (tstamp 5F074214))
    (comp (ref 1k2)
      (value R)
      (footprint Resistor_SMD:R_0805_2012Metric_Pad1.20x1.40mm_HandSolder)
      (datasheet ~)
      (libsource (lib "") (part R-Device-Battery_charging-rescue-PCB-TEMP-rescue-PCB-TEMP-rescue-PCB-TEMP-rescue) (description ""))
      (sheetpath (names /Battery_charging/) (tstamps /5F6919C1/))
      (tstamp 5F074296))
    (comp (ref 1k3)
      (value R)
      (footprint Resistor_SMD:R_0805_2012Metric_Pad1.20x1.40mm_HandSolder)
      (datasheet ~)
      (libsource (lib "") (part R-Device-Battery_charging-rescue-PCB-TEMP-rescue-PCB-TEMP-rescue-PCB-TEMP-rescue) (description ""))
      (sheetpath (names /Battery_charging/) (tstamps /5F6919C1/))
      (tstamp 5F0742F6))
    (comp (ref D3)
      (value LED)
      (footprint Diode_SMD:D_0805_2012Metric)
      (datasheet ~)
      (libsource (lib "") (part LED-Device-Battery_charging-rescue-PCB-TEMP-rescue-PCB-TEMP-rescue-PCB-TEMP-rescue) (description ""))
      (sheetpath (names /Battery_charging/) (tstamps /5F6919C1/))
      (tstamp 5F074B5A))
    (comp (ref D4)
      (value LED)
      (footprint Diode_SMD:D_0805_2012Metric)
      (datasheet ~)
      (libsource (lib "") (part LED-Device-Battery_charging-rescue-PCB-TEMP-rescue-PCB-TEMP-rescue-PCB-TEMP-rescue) (description ""))
      (sheetpath (names /Battery_charging/) (tstamps /5F6919C1/))
      (tstamp 5F074C36))
    (comp (ref D5)
      (value LED)
      (footprint Diode_SMD:D_0805_2012Metric)
      (datasheet ~)
      (libsource (lib "") (part LED-Device-Battery_charging-rescue-PCB-TEMP-rescue-PCB-TEMP-rescue-PCB-TEMP-rescue) (description ""))
      (sheetpath (names /Battery_charging/) (tstamps /5F6919C1/))
      (tstamp 5F074C92))
    (comp (ref 0.1uF7)
      (value C)
      (footprint Capacitor_SMD:C_0805_2012Metric_Pad1.18x1.45mm_HandSolder)
      (datasheet ~)
      (libsource (lib "") (part C-Device-Battery_charging-rescue-PCB-TEMP-rescue-PCB-TEMP-rescue-PCB-TEMP-rescue) (description ""))
      (sheetpath (names /Battery_charging/) (tstamps /5F6919C1/))
      (tstamp 5F076DC1))
    (comp (ref 0.1uF8)
      (value C)
      (footprint Capacitor_SMD:C_0805_2012Metric_Pad1.18x1.45mm_HandSolder)
      (datasheet ~)
      (libsource (lib "") (part C-Device-Battery_charging-rescue-PCB-TEMP-rescue-PCB-TEMP-rescue-PCB-TEMP-rescue) (description ""))
      (sheetpath (names /Battery_charging/) (tstamps /5F6919C1/))
      (tstamp 5F076E4D))
    (comp (ref 0.1)
      (value R)
      (footprint Resistor_SMD:R_0805_2012Metric_Pad1.20x1.40mm_HandSolder)
      (datasheet ~)
      (libsource (lib "") (part R-Device-Battery_charging-rescue-PCB-TEMP-rescue-PCB-TEMP-rescue-PCB-TEMP-rescue) (description ""))
      (sheetpath (names /Battery_charging/) (tstamps /5F6919C1/))
      (tstamp 5F076FD7))
    (comp (ref CP1)
      (value 47uF)
      (footprint battery_charging:UUA1A470MCL1GS)
      (datasheet ~)
      (libsource (lib "") (part CP1-Device-Battery_charging-rescue-PCB-TEMP-rescue-PCB-TEMP-rescue-PCB-TEMP-rescue) (description ""))
      (sheetpath (names /Battery_charging/) (tstamps /5F6919C1/))
      (tstamp 5F077332))
    (comp (ref CP2)
      (value 47uF)
      (footprint battery_charging:UUA1A470MCL1GS)
      (datasheet ~)
      (libsource (lib "") (part CP1-Device-Battery_charging-rescue-PCB-TEMP-rescue-PCB-TEMP-rescue-PCB-TEMP-rescue) (description ""))
      (sheetpath (names /Battery_charging/) (tstamps /5F6919C1/))
      (tstamp 5F0773E8))
    (comp (ref 0.1uF9)
      (value C)
      (footprint Capacitor_SMD:C_0805_2012Metric_Pad1.18x1.45mm_HandSolder)
      (datasheet ~)
      (libsource (lib "") (part C-Device-Battery_charging-rescue-PCB-TEMP-rescue-PCB-TEMP-rescue-PCB-TEMP-rescue) (description ""))
      (sheetpath (names /Battery_charging/) (tstamps /5F6919C1/))
      (tstamp 5F077682))
    (comp (ref 0.1uF4)
      (value C_Small)
      (footprint Capacitor_SMD:C_0805_2012Metric_Pad1.18x1.45mm_HandSolder)
      (datasheet ~)
      (libsource (lib "") (part C_Small-Device-Battery_charging-rescue-PCB-TEMP-rescue-PCB-TEMP-rescue-PCB-TEMP-rescue) (description ""))
      (sheetpath (names /Battery_charging/) (tstamps /5F6919C1/))
      (tstamp 5F07BCC4))
    (comp (ref 0.2)
      (value R)
      (footprint Resistor_SMD:R_0805_2012Metric_Pad1.20x1.40mm_HandSolder)
      (datasheet ~)
      (libsource (lib "") (part R-Device-Battery_charging-rescue-PCB-TEMP-rescue-PCB-TEMP-rescue-PCB-TEMP-rescue) (description ""))
      (sheetpath (names /Battery_charging/) (tstamps /5F6919C1/))
      (tstamp 5F07C3D1))
    (comp (ref CP3)
      (value 100uF)
      (footprint battery_charging:UUD1A101MCL1GS)
      (datasheet ~)
      (libsource (lib "") (part CP1-Device-Battery_charging-rescue-PCB-TEMP-rescue-PCB-TEMP-rescue-PCB-TEMP-rescue) (description ""))
      (sheetpath (names /Battery_charging/) (tstamps /5F6919C1/))
      (tstamp 5F07D2C5))
    (comp (ref 0.1uF5)
      (value C_Small)
      (footprint Capacitor_SMD:C_0805_2012Metric_Pad1.18x1.45mm_HandSolder)
      (datasheet ~)
      (libsource (lib "") (part C_Small-Device-Battery_charging-rescue-PCB-TEMP-rescue-PCB-TEMP-rescue-PCB-TEMP-rescue) (description ""))
      (sheetpath (names /Battery_charging/) (tstamps /5F6919C1/))
      (tstamp 5F07D499))
    (comp (ref 0.1uF6)
      (value C_Small)
      (footprint Capacitor_SMD:C_0805_2012Metric_Pad1.18x1.45mm_HandSolder)
      (datasheet ~)
      (libsource (lib "") (part C_Small-Device-Battery_charging-rescue-PCB-TEMP-rescue-PCB-TEMP-rescue-PCB-TEMP-rescue) (description ""))
      (sheetpath (names /Battery_charging/) (tstamps /5F6919C1/))
      (tstamp 5F07D50B))
    (comp (ref TH1)
      (value Thermistor)
      (footprint Resistor_SMD:R_0805_2012Metric_Pad1.20x1.40mm_HandSolder)
      (datasheet ~)
      (libsource (lib "") (part Thermistor-Device-Battery_charging-rescue-PCB-TEMP-rescue-PCB-TEMP-rescue-PCB-TEMP-rescue) (description ""))
      (sheetpath (names /Battery_charging/) (tstamps /5F6919C1/))
      (tstamp 5F07D9B7))
    (comp (ref R1)
      (value 10k)
      (footprint Resistor_SMD:R_0805_2012Metric_Pad1.20x1.40mm_HandSolder)
      (datasheet ~)
      (libsource (lib "") (part R-Device-Battery_charging-rescue-PCB-TEMP-rescue-PCB-TEMP-rescue-PCB-TEMP-rescue) (description ""))
      (sheetpath (names /Battery_charging/) (tstamps /5F6919C1/))
      (tstamp 5F097EF0))
    (comp (ref 10k4)
      (value R)
      (footprint Resistor_SMD:R_0805_2012Metric_Pad1.20x1.40mm_HandSolder)
      (datasheet ~)
      (libsource (lib "") (part R-Device-Battery_charging-rescue-PCB-TEMP-rescue-PCB-TEMP-rescue-PCB-TEMP-rescue) (description ""))
      (sheetpath (names /Battery_charging/) (tstamps /5F6919C1/))
      (tstamp 5F097FC0))
    (comp (ref 10k5)
      (value R_Small)
      (footprint Resistor_SMD:R_0805_2012Metric_Pad1.20x1.40mm_HandSolder)
      (datasheet ~)
      (libsource (lib "") (part R_Small-Device-Battery_charging-rescue-PCB-TEMP-rescue-PCB-TEMP-rescue-PCB-TEMP-rescue) (description ""))
      (sheetpath (names /Battery_charging/) (tstamps /5F6919C1/))
      (tstamp 5F0A6E8A))
    (comp (ref 10k6)
      (value R_Small)
      (footprint Resistor_SMD:R_0805_2012Metric_Pad1.20x1.40mm_HandSolder)
      (datasheet ~)
      (libsource (lib "") (part R_Small-Device-Battery_charging-rescue-PCB-TEMP-rescue-PCB-TEMP-rescue-PCB-TEMP-rescue) (description ""))
      (sheetpath (names /Battery_charging/) (tstamps /5F6919C1/))
      (tstamp 5F0A6F1E))
    (comp (ref D2)
      (value MBRS340)
      (footprint battery_charging:DIOM7959X261N)
      (datasheet IPC-7351B)
      (fields
        (field (name Field4) 14)
        (field (name Field5) "ON Semiconductor")
        (field (name Field6) 2.61mm))
      (libsource (lib "") (part MBRS340-MBRS340-Battery_charging-rescue-PCB-TEMP-rescue-PCB-TEMP-rescue-PCB-TEMP-rescue) (description ""))
      (sheetpath (names /Battery_charging/) (tstamps /5F6919C1/))
      (tstamp 5F0B54D5))
    (comp (ref D1)
      (value 1N4148)
      (footprint battery_charging:DIOAD829W49L456D191)
      (datasheet "Diode Small Signal Switching 100V 0.3A 2-Pin DO-35")
      (fields
        (field (name Field4) 1N4148)
        (field (name Field5) None)
        (field (name Field6) Unavailable)
        (field (name Field7) IPC-7251)
        (field (name Field8) "MICROSS/On Semiconductor")
        (field (name Field9) "DO-35 Vishay"))
      (libsource (lib "") (part 1N4148-1N4148-Battery_charging-rescue-PCB-TEMP-rescue-PCB-TEMP-rescue-PCB-TEMP-rescue) (description ""))
      (sheetpath (names /Battery_charging/) (tstamps /5F6919C1/))
      (tstamp 5F0BA2B1))
    (comp (ref D6)
      (value 1N4148)
      (footprint battery_charging:DIOAD829W49L456D191)
      (datasheet "Diode Small Signal Switching 100V 0.3A 2-Pin DO-35")
      (fields
        (field (name Field4) 1N4148)
        (field (name Field5) None)
        (field (name Field6) Unavailable)
        (field (name Field7) IPC-7251)
        (field (name Field8) "MICROSS/On Semiconductor")
        (field (name Field9) "DO-35 Vishay"))
      (libsource (lib "") (part 1N4148-1N4148-Battery_charging-rescue-PCB-TEMP-rescue-PCB-TEMP-rescue-PCB-TEMP-rescue) (description ""))
      (sheetpath (names /Battery_charging/) (tstamps /5F6919C1/))
      (tstamp 5F0C1601))
    (comp (ref C1)
      (value 6.8uF)
      (footprint Capacitor_SMD:C_0805_2012Metric_Pad1.18x1.45mm_HandSolder)
      (datasheet ~)
      (libsource (lib "") (part C-Device-Master_Regulator-rescue-PCB-TEMP-rescue) (description ""))
      (sheetpath (names /3v3_5v5/) (tstamps /5F840520/))
      (tstamp 5D0DF564))
    (comp (ref C3)
      (value 1uF)
      (footprint Capacitor_SMD:C_0805_2012Metric_Pad1.18x1.45mm_HandSolder)
      (datasheet ~)
      (libsource (lib "") (part C-Device-Master_Regulator-rescue-PCB-TEMP-rescue) (description ""))
      (sheetpath (names /3v3_5v5/) (tstamps /5F840520/))
      (tstamp 5D0DF5AC))
    (comp (ref C5)
      (value 10nF)
      (footprint Capacitor_SMD:C_0805_2012Metric_Pad1.18x1.45mm_HandSolder)
      (datasheet ~)
      (libsource (lib "") (part C-Device-Master_Regulator-rescue-PCB-TEMP-rescue) (description ""))
      (sheetpath (names /3v3_5v5/) (tstamps /5F840520/))
      (tstamp 5D0DFE6E))
    (comp (ref L1)
      (value 10uH)
      (footprint battery_charging:SRR1210-100M)
      (datasheet ~)
      (libsource (lib "") (part L-Device-Master_Regulator-rescue-PCB-TEMP-rescue) (description ""))
      (sheetpath (names /3v3_5v5/) (tstamps /5F840520/))
      (tstamp 5D0DFFD7))
    (comp (ref D9)
      (value D_Schottky)
      (footprint Diode_SMD:D_SMC_Handsoldering)
      (datasheet ~)
      (libsource (lib "") (part D_Schottky-Device-Master_Regulator-rescue-PCB-TEMP-rescue) (description ""))
      (sheetpath (names /3v3_5v5/) (tstamps /5F840520/))
      (tstamp 5D0E03F2))
    (comp (ref C7)
      (value 2.2uF)
      (footprint Capacitor_SMD:C_0805_2012Metric_Pad1.18x1.45mm_HandSolder)
      (datasheet ~)
      (libsource (lib "") (part C-Device-Master_Regulator-rescue-PCB-TEMP-rescue) (description ""))
      (sheetpath (names /3v3_5v5/) (tstamps /5F840520/))
      (tstamp 5D0E072F))
    (comp (ref R4)
      (value 1.54k)
      (footprint Resistor_SMD:R_0805_2012Metric_Pad1.20x1.40mm_HandSolder)
      (datasheet ~)
      (libsource (lib "") (part R-Device-Master_Regulator-rescue-PCB-TEMP-rescue) (description ""))
      (sheetpath (names /3v3_5v5/) (tstamps /5F840520/))
      (tstamp 5D0E0D5D))
    (comp (ref R5)
      (value 976R)
      (footprint Resistor_SMD:R_0805_2012Metric_Pad1.20x1.40mm_HandSolder)
      (datasheet ~)
      (libsource (lib "") (part R-Device-Master_Regulator-rescue-PCB-TEMP-rescue) (description ""))
      (sheetpath (names /3v3_5v5/) (tstamps /5F840520/))
      (tstamp 5D0E0DAD))
    (comp (ref C2)
      (value 6.8uF)
      (footprint Capacitor_SMD:C_0805_2012Metric_Pad1.18x1.45mm_HandSolder)
      (datasheet ~)
      (libsource (lib "") (part C-Device-Master_Regulator-rescue-PCB-TEMP-rescue) (description ""))
      (sheetpath (names /3v3_5v5/) (tstamps /5F840520/))
      (tstamp 5D0E45C3))
    (comp (ref C4)
      (value 1uF)
      (footprint Capacitor_SMD:C_0805_2012Metric_Pad1.18x1.45mm_HandSolder)
      (datasheet ~)
      (libsource (lib "") (part C-Device-Master_Regulator-rescue-PCB-TEMP-rescue) (description ""))
      (sheetpath (names /3v3_5v5/) (tstamps /5F840520/))
      (tstamp 5D0E45C9))
    (comp (ref C6)
      (value 10nF)
      (footprint Capacitor_SMD:C_0805_2012Metric_Pad1.18x1.45mm_HandSolder)
      (datasheet ~)
      (libsource (lib "") (part C-Device-Master_Regulator-rescue-PCB-TEMP-rescue) (description ""))
      (sheetpath (names /3v3_5v5/) (tstamps /5F840520/))
      (tstamp 5D0E45F1))
    (comp (ref L2)
      (value 10uH)
      (footprint battery_charging:SRR1210-100M)
      (datasheet ~)
      (libsource (lib "") (part L-Device-Master_Regulator-rescue-PCB-TEMP-rescue) (description ""))
      (sheetpath (names /3v3_5v5/) (tstamps /5F840520/))
      (tstamp 5D0E45F8))
    (comp (ref D10)
      (value D_Schottky)
      (footprint Diode_SMD:D_SMC_Handsoldering)
      (datasheet ~)
      (libsource (lib "") (part D_Schottky-Device-Master_Regulator-rescue-PCB-TEMP-rescue) (description ""))
      (sheetpath (names /3v3_5v5/) (tstamps /5F840520/))
      (tstamp 5D0E4601))
    (comp (ref R2)
      (value 10k)
      (footprint Resistor_SMD:R_0805_2012Metric_Pad1.20x1.40mm_HandSolder)
      (datasheet ~)
      (libsource (lib "") (part R-Device-Master_Regulator-rescue-PCB-TEMP-rescue) (description ""))
      (sheetpath (names /3v3_5v5/) (tstamps /5F840520/))
      (tstamp 5D172178))
    (comp (ref R3)
      (value 10k)
      (footprint Resistor_SMD:R_0805_2012Metric_Pad1.20x1.40mm_HandSolder)
      (datasheet ~)
      (libsource (lib "") (part R-Device-Master_Regulator-rescue-PCB-TEMP-rescue) (description ""))
      (sheetpath (names /3v3_5v5/) (tstamps /5F840520/))
      (tstamp 5D176390))
    (comp (ref U5)
      (value LM22678_Adj)
      (footprint Package_TO_SOT_SMD:TO-263-7_TabPin4)
      (libsource (lib "") (part LM22678-LM22678-Master_Regulator-rescue-PCB-TEMP-rescue) (description ""))
      (sheetpath (names /3v3_5v5/) (tstamps /5F840520/))
      (tstamp 5D184AF9))
    (comp (ref U6)
      (value LM22678_Fixed)
      (footprint Package_TO_SOT_SMD:TO-263-7_TabPin4)
      (libsource (lib "") (part LM22678-LM22678-Master_Regulator-rescue-PCB-TEMP-rescue) (description ""))
      (sheetpath (names /3v3_5v5/) (tstamps /5F840520/))
      (tstamp 5D184B76))
    (comp (ref C9)
      (value 100nF)
      (footprint Capacitor_SMD:C_0805_2012Metric_Pad1.18x1.45mm_HandSolder)
      (datasheet ~)
      (libsource (lib "") (part C-Device-Master_Regulator-rescue-PCB-TEMP-rescue) (description ""))
      (sheetpath (names /3v3_5v5/) (tstamps /5F840520/))
      (tstamp 5D298C3B))
    (comp (ref C8)
      (value 2.2uF)
      (footprint Capacitor_SMD:C_0805_2012Metric_Pad1.18x1.45mm_HandSolder)
      (datasheet ~)
      (libsource (lib "") (part C-Device-Master_Regulator-rescue-PCB-TEMP-rescue) (description ""))
      (sheetpath (names /3v3_5v5/) (tstamps /5F840520/))
      (tstamp 5D2A0940))
    (comp (ref C10)
      (value 100nF)
      (footprint Capacitor_SMD:C_0805_2012Metric_Pad1.18x1.45mm_HandSolder)
      (datasheet ~)
      (libsource (lib "") (part C-Device-Master_Regulator-rescue-PCB-TEMP-rescue) (description ""))
      (sheetpath (names /3v3_5v5/) (tstamps /5F840520/))
      (tstamp 5D2A094F))
    (comp (ref 180uF1)
      (value CP1)
      (footprint Capacitor_SMD:CP_Elec_6.3x7.7)
      (libsource (lib PCB-TEMP-rescue) (part CP1-device) (description ""))
      (sheetpath (names /3v3_5v5/) (tstamps /5F840520/))
      (tstamp 5F82BAA8))
    (comp (ref 180uF2)
      (value CP1)
      (footprint Capacitor_SMD:CP_Elec_6.3x7.7)
      (libsource (lib PCB-TEMP-rescue) (part CP1-device) (description ""))
      (sheetpath (names /3v3_5v5/) (tstamps /5F840520/))
      (tstamp 5F82BFCF))
    (comp (ref 22uF1)
      (value CP1)
      (footprint Capacitor_SMD:CP_Elec_5x5.3)
      (libsource (lib PCB-TEMP-rescue) (part CP1-device) (description ""))
      (sheetpath (names /3v3_5v5/) (tstamps /5F840520/))
      (tstamp 5F82CAC3))
    (comp (ref 22uF2)
      (value CP1)
      (footprint Capacitor_SMD:CP_Elec_5x5.3)
      (libsource (lib PCB-TEMP-rescue) (part CP1-device) (description ""))
      (sheetpath (names /3v3_5v5/) (tstamps /5F840520/))
      (tstamp 5F82CDBD)))
  (libparts
    (libpart (lib "") (part PCB-TEMP-rescue_1N4148-1N4148-Battery_charging-rescue-PCB-TEMP-rescue-PCB-TEMP-rescue-PCB-TEMP-rescue)
      (fields
        (field (name Reference) D)
        (field (name Value) PCB-TEMP-rescue_1N4148-1N4148-Battery_charging-rescue-PCB-TEMP-rescue-PCB-TEMP-rescue-PCB-TEMP-rescue)
        (field (name Footprint) DIOAD829W49L456D191)
        (field (name Datasheet) "Diode Small Signal Switching 100V 0.3A 2-Pin DO-35")
        (field (name Field4) 1N4148)
        (field (name Field5) None)
        (field (name Field6) Unavailable)
        (field (name Field7) IPC-7251)
        (field (name Field8) "MICROSS/On Semiconductor")
        (field (name Field9) "DO-35 Vishay"))
      (pins
        (pin (num A) (name ~) (type passive))
        (pin (num C) (name ~) (type passive))))
    (libpart (lib "") (part PCB-TEMP-rescue_AS_1-FDS6990AS_1-Battery_charging-rescue-PCB-TEMP-rescue-PCB-TEMP-rescue-PCB-TEMP-rescue)
      (fields
        (field (name Reference) U)
        (field (name Value) PCB-TEMP-rescue_AS_1-FDS6990AS_1-Battery_charging-rescue-PCB-TEMP-rescue-PCB-TEMP-rescue-PCB-TEMP-rescue))
      (pins
        (pin (num 1) (name S2) (type output))
        (pin (num 2) (name G2) (type input))
        (pin (num 3) (name S1) (type input))
        (pin (num 4) (name G1) (type input))
        (pin (num 5) (name D1) (type output))
        (pin (num 6) (name D1) (type passive))
        (pin (num 7) (name D2) (type output))
        (pin (num 8) (name D2) (type output))))
    (libpart (lib "") (part PCB-TEMP-rescue_C-Device-Battery_charging-rescue-PCB-TEMP-rescue-PCB-TEMP-rescue-PCB-TEMP-rescue)
      (footprints
        (fp C_*))
      (fields
        (field (name Reference) C)
        (field (name Value) PCB-TEMP-rescue_C-Device-Battery_charging-rescue-PCB-TEMP-rescue-PCB-TEMP-rescue-PCB-TEMP-rescue))
      (pins
        (pin (num 1) (name ~) (type passive))
        (pin (num 2) (name ~) (type passive))))
    (libpart (lib "") (part PCB-TEMP-rescue_C-Device-Master_Regulator-rescue-PCB-TEMP-rescue)
      (footprints
        (fp C_*))
      (fields
        (field (name Reference) C)
        (field (name Value) PCB-TEMP-rescue_C-Device-Master_Regulator-rescue-PCB-TEMP-rescue))
      (pins
        (pin (num 1) (name ~) (type passive))
        (pin (num 2) (name ~) (type passive))))
    (libpart (lib "") (part PCB-TEMP-rescue_CP1-Device-Battery_charging-rescue-PCB-TEMP-rescue-PCB-TEMP-rescue-PCB-TEMP-rescue)
      (footprints
        (fp CP_*))
      (fields
        (field (name Reference) C)
        (field (name Value) PCB-TEMP-rescue_CP1-Device-Battery_charging-rescue-PCB-TEMP-rescue-PCB-TEMP-rescue-PCB-TEMP-rescue))
      (pins
        (pin (num 1) (name ~) (type passive))
        (pin (num 2) (name ~) (type passive))))
    (libpart (lib "") (part PCB-TEMP-rescue_C_Small-Device-Battery_charging-rescue-PCB-TEMP-rescue-PCB-TEMP-rescue-PCB-TEMP-rescue)
      (footprints
        (fp C_*))
      (fields
        (field (name Reference) C)
        (field (name Value) PCB-TEMP-rescue_C_Small-Device-Battery_charging-rescue-PCB-TEMP-rescue-PCB-TEMP-rescue-PCB-TEMP-rescue))
      (pins
        (pin (num 1) (name ~) (type passive))
        (pin (num 2) (name ~) (type passive))))
    (libpart (lib "") (part PCB-TEMP-rescue_D_Schottky-Device-Master_Regulator-rescue-PCB-TEMP-rescue)
      (footprints
        (fp TO-???*)
        (fp *_Diode_*)
        (fp *SingleDiode*)
        (fp D_*))
      (fields
        (field (name Reference) D)
        (field (name Value) PCB-TEMP-rescue_D_Schottky-Device-Master_Regulator-rescue-PCB-TEMP-rescue))
      (pins
        (pin (num 1) (name K) (type passive))
        (pin (num 2) (name A) (type passive))))
    (libpart (lib "") (part PCB-TEMP-rescue_L-Device-Master_Regulator-rescue-PCB-TEMP-rescue)
      (footprints
        (fp Choke_*)
        (fp *Coil*)
        (fp Inductor_*)
        (fp L_*))
      (fields
        (field (name Reference) L)
        (field (name Value) PCB-TEMP-rescue_L-Device-Master_Regulator-rescue-PCB-TEMP-rescue))
      (pins
        (pin (num 1) (name 1) (type passive))
        (pin (num 2) (name 2) (type passive))))
    (libpart (lib "") (part PCB-TEMP-rescue_LED-Device-Battery_charging-rescue-PCB-TEMP-rescue-PCB-TEMP-rescue-PCB-TEMP-rescue)
      (footprints
        (fp LED*)
        (fp LED_SMD:*)
        (fp LED_THT:*))
      (fields
        (field (name Reference) D)
        (field (name Value) PCB-TEMP-rescue_LED-Device-Battery_charging-rescue-PCB-TEMP-rescue-PCB-TEMP-rescue-PCB-TEMP-rescue))
      (pins
        (pin (num 1) (name K) (type passive))
        (pin (num 2) (name A) (type passive))))
    (libpart (lib "") (part PCB-TEMP-rescue_LM22678-LM22678-Master_Regulator-rescue-PCB-TEMP-rescue)
      (fields
        (field (name Reference) U)
        (field (name Value) PCB-TEMP-rescue_LM22678-LM22678-Master_Regulator-rescue-PCB-TEMP-rescue))
      (pins
        (pin (num 1) (name SW) (type output))
        (pin (num 2) (name VIN) (type power_in))
        (pin (num 3) (name BOOT) (type input))
        (pin (num 4) (name GND) (type power_in))
        (pin (num 5) (name NC) (type NotConnected))
        (pin (num 6) (name FB) (type input))
        (pin (num 7) (name EN) (type input))))
    (libpart (lib "") (part PCB-TEMP-rescue_MAX1737-Battery_charger-Battery_charging-rescue-Battery_charging-rescue-PCB-TEMP-rescue-PCB-TEMP-rescue-PCB-TEMP-rescue)
      (fields
        (field (name Reference) MAX)
        (field (name Value) PCB-TEMP-rescue_MAX1737-Battery_charger-Battery_charging-rescue-Battery_charging-rescue-PCB-TEMP-rescue-PCB-TEMP-rescue-PCB-TEMP-rescue))
      (pins
        (pin (num 1) (name VL) (type input))
        (pin (num 2) (name ISETIN) (type input))
        (pin (num 3) (name ISEOUT) (type output))
        (pin (num 4) (name THM) (type input))
        (pin (num 5) (name REF) (type output))
        (pin (num 6) (name GND) (type passive))
        (pin (num 7) (name BATT) (type input))
        (pin (num 8) (name VADJ) (type output))
        (pin (num 9) (name CCV) (type input))
        (pin (num 10) (name CCS) (type input))
        (pin (num 11) (name CC1) (type output))
        (pin (num 12) (name CELL) (type input))
        (pin (num 13) (name TIMER1) (type output))
        (pin (num 14) (name TIMER2) (type output))
        (pin (num 15) (name FAULT) (type output))
        (pin (num 16) (name FASTCHG) (type output))
        (pin (num 17) (name FULLCHG) (type output))
        (pin (num 18) (name SHDN) (type input))
        (pin (num 19) (name CS) (type input))
        (pin (num 20) (name PGND) (type passive))
        (pin (num 21) (name DLO) (type output))
        (pin (num 22) (name VLO) (type output))
        (pin (num 23) (name BST) (type output))
        (pin (num 24) (name LX) (type input))
        (pin (num 25) (name DHI) (type output))
        (pin (num 26) (name CSSN) (type input))
        (pin (num 27) (name CSSP) (type input))
        (pin (num 28) (name DCIN) (type input))))
    (libpart (lib "") (part PCB-TEMP-rescue_MBRS340-MBRS340-Battery_charging-rescue-PCB-TEMP-rescue-PCB-TEMP-rescue-PCB-TEMP-rescue)
      (fields
        (field (name Reference) D)
        (field (name Value) PCB-TEMP-rescue_MBRS340-MBRS340-Battery_charging-rescue-PCB-TEMP-rescue-PCB-TEMP-rescue-PCB-TEMP-rescue)
        (field (name Footprint) DIOM7959X261N)
        (field (name Datasheet) IPC-7351B)
        (field (name Field4) 14)
        (field (name Field5) "ON Semiconductor")
        (field (name Field6) 2.61mm))
      (pins
        (pin (num A) (name ~) (type passive))
        (pin (num C) (name ~) (type passive))))
    (libpart (lib "") (part PCB-TEMP-rescue_Mechanical_MountingHole-PCB-TEMP-rescue-PCB-TEMP-rescue-PCB-TEMP-rescue-PCB-TEMP-rescue)
      (footprints
        (fp MountingHole*))
      (fields
        (field (name Reference) H)
        (field (name Value) PCB-TEMP-rescue_Mechanical_MountingHole-PCB-TEMP-rescue-PCB-TEMP-rescue-PCB-TEMP-rescue-PCB-TEMP-rescue)))
    (libpart (lib "") (part PCB-TEMP-rescue_R-Device-Battery_charging-rescue-PCB-TEMP-rescue-PCB-TEMP-rescue-PCB-TEMP-rescue)
      (footprints
        (fp R_*))
      (fields
        (field (name Reference) R)
        (field (name Value) PCB-TEMP-rescue_R-Device-Battery_charging-rescue-PCB-TEMP-rescue-PCB-TEMP-rescue-PCB-TEMP-rescue))
      (pins
        (pin (num 1) (name ~) (type passive))
        (pin (num 2) (name ~) (type passive))))
    (libpart (lib "") (part PCB-TEMP-rescue_R-Device-Master_Regulator-rescue-PCB-TEMP-rescue)
      (footprints
        (fp R_*))
      (fields
        (field (name Reference) R)
        (field (name Value) PCB-TEMP-rescue_R-Device-Master_Regulator-rescue-PCB-TEMP-rescue))
      (pins
        (pin (num 1) (name ~) (type passive))
        (pin (num 2) (name ~) (type passive))))
    (libpart (lib "") (part PCB-TEMP-rescue_R_Small-Device-Battery_charging-rescue-PCB-TEMP-rescue-PCB-TEMP-rescue-PCB-TEMP-rescue)
      (footprints
        (fp R_*))
      (fields
        (field (name Reference) R)
        (field (name Value) PCB-TEMP-rescue_R_Small-Device-Battery_charging-rescue-PCB-TEMP-rescue-PCB-TEMP-rescue-PCB-TEMP-rescue))
      (pins
        (pin (num 1) (name ~) (type passive))
        (pin (num 2) (name ~) (type passive))))
    (libpart (lib "") (part PCB-TEMP-rescue_SOLAR_PCbus-PCB-TEMP-rescue-PCB-TEMP-rescue-PCB-TEMP-rescue-PCB-TEMP-rescue)
      (fields
        (field (name Reference) U)
        (field (name Value) PCB-TEMP-rescue_SOLAR_PCbus-PCB-TEMP-rescue-PCB-TEMP-rescue-PCB-TEMP-rescue-PCB-TEMP-rescue))
      (pins
        (pin (num 1) (name ~) (type BiDi))
        (pin (num 2) (name ~) (type BiDi))
        (pin (num 3) (name ~) (type BiDi))
        (pin (num 4) (name ~) (type BiDi))
        (pin (num 5) (name ~) (type BiDi))
        (pin (num 6) (name ~) (type BiDi))
        (pin (num 7) (name ~) (type BiDi))
        (pin (num 8) (name ~) (type BiDi))
        (pin (num 9) (name ~) (type BiDi))
        (pin (num 10) (name ~) (type BiDi))
        (pin (num 11) (name ~) (type BiDi))
        (pin (num 12) (name ~) (type BiDi))
        (pin (num 13) (name ~) (type BiDi))
        (pin (num 14) (name ~) (type BiDi))
        (pin (num 15) (name ~) (type BiDi))
        (pin (num 16) (name ~) (type BiDi))
        (pin (num 17) (name ~) (type BiDi))
        (pin (num 18) (name ~) (type BiDi))
        (pin (num 19) (name ~) (type BiDi))
        (pin (num 20) (name ~) (type BiDi))
        (pin (num 21) (name ~) (type BiDi))
        (pin (num 22) (name ~) (type BiDi))
        (pin (num 23) (name ~) (type BiDi))
        (pin (num 24) (name ~) (type BiDi))
        (pin (num 25) (name ~) (type BiDi))
        (pin (num 26) (name ~) (type BiDi))
        (pin (num 27) (name ~) (type BiDi))
        (pin (num 28) (name ~) (type BiDi))
        (pin (num 29) (name ~) (type BiDi))
        (pin (num 30) (name ~) (type BiDi))
        (pin (num 31) (name ~) (type BiDi))
        (pin (num 32) (name ~) (type BiDi))
        (pin (num 33) (name ~) (type BiDi))
        (pin (num 34) (name ~) (type BiDi))
        (pin (num 35) (name ~) (type BiDi))
        (pin (num 36) (name ~) (type BiDi))
        (pin (num 37) (name ~) (type BiDi))
        (pin (num 38) (name ~) (type BiDi))
        (pin (num 39) (name ~) (type BiDi))
        (pin (num 40) (name ~) (type BiDi))
        (pin (num 41) (name ~) (type BiDi))
        (pin (num 42) (name ~) (type BiDi))
        (pin (num 43) (name ~) (type BiDi))
        (pin (num 44) (name ~) (type BiDi))
        (pin (num 45) (name ~) (type BiDi))
        (pin (num 46) (name ~) (type BiDi))
        (pin (num 47) (name ~) (type BiDi))
        (pin (num 48) (name ~) (type BiDi))
        (pin (num 49) (name ~) (type BiDi))
        (pin (num 50) (name ~) (type BiDi))
        (pin (num 51) (name ~) (type BiDi))
        (pin (num 52) (name ~) (type BiDi))
        (pin (num 53) (name ~) (type BiDi))
        (pin (num 54) (name ~) (type BiDi))
        (pin (num 55) (name ~) (type BiDi))
        (pin (num 56) (name ~) (type BiDi))
        (pin (num 57) (name ~) (type BiDi))
        (pin (num 58) (name ~) (type BiDi))
        (pin (num 59) (name ~) (type BiDi))
        (pin (num 60) (name ~) (type BiDi))
        (pin (num 61) (name ~) (type BiDi))
        (pin (num 62) (name ~) (type BiDi))
        (pin (num 63) (name ~) (type BiDi))
        (pin (num 64) (name ~) (type BiDi))
        (pin (num 65) (name ~) (type BiDi))
        (pin (num 66) (name ~) (type BiDi))
        (pin (num 67) (name ~) (type BiDi))
        (pin (num 68) (name ~) (type BiDi))
        (pin (num 69) (name ~) (type BiDi))
        (pin (num 70) (name ~) (type BiDi))
        (pin (num 71) (name ~) (type BiDi))
        (pin (num 72) (name ~) (type BiDi))
        (pin (num 73) (name ~) (type BiDi))
        (pin (num 74) (name ~) (type BiDi))
        (pin (num 75) (name ~) (type BiDi))
        (pin (num 76) (name ~) (type BiDi))
        (pin (num 77) (name ~) (type BiDi))
        (pin (num 78) (name ~) (type BiDi))
        (pin (num 79) (name ~) (type BiDi))
        (pin (num 80) (name ~) (type BiDi))
        (pin (num 81) (name ~) (type BiDi))
        (pin (num 82) (name ~) (type BiDi))
        (pin (num 83) (name ~) (type BiDi))
        (pin (num 84) (name ~) (type BiDi))
        (pin (num 85) (name ~) (type BiDi))
        (pin (num 86) (name ~) (type BiDi))
        (pin (num 87) (name ~) (type BiDi))
        (pin (num 88) (name ~) (type BiDi))
        (pin (num 89) (name ~) (type BiDi))
        (pin (num 90) (name ~) (type BiDi))
        (pin (num 91) (name ~) (type BiDi))
        (pin (num 92) (name ~) (type BiDi))
        (pin (num 93) (name ~) (type BiDi))
        (pin (num 94) (name ~) (type BiDi))
        (pin (num 95) (name ~) (type BiDi))
        (pin (num 96) (name ~) (type BiDi))
        (pin (num 97) (name ~) (type BiDi))
        (pin (num 98) (name ~) (type BiDi))
        (pin (num 99) (name ~) (type BiDi))
        (pin (num 100) (name ~) (type BiDi))
        (pin (num 101) (name ~) (type BiDi))
        (pin (num 102) (name ~) (type BiDi))
        (pin (num 103) (name ~) (type BiDi))
        (pin (num 104) (name ~) (type BiDi))))
    (libpart (lib "") (part PCB-TEMP-rescue_Thermistor-Device-Battery_charging-rescue-PCB-TEMP-rescue-PCB-TEMP-rescue-PCB-TEMP-rescue)
      (footprints
        (fp R_*))
      (fields
        (field (name Reference) TH)
        (field (name Value) PCB-TEMP-rescue_Thermistor-Device-Battery_charging-rescue-PCB-TEMP-rescue-PCB-TEMP-rescue-PCB-TEMP-rescue))
      (pins
        (pin (num 1) (name ~) (type passive))
        (pin (num 2) (name ~) (type passive))))
    (libpart (lib PCB-TEMP-rescue) (part BATT-Battery_monitor)
      (fields
        (field (name Reference) U)
        (field (name Value) BATT-Battery_monitor))
      (pins
        (pin (num 1) (name VC1) (type output))
        (pin (num 2) (name VC2) (type output))
        (pin (num 3) (name GND) (type output))))
    (libpart (lib PCB-TEMP-rescue) (part CP1-device)
      (footprints
        (fp CP_*))
      (fields
        (field (name Reference) C)
        (field (name Value) CP1-device))
      (pins
        (pin (num 1) (name ~) (type passive))
        (pin (num 2) (name ~) (type passive))))
    (libpart (lib PCB-TEMP-rescue) (part C_Small-device)
      (footprints
        (fp C_*))
      (fields
        (field (name Reference) C)
        (field (name Value) C_Small-device))
      (pins
        (pin (num 1) (name ~) (type passive))
        (pin (num 2) (name ~) (type passive))))
    (libpart (lib PCB-TEMP-rescue) (part DS2782-Battery_monitor)
      (fields
        (field (name Reference) U)
        (field (name Value) DS2782-Battery_monitor))
      (pins
        (pin (num 1) (name NC) (type passive))
        (pin (num 2) (name VSS) (type input))
        (pin (num 3) (name VIN) (type input))
        (pin (num 4) (name VDD) (type input))
        (pin (num 5) (name SCL) (type input))
        (pin (num 6) (name SDA) (type BiDi))
        (pin (num 7) (name SNS) (type input))
        (pin (num 8) (name PIO) (type input))))
    (libpart (lib PCB-TEMP-rescue) (part D_Zener_Small-device)
      (footprints
        (fp TO-???*)
        (fp *SingleDiode)
        (fp *_Diode_*)
        (fp *SingleDiode*)
        (fp D_*))
      (fields
        (field (name Reference) D)
        (field (name Value) D_Zener_Small-device))
      (pins
        (pin (num 1) (name K) (type passive))
        (pin (num 2) (name A) (type passive))))
    (libpart (lib PCB-TEMP-rescue) (part INDUCTOR-pspice)
      (fields
        (field (name Reference) L)
        (field (name Value) INDUCTOR-pspice))
      (pins
        (pin (num 1) (name 1) (type input))
        (pin (num 2) (name 2) (type input))))
    (libpart (lib PCB-TEMP-rescue) (part MAX1616-Battery_monitor)
      (fields
        (field (name Reference) U)
        (field (name Value) MAX1616-Battery_monitor))
      (pins
        (pin (num 1) (name IN) (type input))
        (pin (num 2) (name GND) (type BiDi))
        (pin (num 3) (name OUT) (type output))
        (pin (num 4) (name 5/3) (type BiDi))
        (pin (num 5) (name SHDN) (type input))))
    (libpart (lib PCB-TEMP-rescue) (part R_Small-device)
      (footprints
        (fp R_*))
      (fields
        (field (name Reference) R)
        (field (name Value) R_Small-device))
      (pins
        (pin (num 1) (name ~) (type passive))
        (pin (num 2) (name ~) (type passive)))))
  (libraries
    (library (logical PCB-TEMP-rescue)
      (uri "C:\\Users\\Bailey\\Documents\\cubesat-powersystem\\POW-03-Battery\\POW-03-Battery\\Completed battery management/PCB TEMP-rescue.lib")))
  (nets
    (net (code 1) (name "Net-(U1-Pad42)")
      (node (ref U1) (pin 42)))
    (net (code 2) (name "Net-(U1-Pad50)")
      (node (ref U1) (pin 50)))
    (net (code 3) (name "Net-(U1-Pad5)")
      (node (ref U1) (pin 5)))
    (net (code 4) (name "Net-(U1-Pad49)")
      (node (ref U1) (pin 49)))
    (net (code 5) (name "Net-(U1-Pad48)")
      (node (ref U1) (pin 48)))
    (net (code 6) (name /POW8)
      (node (ref 180uF1) (pin 1))
      (node (ref C9) (pin 1))
      (node (ref L1) (pin 2))
      (node (ref C7) (pin 1))
      (node (ref R4) (pin 2))
      (node (ref U1) (pin 46)))
    (net (code 7) (name /POW7)
      (node (ref U1) (pin 45))
      (node (ref R2) (pin 1))
      (node (ref U5) (pin 7)))
    (net (code 8) (name "Net-(U1-Pad41)")
      (node (ref U1) (pin 41)))
    (net (code 9) (name "Net-(U1-Pad40)")
      (node (ref U1) (pin 40)))
    (net (code 10) (name "Net-(U1-Pad4)")
      (node (ref U1) (pin 4)))
    (net (code 11) (name "Net-(U1-Pad38)")
      (node (ref U1) (pin 38)))
    (net (code 12) (name "Net-(U1-Pad37)")
      (node (ref U1) (pin 37)))
    (net (code 13) (name "Net-(U1-Pad36)")
      (node (ref U1) (pin 36)))
    (net (code 14) (name "Net-(U1-Pad34)")
      (node (ref U1) (pin 34)))
    (net (code 15) (name "Net-(U1-Pad66)")
      (node (ref U1) (pin 66)))
    (net (code 16) (name "Net-(U1-Pad65)")
      (node (ref U1) (pin 65)))
    (net (code 17) (name "Net-(U1-Pad64)")
      (node (ref U1) (pin 64)))
    (net (code 18) (name "Net-(U1-Pad63)")
      (node (ref U1) (pin 63)))
    (net (code 19) (name "Net-(U1-Pad33)")
      (node (ref U1) (pin 33)))
    (net (code 20) (name "Net-(U1-Pad6)")
      (node (ref U1) (pin 6)))
    (net (code 21) (name "Net-(U1-Pad59)")
      (node (ref U1) (pin 59)))
    (net (code 22) (name "Net-(U1-Pad58)")
      (node (ref U1) (pin 58)))
    (net (code 23) (name "Net-(U1-Pad57)")
      (node (ref U1) (pin 57)))
    (net (code 24) (name "Net-(U1-Pad56)")
      (node (ref U1) (pin 56)))
    (net (code 25) (name "Net-(U1-Pad55)")
      (node (ref U1) (pin 55)))
    (net (code 26) (name "Net-(U1-Pad54)")
      (node (ref U1) (pin 54)))
    (net (code 27) (name "Net-(U1-Pad53)")
      (node (ref U1) (pin 53)))
    (net (code 28) (name "Net-(U1-Pad52)")
      (node (ref U1) (pin 52)))
    (net (code 29) (name "Net-(U1-Pad14)")
      (node (ref U1) (pin 14)))
    (net (code 30) (name "Net-(U1-Pad13)")
      (node (ref U1) (pin 13)))
    (net (code 31) (name /POW5)
      (node (ref R3) (pin 1))
      (node (ref U6) (pin 7))
      (node (ref U1) (pin 12)))
    (net (code 32) (name "Net-(U1-Pad11)")
      (node (ref U1) (pin 11)))
    (net (code 33) (name "Net-(U1-Pad10)")
      (node (ref U1) (pin 10)))
    (net (code 34) (name "Net-(U1-Pad1)")
      (node (ref U1) (pin 1)))
    (net (code 35) (name "Net-(U1-Pad24)")
      (node (ref U1) (pin 24)))
    (net (code 36) (name /POW17)
      (node (ref U1) (pin 32)))
    (net (code 37) (name "Net-(U1-Pad31)")
      (node (ref U1) (pin 31)))
    (net (code 38) (name /POW16)
      (node (ref U1) (pin 30)))
    (net (code 39) (name "Net-(U1-Pad3)")
      (node (ref U1) (pin 3)))
    (net (code 40) (name "Net-(U1-Pad29)")
      (node (ref U1) (pin 29))
      (node (ref U1) (pin 43))
      (node (ref U1) (pin 51))
      (node (ref U1) (pin 35))
      (node (ref U1) (pin 39))
      (node (ref U1) (pin 47)))
    (net (code 41) (name "Net-(U1-Pad28)")
      (node (ref U1) (pin 28)))
    (net (code 42) (name "Net-(U1-Pad26)")
      (node (ref U1) (pin 26)))
    (net (code 43) (name "Net-(U1-Pad25)")
      (node (ref U1) (pin 25)))
    (net (code 44) (name "Net-(U1-Pad7)")
      (node (ref U1) (pin 7)))
    (net (code 45) (name "Net-(U1-Pad23)")
      (node (ref U1) (pin 23)))
    (net (code 46) (name "Net-(U1-Pad22)")
      (node (ref U1) (pin 22)))
    (net (code 47) (name "Net-(U1-Pad21)")
      (node (ref U1) (pin 21)))
    (net (code 48) (name "Net-(U1-Pad20)")
      (node (ref U1) (pin 20)))
    (net (code 49) (name "Net-(U1-Pad2)")
      (node (ref U1) (pin 2)))
    (net (code 50) (name "Net-(U1-Pad19)")
      (node (ref U1) (pin 19)))
    (net (code 51) (name "Net-(U1-Pad18)")
      (node (ref U1) (pin 18)))
    (net (code 52) (name "Net-(U1-Pad17)")
      (node (ref U1) (pin 17)))
    (net (code 53) (name "Net-(U1-Pad8)")
      (node (ref U1) (pin 8)))
    (net (code 54) (name "Net-(U1-Pad9)")
      (node (ref U1) (pin 9)))
    (net (code 55) (name /POW10)
      (node (ref 150Ω21111111) (pin 2))
      (node (ref U1) (pin 16)))
    (net (code 56) (name /POW9)
      (node (ref 150Ω11111111) (pin 2))
      (node (ref U1) (pin 15)))
    (net (code 57) (name GND)
      (node (ref U2) (pin 1))
      (node (ref 0.1uF2) (pin 2))
      (node (ref 4.7uF1) (pin 2))
      (node (ref D8) (pin 2))
      (node (ref 0.1uF3) (pin 2))
      (node (ref D7) (pin 2))
      (node (ref U4) (pin 2))
      (node (ref U4) (pin 4))
      (node (ref 1uF4) (pin 2))
      (node (ref TH1) (pin 2))
      (node (ref 0.1uF8) (pin 2))
      (node (ref 0.1uF6) (pin 2))
      (node (ref CP1) (pin 2))
      (node (ref 47uF1) (pin 2))
      (node (ref 10k2) (pin 2))
      (node (ref 0.1uF1) (pin 2))
      (node (ref 1uF3) (pin 2))
      (node (ref 1uF2) (pin 2))
      (node (ref 47uF2) (pin 2))
      (node (ref CP3) (pin 2))
      (node (ref 0.1uF5) (pin 2))
      (node (ref 10k6) (pin 2))
      (node (ref 10k5) (pin 2))
      (node (ref MAX1) (pin 20))
      (node (ref MAX1) (pin 12))
      (node (ref 4.7uF2) (pin 2))
      (node (ref 0.1uF10) (pin 2))
      (node (ref MAX1) (pin 6))
      (node (ref 0.1uF7) (pin 2))
      (node (ref 10m1) (pin 2))
      (node (ref 0.1uF9) (pin 2))
      (node (ref CP2) (pin 2))
      (node (ref 1uF1) (pin 2))
      (node (ref D9) (pin 2))
      (node (ref C7) (pin 2))
      (node (ref C8) (pin 2))
      (node (ref R5) (pin 1))
      (node (ref C1) (pin 2))
      (node (ref 180uF1) (pin 2))
      (node (ref 180uF2) (pin 2))
      (node (ref 22uF1) (pin 2))
      (node (ref 22uF2) (pin 2))
      (node (ref C9) (pin 2))
      (node (ref U7) (pin 2))
      (node (ref U7) (pin 3))
      (node (ref D10) (pin 2))
      (node (ref C2) (pin 2))
      (node (ref C4) (pin 2))
      (node (ref C3) (pin 2))
      (node (ref U5) (pin 4))
      (node (ref U3) (pin 7))
      (node (ref U6) (pin 4))
      (node (ref C10) (pin 2)))
    (net (code 58) (name /VC1)
      (node (ref U4) (pin 1))
      (node (ref CP3) (pin 1))
      (node (ref 0.1uF6) (pin 1))
      (node (ref U4) (pin 5))
      (node (ref 0.2) (pin 1))
      (node (ref U7) (pin 1))
      (node (ref MAX1) (pin 7))
      (node (ref 0.1uF10) (pin 1)))
    (net (code 59) (name /POW6)
      (node (ref C10) (pin 1))
      (node (ref U1) (pin 44))
      (node (ref L2) (pin 2))
      (node (ref C8) (pin 1))
      (node (ref U6) (pin 6))
      (node (ref 180uF2) (pin 1)))
    (net (code 60) (name /DCIN)
      (node (ref D2) (pin A))
      (node (ref D1) (pin A))
      (node (ref U1) (pin 60))
      (node (ref U1) (pin 62))
      (node (ref U1) (pin 61)))
    (net (code 61) (name /SYS)
      (node (ref 22uF1) (pin 1))
      (node (ref U5) (pin 2))
      (node (ref C4) (pin 1))
      (node (ref 22uF2) (pin 1))
      (node (ref C2) (pin 1))
      (node (ref U6) (pin 2))
      (node (ref U2) (pin 5))
      (node (ref R2) (pin 2))
      (node (ref C3) (pin 1))
      (node (ref C1) (pin 1))
      (node (ref R3) (pin 2))
      (node (ref MAX1) (pin 26))
      (node (ref 0.1uF8) (pin 1))
      (node (ref CP2) (pin 1))
      (node (ref CP1) (pin 1))
      (node (ref 0.1) (pin 2)))
    (net (code 62) (name /POW14)
      (node (ref U3) (pin 8))
      (node (ref U1) (pin 27)))
    (net (code 63) (name /5V)
      (node (ref U1) (pin 69))
      (node (ref U1) (pin 88))
      (node (ref U1) (pin 71))
      (node (ref U1) (pin 72))
      (node (ref U1) (pin 73))
      (node (ref U1) (pin 74))
      (node (ref U1) (pin 75))
      (node (ref U1) (pin 76))
      (node (ref U1) (pin 77))
      (node (ref U1) (pin 78))
      (node (ref U1) (pin 70))
      (node (ref U1) (pin 80))
      (node (ref U1) (pin 81))
      (node (ref U1) (pin 82))
      (node (ref U1) (pin 83))
      (node (ref U1) (pin 84))
      (node (ref U1) (pin 85))
      (node (ref U1) (pin 86))
      (node (ref U1) (pin 87))
      (node (ref U1) (pin 79))
      (node (ref U1) (pin 89))
      (node (ref U1) (pin 68))
      (node (ref U1) (pin 67))
      (node (ref U1) (pin 90))
      (node (ref U1) (pin 91))
      (node (ref U1) (pin 92))
      (node (ref U1) (pin 93)))
    (net (code 64) (name /3V3)
      (node (ref U1) (pin 101))
      (node (ref U1) (pin 102))
      (node (ref U1) (pin 103))
      (node (ref U1) (pin 104))
      (node (ref U1) (pin 100))
      (node (ref U1) (pin 94))
      (node (ref U1) (pin 95))
      (node (ref U1) (pin 97))
      (node (ref U1) (pin 98))
      (node (ref U1) (pin 99))
      (node (ref U1) (pin 96)))
    (net (code 65) (name "Net-(U3-Pad1)")
      (node (ref U3) (pin 1)))
    (net (code 66) (name "Net-(500K1-Pad2)")
      (node (ref 500K1) (pin 2))
      (node (ref 500K2) (pin 1))
      (node (ref U3) (pin 3)))
    (net (code 67) (name "Net-(0.1uF11-Pad1)")
      (node (ref 500Ω11111111) (pin 2))
      (node (ref 0.1uF11) (pin 1))
      (node (ref U3) (pin 4)))
    (net (code 68) (name "Net-(150Ω11111111-Pad1)")
      (node (ref U3) (pin 6))
      (node (ref 150Ω11111111) (pin 1))
      (node (ref D8) (pin 1)))
    (net (code 69) (name "Net-(0.1uF11-Pad2)")
      (node (ref 500K1) (pin 1))
      (node (ref U3) (pin 2))
      (node (ref U4) (pin 3))
      (node (ref 500Ω11111111) (pin 1))
      (node (ref 500K2) (pin 2))
      (node (ref 0.1uF11) (pin 2))
      (node (ref 4.7uF2) (pin 1))
      (node (ref 10m1) (pin 1)))
    (net (code 70) (name "Net-(150Ω21111111-Pad1)")
      (node (ref U3) (pin 5))
      (node (ref 150Ω21111111) (pin 1))
      (node (ref D7) (pin 1)))
    (net (code 71) (name "Net-(0.1uF4-Pad1)")
      (node (ref MAX1) (pin 23))
      (node (ref 0.1uF4) (pin 1))
      (node (ref D6) (pin C)))
    (net (code 72) (name "Net-(10k1-Pad1)")
      (node (ref 10k1) (pin 1))
      (node (ref MAX1) (pin 5))
      (node (ref 1uF1) (pin 1))
      (node (ref 10k4) (pin 2))
      (node (ref R1) (pin 2)))
    (net (code 73) (name "Net-(MAX1-Pad4)")
      (node (ref MAX1) (pin 4))
      (node (ref TH1) (pin 1)))
    (net (code 74) (name "Net-(1uF3-Pad1)")
      (node (ref MAX1) (pin 13))
      (node (ref 1uF3) (pin 1)))
    (net (code 75) (name "Net-(47uF2-Pad1)")
      (node (ref 47uF2) (pin 1))
      (node (ref MAX1) (pin 10)))
    (net (code 76) (name "Net-(47uF1-Pad1)")
      (node (ref 47uF1) (pin 1))
      (node (ref MAX1) (pin 11)))
    (net (code 77) (name "Net-(0.1uF1-Pad1)")
      (node (ref 0.1uF1) (pin 1))
      (node (ref 10k3) (pin 2)))
    (net (code 78) (name "Net-(1k1-Pad2)")
      (node (ref 1k1) (pin 2))
      (node (ref D5) (pin 2)))
    (net (code 79) (name "Net-(D5-Pad1)")
      (node (ref MAX1) (pin 15))
      (node (ref D5) (pin 1)))
    (net (code 80) (name "Net-(1k2-Pad2)")
      (node (ref 1k2) (pin 2))
      (node (ref D4) (pin 2)))
    (net (code 81) (name "Net-(D4-Pad1)")
      (node (ref MAX1) (pin 17))
      (node (ref D4) (pin 1)))
    (net (code 82) (name "Net-(1k3-Pad2)")
      (node (ref 1k3) (pin 2))
      (node (ref D3) (pin 2)))
    (net (code 83) (name "Net-(1uF4-Pad1)")
      (node (ref 1uF4) (pin 1))
      (node (ref MAX1) (pin 14)))
    (net (code 84) (name "Net-(0.1uF9-Pad1)")
      (node (ref MAX1) (pin 22))
      (node (ref 0.1uF9) (pin 1))
      (node (ref D6) (pin A)))
    (net (code 85) (name "Net-(10k5-Pad1)")
      (node (ref R1) (pin 1))
      (node (ref 10k5) (pin 1))
      (node (ref MAX1) (pin 2)))
    (net (code 86) (name "Net-(10k4-Pad1)")
      (node (ref 10k6) (pin 1))
      (node (ref MAX1) (pin 3))
      (node (ref 10k4) (pin 1)))
    (net (code 87) (name "Net-(6.2µH1-Pad1)")
      (node (ref 6.2µH1) (pin 1))
      (node (ref U2) (pin 7)))
    (net (code 88) (name "Net-(10k1-Pad2)")
      (node (ref 10k2) (pin 1))
      (node (ref MAX1) (pin 8))
      (node (ref 10k1) (pin 2)))
    (net (code 89) (name "Net-(0.1uF5-Pad1)")
      (node (ref 0.1uF5) (pin 1))
      (node (ref MAX1) (pin 19))
      (node (ref 6.2µH1) (pin 2))
      (node (ref 0.2) (pin 2)))
    (net (code 90) (name "Net-(0.1-Pad1)")
      (node (ref D2) (pin C))
      (node (ref 0.1) (pin 1))
      (node (ref MAX1) (pin 27))
      (node (ref 0.1uF7) (pin 1)))
    (net (code 91) (name "Net-(D3-Pad1)")
      (node (ref MAX1) (pin 16))
      (node (ref D3) (pin 1)))
    (net (code 92) (name "Net-(10k3-Pad1)")
      (node (ref 10k3) (pin 1))
      (node (ref 1uF2) (pin 1))
      (node (ref MAX1) (pin 9)))
    (net (code 93) (name "Net-(0.1uF3-Pad1)")
      (node (ref 1k1) (pin 1))
      (node (ref 1k3) (pin 1))
      (node (ref 1k2) (pin 1))
      (node (ref D1) (pin C))
      (node (ref MAX1) (pin 28))
      (node (ref 0.1uF3) (pin 1)))
    (net (code 94) (name "Net-(MAX1-Pad21)")
      (node (ref U2) (pin 2))
      (node (ref MAX1) (pin 21)))
    (net (code 95) (name "Net-(U2-Pad6)")
      (node (ref U2) (pin 6)))
    (net (code 96) (name "Net-(MAX1-Pad25)")
      (node (ref U2) (pin 4))
      (node (ref MAX1) (pin 25)))
    (net (code 97) (name "Net-(0.1uF4-Pad2)")
      (node (ref U2) (pin 8))
      (node (ref 0.1uF4) (pin 2))
      (node (ref U2) (pin 3))
      (node (ref MAX1) (pin 24)))
    (net (code 98) (name "Net-(0.1uF2-Pad1)")
      (node (ref 0.1uF2) (pin 1))
      (node (ref 4.7uF1) (pin 1))
      (node (ref MAX1) (pin 18))
      (node (ref MAX1) (pin 1)))
    (net (code 99) (name "Net-(C5-Pad2)")
      (node (ref U5) (pin 3))
      (node (ref C5) (pin 2)))
    (net (code 100) (name "Net-(U5-Pad5)")
      (node (ref U5) (pin 5)))
    (net (code 101) (name "Net-(R4-Pad1)")
      (node (ref R5) (pin 2))
      (node (ref R4) (pin 1))
      (node (ref U5) (pin 6)))
    (net (code 102) (name "Net-(U6-Pad5)")
      (node (ref U6) (pin 5)))
    (net (code 103) (name "Net-(C5-Pad1)")
      (node (ref L1) (pin 1))
      (node (ref U5) (pin 1))
      (node (ref D9) (pin 1))
      (node (ref C5) (pin 1)))
    (net (code 104) (name "Net-(C6-Pad1)")
      (node (ref U6) (pin 1))
      (node (ref D10) (pin 1))
      (node (ref C6) (pin 1))
      (node (ref L2) (pin 1)))
    (net (code 105) (name "Net-(C6-Pad2)")
      (node (ref C6) (pin 2))
      (node (ref U6) (pin 3)))))