%TF.GenerationSoftware,KiCad,Pcbnew,(5.0.0)*%
%TF.CreationDate,2019-03-25T10:21:36+11:00*%
%TF.ProjectId,main_board2,6D61696E5F626F617264322E6B696361,rev?*%
%TF.SameCoordinates,Original*%
%TF.FileFunction,Copper,L4,Bot,Signal*%
%TF.FilePolarity,Positive*%
%FSLAX46Y46*%
G04 Gerber Fmt 4.6, Leading zero omitted, Abs format (unit mm)*
G04 Created by KiCad (PCBNEW (5.0.0)) date 03/25/19 10:21:36*
%MOMM*%
%LPD*%
G01*
G04 APERTURE LIST*
%ADD10C,0.150000*%
%ADD11R,1.700000X1.700000*%
%ADD12O,1.700000X1.700000*%
%ADD13R,1.600000X0.550000*%
%ADD14R,0.550000X1.600000*%
%ADD15C,0.100000*%
%ADD16C,1.150000*%
%ADD17C,1.524000*%
%ADD18C,1.500000*%
%ADD19C,0.800000*%
%ADD20C,1.500000*%
%ADD21C,0.500000*%
%ADD22C,1.000000*%
G04 APERTURE END LIST*
D10*
X90000000Y0D02*
X90000000Y-12030000D01*
X90000000Y-90000000D02*
X90000000Y-49000000D01*
X85000000Y-17030000D02*
X85000000Y-44000000D01*
X85000000Y-44000000D02*
G75*
G02X90000000Y-49000000I0J-5000000D01*
G01*
X85000000Y-17030000D02*
G75*
G03X90000000Y-12030000I0J5000000D01*
G01*
X0Y-90000000D02*
X0Y0D01*
X90000000Y-90000000D02*
X0Y-90000000D01*
X0Y0D02*
X90000000Y0D01*
D11*
X11430000Y-45720000D03*
D12*
X11430000Y-48260000D03*
X13970000Y-45720000D03*
X13970000Y-48260000D03*
X16510000Y-45720000D03*
X16510000Y-48260000D03*
X19050000Y-45720000D03*
X19050000Y-48260000D03*
X21590000Y-45720000D03*
X21590000Y-48260000D03*
X24130000Y-45720000D03*
X24130000Y-48260000D03*
X26670000Y-45720000D03*
X26670000Y-48260000D03*
X29210000Y-45720000D03*
X29210000Y-48260000D03*
D13*
X65210000Y-41650000D03*
X65210000Y-42450000D03*
X65210000Y-43250000D03*
X65210000Y-44050000D03*
X65210000Y-44850000D03*
X65210000Y-45650000D03*
X65210000Y-46450000D03*
X65210000Y-47250000D03*
D14*
X63760000Y-48700000D03*
X62960000Y-48700000D03*
X62160000Y-48700000D03*
X61360000Y-48700000D03*
X60560000Y-48700000D03*
X59760000Y-48700000D03*
X58960000Y-48700000D03*
X58160000Y-48700000D03*
D13*
X56710000Y-47250000D03*
X56710000Y-46450000D03*
X56710000Y-45650000D03*
X56710000Y-44850000D03*
X56710000Y-44050000D03*
X56710000Y-43250000D03*
X56710000Y-42450000D03*
X56710000Y-41650000D03*
D14*
X58160000Y-40200000D03*
X58960000Y-40200000D03*
X59760000Y-40200000D03*
X60560000Y-40200000D03*
X61360000Y-40200000D03*
X62160000Y-40200000D03*
X62960000Y-40200000D03*
X63760000Y-40200000D03*
D15*
G36*
X80363074Y-45021204D02*
X80387342Y-45024804D01*
X80411141Y-45030765D01*
X80434240Y-45039030D01*
X80456419Y-45049520D01*
X80477462Y-45062132D01*
X80497168Y-45076747D01*
X80515346Y-45093223D01*
X80531822Y-45111401D01*
X80546437Y-45131107D01*
X80559049Y-45152150D01*
X80569539Y-45174329D01*
X80577804Y-45197428D01*
X80583765Y-45221227D01*
X80587365Y-45245495D01*
X80588569Y-45269999D01*
X80588569Y-46170001D01*
X80587365Y-46194505D01*
X80583765Y-46218773D01*
X80577804Y-46242572D01*
X80569539Y-46265671D01*
X80559049Y-46287850D01*
X80546437Y-46308893D01*
X80531822Y-46328599D01*
X80515346Y-46346777D01*
X80497168Y-46363253D01*
X80477462Y-46377868D01*
X80456419Y-46390480D01*
X80434240Y-46400970D01*
X80411141Y-46409235D01*
X80387342Y-46415196D01*
X80363074Y-46418796D01*
X80338570Y-46420000D01*
X79688568Y-46420000D01*
X79664064Y-46418796D01*
X79639796Y-46415196D01*
X79615997Y-46409235D01*
X79592898Y-46400970D01*
X79570719Y-46390480D01*
X79549676Y-46377868D01*
X79529970Y-46363253D01*
X79511792Y-46346777D01*
X79495316Y-46328599D01*
X79480701Y-46308893D01*
X79468089Y-46287850D01*
X79457599Y-46265671D01*
X79449334Y-46242572D01*
X79443373Y-46218773D01*
X79439773Y-46194505D01*
X79438569Y-46170001D01*
X79438569Y-45269999D01*
X79439773Y-45245495D01*
X79443373Y-45221227D01*
X79449334Y-45197428D01*
X79457599Y-45174329D01*
X79468089Y-45152150D01*
X79480701Y-45131107D01*
X79495316Y-45111401D01*
X79511792Y-45093223D01*
X79529970Y-45076747D01*
X79549676Y-45062132D01*
X79570719Y-45049520D01*
X79592898Y-45039030D01*
X79615997Y-45030765D01*
X79639796Y-45024804D01*
X79664064Y-45021204D01*
X79688568Y-45020000D01*
X80338570Y-45020000D01*
X80363074Y-45021204D01*
X80363074Y-45021204D01*
G37*
D16*
X80013569Y-45720000D03*
D15*
G36*
X78313074Y-45021204D02*
X78337342Y-45024804D01*
X78361141Y-45030765D01*
X78384240Y-45039030D01*
X78406419Y-45049520D01*
X78427462Y-45062132D01*
X78447168Y-45076747D01*
X78465346Y-45093223D01*
X78481822Y-45111401D01*
X78496437Y-45131107D01*
X78509049Y-45152150D01*
X78519539Y-45174329D01*
X78527804Y-45197428D01*
X78533765Y-45221227D01*
X78537365Y-45245495D01*
X78538569Y-45269999D01*
X78538569Y-46170001D01*
X78537365Y-46194505D01*
X78533765Y-46218773D01*
X78527804Y-46242572D01*
X78519539Y-46265671D01*
X78509049Y-46287850D01*
X78496437Y-46308893D01*
X78481822Y-46328599D01*
X78465346Y-46346777D01*
X78447168Y-46363253D01*
X78427462Y-46377868D01*
X78406419Y-46390480D01*
X78384240Y-46400970D01*
X78361141Y-46409235D01*
X78337342Y-46415196D01*
X78313074Y-46418796D01*
X78288570Y-46420000D01*
X77638568Y-46420000D01*
X77614064Y-46418796D01*
X77589796Y-46415196D01*
X77565997Y-46409235D01*
X77542898Y-46400970D01*
X77520719Y-46390480D01*
X77499676Y-46377868D01*
X77479970Y-46363253D01*
X77461792Y-46346777D01*
X77445316Y-46328599D01*
X77430701Y-46308893D01*
X77418089Y-46287850D01*
X77407599Y-46265671D01*
X77399334Y-46242572D01*
X77393373Y-46218773D01*
X77389773Y-46194505D01*
X77388569Y-46170001D01*
X77388569Y-45269999D01*
X77389773Y-45245495D01*
X77393373Y-45221227D01*
X77399334Y-45197428D01*
X77407599Y-45174329D01*
X77418089Y-45152150D01*
X77430701Y-45131107D01*
X77445316Y-45111401D01*
X77461792Y-45093223D01*
X77479970Y-45076747D01*
X77499676Y-45062132D01*
X77520719Y-45049520D01*
X77542898Y-45039030D01*
X77565997Y-45030765D01*
X77589796Y-45024804D01*
X77614064Y-45021204D01*
X77638568Y-45020000D01*
X78288570Y-45020000D01*
X78313074Y-45021204D01*
X78313074Y-45021204D01*
G37*
D16*
X77963569Y-45720000D03*
D17*
X40935000Y-3140000D03*
X43475000Y-3140000D03*
X38395000Y-3140000D03*
X48555000Y-3140000D03*
X46015000Y-3140000D03*
X51095000Y-3140000D03*
X58715000Y-3140000D03*
X53635000Y-3140000D03*
X56175000Y-3140000D03*
X63795000Y-3140000D03*
X61255000Y-3140000D03*
X30775000Y-3140000D03*
X20615000Y-3140000D03*
X25695000Y-3140000D03*
X28235000Y-3140000D03*
X15535000Y-3140000D03*
X18075000Y-3140000D03*
X23155000Y-3140000D03*
X33315000Y-3140000D03*
X35855000Y-3140000D03*
X40935000Y-5680000D03*
X43475000Y-5680000D03*
X38395000Y-5680000D03*
X48555000Y-5680000D03*
X46015000Y-5680000D03*
X51095000Y-5680000D03*
X58715000Y-5680000D03*
X53635000Y-5680000D03*
X56175000Y-5680000D03*
X63795000Y-5680000D03*
X61255000Y-5680000D03*
X30775000Y-5680000D03*
X20615000Y-5680000D03*
X25695000Y-5680000D03*
X28235000Y-5680000D03*
X15535000Y-5680000D03*
X18075000Y-5680000D03*
X23155000Y-5680000D03*
X33315000Y-5680000D03*
X35855000Y-5680000D03*
X7915000Y-8220000D03*
X5375000Y-8220000D03*
X40935000Y-8220000D03*
X43475000Y-8220000D03*
X38395000Y-8220000D03*
X48555000Y-8220000D03*
X46015000Y-8220000D03*
X51095000Y-8220000D03*
X58715000Y-8220000D03*
X53635000Y-8220000D03*
X56175000Y-8220000D03*
X66335000Y-8220000D03*
X63795000Y-8220000D03*
X61255000Y-8220000D03*
X30775000Y-8220000D03*
X12995000Y-8220000D03*
X20615000Y-8220000D03*
X25695000Y-8220000D03*
X10455000Y-8220000D03*
X28235000Y-8220000D03*
X15535000Y-8220000D03*
X18075000Y-8220000D03*
X23155000Y-8220000D03*
X33315000Y-8220000D03*
X35855000Y-8220000D03*
X71415000Y-8220000D03*
X68875000Y-8220000D03*
X76495000Y-8220000D03*
X73955000Y-8220000D03*
X79035000Y-8220000D03*
X81575000Y-8220000D03*
X84115000Y-8220000D03*
X84115000Y-10760000D03*
X81575000Y-10760000D03*
X79035000Y-10760000D03*
X76495000Y-10760000D03*
X73955000Y-10760000D03*
X71415000Y-10760000D03*
X68875000Y-10760000D03*
X66335000Y-10760000D03*
X63795000Y-10760000D03*
X61255000Y-10760000D03*
X58715000Y-10760000D03*
X56175000Y-10760000D03*
X53635000Y-10760000D03*
X51095000Y-10760000D03*
X48555000Y-10760000D03*
X46015000Y-10760000D03*
X43475000Y-10760000D03*
X40935000Y-10760000D03*
X38395000Y-10760000D03*
X35855000Y-10760000D03*
X33315000Y-10760000D03*
X30775000Y-10760000D03*
X28235000Y-10760000D03*
X25695000Y-10760000D03*
X23155000Y-10760000D03*
X20615000Y-10760000D03*
X18075000Y-10760000D03*
X15535000Y-10760000D03*
X12995000Y-10760000D03*
X10455000Y-10760000D03*
X7915000Y-10760000D03*
X5375000Y-10760000D03*
D15*
G36*
X78313074Y-39941204D02*
X78337342Y-39944804D01*
X78361141Y-39950765D01*
X78384240Y-39959030D01*
X78406419Y-39969520D01*
X78427462Y-39982132D01*
X78447168Y-39996747D01*
X78465346Y-40013223D01*
X78481822Y-40031401D01*
X78496437Y-40051107D01*
X78509049Y-40072150D01*
X78519539Y-40094329D01*
X78527804Y-40117428D01*
X78533765Y-40141227D01*
X78537365Y-40165495D01*
X78538569Y-40189999D01*
X78538569Y-41090001D01*
X78537365Y-41114505D01*
X78533765Y-41138773D01*
X78527804Y-41162572D01*
X78519539Y-41185671D01*
X78509049Y-41207850D01*
X78496437Y-41228893D01*
X78481822Y-41248599D01*
X78465346Y-41266777D01*
X78447168Y-41283253D01*
X78427462Y-41297868D01*
X78406419Y-41310480D01*
X78384240Y-41320970D01*
X78361141Y-41329235D01*
X78337342Y-41335196D01*
X78313074Y-41338796D01*
X78288570Y-41340000D01*
X77638568Y-41340000D01*
X77614064Y-41338796D01*
X77589796Y-41335196D01*
X77565997Y-41329235D01*
X77542898Y-41320970D01*
X77520719Y-41310480D01*
X77499676Y-41297868D01*
X77479970Y-41283253D01*
X77461792Y-41266777D01*
X77445316Y-41248599D01*
X77430701Y-41228893D01*
X77418089Y-41207850D01*
X77407599Y-41185671D01*
X77399334Y-41162572D01*
X77393373Y-41138773D01*
X77389773Y-41114505D01*
X77388569Y-41090001D01*
X77388569Y-40189999D01*
X77389773Y-40165495D01*
X77393373Y-40141227D01*
X77399334Y-40117428D01*
X77407599Y-40094329D01*
X77418089Y-40072150D01*
X77430701Y-40051107D01*
X77445316Y-40031401D01*
X77461792Y-40013223D01*
X77479970Y-39996747D01*
X77499676Y-39982132D01*
X77520719Y-39969520D01*
X77542898Y-39959030D01*
X77565997Y-39950765D01*
X77589796Y-39944804D01*
X77614064Y-39941204D01*
X77638568Y-39940000D01*
X78288570Y-39940000D01*
X78313074Y-39941204D01*
X78313074Y-39941204D01*
G37*
D16*
X77963569Y-40640000D03*
D15*
G36*
X80363074Y-39941204D02*
X80387342Y-39944804D01*
X80411141Y-39950765D01*
X80434240Y-39959030D01*
X80456419Y-39969520D01*
X80477462Y-39982132D01*
X80497168Y-39996747D01*
X80515346Y-40013223D01*
X80531822Y-40031401D01*
X80546437Y-40051107D01*
X80559049Y-40072150D01*
X80569539Y-40094329D01*
X80577804Y-40117428D01*
X80583765Y-40141227D01*
X80587365Y-40165495D01*
X80588569Y-40189999D01*
X80588569Y-41090001D01*
X80587365Y-41114505D01*
X80583765Y-41138773D01*
X80577804Y-41162572D01*
X80569539Y-41185671D01*
X80559049Y-41207850D01*
X80546437Y-41228893D01*
X80531822Y-41248599D01*
X80515346Y-41266777D01*
X80497168Y-41283253D01*
X80477462Y-41297868D01*
X80456419Y-41310480D01*
X80434240Y-41320970D01*
X80411141Y-41329235D01*
X80387342Y-41335196D01*
X80363074Y-41338796D01*
X80338570Y-41340000D01*
X79688568Y-41340000D01*
X79664064Y-41338796D01*
X79639796Y-41335196D01*
X79615997Y-41329235D01*
X79592898Y-41320970D01*
X79570719Y-41310480D01*
X79549676Y-41297868D01*
X79529970Y-41283253D01*
X79511792Y-41266777D01*
X79495316Y-41248599D01*
X79480701Y-41228893D01*
X79468089Y-41207850D01*
X79457599Y-41185671D01*
X79449334Y-41162572D01*
X79443373Y-41138773D01*
X79439773Y-41114505D01*
X79438569Y-41090001D01*
X79438569Y-40189999D01*
X79439773Y-40165495D01*
X79443373Y-40141227D01*
X79449334Y-40117428D01*
X79457599Y-40094329D01*
X79468089Y-40072150D01*
X79480701Y-40051107D01*
X79495316Y-40031401D01*
X79511792Y-40013223D01*
X79529970Y-39996747D01*
X79549676Y-39982132D01*
X79570719Y-39969520D01*
X79592898Y-39959030D01*
X79615997Y-39950765D01*
X79639796Y-39944804D01*
X79664064Y-39941204D01*
X79688568Y-39940000D01*
X80338570Y-39940000D01*
X80363074Y-39941204D01*
X80363074Y-39941204D01*
G37*
D16*
X80013569Y-40640000D03*
D18*
X73660000Y-40640000D03*
X73660000Y-45520000D03*
D11*
X63500000Y-58420000D03*
D12*
X63500000Y-60960000D03*
X60960000Y-58420000D03*
X60960000Y-60960000D03*
X58420000Y-58420000D03*
X58420000Y-60960000D03*
D19*
X68580000Y-41910000D03*
X68722818Y-43322818D03*
X52070000Y-41910000D03*
X59322579Y-44041979D03*
X50800000Y-24130000D03*
X50800000Y-16510000D03*
X44538541Y-15151459D03*
X62310000Y-44450000D03*
X59690000Y-52070000D03*
X58420000Y-50110021D03*
X48260000Y-62230000D03*
X47400010Y-47400010D03*
X52070000Y-60960000D03*
X52070000Y-49410011D03*
X60960000Y-36830000D03*
X67310000Y-60960000D03*
X62310000Y-45720000D03*
X62310000Y-46990000D03*
X64810422Y-12740422D03*
X63506041Y-46996041D03*
X64770000Y-49530000D03*
X72390000Y-13970000D03*
X50800000Y-12700000D03*
X59690000Y-13970000D03*
X58420000Y-41910000D03*
X58420000Y-43180000D03*
D20*
X80013569Y-45720000D02*
X80013569Y-40640000D01*
X80013569Y-14278569D02*
X76495000Y-10760000D01*
X80013569Y-40640000D02*
X80013569Y-14278569D01*
D21*
X65210000Y-43250000D02*
X67240000Y-43250000D01*
D22*
X67240000Y-43250000D02*
X68580000Y-41910000D01*
D21*
X55410000Y-44050000D02*
X54610000Y-43250000D01*
X56710000Y-44050000D02*
X55410000Y-44050000D01*
D22*
X46015000Y-11837630D02*
X46015000Y-10760000D01*
X46015000Y-37552070D02*
X46015000Y-11837630D01*
X51712930Y-43250000D02*
X46015000Y-37552070D01*
X54610000Y-43250000D02*
X51712930Y-43250000D01*
X11430000Y-14865000D02*
X15535000Y-10760000D01*
X11430000Y-45720000D02*
X11430000Y-14865000D01*
X11430000Y-45720000D02*
X11430000Y-48260000D01*
D20*
X80013569Y-46520000D02*
X80013569Y-45720000D01*
X68113569Y-58420000D02*
X80013569Y-46520000D01*
X63500000Y-58420000D02*
X68113569Y-58420000D01*
D21*
X63959999Y-43414999D02*
X64124998Y-43250000D01*
X63959999Y-44685001D02*
X63959999Y-43414999D01*
X64124998Y-44850000D02*
X63959999Y-44685001D01*
X65210000Y-44850000D02*
X64124998Y-44850000D01*
X64124998Y-43250000D02*
X65210000Y-43250000D01*
X65210000Y-44050000D02*
X66696484Y-44050000D01*
X66510000Y-45650000D02*
X65210000Y-45650000D01*
X56710000Y-46450000D02*
X55340000Y-46450000D01*
D22*
X30775000Y-11837630D02*
X30775000Y-10760000D01*
X30775000Y-26965000D02*
X30775000Y-11837630D01*
X50260000Y-46450000D02*
X30775000Y-26965000D01*
X55340000Y-46450000D02*
X50260000Y-46450000D01*
X16510000Y-48260000D02*
X16510000Y-45720000D01*
X16510000Y-25025000D02*
X30775000Y-10760000D01*
X16510000Y-45720000D02*
X16510000Y-25025000D01*
D20*
X58420000Y-58420000D02*
X6350000Y-58420000D01*
X6350000Y-12325000D02*
X7915000Y-10760000D01*
X6350000Y-58420000D02*
X6350000Y-12325000D01*
D21*
X66510000Y-44236484D02*
X66696484Y-44050000D01*
X66510000Y-45650000D02*
X66510000Y-44236484D01*
X66510000Y-45650000D02*
X66510000Y-45535636D01*
X66510000Y-45535636D02*
X68722818Y-43322818D01*
X65210000Y-46450000D02*
X67850000Y-46450000D01*
D22*
X67850000Y-46450000D02*
X73660000Y-40640000D01*
X73660000Y-40640000D02*
X77963569Y-40640000D01*
D21*
X65735000Y-47250000D02*
X66745000Y-48260000D01*
X65210000Y-47250000D02*
X65735000Y-47250000D01*
D22*
X70920000Y-48260000D02*
X73660000Y-45520000D01*
X66745000Y-48260000D02*
X70920000Y-48260000D01*
X77763569Y-45520000D02*
X77963569Y-45720000D01*
X73660000Y-45520000D02*
X77763569Y-45520000D01*
X52070000Y-41910000D02*
X54610000Y-41910000D01*
D21*
X55150000Y-42450000D02*
X56710000Y-42450000D01*
X54610000Y-41910000D02*
X55150000Y-42450000D01*
X61218021Y-44041979D02*
X59322579Y-44041979D01*
X63760000Y-40200000D02*
X63760000Y-41500000D01*
X63760000Y-41500000D02*
X61218021Y-44041979D01*
X50800000Y-24130000D02*
X50800000Y-16510000D01*
X44538541Y-11823541D02*
X43475000Y-10760000D01*
X44538541Y-15151459D02*
X44538541Y-11823541D01*
X60560000Y-48700000D02*
X60560000Y-47400000D01*
X60560000Y-47400000D02*
X60560000Y-46200000D01*
X60560000Y-46200000D02*
X62310000Y-44450000D01*
D22*
X21590000Y-45720000D02*
X21590000Y-48260000D01*
D21*
X58960000Y-49785002D02*
X58484991Y-50260011D01*
X58960000Y-48700000D02*
X58960000Y-49785002D01*
D22*
X60960000Y-58420000D02*
X60960000Y-53340000D01*
X60960000Y-53340000D02*
X59690000Y-52070000D01*
D21*
X58484991Y-50260011D02*
X58420000Y-50110021D01*
X57854315Y-50110021D02*
X58420000Y-50110021D01*
X57704325Y-50260011D02*
X57854315Y-50110021D01*
X23590011Y-50260011D02*
X57704325Y-50260011D01*
X21590000Y-48260000D02*
X23590011Y-50260011D01*
X56710000Y-47250000D02*
X56140000Y-47250000D01*
X55989990Y-47400010D02*
X47400010Y-47400010D01*
X56140000Y-47250000D02*
X55989990Y-47400010D01*
X24979999Y-44870001D02*
X24130000Y-45720000D01*
X25430001Y-44419999D02*
X24979999Y-44870001D01*
X44419999Y-44419999D02*
X25430001Y-44419999D01*
X47400010Y-47400010D02*
X44419999Y-44419999D01*
D22*
X24130000Y-45720000D02*
X24130000Y-48260000D01*
X60960000Y-60960000D02*
X60960000Y-62230000D01*
X48540001Y-62510001D02*
X48260000Y-62230000D01*
X60960000Y-62230000D02*
X60679999Y-62510001D01*
X60679999Y-62510001D02*
X48540001Y-62510001D01*
X26670000Y-45720000D02*
X26670000Y-48260000D01*
D21*
X57385000Y-48700000D02*
X58160000Y-48700000D01*
D22*
X58420000Y-60960000D02*
X52070000Y-60960000D01*
D21*
X52070000Y-49410011D02*
X53220011Y-48260000D01*
X56945000Y-48260000D02*
X57385000Y-48700000D01*
X53220011Y-48260000D02*
X56945000Y-48260000D01*
X27970001Y-49560001D02*
X26670000Y-48260000D01*
X50769999Y-49560001D02*
X27970001Y-49560001D01*
X52070000Y-49410011D02*
X50919989Y-49410011D01*
X50919989Y-49410011D02*
X50769999Y-49560001D01*
X61360000Y-38900000D02*
X60960000Y-38500000D01*
X61360000Y-40200000D02*
X61360000Y-38900000D01*
D22*
X60960000Y-38500000D02*
X60960000Y-36830000D01*
D20*
X63500000Y-60960000D02*
X67310000Y-60960000D01*
D21*
X28996999Y-7458001D02*
X28235000Y-8220000D01*
X29447001Y-7007999D02*
X28996999Y-7458001D01*
X29447001Y-4657001D02*
X29447001Y-7007999D01*
X29752001Y-4352001D02*
X29447001Y-4657001D01*
X49020763Y-4352001D02*
X29752001Y-4352001D01*
X49767001Y-5098239D02*
X49020763Y-4352001D01*
X49767001Y-6145763D02*
X49767001Y-5098239D01*
X50513239Y-6892001D02*
X49767001Y-6145763D01*
X51560763Y-6892001D02*
X50513239Y-6892001D01*
X52307001Y-7638239D02*
X51560763Y-6892001D01*
X52307001Y-8685763D02*
X52307001Y-7638239D01*
X53053239Y-9432001D02*
X52307001Y-8685763D01*
X54100763Y-9432001D02*
X53053239Y-9432001D01*
X54847001Y-10178239D02*
X54100763Y-9432001D01*
X54847001Y-11225763D02*
X54847001Y-10178239D01*
X62160000Y-18538762D02*
X54847001Y-11225763D01*
X62160000Y-40200000D02*
X62160000Y-18538762D01*
X34076999Y-7458001D02*
X33315000Y-8220000D01*
X34527001Y-7007999D02*
X34076999Y-7458001D01*
X46596761Y-7007999D02*
X34527001Y-7007999D01*
X47227001Y-7638239D02*
X46596761Y-7007999D01*
X47227001Y-8801761D02*
X47227001Y-7638239D01*
X47973239Y-9547999D02*
X47227001Y-8801761D01*
X49136761Y-9547999D02*
X47973239Y-9547999D01*
X49767001Y-10178239D02*
X49136761Y-9547999D01*
X49767001Y-32582001D02*
X49767001Y-10178239D01*
X57385000Y-40200000D02*
X49767001Y-32582001D01*
X58160000Y-40200000D02*
X57385000Y-40200000D01*
X36616999Y-8981999D02*
X35855000Y-8220000D01*
X37182999Y-9547999D02*
X36616999Y-8981999D01*
X46596761Y-9547999D02*
X37182999Y-9547999D01*
X47227001Y-10178239D02*
X46596761Y-9547999D01*
X47227001Y-31392001D02*
X47227001Y-10178239D01*
X56710000Y-40875000D02*
X47227001Y-31392001D01*
X56710000Y-41650000D02*
X56710000Y-40875000D01*
X61360000Y-48700000D02*
X61360000Y-46670000D01*
X61360000Y-46670000D02*
X62310000Y-45720000D01*
X62160000Y-48700000D02*
X62160000Y-47140000D01*
X62160000Y-47140000D02*
X62310000Y-46990000D01*
X78273001Y-9998001D02*
X79035000Y-10760000D01*
X77707001Y-9432001D02*
X78273001Y-9998001D01*
X65753239Y-9432001D02*
X77707001Y-9432001D01*
X65007001Y-10178239D02*
X65753239Y-9432001D01*
X65007001Y-11978158D02*
X65007001Y-10178239D01*
X64810422Y-12174737D02*
X65007001Y-11978158D01*
X64810422Y-12740422D02*
X64810422Y-12174737D01*
X62960000Y-48700000D02*
X62960000Y-47542082D01*
X62960000Y-47542082D02*
X63506041Y-46996041D01*
X63760000Y-48700000D02*
X63940000Y-48700000D01*
X63940000Y-48700000D02*
X64770000Y-49530000D01*
X72390000Y-11735000D02*
X71415000Y-10760000D01*
X72390000Y-13970000D02*
X72390000Y-11735000D01*
X58960000Y-40200000D02*
X58960000Y-20860000D01*
X58960000Y-20860000D02*
X50800000Y-12700000D01*
X62960000Y-40200000D02*
X62960000Y-17240000D01*
X62960000Y-17240000D02*
X59690000Y-13970000D01*
X59350000Y-41910000D02*
X58420000Y-41910000D01*
X59760000Y-40200000D02*
X59760000Y-41500000D01*
X59760000Y-41500000D02*
X59350000Y-41910000D01*
X59069963Y-43180000D02*
X58420000Y-43180000D01*
X60560000Y-40200000D02*
X60560000Y-41689963D01*
X60560000Y-41689963D02*
X59069963Y-43180000D01*
D22*
X19050000Y-45720000D02*
X19050000Y-48260000D01*
D21*
X59760000Y-50000000D02*
X59760000Y-48700000D01*
X58799979Y-50960021D02*
X59760000Y-50000000D01*
X19050000Y-48260000D02*
X21750021Y-50960021D01*
X21750021Y-50960021D02*
X58799979Y-50960021D01*
M02*
