(module DIOAD829W49L456D191 (layer F.Cu) (tedit 5EFFEA57)
  (fp_text reference REF** (at 0.612145 -2.843205) (layer F.SilkS)
    (effects (font (size 1.000102 1.000102) (thickness 0.015)))
  )
  (fp_text value DIOAD829W49L456D191 (at 9.57201 2.34577) (layer F.Fab)
    (effects (font (size 1.001921 1.001921) (thickness 0.015)))
  )
  (fp_circle (center -5.3 0) (end -5.2 0) (layer F.Fab) (width 0.2))
  (fp_circle (center -5.3 0) (end -5.2 0) (layer F.SilkS) (width 0.2))
  (fp_line (start 3.2 0) (end 2.28 0) (layer F.SilkS) (width 0.127))
  (fp_line (start -2.28 0) (end -3.2 0) (layer F.SilkS) (width 0.127))
  (fp_line (start -2.28 0) (end -2.28 0.95) (layer F.SilkS) (width 0.127))
  (fp_line (start -2.28 -0.96) (end -2.28 0) (layer F.SilkS) (width 0.127))
  (fp_line (start 2.28 0) (end 2.28 0.96) (layer F.SilkS) (width 0.127))
  (fp_line (start 2.28 -0.95) (end 2.28 0) (layer F.SilkS) (width 0.127))
  (fp_line (start 1.52 -0.96) (end 2.28 -0.96) (layer F.SilkS) (width 0.127))
  (fp_line (start 1.52 0.96) (end 2.28 0.96) (layer F.SilkS) (width 0.127))
  (fp_line (start -2.28 0.96) (end -1.52 0.96) (layer F.SilkS) (width 0.127))
  (fp_line (start -2.28 -0.96) (end -1.52 -0.96) (layer F.SilkS) (width 0.127))
  (fp_line (start 4.97 -0.815) (end 4.97 0.815) (layer F.CrtYd) (width 0.05))
  (fp_line (start 4.97 0.815) (end 2.53 0.815) (layer F.CrtYd) (width 0.05))
  (fp_line (start 4.97 -0.815) (end 2.53 -0.815) (layer F.CrtYd) (width 0.05))
  (fp_line (start -4.97 -0.815) (end -4.97 0.815) (layer F.CrtYd) (width 0.05))
  (fp_line (start -2.53 -0.815) (end -4.97 -0.815) (layer F.CrtYd) (width 0.05))
  (fp_line (start -2.53 0.815) (end -4.97 0.815) (layer F.CrtYd) (width 0.05))
  (fp_line (start -2.53 1.21) (end -2.53 0.815) (layer F.CrtYd) (width 0.05))
  (fp_line (start 2.53 1.21) (end 2.53 0.815) (layer F.CrtYd) (width 0.05))
  (fp_line (start 2.53 1.21) (end -2.53 1.21) (layer F.CrtYd) (width 0.05))
  (fp_line (start 2.53 -1.21) (end 2.53 -0.815) (layer F.CrtYd) (width 0.05))
  (fp_line (start -2.53 -1.21) (end -2.53 -0.815) (layer F.CrtYd) (width 0.05))
  (fp_line (start -2.53 -1.21) (end 2.53 -1.21) (layer F.CrtYd) (width 0.05))
  (fp_line (start 2.28 0) (end 3.581 0) (layer F.Fab) (width 0.127))
  (fp_line (start -3.581 0) (end -2.28 0) (layer F.Fab) (width 0.127))
  (fp_line (start 2.28 0) (end 2.28 0.96) (layer F.Fab) (width 0.127))
  (fp_line (start 2.28 -0.96) (end 2.28 0) (layer F.Fab) (width 0.127))
  (fp_line (start -2.28 0) (end -2.28 0.96) (layer F.Fab) (width 0.127))
  (fp_line (start -2.28 -0.96) (end -2.28 0) (layer F.Fab) (width 0.127))
  (fp_line (start -2.28 0.96) (end 2.28 0.96) (layer F.Fab) (width 0.127))
  (fp_line (start -2.28 -0.96) (end 2.28 -0.96) (layer F.Fab) (width 0.127))
  (pad A thru_hole circle (at 4.146 0) (size 1.238 1.238) (drill 0.73) (layers *.Cu *.Mask))
  (pad C thru_hole rect (at -4.146 0) (size 1.238 1.238) (drill 0.73) (layers *.Cu *.Mask))
)
