G04 #@! TF.GenerationSoftware,KiCad,Pcbnew,(5.0.2)-1*
G04 #@! TF.CreationDate,2019-03-23T14:42:36+11:00*
G04 #@! TF.ProjectId,Backup_V1,4261636b-7570-45f5-9631-2e6b69636164,rev?*
G04 #@! TF.SameCoordinates,Original*
G04 #@! TF.FileFunction,Paste,Top*
G04 #@! TF.FilePolarity,Positive*
%FSLAX46Y46*%
G04 Gerber Fmt 4.6, Leading zero omitted, Abs format (unit mm)*
G04 Created by KiCad (PCBNEW (5.0.2)-1) date 23/03/2019 2:42:36 PM*
%MOMM*%
%LPD*%
G01*
G04 APERTURE LIST*
%ADD10R,1.250000X1.500000*%
%ADD11R,1.500000X1.250000*%
%ADD12R,1.200000X1.200000*%
%ADD13R,0.700000X1.300000*%
%ADD14R,1.500000X1.300000*%
%ADD15R,1.300000X1.500000*%
%ADD16C,0.100000*%
%ADD17C,6.350000*%
%ADD18C,3.250000*%
%ADD19C,0.250000*%
%ADD20C,0.400000*%
%ADD21C,0.300000*%
G04 APERTURE END LIST*
D10*
G04 #@! TO.C,C1*
X45720000Y-37425000D03*
X45720000Y-34925000D03*
G04 #@! TD*
G04 #@! TO.C,C2*
X43180000Y-34965000D03*
X43180000Y-37465000D03*
G04 #@! TD*
G04 #@! TO.C,C3*
X50800000Y-37445000D03*
X50800000Y-34945000D03*
G04 #@! TD*
G04 #@! TO.C,C4*
X48260000Y-37465000D03*
X48260000Y-34965000D03*
G04 #@! TD*
D11*
G04 #@! TO.C,C5*
X38100000Y-17780000D03*
X35600000Y-17780000D03*
G04 #@! TD*
D10*
G04 #@! TO.C,C6*
X53340000Y-34925000D03*
X53340000Y-37425000D03*
G04 #@! TD*
G04 #@! TO.C,C7*
X55860000Y-37445000D03*
X55860000Y-34945000D03*
G04 #@! TD*
G04 #@! TO.C,C8*
X39370000Y-26904000D03*
X39370000Y-24404000D03*
G04 #@! TD*
G04 #@! TO.C,C9*
X20066000Y-30988000D03*
X20066000Y-28488000D03*
G04 #@! TD*
D11*
G04 #@! TO.C,C10*
X26670000Y-41402000D03*
X24170000Y-41402000D03*
G04 #@! TD*
D10*
G04 #@! TO.C,C11*
X4583256Y-20546638D03*
X4583256Y-18046638D03*
G04 #@! TD*
G04 #@! TO.C,C12*
X6985000Y-20546638D03*
X6985000Y-18046638D03*
G04 #@! TD*
G04 #@! TO.C,C13*
X17283256Y-20546638D03*
X17283256Y-18046638D03*
G04 #@! TD*
G04 #@! TO.C,C14*
X14743256Y-20546638D03*
X14743256Y-18046638D03*
G04 #@! TD*
G04 #@! TO.C,C15*
X12203256Y-18046638D03*
X12203256Y-20546638D03*
G04 #@! TD*
G04 #@! TO.C,C16*
X9663256Y-18046638D03*
X9663256Y-20546638D03*
G04 #@! TD*
G04 #@! TO.C,C17*
X19685000Y-18046638D03*
X19685000Y-20546638D03*
G04 #@! TD*
G04 #@! TO.C,C18*
X22363256Y-20546638D03*
X22363256Y-18046638D03*
G04 #@! TD*
G04 #@! TO.C,C19*
X40640000Y-34945000D03*
X40640000Y-37445000D03*
G04 #@! TD*
G04 #@! TO.C,C20*
X38100000Y-37465000D03*
X38100000Y-34965000D03*
G04 #@! TD*
G04 #@! TO.C,C21*
X35560000Y-34945000D03*
X35560000Y-37445000D03*
G04 #@! TD*
G04 #@! TO.C,C22*
X33020000Y-37445000D03*
X33020000Y-34945000D03*
G04 #@! TD*
D11*
G04 #@! TO.C,C23*
X45760000Y-20320000D03*
X48260000Y-20320000D03*
G04 #@! TD*
D10*
G04 #@! TO.C,C24*
X30480000Y-34945000D03*
X30480000Y-37445000D03*
G04 #@! TD*
G04 #@! TO.C,C25*
X27940000Y-37445000D03*
X27940000Y-34945000D03*
G04 #@! TD*
G04 #@! TO.C,C26*
X43180000Y-24170000D03*
X43180000Y-26670000D03*
G04 #@! TD*
D11*
G04 #@! TO.C,C27*
X64770000Y-39370000D03*
X67270000Y-39370000D03*
G04 #@! TD*
G04 #@! TO.C,C28*
X68540000Y-29718000D03*
X66040000Y-29718000D03*
G04 #@! TD*
D10*
G04 #@! TO.C,C29*
X81280000Y-26650000D03*
X81280000Y-24150000D03*
G04 #@! TD*
G04 #@! TO.C,C30*
X78740000Y-26630000D03*
X78740000Y-24130000D03*
G04 #@! TD*
G04 #@! TO.C,C31*
X76200000Y-24170000D03*
X76200000Y-26670000D03*
G04 #@! TD*
G04 #@! TO.C,C32*
X73660000Y-24150000D03*
X73660000Y-26650000D03*
G04 #@! TD*
G04 #@! TO.C,C33*
X71120000Y-26630000D03*
X71120000Y-24130000D03*
G04 #@! TD*
G04 #@! TO.C,C34*
X68580000Y-24150000D03*
X68580000Y-26650000D03*
G04 #@! TD*
G04 #@! TO.C,C35*
X66040000Y-26630000D03*
X66040000Y-24130000D03*
G04 #@! TD*
G04 #@! TO.C,C36*
X63500000Y-24130000D03*
X63500000Y-26630000D03*
G04 #@! TD*
D12*
G04 #@! TO.C,D1*
X28110000Y-27940000D03*
X30310000Y-27940000D03*
G04 #@! TD*
G04 #@! TO.C,D2*
X55880000Y-21250000D03*
X55880000Y-19050000D03*
G04 #@! TD*
D13*
G04 #@! TO.C,R1*
X25080000Y-29210000D03*
X23180000Y-29210000D03*
G04 #@! TD*
G04 #@! TO.C,R2*
X51120000Y-16510000D03*
X53020000Y-16510000D03*
G04 #@! TD*
D14*
G04 #@! TO.C,R3*
X30400000Y-25400000D03*
X33100000Y-25400000D03*
G04 #@! TD*
G04 #@! TO.C,R4*
X34370000Y-20320000D03*
X31670000Y-20320000D03*
G04 #@! TD*
G04 #@! TO.C,R5*
X38100000Y-20320000D03*
X40800000Y-20320000D03*
G04 #@! TD*
D15*
G04 #@! TO.C,R6*
X36830000Y-26830000D03*
X36830000Y-24130000D03*
G04 #@! TD*
D14*
G04 #@! TO.C,R7*
X12700000Y-43180000D03*
X15400000Y-43180000D03*
G04 #@! TD*
D15*
G04 #@! TO.C,R8*
X6350000Y-39290000D03*
X6350000Y-41990000D03*
G04 #@! TD*
D14*
G04 #@! TO.C,R9*
X56990000Y-24130000D03*
X59690000Y-24130000D03*
G04 #@! TD*
G04 #@! TO.C,R10*
X54770000Y-24130000D03*
X52070000Y-24130000D03*
G04 #@! TD*
G04 #@! TO.C,R11*
X46830000Y-24130000D03*
X49530000Y-24130000D03*
G04 #@! TD*
D15*
G04 #@! TO.C,R12*
X50546000Y-25908000D03*
X50546000Y-28608000D03*
G04 #@! TD*
D14*
G04 #@! TO.C,R13*
X54770000Y-30480000D03*
X52070000Y-30480000D03*
G04 #@! TD*
G04 #@! TO.C,R14*
X49530000Y-30480000D03*
X46830000Y-30480000D03*
G04 #@! TD*
D16*
G04 #@! TO.C,BT1*
G36*
X9773620Y-52046529D02*
X9804441Y-52051101D01*
X9834665Y-52058671D01*
X9864002Y-52069168D01*
X9892168Y-52082490D01*
X9918894Y-52098508D01*
X9943920Y-52117069D01*
X9967006Y-52137994D01*
X9987931Y-52161080D01*
X10006492Y-52186106D01*
X10022510Y-52212832D01*
X10035832Y-52240998D01*
X10046329Y-52270335D01*
X10053899Y-52300559D01*
X10058471Y-52331380D01*
X10060000Y-52362500D01*
X10060000Y-58077500D01*
X10058471Y-58108620D01*
X10053899Y-58139441D01*
X10046329Y-58169665D01*
X10035832Y-58199002D01*
X10022510Y-58227168D01*
X10006492Y-58253894D01*
X9987931Y-58278920D01*
X9967006Y-58302006D01*
X9943920Y-58322931D01*
X9918894Y-58341492D01*
X9892168Y-58357510D01*
X9864002Y-58370832D01*
X9834665Y-58381329D01*
X9804441Y-58388899D01*
X9773620Y-58393471D01*
X9742500Y-58395000D01*
X3037500Y-58395000D01*
X3006380Y-58393471D01*
X2975559Y-58388899D01*
X2945335Y-58381329D01*
X2915998Y-58370832D01*
X2887832Y-58357510D01*
X2861106Y-58341492D01*
X2836080Y-58322931D01*
X2812994Y-58302006D01*
X2792069Y-58278920D01*
X2773508Y-58253894D01*
X2757490Y-58227168D01*
X2744168Y-58199002D01*
X2733671Y-58169665D01*
X2726101Y-58139441D01*
X2721529Y-58108620D01*
X2720000Y-58077500D01*
X2720000Y-52362500D01*
X2721529Y-52331380D01*
X2726101Y-52300559D01*
X2733671Y-52270335D01*
X2744168Y-52240998D01*
X2757490Y-52212832D01*
X2773508Y-52186106D01*
X2792069Y-52161080D01*
X2812994Y-52137994D01*
X2836080Y-52117069D01*
X2861106Y-52098508D01*
X2887832Y-52082490D01*
X2915998Y-52069168D01*
X2945335Y-52058671D01*
X2975559Y-52051101D01*
X3006380Y-52046529D01*
X3037500Y-52045000D01*
X9742500Y-52045000D01*
X9773620Y-52046529D01*
X9773620Y-52046529D01*
G37*
D17*
X6390000Y-55220000D03*
D16*
G36*
X9773620Y-71146529D02*
X9804441Y-71151101D01*
X9834665Y-71158671D01*
X9864002Y-71169168D01*
X9892168Y-71182490D01*
X9918894Y-71198508D01*
X9943920Y-71217069D01*
X9967006Y-71237994D01*
X9987931Y-71261080D01*
X10006492Y-71286106D01*
X10022510Y-71312832D01*
X10035832Y-71340998D01*
X10046329Y-71370335D01*
X10053899Y-71400559D01*
X10058471Y-71431380D01*
X10060000Y-71462500D01*
X10060000Y-77177500D01*
X10058471Y-77208620D01*
X10053899Y-77239441D01*
X10046329Y-77269665D01*
X10035832Y-77299002D01*
X10022510Y-77327168D01*
X10006492Y-77353894D01*
X9987931Y-77378920D01*
X9967006Y-77402006D01*
X9943920Y-77422931D01*
X9918894Y-77441492D01*
X9892168Y-77457510D01*
X9864002Y-77470832D01*
X9834665Y-77481329D01*
X9804441Y-77488899D01*
X9773620Y-77493471D01*
X9742500Y-77495000D01*
X3037500Y-77495000D01*
X3006380Y-77493471D01*
X2975559Y-77488899D01*
X2945335Y-77481329D01*
X2915998Y-77470832D01*
X2887832Y-77457510D01*
X2861106Y-77441492D01*
X2836080Y-77422931D01*
X2812994Y-77402006D01*
X2792069Y-77378920D01*
X2773508Y-77353894D01*
X2757490Y-77327168D01*
X2744168Y-77299002D01*
X2733671Y-77269665D01*
X2726101Y-77239441D01*
X2721529Y-77208620D01*
X2720000Y-77177500D01*
X2720000Y-71462500D01*
X2721529Y-71431380D01*
X2726101Y-71400559D01*
X2733671Y-71370335D01*
X2744168Y-71340998D01*
X2757490Y-71312832D01*
X2773508Y-71286106D01*
X2792069Y-71261080D01*
X2812994Y-71237994D01*
X2836080Y-71217069D01*
X2861106Y-71198508D01*
X2887832Y-71182490D01*
X2915998Y-71169168D01*
X2945335Y-71158671D01*
X2975559Y-71151101D01*
X3006380Y-71146529D01*
X3037500Y-71145000D01*
X9742500Y-71145000D01*
X9773620Y-71146529D01*
X9773620Y-71146529D01*
G37*
D17*
X6390000Y-74320000D03*
D16*
G36*
X88433620Y-52046529D02*
X88464441Y-52051101D01*
X88494665Y-52058671D01*
X88524002Y-52069168D01*
X88552168Y-52082490D01*
X88578894Y-52098508D01*
X88603920Y-52117069D01*
X88627006Y-52137994D01*
X88647931Y-52161080D01*
X88666492Y-52186106D01*
X88682510Y-52212832D01*
X88695832Y-52240998D01*
X88706329Y-52270335D01*
X88713899Y-52300559D01*
X88718471Y-52331380D01*
X88720000Y-52362500D01*
X88720000Y-58077500D01*
X88718471Y-58108620D01*
X88713899Y-58139441D01*
X88706329Y-58169665D01*
X88695832Y-58199002D01*
X88682510Y-58227168D01*
X88666492Y-58253894D01*
X88647931Y-58278920D01*
X88627006Y-58302006D01*
X88603920Y-58322931D01*
X88578894Y-58341492D01*
X88552168Y-58357510D01*
X88524002Y-58370832D01*
X88494665Y-58381329D01*
X88464441Y-58388899D01*
X88433620Y-58393471D01*
X88402500Y-58395000D01*
X81697500Y-58395000D01*
X81666380Y-58393471D01*
X81635559Y-58388899D01*
X81605335Y-58381329D01*
X81575998Y-58370832D01*
X81547832Y-58357510D01*
X81521106Y-58341492D01*
X81496080Y-58322931D01*
X81472994Y-58302006D01*
X81452069Y-58278920D01*
X81433508Y-58253894D01*
X81417490Y-58227168D01*
X81404168Y-58199002D01*
X81393671Y-58169665D01*
X81386101Y-58139441D01*
X81381529Y-58108620D01*
X81380000Y-58077500D01*
X81380000Y-52362500D01*
X81381529Y-52331380D01*
X81386101Y-52300559D01*
X81393671Y-52270335D01*
X81404168Y-52240998D01*
X81417490Y-52212832D01*
X81433508Y-52186106D01*
X81452069Y-52161080D01*
X81472994Y-52137994D01*
X81496080Y-52117069D01*
X81521106Y-52098508D01*
X81547832Y-52082490D01*
X81575998Y-52069168D01*
X81605335Y-52058671D01*
X81635559Y-52051101D01*
X81666380Y-52046529D01*
X81697500Y-52045000D01*
X88402500Y-52045000D01*
X88433620Y-52046529D01*
X88433620Y-52046529D01*
G37*
D17*
X85050000Y-55220000D03*
D16*
G36*
X88433620Y-71146529D02*
X88464441Y-71151101D01*
X88494665Y-71158671D01*
X88524002Y-71169168D01*
X88552168Y-71182490D01*
X88578894Y-71198508D01*
X88603920Y-71217069D01*
X88627006Y-71237994D01*
X88647931Y-71261080D01*
X88666492Y-71286106D01*
X88682510Y-71312832D01*
X88695832Y-71340998D01*
X88706329Y-71370335D01*
X88713899Y-71400559D01*
X88718471Y-71431380D01*
X88720000Y-71462500D01*
X88720000Y-77177500D01*
X88718471Y-77208620D01*
X88713899Y-77239441D01*
X88706329Y-77269665D01*
X88695832Y-77299002D01*
X88682510Y-77327168D01*
X88666492Y-77353894D01*
X88647931Y-77378920D01*
X88627006Y-77402006D01*
X88603920Y-77422931D01*
X88578894Y-77441492D01*
X88552168Y-77457510D01*
X88524002Y-77470832D01*
X88494665Y-77481329D01*
X88464441Y-77488899D01*
X88433620Y-77493471D01*
X88402500Y-77495000D01*
X81697500Y-77495000D01*
X81666380Y-77493471D01*
X81635559Y-77488899D01*
X81605335Y-77481329D01*
X81575998Y-77470832D01*
X81547832Y-77457510D01*
X81521106Y-77441492D01*
X81496080Y-77422931D01*
X81472994Y-77402006D01*
X81452069Y-77378920D01*
X81433508Y-77353894D01*
X81417490Y-77327168D01*
X81404168Y-77299002D01*
X81393671Y-77269665D01*
X81386101Y-77239441D01*
X81381529Y-77208620D01*
X81380000Y-77177500D01*
X81380000Y-71462500D01*
X81381529Y-71431380D01*
X81386101Y-71400559D01*
X81393671Y-71370335D01*
X81404168Y-71340998D01*
X81417490Y-71312832D01*
X81433508Y-71286106D01*
X81452069Y-71261080D01*
X81472994Y-71237994D01*
X81496080Y-71217069D01*
X81521106Y-71198508D01*
X81547832Y-71182490D01*
X81575998Y-71169168D01*
X81605335Y-71158671D01*
X81635559Y-71151101D01*
X81666380Y-71146529D01*
X81697500Y-71145000D01*
X88402500Y-71145000D01*
X88433620Y-71146529D01*
X88433620Y-71146529D01*
G37*
D17*
X85050000Y-74320000D03*
G04 #@! TD*
D16*
G04 #@! TO.C,L1*
G36*
X18533428Y-26710782D02*
X18549202Y-26713122D01*
X18564671Y-26716997D01*
X18579686Y-26722370D01*
X18594102Y-26729188D01*
X18607780Y-26737386D01*
X18620589Y-26746886D01*
X18632405Y-26757595D01*
X18643114Y-26769411D01*
X18652614Y-26782220D01*
X18660812Y-26795898D01*
X18667630Y-26810314D01*
X18673003Y-26825329D01*
X18676878Y-26840798D01*
X18679218Y-26856572D01*
X18680000Y-26872500D01*
X18680000Y-31547500D01*
X18679218Y-31563428D01*
X18676878Y-31579202D01*
X18673003Y-31594671D01*
X18667630Y-31609686D01*
X18660812Y-31624102D01*
X18652614Y-31637780D01*
X18643114Y-31650589D01*
X18632405Y-31662405D01*
X18620589Y-31673114D01*
X18607780Y-31682614D01*
X18594102Y-31690812D01*
X18579686Y-31697630D01*
X18564671Y-31703003D01*
X18549202Y-31706878D01*
X18533428Y-31709218D01*
X18517500Y-31710000D01*
X15592500Y-31710000D01*
X15576572Y-31709218D01*
X15560798Y-31706878D01*
X15545329Y-31703003D01*
X15530314Y-31697630D01*
X15515898Y-31690812D01*
X15502220Y-31682614D01*
X15489411Y-31673114D01*
X15477595Y-31662405D01*
X15466886Y-31650589D01*
X15457386Y-31637780D01*
X15449188Y-31624102D01*
X15442370Y-31609686D01*
X15436997Y-31594671D01*
X15433122Y-31579202D01*
X15430782Y-31563428D01*
X15430000Y-31547500D01*
X15430000Y-26872500D01*
X15430782Y-26856572D01*
X15433122Y-26840798D01*
X15436997Y-26825329D01*
X15442370Y-26810314D01*
X15449188Y-26795898D01*
X15457386Y-26782220D01*
X15466886Y-26769411D01*
X15477595Y-26757595D01*
X15489411Y-26746886D01*
X15502220Y-26737386D01*
X15515898Y-26729188D01*
X15530314Y-26722370D01*
X15545329Y-26716997D01*
X15560798Y-26713122D01*
X15576572Y-26710782D01*
X15592500Y-26710000D01*
X18517500Y-26710000D01*
X18533428Y-26710782D01*
X18533428Y-26710782D01*
G37*
D18*
X17055000Y-29210000D03*
D16*
G36*
X7283428Y-26710782D02*
X7299202Y-26713122D01*
X7314671Y-26716997D01*
X7329686Y-26722370D01*
X7344102Y-26729188D01*
X7357780Y-26737386D01*
X7370589Y-26746886D01*
X7382405Y-26757595D01*
X7393114Y-26769411D01*
X7402614Y-26782220D01*
X7410812Y-26795898D01*
X7417630Y-26810314D01*
X7423003Y-26825329D01*
X7426878Y-26840798D01*
X7429218Y-26856572D01*
X7430000Y-26872500D01*
X7430000Y-31547500D01*
X7429218Y-31563428D01*
X7426878Y-31579202D01*
X7423003Y-31594671D01*
X7417630Y-31609686D01*
X7410812Y-31624102D01*
X7402614Y-31637780D01*
X7393114Y-31650589D01*
X7382405Y-31662405D01*
X7370589Y-31673114D01*
X7357780Y-31682614D01*
X7344102Y-31690812D01*
X7329686Y-31697630D01*
X7314671Y-31703003D01*
X7299202Y-31706878D01*
X7283428Y-31709218D01*
X7267500Y-31710000D01*
X4342500Y-31710000D01*
X4326572Y-31709218D01*
X4310798Y-31706878D01*
X4295329Y-31703003D01*
X4280314Y-31697630D01*
X4265898Y-31690812D01*
X4252220Y-31682614D01*
X4239411Y-31673114D01*
X4227595Y-31662405D01*
X4216886Y-31650589D01*
X4207386Y-31637780D01*
X4199188Y-31624102D01*
X4192370Y-31609686D01*
X4186997Y-31594671D01*
X4183122Y-31579202D01*
X4180782Y-31563428D01*
X4180000Y-31547500D01*
X4180000Y-26872500D01*
X4180782Y-26856572D01*
X4183122Y-26840798D01*
X4186997Y-26825329D01*
X4192370Y-26810314D01*
X4199188Y-26795898D01*
X4207386Y-26782220D01*
X4216886Y-26769411D01*
X4227595Y-26757595D01*
X4239411Y-26746886D01*
X4252220Y-26737386D01*
X4265898Y-26729188D01*
X4280314Y-26722370D01*
X4295329Y-26716997D01*
X4310798Y-26713122D01*
X4326572Y-26710782D01*
X4342500Y-26710000D01*
X7267500Y-26710000D01*
X7283428Y-26710782D01*
X7283428Y-26710782D01*
G37*
D18*
X5805000Y-29210000D03*
G04 #@! TD*
D16*
G04 #@! TO.C,L2*
G36*
X79823428Y-28310782D02*
X79839202Y-28313122D01*
X79854671Y-28316997D01*
X79869686Y-28322370D01*
X79884102Y-28329188D01*
X79897780Y-28337386D01*
X79910589Y-28346886D01*
X79922405Y-28357595D01*
X79933114Y-28369411D01*
X79942614Y-28382220D01*
X79950812Y-28395898D01*
X79957630Y-28410314D01*
X79963003Y-28425329D01*
X79966878Y-28440798D01*
X79969218Y-28456572D01*
X79970000Y-28472500D01*
X79970000Y-31397500D01*
X79969218Y-31413428D01*
X79966878Y-31429202D01*
X79963003Y-31444671D01*
X79957630Y-31459686D01*
X79950812Y-31474102D01*
X79942614Y-31487780D01*
X79933114Y-31500589D01*
X79922405Y-31512405D01*
X79910589Y-31523114D01*
X79897780Y-31532614D01*
X79884102Y-31540812D01*
X79869686Y-31547630D01*
X79854671Y-31553003D01*
X79839202Y-31556878D01*
X79823428Y-31559218D01*
X79807500Y-31560000D01*
X75132500Y-31560000D01*
X75116572Y-31559218D01*
X75100798Y-31556878D01*
X75085329Y-31553003D01*
X75070314Y-31547630D01*
X75055898Y-31540812D01*
X75042220Y-31532614D01*
X75029411Y-31523114D01*
X75017595Y-31512405D01*
X75006886Y-31500589D01*
X74997386Y-31487780D01*
X74989188Y-31474102D01*
X74982370Y-31459686D01*
X74976997Y-31444671D01*
X74973122Y-31429202D01*
X74970782Y-31413428D01*
X74970000Y-31397500D01*
X74970000Y-28472500D01*
X74970782Y-28456572D01*
X74973122Y-28440798D01*
X74976997Y-28425329D01*
X74982370Y-28410314D01*
X74989188Y-28395898D01*
X74997386Y-28382220D01*
X75006886Y-28369411D01*
X75017595Y-28357595D01*
X75029411Y-28346886D01*
X75042220Y-28337386D01*
X75055898Y-28329188D01*
X75070314Y-28322370D01*
X75085329Y-28316997D01*
X75100798Y-28313122D01*
X75116572Y-28310782D01*
X75132500Y-28310000D01*
X79807500Y-28310000D01*
X79823428Y-28310782D01*
X79823428Y-28310782D01*
G37*
D18*
X77470000Y-29935000D03*
D16*
G36*
X79823428Y-39560782D02*
X79839202Y-39563122D01*
X79854671Y-39566997D01*
X79869686Y-39572370D01*
X79884102Y-39579188D01*
X79897780Y-39587386D01*
X79910589Y-39596886D01*
X79922405Y-39607595D01*
X79933114Y-39619411D01*
X79942614Y-39632220D01*
X79950812Y-39645898D01*
X79957630Y-39660314D01*
X79963003Y-39675329D01*
X79966878Y-39690798D01*
X79969218Y-39706572D01*
X79970000Y-39722500D01*
X79970000Y-42647500D01*
X79969218Y-42663428D01*
X79966878Y-42679202D01*
X79963003Y-42694671D01*
X79957630Y-42709686D01*
X79950812Y-42724102D01*
X79942614Y-42737780D01*
X79933114Y-42750589D01*
X79922405Y-42762405D01*
X79910589Y-42773114D01*
X79897780Y-42782614D01*
X79884102Y-42790812D01*
X79869686Y-42797630D01*
X79854671Y-42803003D01*
X79839202Y-42806878D01*
X79823428Y-42809218D01*
X79807500Y-42810000D01*
X75132500Y-42810000D01*
X75116572Y-42809218D01*
X75100798Y-42806878D01*
X75085329Y-42803003D01*
X75070314Y-42797630D01*
X75055898Y-42790812D01*
X75042220Y-42782614D01*
X75029411Y-42773114D01*
X75017595Y-42762405D01*
X75006886Y-42750589D01*
X74997386Y-42737780D01*
X74989188Y-42724102D01*
X74982370Y-42709686D01*
X74976997Y-42694671D01*
X74973122Y-42679202D01*
X74970782Y-42663428D01*
X74970000Y-42647500D01*
X74970000Y-39722500D01*
X74970782Y-39706572D01*
X74973122Y-39690798D01*
X74976997Y-39675329D01*
X74982370Y-39660314D01*
X74989188Y-39645898D01*
X74997386Y-39632220D01*
X75006886Y-39619411D01*
X75017595Y-39607595D01*
X75029411Y-39596886D01*
X75042220Y-39587386D01*
X75055898Y-39579188D01*
X75070314Y-39572370D01*
X75085329Y-39566997D01*
X75100798Y-39563122D01*
X75116572Y-39560782D01*
X75132500Y-39560000D01*
X79807500Y-39560000D01*
X79823428Y-39560782D01*
X79823428Y-39560782D01*
G37*
D18*
X77470000Y-41185000D03*
G04 #@! TD*
D16*
G04 #@! TO.C,U2*
G36*
X24764901Y-32915241D02*
X24769755Y-32915961D01*
X24774514Y-32917153D01*
X24779134Y-32918806D01*
X24783570Y-32920904D01*
X24787779Y-32923427D01*
X24791720Y-32926349D01*
X24795355Y-32929645D01*
X24798651Y-32933280D01*
X24801573Y-32937221D01*
X24804096Y-32941430D01*
X24806194Y-32945866D01*
X24807847Y-32950486D01*
X24809039Y-32955245D01*
X24809759Y-32960099D01*
X24810000Y-32965000D01*
X24810000Y-33115000D01*
X24809759Y-33119901D01*
X24809039Y-33124755D01*
X24807847Y-33129514D01*
X24806194Y-33134134D01*
X24804096Y-33138570D01*
X24801573Y-33142779D01*
X24798651Y-33146720D01*
X24795355Y-33150355D01*
X24791720Y-33153651D01*
X24787779Y-33156573D01*
X24783570Y-33159096D01*
X24779134Y-33161194D01*
X24774514Y-33162847D01*
X24769755Y-33164039D01*
X24764901Y-33164759D01*
X24760000Y-33165000D01*
X24260000Y-33165000D01*
X24255099Y-33164759D01*
X24250245Y-33164039D01*
X24245486Y-33162847D01*
X24240866Y-33161194D01*
X24236430Y-33159096D01*
X24232221Y-33156573D01*
X24228280Y-33153651D01*
X24224645Y-33150355D01*
X24221349Y-33146720D01*
X24218427Y-33142779D01*
X24215904Y-33138570D01*
X24213806Y-33134134D01*
X24212153Y-33129514D01*
X24210961Y-33124755D01*
X24210241Y-33119901D01*
X24210000Y-33115000D01*
X24210000Y-32965000D01*
X24210241Y-32960099D01*
X24210961Y-32955245D01*
X24212153Y-32950486D01*
X24213806Y-32945866D01*
X24215904Y-32941430D01*
X24218427Y-32937221D01*
X24221349Y-32933280D01*
X24224645Y-32929645D01*
X24228280Y-32926349D01*
X24232221Y-32923427D01*
X24236430Y-32920904D01*
X24240866Y-32918806D01*
X24245486Y-32917153D01*
X24250245Y-32915961D01*
X24255099Y-32915241D01*
X24260000Y-32915000D01*
X24760000Y-32915000D01*
X24764901Y-32915241D01*
X24764901Y-32915241D01*
G37*
D19*
X24510000Y-33040000D03*
D16*
G36*
X24764901Y-33415241D02*
X24769755Y-33415961D01*
X24774514Y-33417153D01*
X24779134Y-33418806D01*
X24783570Y-33420904D01*
X24787779Y-33423427D01*
X24791720Y-33426349D01*
X24795355Y-33429645D01*
X24798651Y-33433280D01*
X24801573Y-33437221D01*
X24804096Y-33441430D01*
X24806194Y-33445866D01*
X24807847Y-33450486D01*
X24809039Y-33455245D01*
X24809759Y-33460099D01*
X24810000Y-33465000D01*
X24810000Y-33615000D01*
X24809759Y-33619901D01*
X24809039Y-33624755D01*
X24807847Y-33629514D01*
X24806194Y-33634134D01*
X24804096Y-33638570D01*
X24801573Y-33642779D01*
X24798651Y-33646720D01*
X24795355Y-33650355D01*
X24791720Y-33653651D01*
X24787779Y-33656573D01*
X24783570Y-33659096D01*
X24779134Y-33661194D01*
X24774514Y-33662847D01*
X24769755Y-33664039D01*
X24764901Y-33664759D01*
X24760000Y-33665000D01*
X24260000Y-33665000D01*
X24255099Y-33664759D01*
X24250245Y-33664039D01*
X24245486Y-33662847D01*
X24240866Y-33661194D01*
X24236430Y-33659096D01*
X24232221Y-33656573D01*
X24228280Y-33653651D01*
X24224645Y-33650355D01*
X24221349Y-33646720D01*
X24218427Y-33642779D01*
X24215904Y-33638570D01*
X24213806Y-33634134D01*
X24212153Y-33629514D01*
X24210961Y-33624755D01*
X24210241Y-33619901D01*
X24210000Y-33615000D01*
X24210000Y-33465000D01*
X24210241Y-33460099D01*
X24210961Y-33455245D01*
X24212153Y-33450486D01*
X24213806Y-33445866D01*
X24215904Y-33441430D01*
X24218427Y-33437221D01*
X24221349Y-33433280D01*
X24224645Y-33429645D01*
X24228280Y-33426349D01*
X24232221Y-33423427D01*
X24236430Y-33420904D01*
X24240866Y-33418806D01*
X24245486Y-33417153D01*
X24250245Y-33415961D01*
X24255099Y-33415241D01*
X24260000Y-33415000D01*
X24760000Y-33415000D01*
X24764901Y-33415241D01*
X24764901Y-33415241D01*
G37*
D19*
X24510000Y-33540000D03*
D16*
G36*
X24764901Y-33915241D02*
X24769755Y-33915961D01*
X24774514Y-33917153D01*
X24779134Y-33918806D01*
X24783570Y-33920904D01*
X24787779Y-33923427D01*
X24791720Y-33926349D01*
X24795355Y-33929645D01*
X24798651Y-33933280D01*
X24801573Y-33937221D01*
X24804096Y-33941430D01*
X24806194Y-33945866D01*
X24807847Y-33950486D01*
X24809039Y-33955245D01*
X24809759Y-33960099D01*
X24810000Y-33965000D01*
X24810000Y-34115000D01*
X24809759Y-34119901D01*
X24809039Y-34124755D01*
X24807847Y-34129514D01*
X24806194Y-34134134D01*
X24804096Y-34138570D01*
X24801573Y-34142779D01*
X24798651Y-34146720D01*
X24795355Y-34150355D01*
X24791720Y-34153651D01*
X24787779Y-34156573D01*
X24783570Y-34159096D01*
X24779134Y-34161194D01*
X24774514Y-34162847D01*
X24769755Y-34164039D01*
X24764901Y-34164759D01*
X24760000Y-34165000D01*
X24260000Y-34165000D01*
X24255099Y-34164759D01*
X24250245Y-34164039D01*
X24245486Y-34162847D01*
X24240866Y-34161194D01*
X24236430Y-34159096D01*
X24232221Y-34156573D01*
X24228280Y-34153651D01*
X24224645Y-34150355D01*
X24221349Y-34146720D01*
X24218427Y-34142779D01*
X24215904Y-34138570D01*
X24213806Y-34134134D01*
X24212153Y-34129514D01*
X24210961Y-34124755D01*
X24210241Y-34119901D01*
X24210000Y-34115000D01*
X24210000Y-33965000D01*
X24210241Y-33960099D01*
X24210961Y-33955245D01*
X24212153Y-33950486D01*
X24213806Y-33945866D01*
X24215904Y-33941430D01*
X24218427Y-33937221D01*
X24221349Y-33933280D01*
X24224645Y-33929645D01*
X24228280Y-33926349D01*
X24232221Y-33923427D01*
X24236430Y-33920904D01*
X24240866Y-33918806D01*
X24245486Y-33917153D01*
X24250245Y-33915961D01*
X24255099Y-33915241D01*
X24260000Y-33915000D01*
X24760000Y-33915000D01*
X24764901Y-33915241D01*
X24764901Y-33915241D01*
G37*
D19*
X24510000Y-34040000D03*
D16*
G36*
X23864901Y-32340241D02*
X23869755Y-32340961D01*
X23874514Y-32342153D01*
X23879134Y-32343806D01*
X23883570Y-32345904D01*
X23887779Y-32348427D01*
X23891720Y-32351349D01*
X23895355Y-32354645D01*
X23898651Y-32358280D01*
X23901573Y-32362221D01*
X23904096Y-32366430D01*
X23906194Y-32370866D01*
X23907847Y-32375486D01*
X23909039Y-32380245D01*
X23909759Y-32385099D01*
X23910000Y-32390000D01*
X23910000Y-32890000D01*
X23909759Y-32894901D01*
X23909039Y-32899755D01*
X23907847Y-32904514D01*
X23906194Y-32909134D01*
X23904096Y-32913570D01*
X23901573Y-32917779D01*
X23898651Y-32921720D01*
X23895355Y-32925355D01*
X23891720Y-32928651D01*
X23887779Y-32931573D01*
X23883570Y-32934096D01*
X23879134Y-32936194D01*
X23874514Y-32937847D01*
X23869755Y-32939039D01*
X23864901Y-32939759D01*
X23860000Y-32940000D01*
X23710000Y-32940000D01*
X23705099Y-32939759D01*
X23700245Y-32939039D01*
X23695486Y-32937847D01*
X23690866Y-32936194D01*
X23686430Y-32934096D01*
X23682221Y-32931573D01*
X23678280Y-32928651D01*
X23674645Y-32925355D01*
X23671349Y-32921720D01*
X23668427Y-32917779D01*
X23665904Y-32913570D01*
X23663806Y-32909134D01*
X23662153Y-32904514D01*
X23660961Y-32899755D01*
X23660241Y-32894901D01*
X23660000Y-32890000D01*
X23660000Y-32390000D01*
X23660241Y-32385099D01*
X23660961Y-32380245D01*
X23662153Y-32375486D01*
X23663806Y-32370866D01*
X23665904Y-32366430D01*
X23668427Y-32362221D01*
X23671349Y-32358280D01*
X23674645Y-32354645D01*
X23678280Y-32351349D01*
X23682221Y-32348427D01*
X23686430Y-32345904D01*
X23690866Y-32343806D01*
X23695486Y-32342153D01*
X23700245Y-32340961D01*
X23705099Y-32340241D01*
X23710000Y-32340000D01*
X23860000Y-32340000D01*
X23864901Y-32340241D01*
X23864901Y-32340241D01*
G37*
D19*
X23785000Y-32640000D03*
D16*
G36*
X23337841Y-32340385D02*
X23345607Y-32341537D01*
X23353223Y-32343445D01*
X23360615Y-32346090D01*
X23367712Y-32349446D01*
X23374446Y-32353482D01*
X23380751Y-32358159D01*
X23386569Y-32363431D01*
X23391841Y-32369249D01*
X23396518Y-32375554D01*
X23400554Y-32382288D01*
X23403910Y-32389385D01*
X23406555Y-32396777D01*
X23408463Y-32404393D01*
X23409615Y-32412159D01*
X23410000Y-32420000D01*
X23410000Y-33410000D01*
X23409615Y-33417841D01*
X23408463Y-33425607D01*
X23406555Y-33433223D01*
X23403910Y-33440615D01*
X23400554Y-33447712D01*
X23396518Y-33454446D01*
X23391841Y-33460751D01*
X23386569Y-33466569D01*
X23380751Y-33471841D01*
X23374446Y-33476518D01*
X23367712Y-33480554D01*
X23360615Y-33483910D01*
X23353223Y-33486555D01*
X23345607Y-33488463D01*
X23337841Y-33489615D01*
X23330000Y-33490000D01*
X23090000Y-33490000D01*
X23082159Y-33489615D01*
X23074393Y-33488463D01*
X23066777Y-33486555D01*
X23059385Y-33483910D01*
X23052288Y-33480554D01*
X23045554Y-33476518D01*
X23039249Y-33471841D01*
X23033431Y-33466569D01*
X23028159Y-33460751D01*
X23023482Y-33454446D01*
X23019446Y-33447712D01*
X23016090Y-33440615D01*
X23013445Y-33433223D01*
X23011537Y-33425607D01*
X23010385Y-33417841D01*
X23010000Y-33410000D01*
X23010000Y-32420000D01*
X23010385Y-32412159D01*
X23011537Y-32404393D01*
X23013445Y-32396777D01*
X23016090Y-32389385D01*
X23019446Y-32382288D01*
X23023482Y-32375554D01*
X23028159Y-32369249D01*
X23033431Y-32363431D01*
X23039249Y-32358159D01*
X23045554Y-32353482D01*
X23052288Y-32349446D01*
X23059385Y-32346090D01*
X23066777Y-32343445D01*
X23074393Y-32341537D01*
X23082159Y-32340385D01*
X23090000Y-32340000D01*
X23330000Y-32340000D01*
X23337841Y-32340385D01*
X23337841Y-32340385D01*
G37*
D20*
X23210000Y-32915000D03*
D16*
G36*
X22639901Y-32340241D02*
X22644755Y-32340961D01*
X22649514Y-32342153D01*
X22654134Y-32343806D01*
X22658570Y-32345904D01*
X22662779Y-32348427D01*
X22666720Y-32351349D01*
X22670355Y-32354645D01*
X22673651Y-32358280D01*
X22676573Y-32362221D01*
X22679096Y-32366430D01*
X22681194Y-32370866D01*
X22682847Y-32375486D01*
X22684039Y-32380245D01*
X22684759Y-32385099D01*
X22685000Y-32390000D01*
X22685000Y-33440000D01*
X22684759Y-33444901D01*
X22684039Y-33449755D01*
X22682847Y-33454514D01*
X22681194Y-33459134D01*
X22679096Y-33463570D01*
X22676573Y-33467779D01*
X22673651Y-33471720D01*
X22670355Y-33475355D01*
X22666720Y-33478651D01*
X22662779Y-33481573D01*
X22658570Y-33484096D01*
X22654134Y-33486194D01*
X22649514Y-33487847D01*
X22644755Y-33489039D01*
X22639901Y-33489759D01*
X22635000Y-33490000D01*
X22485000Y-33490000D01*
X22480099Y-33489759D01*
X22475245Y-33489039D01*
X22470486Y-33487847D01*
X22465866Y-33486194D01*
X22461430Y-33484096D01*
X22457221Y-33481573D01*
X22453280Y-33478651D01*
X22449645Y-33475355D01*
X22446349Y-33471720D01*
X22443427Y-33467779D01*
X22440904Y-33463570D01*
X22438806Y-33459134D01*
X22437153Y-33454514D01*
X22435961Y-33449755D01*
X22435241Y-33444901D01*
X22435000Y-33440000D01*
X22435000Y-32390000D01*
X22435241Y-32385099D01*
X22435961Y-32380245D01*
X22437153Y-32375486D01*
X22438806Y-32370866D01*
X22440904Y-32366430D01*
X22443427Y-32362221D01*
X22446349Y-32358280D01*
X22449645Y-32354645D01*
X22453280Y-32351349D01*
X22457221Y-32348427D01*
X22461430Y-32345904D01*
X22465866Y-32343806D01*
X22470486Y-32342153D01*
X22475245Y-32340961D01*
X22480099Y-32340241D01*
X22485000Y-32340000D01*
X22635000Y-32340000D01*
X22639901Y-32340241D01*
X22639901Y-32340241D01*
G37*
D19*
X22560000Y-32915000D03*
D16*
G36*
X22089901Y-32340241D02*
X22094755Y-32340961D01*
X22099514Y-32342153D01*
X22104134Y-32343806D01*
X22108570Y-32345904D01*
X22112779Y-32348427D01*
X22116720Y-32351349D01*
X22120355Y-32354645D01*
X22123651Y-32358280D01*
X22126573Y-32362221D01*
X22129096Y-32366430D01*
X22131194Y-32370866D01*
X22132847Y-32375486D01*
X22134039Y-32380245D01*
X22134759Y-32385099D01*
X22135000Y-32390000D01*
X22135000Y-33440000D01*
X22134759Y-33444901D01*
X22134039Y-33449755D01*
X22132847Y-33454514D01*
X22131194Y-33459134D01*
X22129096Y-33463570D01*
X22126573Y-33467779D01*
X22123651Y-33471720D01*
X22120355Y-33475355D01*
X22116720Y-33478651D01*
X22112779Y-33481573D01*
X22108570Y-33484096D01*
X22104134Y-33486194D01*
X22099514Y-33487847D01*
X22094755Y-33489039D01*
X22089901Y-33489759D01*
X22085000Y-33490000D01*
X21935000Y-33490000D01*
X21930099Y-33489759D01*
X21925245Y-33489039D01*
X21920486Y-33487847D01*
X21915866Y-33486194D01*
X21911430Y-33484096D01*
X21907221Y-33481573D01*
X21903280Y-33478651D01*
X21899645Y-33475355D01*
X21896349Y-33471720D01*
X21893427Y-33467779D01*
X21890904Y-33463570D01*
X21888806Y-33459134D01*
X21887153Y-33454514D01*
X21885961Y-33449755D01*
X21885241Y-33444901D01*
X21885000Y-33440000D01*
X21885000Y-32390000D01*
X21885241Y-32385099D01*
X21885961Y-32380245D01*
X21887153Y-32375486D01*
X21888806Y-32370866D01*
X21890904Y-32366430D01*
X21893427Y-32362221D01*
X21896349Y-32358280D01*
X21899645Y-32354645D01*
X21903280Y-32351349D01*
X21907221Y-32348427D01*
X21911430Y-32345904D01*
X21915866Y-32343806D01*
X21920486Y-32342153D01*
X21925245Y-32340961D01*
X21930099Y-32340241D01*
X21935000Y-32340000D01*
X22085000Y-32340000D01*
X22089901Y-32340241D01*
X22089901Y-32340241D01*
G37*
D19*
X22010000Y-32915000D03*
D16*
G36*
X21539901Y-32340241D02*
X21544755Y-32340961D01*
X21549514Y-32342153D01*
X21554134Y-32343806D01*
X21558570Y-32345904D01*
X21562779Y-32348427D01*
X21566720Y-32351349D01*
X21570355Y-32354645D01*
X21573651Y-32358280D01*
X21576573Y-32362221D01*
X21579096Y-32366430D01*
X21581194Y-32370866D01*
X21582847Y-32375486D01*
X21584039Y-32380245D01*
X21584759Y-32385099D01*
X21585000Y-32390000D01*
X21585000Y-33440000D01*
X21584759Y-33444901D01*
X21584039Y-33449755D01*
X21582847Y-33454514D01*
X21581194Y-33459134D01*
X21579096Y-33463570D01*
X21576573Y-33467779D01*
X21573651Y-33471720D01*
X21570355Y-33475355D01*
X21566720Y-33478651D01*
X21562779Y-33481573D01*
X21558570Y-33484096D01*
X21554134Y-33486194D01*
X21549514Y-33487847D01*
X21544755Y-33489039D01*
X21539901Y-33489759D01*
X21535000Y-33490000D01*
X21385000Y-33490000D01*
X21380099Y-33489759D01*
X21375245Y-33489039D01*
X21370486Y-33487847D01*
X21365866Y-33486194D01*
X21361430Y-33484096D01*
X21357221Y-33481573D01*
X21353280Y-33478651D01*
X21349645Y-33475355D01*
X21346349Y-33471720D01*
X21343427Y-33467779D01*
X21340904Y-33463570D01*
X21338806Y-33459134D01*
X21337153Y-33454514D01*
X21335961Y-33449755D01*
X21335241Y-33444901D01*
X21335000Y-33440000D01*
X21335000Y-32390000D01*
X21335241Y-32385099D01*
X21335961Y-32380245D01*
X21337153Y-32375486D01*
X21338806Y-32370866D01*
X21340904Y-32366430D01*
X21343427Y-32362221D01*
X21346349Y-32358280D01*
X21349645Y-32354645D01*
X21353280Y-32351349D01*
X21357221Y-32348427D01*
X21361430Y-32345904D01*
X21365866Y-32343806D01*
X21370486Y-32342153D01*
X21375245Y-32340961D01*
X21380099Y-32340241D01*
X21385000Y-32340000D01*
X21535000Y-32340000D01*
X21539901Y-32340241D01*
X21539901Y-32340241D01*
G37*
D19*
X21460000Y-32915000D03*
D16*
G36*
X23455881Y-33840289D02*
X23461705Y-33841153D01*
X23467417Y-33842584D01*
X23472961Y-33844567D01*
X23478284Y-33847085D01*
X23483334Y-33850112D01*
X23488064Y-33853619D01*
X23492426Y-33857574D01*
X23496381Y-33861936D01*
X23499888Y-33866666D01*
X23502915Y-33871716D01*
X23505433Y-33877039D01*
X23507416Y-33882583D01*
X23508847Y-33888295D01*
X23509711Y-33894119D01*
X23510000Y-33900000D01*
X23510000Y-34080000D01*
X23509711Y-34085881D01*
X23508847Y-34091705D01*
X23507416Y-34097417D01*
X23505433Y-34102961D01*
X23502915Y-34108284D01*
X23499888Y-34113334D01*
X23496381Y-34118064D01*
X23492426Y-34122426D01*
X23488064Y-34126381D01*
X23483334Y-34129888D01*
X23478284Y-34132915D01*
X23472961Y-34135433D01*
X23467417Y-34137416D01*
X23461705Y-34138847D01*
X23455881Y-34139711D01*
X23450000Y-34140000D01*
X20970000Y-34140000D01*
X20964119Y-34139711D01*
X20958295Y-34138847D01*
X20952583Y-34137416D01*
X20947039Y-34135433D01*
X20941716Y-34132915D01*
X20936666Y-34129888D01*
X20931936Y-34126381D01*
X20927574Y-34122426D01*
X20923619Y-34118064D01*
X20920112Y-34113334D01*
X20917085Y-34108284D01*
X20914567Y-34102961D01*
X20912584Y-34097417D01*
X20911153Y-34091705D01*
X20910289Y-34085881D01*
X20910000Y-34080000D01*
X20910000Y-33900000D01*
X20910289Y-33894119D01*
X20911153Y-33888295D01*
X20912584Y-33882583D01*
X20914567Y-33877039D01*
X20917085Y-33871716D01*
X20920112Y-33866666D01*
X20923619Y-33861936D01*
X20927574Y-33857574D01*
X20931936Y-33853619D01*
X20936666Y-33850112D01*
X20941716Y-33847085D01*
X20947039Y-33844567D01*
X20952583Y-33842584D01*
X20958295Y-33841153D01*
X20964119Y-33840289D01*
X20970000Y-33840000D01*
X23450000Y-33840000D01*
X23455881Y-33840289D01*
X23455881Y-33840289D01*
G37*
D21*
X22210000Y-33990000D03*
D16*
G36*
X24764901Y-34915241D02*
X24769755Y-34915961D01*
X24774514Y-34917153D01*
X24779134Y-34918806D01*
X24783570Y-34920904D01*
X24787779Y-34923427D01*
X24791720Y-34926349D01*
X24795355Y-34929645D01*
X24798651Y-34933280D01*
X24801573Y-34937221D01*
X24804096Y-34941430D01*
X24806194Y-34945866D01*
X24807847Y-34950486D01*
X24809039Y-34955245D01*
X24809759Y-34960099D01*
X24810000Y-34965000D01*
X24810000Y-35115000D01*
X24809759Y-35119901D01*
X24809039Y-35124755D01*
X24807847Y-35129514D01*
X24806194Y-35134134D01*
X24804096Y-35138570D01*
X24801573Y-35142779D01*
X24798651Y-35146720D01*
X24795355Y-35150355D01*
X24791720Y-35153651D01*
X24787779Y-35156573D01*
X24783570Y-35159096D01*
X24779134Y-35161194D01*
X24774514Y-35162847D01*
X24769755Y-35164039D01*
X24764901Y-35164759D01*
X24760000Y-35165000D01*
X24260000Y-35165000D01*
X24255099Y-35164759D01*
X24250245Y-35164039D01*
X24245486Y-35162847D01*
X24240866Y-35161194D01*
X24236430Y-35159096D01*
X24232221Y-35156573D01*
X24228280Y-35153651D01*
X24224645Y-35150355D01*
X24221349Y-35146720D01*
X24218427Y-35142779D01*
X24215904Y-35138570D01*
X24213806Y-35134134D01*
X24212153Y-35129514D01*
X24210961Y-35124755D01*
X24210241Y-35119901D01*
X24210000Y-35115000D01*
X24210000Y-34965000D01*
X24210241Y-34960099D01*
X24210961Y-34955245D01*
X24212153Y-34950486D01*
X24213806Y-34945866D01*
X24215904Y-34941430D01*
X24218427Y-34937221D01*
X24221349Y-34933280D01*
X24224645Y-34929645D01*
X24228280Y-34926349D01*
X24232221Y-34923427D01*
X24236430Y-34920904D01*
X24240866Y-34918806D01*
X24245486Y-34917153D01*
X24250245Y-34915961D01*
X24255099Y-34915241D01*
X24260000Y-34915000D01*
X24760000Y-34915000D01*
X24764901Y-34915241D01*
X24764901Y-34915241D01*
G37*
D19*
X24510000Y-35040000D03*
D16*
G36*
X22639901Y-35090241D02*
X22644755Y-35090961D01*
X22649514Y-35092153D01*
X22654134Y-35093806D01*
X22658570Y-35095904D01*
X22662779Y-35098427D01*
X22666720Y-35101349D01*
X22670355Y-35104645D01*
X22673651Y-35108280D01*
X22676573Y-35112221D01*
X22679096Y-35116430D01*
X22681194Y-35120866D01*
X22682847Y-35125486D01*
X22684039Y-35130245D01*
X22684759Y-35135099D01*
X22685000Y-35140000D01*
X22685000Y-36190000D01*
X22684759Y-36194901D01*
X22684039Y-36199755D01*
X22682847Y-36204514D01*
X22681194Y-36209134D01*
X22679096Y-36213570D01*
X22676573Y-36217779D01*
X22673651Y-36221720D01*
X22670355Y-36225355D01*
X22666720Y-36228651D01*
X22662779Y-36231573D01*
X22658570Y-36234096D01*
X22654134Y-36236194D01*
X22649514Y-36237847D01*
X22644755Y-36239039D01*
X22639901Y-36239759D01*
X22635000Y-36240000D01*
X22485000Y-36240000D01*
X22480099Y-36239759D01*
X22475245Y-36239039D01*
X22470486Y-36237847D01*
X22465866Y-36236194D01*
X22461430Y-36234096D01*
X22457221Y-36231573D01*
X22453280Y-36228651D01*
X22449645Y-36225355D01*
X22446349Y-36221720D01*
X22443427Y-36217779D01*
X22440904Y-36213570D01*
X22438806Y-36209134D01*
X22437153Y-36204514D01*
X22435961Y-36199755D01*
X22435241Y-36194901D01*
X22435000Y-36190000D01*
X22435000Y-35140000D01*
X22435241Y-35135099D01*
X22435961Y-35130245D01*
X22437153Y-35125486D01*
X22438806Y-35120866D01*
X22440904Y-35116430D01*
X22443427Y-35112221D01*
X22446349Y-35108280D01*
X22449645Y-35104645D01*
X22453280Y-35101349D01*
X22457221Y-35098427D01*
X22461430Y-35095904D01*
X22465866Y-35093806D01*
X22470486Y-35092153D01*
X22475245Y-35090961D01*
X22480099Y-35090241D01*
X22485000Y-35090000D01*
X22635000Y-35090000D01*
X22639901Y-35090241D01*
X22639901Y-35090241D01*
G37*
D19*
X22560000Y-35665000D03*
D16*
G36*
X23455881Y-34440289D02*
X23461705Y-34441153D01*
X23467417Y-34442584D01*
X23472961Y-34444567D01*
X23478284Y-34447085D01*
X23483334Y-34450112D01*
X23488064Y-34453619D01*
X23492426Y-34457574D01*
X23496381Y-34461936D01*
X23499888Y-34466666D01*
X23502915Y-34471716D01*
X23505433Y-34477039D01*
X23507416Y-34482583D01*
X23508847Y-34488295D01*
X23509711Y-34494119D01*
X23510000Y-34500000D01*
X23510000Y-34680000D01*
X23509711Y-34685881D01*
X23508847Y-34691705D01*
X23507416Y-34697417D01*
X23505433Y-34702961D01*
X23502915Y-34708284D01*
X23499888Y-34713334D01*
X23496381Y-34718064D01*
X23492426Y-34722426D01*
X23488064Y-34726381D01*
X23483334Y-34729888D01*
X23478284Y-34732915D01*
X23472961Y-34735433D01*
X23467417Y-34737416D01*
X23461705Y-34738847D01*
X23455881Y-34739711D01*
X23450000Y-34740000D01*
X20970000Y-34740000D01*
X20964119Y-34739711D01*
X20958295Y-34738847D01*
X20952583Y-34737416D01*
X20947039Y-34735433D01*
X20941716Y-34732915D01*
X20936666Y-34729888D01*
X20931936Y-34726381D01*
X20927574Y-34722426D01*
X20923619Y-34718064D01*
X20920112Y-34713334D01*
X20917085Y-34708284D01*
X20914567Y-34702961D01*
X20912584Y-34697417D01*
X20911153Y-34691705D01*
X20910289Y-34685881D01*
X20910000Y-34680000D01*
X20910000Y-34500000D01*
X20910289Y-34494119D01*
X20911153Y-34488295D01*
X20912584Y-34482583D01*
X20914567Y-34477039D01*
X20917085Y-34471716D01*
X20920112Y-34466666D01*
X20923619Y-34461936D01*
X20927574Y-34457574D01*
X20931936Y-34453619D01*
X20936666Y-34450112D01*
X20941716Y-34447085D01*
X20947039Y-34444567D01*
X20952583Y-34442584D01*
X20958295Y-34441153D01*
X20964119Y-34440289D01*
X20970000Y-34440000D01*
X23450000Y-34440000D01*
X23455881Y-34440289D01*
X23455881Y-34440289D01*
G37*
D21*
X22210000Y-34590000D03*
D16*
G36*
X24764901Y-35415241D02*
X24769755Y-35415961D01*
X24774514Y-35417153D01*
X24779134Y-35418806D01*
X24783570Y-35420904D01*
X24787779Y-35423427D01*
X24791720Y-35426349D01*
X24795355Y-35429645D01*
X24798651Y-35433280D01*
X24801573Y-35437221D01*
X24804096Y-35441430D01*
X24806194Y-35445866D01*
X24807847Y-35450486D01*
X24809039Y-35455245D01*
X24809759Y-35460099D01*
X24810000Y-35465000D01*
X24810000Y-35615000D01*
X24809759Y-35619901D01*
X24809039Y-35624755D01*
X24807847Y-35629514D01*
X24806194Y-35634134D01*
X24804096Y-35638570D01*
X24801573Y-35642779D01*
X24798651Y-35646720D01*
X24795355Y-35650355D01*
X24791720Y-35653651D01*
X24787779Y-35656573D01*
X24783570Y-35659096D01*
X24779134Y-35661194D01*
X24774514Y-35662847D01*
X24769755Y-35664039D01*
X24764901Y-35664759D01*
X24760000Y-35665000D01*
X24260000Y-35665000D01*
X24255099Y-35664759D01*
X24250245Y-35664039D01*
X24245486Y-35662847D01*
X24240866Y-35661194D01*
X24236430Y-35659096D01*
X24232221Y-35656573D01*
X24228280Y-35653651D01*
X24224645Y-35650355D01*
X24221349Y-35646720D01*
X24218427Y-35642779D01*
X24215904Y-35638570D01*
X24213806Y-35634134D01*
X24212153Y-35629514D01*
X24210961Y-35624755D01*
X24210241Y-35619901D01*
X24210000Y-35615000D01*
X24210000Y-35465000D01*
X24210241Y-35460099D01*
X24210961Y-35455245D01*
X24212153Y-35450486D01*
X24213806Y-35445866D01*
X24215904Y-35441430D01*
X24218427Y-35437221D01*
X24221349Y-35433280D01*
X24224645Y-35429645D01*
X24228280Y-35426349D01*
X24232221Y-35423427D01*
X24236430Y-35420904D01*
X24240866Y-35418806D01*
X24245486Y-35417153D01*
X24250245Y-35415961D01*
X24255099Y-35415241D01*
X24260000Y-35415000D01*
X24760000Y-35415000D01*
X24764901Y-35415241D01*
X24764901Y-35415241D01*
G37*
D19*
X24510000Y-35540000D03*
D16*
G36*
X23864901Y-35640241D02*
X23869755Y-35640961D01*
X23874514Y-35642153D01*
X23879134Y-35643806D01*
X23883570Y-35645904D01*
X23887779Y-35648427D01*
X23891720Y-35651349D01*
X23895355Y-35654645D01*
X23898651Y-35658280D01*
X23901573Y-35662221D01*
X23904096Y-35666430D01*
X23906194Y-35670866D01*
X23907847Y-35675486D01*
X23909039Y-35680245D01*
X23909759Y-35685099D01*
X23910000Y-35690000D01*
X23910000Y-36190000D01*
X23909759Y-36194901D01*
X23909039Y-36199755D01*
X23907847Y-36204514D01*
X23906194Y-36209134D01*
X23904096Y-36213570D01*
X23901573Y-36217779D01*
X23898651Y-36221720D01*
X23895355Y-36225355D01*
X23891720Y-36228651D01*
X23887779Y-36231573D01*
X23883570Y-36234096D01*
X23879134Y-36236194D01*
X23874514Y-36237847D01*
X23869755Y-36239039D01*
X23864901Y-36239759D01*
X23860000Y-36240000D01*
X23710000Y-36240000D01*
X23705099Y-36239759D01*
X23700245Y-36239039D01*
X23695486Y-36237847D01*
X23690866Y-36236194D01*
X23686430Y-36234096D01*
X23682221Y-36231573D01*
X23678280Y-36228651D01*
X23674645Y-36225355D01*
X23671349Y-36221720D01*
X23668427Y-36217779D01*
X23665904Y-36213570D01*
X23663806Y-36209134D01*
X23662153Y-36204514D01*
X23660961Y-36199755D01*
X23660241Y-36194901D01*
X23660000Y-36190000D01*
X23660000Y-35690000D01*
X23660241Y-35685099D01*
X23660961Y-35680245D01*
X23662153Y-35675486D01*
X23663806Y-35670866D01*
X23665904Y-35666430D01*
X23668427Y-35662221D01*
X23671349Y-35658280D01*
X23674645Y-35654645D01*
X23678280Y-35651349D01*
X23682221Y-35648427D01*
X23686430Y-35645904D01*
X23690866Y-35643806D01*
X23695486Y-35642153D01*
X23700245Y-35640961D01*
X23705099Y-35640241D01*
X23710000Y-35640000D01*
X23860000Y-35640000D01*
X23864901Y-35640241D01*
X23864901Y-35640241D01*
G37*
D19*
X23785000Y-35940000D03*
D16*
G36*
X22089901Y-35090241D02*
X22094755Y-35090961D01*
X22099514Y-35092153D01*
X22104134Y-35093806D01*
X22108570Y-35095904D01*
X22112779Y-35098427D01*
X22116720Y-35101349D01*
X22120355Y-35104645D01*
X22123651Y-35108280D01*
X22126573Y-35112221D01*
X22129096Y-35116430D01*
X22131194Y-35120866D01*
X22132847Y-35125486D01*
X22134039Y-35130245D01*
X22134759Y-35135099D01*
X22135000Y-35140000D01*
X22135000Y-36190000D01*
X22134759Y-36194901D01*
X22134039Y-36199755D01*
X22132847Y-36204514D01*
X22131194Y-36209134D01*
X22129096Y-36213570D01*
X22126573Y-36217779D01*
X22123651Y-36221720D01*
X22120355Y-36225355D01*
X22116720Y-36228651D01*
X22112779Y-36231573D01*
X22108570Y-36234096D01*
X22104134Y-36236194D01*
X22099514Y-36237847D01*
X22094755Y-36239039D01*
X22089901Y-36239759D01*
X22085000Y-36240000D01*
X21935000Y-36240000D01*
X21930099Y-36239759D01*
X21925245Y-36239039D01*
X21920486Y-36237847D01*
X21915866Y-36236194D01*
X21911430Y-36234096D01*
X21907221Y-36231573D01*
X21903280Y-36228651D01*
X21899645Y-36225355D01*
X21896349Y-36221720D01*
X21893427Y-36217779D01*
X21890904Y-36213570D01*
X21888806Y-36209134D01*
X21887153Y-36204514D01*
X21885961Y-36199755D01*
X21885241Y-36194901D01*
X21885000Y-36190000D01*
X21885000Y-35140000D01*
X21885241Y-35135099D01*
X21885961Y-35130245D01*
X21887153Y-35125486D01*
X21888806Y-35120866D01*
X21890904Y-35116430D01*
X21893427Y-35112221D01*
X21896349Y-35108280D01*
X21899645Y-35104645D01*
X21903280Y-35101349D01*
X21907221Y-35098427D01*
X21911430Y-35095904D01*
X21915866Y-35093806D01*
X21920486Y-35092153D01*
X21925245Y-35090961D01*
X21930099Y-35090241D01*
X21935000Y-35090000D01*
X22085000Y-35090000D01*
X22089901Y-35090241D01*
X22089901Y-35090241D01*
G37*
D19*
X22010000Y-35665000D03*
D16*
G36*
X23337841Y-35090385D02*
X23345607Y-35091537D01*
X23353223Y-35093445D01*
X23360615Y-35096090D01*
X23367712Y-35099446D01*
X23374446Y-35103482D01*
X23380751Y-35108159D01*
X23386569Y-35113431D01*
X23391841Y-35119249D01*
X23396518Y-35125554D01*
X23400554Y-35132288D01*
X23403910Y-35139385D01*
X23406555Y-35146777D01*
X23408463Y-35154393D01*
X23409615Y-35162159D01*
X23410000Y-35170000D01*
X23410000Y-36160000D01*
X23409615Y-36167841D01*
X23408463Y-36175607D01*
X23406555Y-36183223D01*
X23403910Y-36190615D01*
X23400554Y-36197712D01*
X23396518Y-36204446D01*
X23391841Y-36210751D01*
X23386569Y-36216569D01*
X23380751Y-36221841D01*
X23374446Y-36226518D01*
X23367712Y-36230554D01*
X23360615Y-36233910D01*
X23353223Y-36236555D01*
X23345607Y-36238463D01*
X23337841Y-36239615D01*
X23330000Y-36240000D01*
X23090000Y-36240000D01*
X23082159Y-36239615D01*
X23074393Y-36238463D01*
X23066777Y-36236555D01*
X23059385Y-36233910D01*
X23052288Y-36230554D01*
X23045554Y-36226518D01*
X23039249Y-36221841D01*
X23033431Y-36216569D01*
X23028159Y-36210751D01*
X23023482Y-36204446D01*
X23019446Y-36197712D01*
X23016090Y-36190615D01*
X23013445Y-36183223D01*
X23011537Y-36175607D01*
X23010385Y-36167841D01*
X23010000Y-36160000D01*
X23010000Y-35170000D01*
X23010385Y-35162159D01*
X23011537Y-35154393D01*
X23013445Y-35146777D01*
X23016090Y-35139385D01*
X23019446Y-35132288D01*
X23023482Y-35125554D01*
X23028159Y-35119249D01*
X23033431Y-35113431D01*
X23039249Y-35108159D01*
X23045554Y-35103482D01*
X23052288Y-35099446D01*
X23059385Y-35096090D01*
X23066777Y-35093445D01*
X23074393Y-35091537D01*
X23082159Y-35090385D01*
X23090000Y-35090000D01*
X23330000Y-35090000D01*
X23337841Y-35090385D01*
X23337841Y-35090385D01*
G37*
D20*
X23210000Y-35665000D03*
D16*
G36*
X24764901Y-34415241D02*
X24769755Y-34415961D01*
X24774514Y-34417153D01*
X24779134Y-34418806D01*
X24783570Y-34420904D01*
X24787779Y-34423427D01*
X24791720Y-34426349D01*
X24795355Y-34429645D01*
X24798651Y-34433280D01*
X24801573Y-34437221D01*
X24804096Y-34441430D01*
X24806194Y-34445866D01*
X24807847Y-34450486D01*
X24809039Y-34455245D01*
X24809759Y-34460099D01*
X24810000Y-34465000D01*
X24810000Y-34615000D01*
X24809759Y-34619901D01*
X24809039Y-34624755D01*
X24807847Y-34629514D01*
X24806194Y-34634134D01*
X24804096Y-34638570D01*
X24801573Y-34642779D01*
X24798651Y-34646720D01*
X24795355Y-34650355D01*
X24791720Y-34653651D01*
X24787779Y-34656573D01*
X24783570Y-34659096D01*
X24779134Y-34661194D01*
X24774514Y-34662847D01*
X24769755Y-34664039D01*
X24764901Y-34664759D01*
X24760000Y-34665000D01*
X24260000Y-34665000D01*
X24255099Y-34664759D01*
X24250245Y-34664039D01*
X24245486Y-34662847D01*
X24240866Y-34661194D01*
X24236430Y-34659096D01*
X24232221Y-34656573D01*
X24228280Y-34653651D01*
X24224645Y-34650355D01*
X24221349Y-34646720D01*
X24218427Y-34642779D01*
X24215904Y-34638570D01*
X24213806Y-34634134D01*
X24212153Y-34629514D01*
X24210961Y-34624755D01*
X24210241Y-34619901D01*
X24210000Y-34615000D01*
X24210000Y-34465000D01*
X24210241Y-34460099D01*
X24210961Y-34455245D01*
X24212153Y-34450486D01*
X24213806Y-34445866D01*
X24215904Y-34441430D01*
X24218427Y-34437221D01*
X24221349Y-34433280D01*
X24224645Y-34429645D01*
X24228280Y-34426349D01*
X24232221Y-34423427D01*
X24236430Y-34420904D01*
X24240866Y-34418806D01*
X24245486Y-34417153D01*
X24250245Y-34415961D01*
X24255099Y-34415241D01*
X24260000Y-34415000D01*
X24760000Y-34415000D01*
X24764901Y-34415241D01*
X24764901Y-34415241D01*
G37*
D19*
X24510000Y-34540000D03*
D16*
G36*
X21539901Y-35090241D02*
X21544755Y-35090961D01*
X21549514Y-35092153D01*
X21554134Y-35093806D01*
X21558570Y-35095904D01*
X21562779Y-35098427D01*
X21566720Y-35101349D01*
X21570355Y-35104645D01*
X21573651Y-35108280D01*
X21576573Y-35112221D01*
X21579096Y-35116430D01*
X21581194Y-35120866D01*
X21582847Y-35125486D01*
X21584039Y-35130245D01*
X21584759Y-35135099D01*
X21585000Y-35140000D01*
X21585000Y-36190000D01*
X21584759Y-36194901D01*
X21584039Y-36199755D01*
X21582847Y-36204514D01*
X21581194Y-36209134D01*
X21579096Y-36213570D01*
X21576573Y-36217779D01*
X21573651Y-36221720D01*
X21570355Y-36225355D01*
X21566720Y-36228651D01*
X21562779Y-36231573D01*
X21558570Y-36234096D01*
X21554134Y-36236194D01*
X21549514Y-36237847D01*
X21544755Y-36239039D01*
X21539901Y-36239759D01*
X21535000Y-36240000D01*
X21385000Y-36240000D01*
X21380099Y-36239759D01*
X21375245Y-36239039D01*
X21370486Y-36237847D01*
X21365866Y-36236194D01*
X21361430Y-36234096D01*
X21357221Y-36231573D01*
X21353280Y-36228651D01*
X21349645Y-36225355D01*
X21346349Y-36221720D01*
X21343427Y-36217779D01*
X21340904Y-36213570D01*
X21338806Y-36209134D01*
X21337153Y-36204514D01*
X21335961Y-36199755D01*
X21335241Y-36194901D01*
X21335000Y-36190000D01*
X21335000Y-35140000D01*
X21335241Y-35135099D01*
X21335961Y-35130245D01*
X21337153Y-35125486D01*
X21338806Y-35120866D01*
X21340904Y-35116430D01*
X21343427Y-35112221D01*
X21346349Y-35108280D01*
X21349645Y-35104645D01*
X21353280Y-35101349D01*
X21357221Y-35098427D01*
X21361430Y-35095904D01*
X21365866Y-35093806D01*
X21370486Y-35092153D01*
X21375245Y-35090961D01*
X21380099Y-35090241D01*
X21385000Y-35090000D01*
X21535000Y-35090000D01*
X21539901Y-35090241D01*
X21539901Y-35090241D01*
G37*
D19*
X21460000Y-35665000D03*
G04 #@! TD*
D16*
G04 #@! TO.C,U3*
G36*
X62962901Y-32040241D02*
X62967755Y-32040961D01*
X62972514Y-32042153D01*
X62977134Y-32043806D01*
X62981570Y-32045904D01*
X62985779Y-32048427D01*
X62989720Y-32051349D01*
X62993355Y-32054645D01*
X62996651Y-32058280D01*
X62999573Y-32062221D01*
X63002096Y-32066430D01*
X63004194Y-32070866D01*
X63005847Y-32075486D01*
X63007039Y-32080245D01*
X63007759Y-32085099D01*
X63008000Y-32090000D01*
X63008000Y-33140000D01*
X63007759Y-33144901D01*
X63007039Y-33149755D01*
X63005847Y-33154514D01*
X63004194Y-33159134D01*
X63002096Y-33163570D01*
X62999573Y-33167779D01*
X62996651Y-33171720D01*
X62993355Y-33175355D01*
X62989720Y-33178651D01*
X62985779Y-33181573D01*
X62981570Y-33184096D01*
X62977134Y-33186194D01*
X62972514Y-33187847D01*
X62967755Y-33189039D01*
X62962901Y-33189759D01*
X62958000Y-33190000D01*
X62808000Y-33190000D01*
X62803099Y-33189759D01*
X62798245Y-33189039D01*
X62793486Y-33187847D01*
X62788866Y-33186194D01*
X62784430Y-33184096D01*
X62780221Y-33181573D01*
X62776280Y-33178651D01*
X62772645Y-33175355D01*
X62769349Y-33171720D01*
X62766427Y-33167779D01*
X62763904Y-33163570D01*
X62761806Y-33159134D01*
X62760153Y-33154514D01*
X62758961Y-33149755D01*
X62758241Y-33144901D01*
X62758000Y-33140000D01*
X62758000Y-32090000D01*
X62758241Y-32085099D01*
X62758961Y-32080245D01*
X62760153Y-32075486D01*
X62761806Y-32070866D01*
X62763904Y-32066430D01*
X62766427Y-32062221D01*
X62769349Y-32058280D01*
X62772645Y-32054645D01*
X62776280Y-32051349D01*
X62780221Y-32048427D01*
X62784430Y-32045904D01*
X62788866Y-32043806D01*
X62793486Y-32042153D01*
X62798245Y-32040961D01*
X62803099Y-32040241D01*
X62808000Y-32040000D01*
X62958000Y-32040000D01*
X62962901Y-32040241D01*
X62962901Y-32040241D01*
G37*
D19*
X62883000Y-32615000D03*
D16*
G36*
X60087901Y-33615241D02*
X60092755Y-33615961D01*
X60097514Y-33617153D01*
X60102134Y-33618806D01*
X60106570Y-33620904D01*
X60110779Y-33623427D01*
X60114720Y-33626349D01*
X60118355Y-33629645D01*
X60121651Y-33633280D01*
X60124573Y-33637221D01*
X60127096Y-33641430D01*
X60129194Y-33645866D01*
X60130847Y-33650486D01*
X60132039Y-33655245D01*
X60132759Y-33660099D01*
X60133000Y-33665000D01*
X60133000Y-33815000D01*
X60132759Y-33819901D01*
X60132039Y-33824755D01*
X60130847Y-33829514D01*
X60129194Y-33834134D01*
X60127096Y-33838570D01*
X60124573Y-33842779D01*
X60121651Y-33846720D01*
X60118355Y-33850355D01*
X60114720Y-33853651D01*
X60110779Y-33856573D01*
X60106570Y-33859096D01*
X60102134Y-33861194D01*
X60097514Y-33862847D01*
X60092755Y-33864039D01*
X60087901Y-33864759D01*
X60083000Y-33865000D01*
X59583000Y-33865000D01*
X59578099Y-33864759D01*
X59573245Y-33864039D01*
X59568486Y-33862847D01*
X59563866Y-33861194D01*
X59559430Y-33859096D01*
X59555221Y-33856573D01*
X59551280Y-33853651D01*
X59547645Y-33850355D01*
X59544349Y-33846720D01*
X59541427Y-33842779D01*
X59538904Y-33838570D01*
X59536806Y-33834134D01*
X59535153Y-33829514D01*
X59533961Y-33824755D01*
X59533241Y-33819901D01*
X59533000Y-33815000D01*
X59533000Y-33665000D01*
X59533241Y-33660099D01*
X59533961Y-33655245D01*
X59535153Y-33650486D01*
X59536806Y-33645866D01*
X59538904Y-33641430D01*
X59541427Y-33637221D01*
X59544349Y-33633280D01*
X59547645Y-33629645D01*
X59551280Y-33626349D01*
X59555221Y-33623427D01*
X59559430Y-33620904D01*
X59563866Y-33618806D01*
X59568486Y-33617153D01*
X59573245Y-33615961D01*
X59578099Y-33615241D01*
X59583000Y-33615000D01*
X60083000Y-33615000D01*
X60087901Y-33615241D01*
X60087901Y-33615241D01*
G37*
D19*
X59833000Y-33740000D03*
D16*
G36*
X61260841Y-32040385D02*
X61268607Y-32041537D01*
X61276223Y-32043445D01*
X61283615Y-32046090D01*
X61290712Y-32049446D01*
X61297446Y-32053482D01*
X61303751Y-32058159D01*
X61309569Y-32063431D01*
X61314841Y-32069249D01*
X61319518Y-32075554D01*
X61323554Y-32082288D01*
X61326910Y-32089385D01*
X61329555Y-32096777D01*
X61331463Y-32104393D01*
X61332615Y-32112159D01*
X61333000Y-32120000D01*
X61333000Y-33110000D01*
X61332615Y-33117841D01*
X61331463Y-33125607D01*
X61329555Y-33133223D01*
X61326910Y-33140615D01*
X61323554Y-33147712D01*
X61319518Y-33154446D01*
X61314841Y-33160751D01*
X61309569Y-33166569D01*
X61303751Y-33171841D01*
X61297446Y-33176518D01*
X61290712Y-33180554D01*
X61283615Y-33183910D01*
X61276223Y-33186555D01*
X61268607Y-33188463D01*
X61260841Y-33189615D01*
X61253000Y-33190000D01*
X61013000Y-33190000D01*
X61005159Y-33189615D01*
X60997393Y-33188463D01*
X60989777Y-33186555D01*
X60982385Y-33183910D01*
X60975288Y-33180554D01*
X60968554Y-33176518D01*
X60962249Y-33171841D01*
X60956431Y-33166569D01*
X60951159Y-33160751D01*
X60946482Y-33154446D01*
X60942446Y-33147712D01*
X60939090Y-33140615D01*
X60936445Y-33133223D01*
X60934537Y-33125607D01*
X60933385Y-33117841D01*
X60933000Y-33110000D01*
X60933000Y-32120000D01*
X60933385Y-32112159D01*
X60934537Y-32104393D01*
X60936445Y-32096777D01*
X60939090Y-32089385D01*
X60942446Y-32082288D01*
X60946482Y-32075554D01*
X60951159Y-32069249D01*
X60956431Y-32063431D01*
X60962249Y-32058159D01*
X60968554Y-32053482D01*
X60975288Y-32049446D01*
X60982385Y-32046090D01*
X60989777Y-32043445D01*
X60997393Y-32041537D01*
X61005159Y-32040385D01*
X61013000Y-32040000D01*
X61253000Y-32040000D01*
X61260841Y-32040385D01*
X61260841Y-32040385D01*
G37*
D20*
X61133000Y-32615000D03*
D16*
G36*
X62412901Y-32040241D02*
X62417755Y-32040961D01*
X62422514Y-32042153D01*
X62427134Y-32043806D01*
X62431570Y-32045904D01*
X62435779Y-32048427D01*
X62439720Y-32051349D01*
X62443355Y-32054645D01*
X62446651Y-32058280D01*
X62449573Y-32062221D01*
X62452096Y-32066430D01*
X62454194Y-32070866D01*
X62455847Y-32075486D01*
X62457039Y-32080245D01*
X62457759Y-32085099D01*
X62458000Y-32090000D01*
X62458000Y-33140000D01*
X62457759Y-33144901D01*
X62457039Y-33149755D01*
X62455847Y-33154514D01*
X62454194Y-33159134D01*
X62452096Y-33163570D01*
X62449573Y-33167779D01*
X62446651Y-33171720D01*
X62443355Y-33175355D01*
X62439720Y-33178651D01*
X62435779Y-33181573D01*
X62431570Y-33184096D01*
X62427134Y-33186194D01*
X62422514Y-33187847D01*
X62417755Y-33189039D01*
X62412901Y-33189759D01*
X62408000Y-33190000D01*
X62258000Y-33190000D01*
X62253099Y-33189759D01*
X62248245Y-33189039D01*
X62243486Y-33187847D01*
X62238866Y-33186194D01*
X62234430Y-33184096D01*
X62230221Y-33181573D01*
X62226280Y-33178651D01*
X62222645Y-33175355D01*
X62219349Y-33171720D01*
X62216427Y-33167779D01*
X62213904Y-33163570D01*
X62211806Y-33159134D01*
X62210153Y-33154514D01*
X62208961Y-33149755D01*
X62208241Y-33144901D01*
X62208000Y-33140000D01*
X62208000Y-32090000D01*
X62208241Y-32085099D01*
X62208961Y-32080245D01*
X62210153Y-32075486D01*
X62211806Y-32070866D01*
X62213904Y-32066430D01*
X62216427Y-32062221D01*
X62219349Y-32058280D01*
X62222645Y-32054645D01*
X62226280Y-32051349D01*
X62230221Y-32048427D01*
X62234430Y-32045904D01*
X62238866Y-32043806D01*
X62243486Y-32042153D01*
X62248245Y-32040961D01*
X62253099Y-32040241D01*
X62258000Y-32040000D01*
X62408000Y-32040000D01*
X62412901Y-32040241D01*
X62412901Y-32040241D01*
G37*
D19*
X62333000Y-32615000D03*
D16*
G36*
X60637901Y-32040241D02*
X60642755Y-32040961D01*
X60647514Y-32042153D01*
X60652134Y-32043806D01*
X60656570Y-32045904D01*
X60660779Y-32048427D01*
X60664720Y-32051349D01*
X60668355Y-32054645D01*
X60671651Y-32058280D01*
X60674573Y-32062221D01*
X60677096Y-32066430D01*
X60679194Y-32070866D01*
X60680847Y-32075486D01*
X60682039Y-32080245D01*
X60682759Y-32085099D01*
X60683000Y-32090000D01*
X60683000Y-32590000D01*
X60682759Y-32594901D01*
X60682039Y-32599755D01*
X60680847Y-32604514D01*
X60679194Y-32609134D01*
X60677096Y-32613570D01*
X60674573Y-32617779D01*
X60671651Y-32621720D01*
X60668355Y-32625355D01*
X60664720Y-32628651D01*
X60660779Y-32631573D01*
X60656570Y-32634096D01*
X60652134Y-32636194D01*
X60647514Y-32637847D01*
X60642755Y-32639039D01*
X60637901Y-32639759D01*
X60633000Y-32640000D01*
X60483000Y-32640000D01*
X60478099Y-32639759D01*
X60473245Y-32639039D01*
X60468486Y-32637847D01*
X60463866Y-32636194D01*
X60459430Y-32634096D01*
X60455221Y-32631573D01*
X60451280Y-32628651D01*
X60447645Y-32625355D01*
X60444349Y-32621720D01*
X60441427Y-32617779D01*
X60438904Y-32613570D01*
X60436806Y-32609134D01*
X60435153Y-32604514D01*
X60433961Y-32599755D01*
X60433241Y-32594901D01*
X60433000Y-32590000D01*
X60433000Y-32090000D01*
X60433241Y-32085099D01*
X60433961Y-32080245D01*
X60435153Y-32075486D01*
X60436806Y-32070866D01*
X60438904Y-32066430D01*
X60441427Y-32062221D01*
X60444349Y-32058280D01*
X60447645Y-32054645D01*
X60451280Y-32051349D01*
X60455221Y-32048427D01*
X60459430Y-32045904D01*
X60463866Y-32043806D01*
X60468486Y-32042153D01*
X60473245Y-32040961D01*
X60478099Y-32040241D01*
X60483000Y-32040000D01*
X60633000Y-32040000D01*
X60637901Y-32040241D01*
X60637901Y-32040241D01*
G37*
D19*
X60558000Y-32340000D03*
D16*
G36*
X60087901Y-32615241D02*
X60092755Y-32615961D01*
X60097514Y-32617153D01*
X60102134Y-32618806D01*
X60106570Y-32620904D01*
X60110779Y-32623427D01*
X60114720Y-32626349D01*
X60118355Y-32629645D01*
X60121651Y-32633280D01*
X60124573Y-32637221D01*
X60127096Y-32641430D01*
X60129194Y-32645866D01*
X60130847Y-32650486D01*
X60132039Y-32655245D01*
X60132759Y-32660099D01*
X60133000Y-32665000D01*
X60133000Y-32815000D01*
X60132759Y-32819901D01*
X60132039Y-32824755D01*
X60130847Y-32829514D01*
X60129194Y-32834134D01*
X60127096Y-32838570D01*
X60124573Y-32842779D01*
X60121651Y-32846720D01*
X60118355Y-32850355D01*
X60114720Y-32853651D01*
X60110779Y-32856573D01*
X60106570Y-32859096D01*
X60102134Y-32861194D01*
X60097514Y-32862847D01*
X60092755Y-32864039D01*
X60087901Y-32864759D01*
X60083000Y-32865000D01*
X59583000Y-32865000D01*
X59578099Y-32864759D01*
X59573245Y-32864039D01*
X59568486Y-32862847D01*
X59563866Y-32861194D01*
X59559430Y-32859096D01*
X59555221Y-32856573D01*
X59551280Y-32853651D01*
X59547645Y-32850355D01*
X59544349Y-32846720D01*
X59541427Y-32842779D01*
X59538904Y-32838570D01*
X59536806Y-32834134D01*
X59535153Y-32829514D01*
X59533961Y-32824755D01*
X59533241Y-32819901D01*
X59533000Y-32815000D01*
X59533000Y-32665000D01*
X59533241Y-32660099D01*
X59533961Y-32655245D01*
X59535153Y-32650486D01*
X59536806Y-32645866D01*
X59538904Y-32641430D01*
X59541427Y-32637221D01*
X59544349Y-32633280D01*
X59547645Y-32629645D01*
X59551280Y-32626349D01*
X59555221Y-32623427D01*
X59559430Y-32620904D01*
X59563866Y-32618806D01*
X59568486Y-32617153D01*
X59573245Y-32615961D01*
X59578099Y-32615241D01*
X59583000Y-32615000D01*
X60083000Y-32615000D01*
X60087901Y-32615241D01*
X60087901Y-32615241D01*
G37*
D19*
X59833000Y-32740000D03*
D16*
G36*
X63378881Y-33540289D02*
X63384705Y-33541153D01*
X63390417Y-33542584D01*
X63395961Y-33544567D01*
X63401284Y-33547085D01*
X63406334Y-33550112D01*
X63411064Y-33553619D01*
X63415426Y-33557574D01*
X63419381Y-33561936D01*
X63422888Y-33566666D01*
X63425915Y-33571716D01*
X63428433Y-33577039D01*
X63430416Y-33582583D01*
X63431847Y-33588295D01*
X63432711Y-33594119D01*
X63433000Y-33600000D01*
X63433000Y-33780000D01*
X63432711Y-33785881D01*
X63431847Y-33791705D01*
X63430416Y-33797417D01*
X63428433Y-33802961D01*
X63425915Y-33808284D01*
X63422888Y-33813334D01*
X63419381Y-33818064D01*
X63415426Y-33822426D01*
X63411064Y-33826381D01*
X63406334Y-33829888D01*
X63401284Y-33832915D01*
X63395961Y-33835433D01*
X63390417Y-33837416D01*
X63384705Y-33838847D01*
X63378881Y-33839711D01*
X63373000Y-33840000D01*
X60893000Y-33840000D01*
X60887119Y-33839711D01*
X60881295Y-33838847D01*
X60875583Y-33837416D01*
X60870039Y-33835433D01*
X60864716Y-33832915D01*
X60859666Y-33829888D01*
X60854936Y-33826381D01*
X60850574Y-33822426D01*
X60846619Y-33818064D01*
X60843112Y-33813334D01*
X60840085Y-33808284D01*
X60837567Y-33802961D01*
X60835584Y-33797417D01*
X60834153Y-33791705D01*
X60833289Y-33785881D01*
X60833000Y-33780000D01*
X60833000Y-33600000D01*
X60833289Y-33594119D01*
X60834153Y-33588295D01*
X60835584Y-33582583D01*
X60837567Y-33577039D01*
X60840085Y-33571716D01*
X60843112Y-33566666D01*
X60846619Y-33561936D01*
X60850574Y-33557574D01*
X60854936Y-33553619D01*
X60859666Y-33550112D01*
X60864716Y-33547085D01*
X60870039Y-33544567D01*
X60875583Y-33542584D01*
X60881295Y-33541153D01*
X60887119Y-33540289D01*
X60893000Y-33540000D01*
X63373000Y-33540000D01*
X63378881Y-33540289D01*
X63378881Y-33540289D01*
G37*
D21*
X62133000Y-33690000D03*
D16*
G36*
X61862901Y-32040241D02*
X61867755Y-32040961D01*
X61872514Y-32042153D01*
X61877134Y-32043806D01*
X61881570Y-32045904D01*
X61885779Y-32048427D01*
X61889720Y-32051349D01*
X61893355Y-32054645D01*
X61896651Y-32058280D01*
X61899573Y-32062221D01*
X61902096Y-32066430D01*
X61904194Y-32070866D01*
X61905847Y-32075486D01*
X61907039Y-32080245D01*
X61907759Y-32085099D01*
X61908000Y-32090000D01*
X61908000Y-33140000D01*
X61907759Y-33144901D01*
X61907039Y-33149755D01*
X61905847Y-33154514D01*
X61904194Y-33159134D01*
X61902096Y-33163570D01*
X61899573Y-33167779D01*
X61896651Y-33171720D01*
X61893355Y-33175355D01*
X61889720Y-33178651D01*
X61885779Y-33181573D01*
X61881570Y-33184096D01*
X61877134Y-33186194D01*
X61872514Y-33187847D01*
X61867755Y-33189039D01*
X61862901Y-33189759D01*
X61858000Y-33190000D01*
X61708000Y-33190000D01*
X61703099Y-33189759D01*
X61698245Y-33189039D01*
X61693486Y-33187847D01*
X61688866Y-33186194D01*
X61684430Y-33184096D01*
X61680221Y-33181573D01*
X61676280Y-33178651D01*
X61672645Y-33175355D01*
X61669349Y-33171720D01*
X61666427Y-33167779D01*
X61663904Y-33163570D01*
X61661806Y-33159134D01*
X61660153Y-33154514D01*
X61658961Y-33149755D01*
X61658241Y-33144901D01*
X61658000Y-33140000D01*
X61658000Y-32090000D01*
X61658241Y-32085099D01*
X61658961Y-32080245D01*
X61660153Y-32075486D01*
X61661806Y-32070866D01*
X61663904Y-32066430D01*
X61666427Y-32062221D01*
X61669349Y-32058280D01*
X61672645Y-32054645D01*
X61676280Y-32051349D01*
X61680221Y-32048427D01*
X61684430Y-32045904D01*
X61688866Y-32043806D01*
X61693486Y-32042153D01*
X61698245Y-32040961D01*
X61703099Y-32040241D01*
X61708000Y-32040000D01*
X61858000Y-32040000D01*
X61862901Y-32040241D01*
X61862901Y-32040241D01*
G37*
D19*
X61783000Y-32615000D03*
D16*
G36*
X60087901Y-33115241D02*
X60092755Y-33115961D01*
X60097514Y-33117153D01*
X60102134Y-33118806D01*
X60106570Y-33120904D01*
X60110779Y-33123427D01*
X60114720Y-33126349D01*
X60118355Y-33129645D01*
X60121651Y-33133280D01*
X60124573Y-33137221D01*
X60127096Y-33141430D01*
X60129194Y-33145866D01*
X60130847Y-33150486D01*
X60132039Y-33155245D01*
X60132759Y-33160099D01*
X60133000Y-33165000D01*
X60133000Y-33315000D01*
X60132759Y-33319901D01*
X60132039Y-33324755D01*
X60130847Y-33329514D01*
X60129194Y-33334134D01*
X60127096Y-33338570D01*
X60124573Y-33342779D01*
X60121651Y-33346720D01*
X60118355Y-33350355D01*
X60114720Y-33353651D01*
X60110779Y-33356573D01*
X60106570Y-33359096D01*
X60102134Y-33361194D01*
X60097514Y-33362847D01*
X60092755Y-33364039D01*
X60087901Y-33364759D01*
X60083000Y-33365000D01*
X59583000Y-33365000D01*
X59578099Y-33364759D01*
X59573245Y-33364039D01*
X59568486Y-33362847D01*
X59563866Y-33361194D01*
X59559430Y-33359096D01*
X59555221Y-33356573D01*
X59551280Y-33353651D01*
X59547645Y-33350355D01*
X59544349Y-33346720D01*
X59541427Y-33342779D01*
X59538904Y-33338570D01*
X59536806Y-33334134D01*
X59535153Y-33329514D01*
X59533961Y-33324755D01*
X59533241Y-33319901D01*
X59533000Y-33315000D01*
X59533000Y-33165000D01*
X59533241Y-33160099D01*
X59533961Y-33155245D01*
X59535153Y-33150486D01*
X59536806Y-33145866D01*
X59538904Y-33141430D01*
X59541427Y-33137221D01*
X59544349Y-33133280D01*
X59547645Y-33129645D01*
X59551280Y-33126349D01*
X59555221Y-33123427D01*
X59559430Y-33120904D01*
X59563866Y-33118806D01*
X59568486Y-33117153D01*
X59573245Y-33115961D01*
X59578099Y-33115241D01*
X59583000Y-33115000D01*
X60083000Y-33115000D01*
X60087901Y-33115241D01*
X60087901Y-33115241D01*
G37*
D19*
X59833000Y-33240000D03*
D16*
G36*
X63378881Y-34140289D02*
X63384705Y-34141153D01*
X63390417Y-34142584D01*
X63395961Y-34144567D01*
X63401284Y-34147085D01*
X63406334Y-34150112D01*
X63411064Y-34153619D01*
X63415426Y-34157574D01*
X63419381Y-34161936D01*
X63422888Y-34166666D01*
X63425915Y-34171716D01*
X63428433Y-34177039D01*
X63430416Y-34182583D01*
X63431847Y-34188295D01*
X63432711Y-34194119D01*
X63433000Y-34200000D01*
X63433000Y-34380000D01*
X63432711Y-34385881D01*
X63431847Y-34391705D01*
X63430416Y-34397417D01*
X63428433Y-34402961D01*
X63425915Y-34408284D01*
X63422888Y-34413334D01*
X63419381Y-34418064D01*
X63415426Y-34422426D01*
X63411064Y-34426381D01*
X63406334Y-34429888D01*
X63401284Y-34432915D01*
X63395961Y-34435433D01*
X63390417Y-34437416D01*
X63384705Y-34438847D01*
X63378881Y-34439711D01*
X63373000Y-34440000D01*
X60893000Y-34440000D01*
X60887119Y-34439711D01*
X60881295Y-34438847D01*
X60875583Y-34437416D01*
X60870039Y-34435433D01*
X60864716Y-34432915D01*
X60859666Y-34429888D01*
X60854936Y-34426381D01*
X60850574Y-34422426D01*
X60846619Y-34418064D01*
X60843112Y-34413334D01*
X60840085Y-34408284D01*
X60837567Y-34402961D01*
X60835584Y-34397417D01*
X60834153Y-34391705D01*
X60833289Y-34385881D01*
X60833000Y-34380000D01*
X60833000Y-34200000D01*
X60833289Y-34194119D01*
X60834153Y-34188295D01*
X60835584Y-34182583D01*
X60837567Y-34177039D01*
X60840085Y-34171716D01*
X60843112Y-34166666D01*
X60846619Y-34161936D01*
X60850574Y-34157574D01*
X60854936Y-34153619D01*
X60859666Y-34150112D01*
X60864716Y-34147085D01*
X60870039Y-34144567D01*
X60875583Y-34142584D01*
X60881295Y-34141153D01*
X60887119Y-34140289D01*
X60893000Y-34140000D01*
X63373000Y-34140000D01*
X63378881Y-34140289D01*
X63378881Y-34140289D01*
G37*
D21*
X62133000Y-34290000D03*
D16*
G36*
X62962901Y-34790241D02*
X62967755Y-34790961D01*
X62972514Y-34792153D01*
X62977134Y-34793806D01*
X62981570Y-34795904D01*
X62985779Y-34798427D01*
X62989720Y-34801349D01*
X62993355Y-34804645D01*
X62996651Y-34808280D01*
X62999573Y-34812221D01*
X63002096Y-34816430D01*
X63004194Y-34820866D01*
X63005847Y-34825486D01*
X63007039Y-34830245D01*
X63007759Y-34835099D01*
X63008000Y-34840000D01*
X63008000Y-35890000D01*
X63007759Y-35894901D01*
X63007039Y-35899755D01*
X63005847Y-35904514D01*
X63004194Y-35909134D01*
X63002096Y-35913570D01*
X62999573Y-35917779D01*
X62996651Y-35921720D01*
X62993355Y-35925355D01*
X62989720Y-35928651D01*
X62985779Y-35931573D01*
X62981570Y-35934096D01*
X62977134Y-35936194D01*
X62972514Y-35937847D01*
X62967755Y-35939039D01*
X62962901Y-35939759D01*
X62958000Y-35940000D01*
X62808000Y-35940000D01*
X62803099Y-35939759D01*
X62798245Y-35939039D01*
X62793486Y-35937847D01*
X62788866Y-35936194D01*
X62784430Y-35934096D01*
X62780221Y-35931573D01*
X62776280Y-35928651D01*
X62772645Y-35925355D01*
X62769349Y-35921720D01*
X62766427Y-35917779D01*
X62763904Y-35913570D01*
X62761806Y-35909134D01*
X62760153Y-35904514D01*
X62758961Y-35899755D01*
X62758241Y-35894901D01*
X62758000Y-35890000D01*
X62758000Y-34840000D01*
X62758241Y-34835099D01*
X62758961Y-34830245D01*
X62760153Y-34825486D01*
X62761806Y-34820866D01*
X62763904Y-34816430D01*
X62766427Y-34812221D01*
X62769349Y-34808280D01*
X62772645Y-34804645D01*
X62776280Y-34801349D01*
X62780221Y-34798427D01*
X62784430Y-34795904D01*
X62788866Y-34793806D01*
X62793486Y-34792153D01*
X62798245Y-34790961D01*
X62803099Y-34790241D01*
X62808000Y-34790000D01*
X62958000Y-34790000D01*
X62962901Y-34790241D01*
X62962901Y-34790241D01*
G37*
D19*
X62883000Y-35365000D03*
D16*
G36*
X62412901Y-34790241D02*
X62417755Y-34790961D01*
X62422514Y-34792153D01*
X62427134Y-34793806D01*
X62431570Y-34795904D01*
X62435779Y-34798427D01*
X62439720Y-34801349D01*
X62443355Y-34804645D01*
X62446651Y-34808280D01*
X62449573Y-34812221D01*
X62452096Y-34816430D01*
X62454194Y-34820866D01*
X62455847Y-34825486D01*
X62457039Y-34830245D01*
X62457759Y-34835099D01*
X62458000Y-34840000D01*
X62458000Y-35890000D01*
X62457759Y-35894901D01*
X62457039Y-35899755D01*
X62455847Y-35904514D01*
X62454194Y-35909134D01*
X62452096Y-35913570D01*
X62449573Y-35917779D01*
X62446651Y-35921720D01*
X62443355Y-35925355D01*
X62439720Y-35928651D01*
X62435779Y-35931573D01*
X62431570Y-35934096D01*
X62427134Y-35936194D01*
X62422514Y-35937847D01*
X62417755Y-35939039D01*
X62412901Y-35939759D01*
X62408000Y-35940000D01*
X62258000Y-35940000D01*
X62253099Y-35939759D01*
X62248245Y-35939039D01*
X62243486Y-35937847D01*
X62238866Y-35936194D01*
X62234430Y-35934096D01*
X62230221Y-35931573D01*
X62226280Y-35928651D01*
X62222645Y-35925355D01*
X62219349Y-35921720D01*
X62216427Y-35917779D01*
X62213904Y-35913570D01*
X62211806Y-35909134D01*
X62210153Y-35904514D01*
X62208961Y-35899755D01*
X62208241Y-35894901D01*
X62208000Y-35890000D01*
X62208000Y-34840000D01*
X62208241Y-34835099D01*
X62208961Y-34830245D01*
X62210153Y-34825486D01*
X62211806Y-34820866D01*
X62213904Y-34816430D01*
X62216427Y-34812221D01*
X62219349Y-34808280D01*
X62222645Y-34804645D01*
X62226280Y-34801349D01*
X62230221Y-34798427D01*
X62234430Y-34795904D01*
X62238866Y-34793806D01*
X62243486Y-34792153D01*
X62248245Y-34790961D01*
X62253099Y-34790241D01*
X62258000Y-34790000D01*
X62408000Y-34790000D01*
X62412901Y-34790241D01*
X62412901Y-34790241D01*
G37*
D19*
X62333000Y-35365000D03*
D16*
G36*
X61862901Y-34790241D02*
X61867755Y-34790961D01*
X61872514Y-34792153D01*
X61877134Y-34793806D01*
X61881570Y-34795904D01*
X61885779Y-34798427D01*
X61889720Y-34801349D01*
X61893355Y-34804645D01*
X61896651Y-34808280D01*
X61899573Y-34812221D01*
X61902096Y-34816430D01*
X61904194Y-34820866D01*
X61905847Y-34825486D01*
X61907039Y-34830245D01*
X61907759Y-34835099D01*
X61908000Y-34840000D01*
X61908000Y-35890000D01*
X61907759Y-35894901D01*
X61907039Y-35899755D01*
X61905847Y-35904514D01*
X61904194Y-35909134D01*
X61902096Y-35913570D01*
X61899573Y-35917779D01*
X61896651Y-35921720D01*
X61893355Y-35925355D01*
X61889720Y-35928651D01*
X61885779Y-35931573D01*
X61881570Y-35934096D01*
X61877134Y-35936194D01*
X61872514Y-35937847D01*
X61867755Y-35939039D01*
X61862901Y-35939759D01*
X61858000Y-35940000D01*
X61708000Y-35940000D01*
X61703099Y-35939759D01*
X61698245Y-35939039D01*
X61693486Y-35937847D01*
X61688866Y-35936194D01*
X61684430Y-35934096D01*
X61680221Y-35931573D01*
X61676280Y-35928651D01*
X61672645Y-35925355D01*
X61669349Y-35921720D01*
X61666427Y-35917779D01*
X61663904Y-35913570D01*
X61661806Y-35909134D01*
X61660153Y-35904514D01*
X61658961Y-35899755D01*
X61658241Y-35894901D01*
X61658000Y-35890000D01*
X61658000Y-34840000D01*
X61658241Y-34835099D01*
X61658961Y-34830245D01*
X61660153Y-34825486D01*
X61661806Y-34820866D01*
X61663904Y-34816430D01*
X61666427Y-34812221D01*
X61669349Y-34808280D01*
X61672645Y-34804645D01*
X61676280Y-34801349D01*
X61680221Y-34798427D01*
X61684430Y-34795904D01*
X61688866Y-34793806D01*
X61693486Y-34792153D01*
X61698245Y-34790961D01*
X61703099Y-34790241D01*
X61708000Y-34790000D01*
X61858000Y-34790000D01*
X61862901Y-34790241D01*
X61862901Y-34790241D01*
G37*
D19*
X61783000Y-35365000D03*
D16*
G36*
X61260841Y-34790385D02*
X61268607Y-34791537D01*
X61276223Y-34793445D01*
X61283615Y-34796090D01*
X61290712Y-34799446D01*
X61297446Y-34803482D01*
X61303751Y-34808159D01*
X61309569Y-34813431D01*
X61314841Y-34819249D01*
X61319518Y-34825554D01*
X61323554Y-34832288D01*
X61326910Y-34839385D01*
X61329555Y-34846777D01*
X61331463Y-34854393D01*
X61332615Y-34862159D01*
X61333000Y-34870000D01*
X61333000Y-35860000D01*
X61332615Y-35867841D01*
X61331463Y-35875607D01*
X61329555Y-35883223D01*
X61326910Y-35890615D01*
X61323554Y-35897712D01*
X61319518Y-35904446D01*
X61314841Y-35910751D01*
X61309569Y-35916569D01*
X61303751Y-35921841D01*
X61297446Y-35926518D01*
X61290712Y-35930554D01*
X61283615Y-35933910D01*
X61276223Y-35936555D01*
X61268607Y-35938463D01*
X61260841Y-35939615D01*
X61253000Y-35940000D01*
X61013000Y-35940000D01*
X61005159Y-35939615D01*
X60997393Y-35938463D01*
X60989777Y-35936555D01*
X60982385Y-35933910D01*
X60975288Y-35930554D01*
X60968554Y-35926518D01*
X60962249Y-35921841D01*
X60956431Y-35916569D01*
X60951159Y-35910751D01*
X60946482Y-35904446D01*
X60942446Y-35897712D01*
X60939090Y-35890615D01*
X60936445Y-35883223D01*
X60934537Y-35875607D01*
X60933385Y-35867841D01*
X60933000Y-35860000D01*
X60933000Y-34870000D01*
X60933385Y-34862159D01*
X60934537Y-34854393D01*
X60936445Y-34846777D01*
X60939090Y-34839385D01*
X60942446Y-34832288D01*
X60946482Y-34825554D01*
X60951159Y-34819249D01*
X60956431Y-34813431D01*
X60962249Y-34808159D01*
X60968554Y-34803482D01*
X60975288Y-34799446D01*
X60982385Y-34796090D01*
X60989777Y-34793445D01*
X60997393Y-34791537D01*
X61005159Y-34790385D01*
X61013000Y-34790000D01*
X61253000Y-34790000D01*
X61260841Y-34790385D01*
X61260841Y-34790385D01*
G37*
D20*
X61133000Y-35365000D03*
D16*
G36*
X60637901Y-35340241D02*
X60642755Y-35340961D01*
X60647514Y-35342153D01*
X60652134Y-35343806D01*
X60656570Y-35345904D01*
X60660779Y-35348427D01*
X60664720Y-35351349D01*
X60668355Y-35354645D01*
X60671651Y-35358280D01*
X60674573Y-35362221D01*
X60677096Y-35366430D01*
X60679194Y-35370866D01*
X60680847Y-35375486D01*
X60682039Y-35380245D01*
X60682759Y-35385099D01*
X60683000Y-35390000D01*
X60683000Y-35890000D01*
X60682759Y-35894901D01*
X60682039Y-35899755D01*
X60680847Y-35904514D01*
X60679194Y-35909134D01*
X60677096Y-35913570D01*
X60674573Y-35917779D01*
X60671651Y-35921720D01*
X60668355Y-35925355D01*
X60664720Y-35928651D01*
X60660779Y-35931573D01*
X60656570Y-35934096D01*
X60652134Y-35936194D01*
X60647514Y-35937847D01*
X60642755Y-35939039D01*
X60637901Y-35939759D01*
X60633000Y-35940000D01*
X60483000Y-35940000D01*
X60478099Y-35939759D01*
X60473245Y-35939039D01*
X60468486Y-35937847D01*
X60463866Y-35936194D01*
X60459430Y-35934096D01*
X60455221Y-35931573D01*
X60451280Y-35928651D01*
X60447645Y-35925355D01*
X60444349Y-35921720D01*
X60441427Y-35917779D01*
X60438904Y-35913570D01*
X60436806Y-35909134D01*
X60435153Y-35904514D01*
X60433961Y-35899755D01*
X60433241Y-35894901D01*
X60433000Y-35890000D01*
X60433000Y-35390000D01*
X60433241Y-35385099D01*
X60433961Y-35380245D01*
X60435153Y-35375486D01*
X60436806Y-35370866D01*
X60438904Y-35366430D01*
X60441427Y-35362221D01*
X60444349Y-35358280D01*
X60447645Y-35354645D01*
X60451280Y-35351349D01*
X60455221Y-35348427D01*
X60459430Y-35345904D01*
X60463866Y-35343806D01*
X60468486Y-35342153D01*
X60473245Y-35340961D01*
X60478099Y-35340241D01*
X60483000Y-35340000D01*
X60633000Y-35340000D01*
X60637901Y-35340241D01*
X60637901Y-35340241D01*
G37*
D19*
X60558000Y-35640000D03*
D16*
G36*
X60087901Y-34115241D02*
X60092755Y-34115961D01*
X60097514Y-34117153D01*
X60102134Y-34118806D01*
X60106570Y-34120904D01*
X60110779Y-34123427D01*
X60114720Y-34126349D01*
X60118355Y-34129645D01*
X60121651Y-34133280D01*
X60124573Y-34137221D01*
X60127096Y-34141430D01*
X60129194Y-34145866D01*
X60130847Y-34150486D01*
X60132039Y-34155245D01*
X60132759Y-34160099D01*
X60133000Y-34165000D01*
X60133000Y-34315000D01*
X60132759Y-34319901D01*
X60132039Y-34324755D01*
X60130847Y-34329514D01*
X60129194Y-34334134D01*
X60127096Y-34338570D01*
X60124573Y-34342779D01*
X60121651Y-34346720D01*
X60118355Y-34350355D01*
X60114720Y-34353651D01*
X60110779Y-34356573D01*
X60106570Y-34359096D01*
X60102134Y-34361194D01*
X60097514Y-34362847D01*
X60092755Y-34364039D01*
X60087901Y-34364759D01*
X60083000Y-34365000D01*
X59583000Y-34365000D01*
X59578099Y-34364759D01*
X59573245Y-34364039D01*
X59568486Y-34362847D01*
X59563866Y-34361194D01*
X59559430Y-34359096D01*
X59555221Y-34356573D01*
X59551280Y-34353651D01*
X59547645Y-34350355D01*
X59544349Y-34346720D01*
X59541427Y-34342779D01*
X59538904Y-34338570D01*
X59536806Y-34334134D01*
X59535153Y-34329514D01*
X59533961Y-34324755D01*
X59533241Y-34319901D01*
X59533000Y-34315000D01*
X59533000Y-34165000D01*
X59533241Y-34160099D01*
X59533961Y-34155245D01*
X59535153Y-34150486D01*
X59536806Y-34145866D01*
X59538904Y-34141430D01*
X59541427Y-34137221D01*
X59544349Y-34133280D01*
X59547645Y-34129645D01*
X59551280Y-34126349D01*
X59555221Y-34123427D01*
X59559430Y-34120904D01*
X59563866Y-34118806D01*
X59568486Y-34117153D01*
X59573245Y-34115961D01*
X59578099Y-34115241D01*
X59583000Y-34115000D01*
X60083000Y-34115000D01*
X60087901Y-34115241D01*
X60087901Y-34115241D01*
G37*
D19*
X59833000Y-34240000D03*
D16*
G36*
X60087901Y-34615241D02*
X60092755Y-34615961D01*
X60097514Y-34617153D01*
X60102134Y-34618806D01*
X60106570Y-34620904D01*
X60110779Y-34623427D01*
X60114720Y-34626349D01*
X60118355Y-34629645D01*
X60121651Y-34633280D01*
X60124573Y-34637221D01*
X60127096Y-34641430D01*
X60129194Y-34645866D01*
X60130847Y-34650486D01*
X60132039Y-34655245D01*
X60132759Y-34660099D01*
X60133000Y-34665000D01*
X60133000Y-34815000D01*
X60132759Y-34819901D01*
X60132039Y-34824755D01*
X60130847Y-34829514D01*
X60129194Y-34834134D01*
X60127096Y-34838570D01*
X60124573Y-34842779D01*
X60121651Y-34846720D01*
X60118355Y-34850355D01*
X60114720Y-34853651D01*
X60110779Y-34856573D01*
X60106570Y-34859096D01*
X60102134Y-34861194D01*
X60097514Y-34862847D01*
X60092755Y-34864039D01*
X60087901Y-34864759D01*
X60083000Y-34865000D01*
X59583000Y-34865000D01*
X59578099Y-34864759D01*
X59573245Y-34864039D01*
X59568486Y-34862847D01*
X59563866Y-34861194D01*
X59559430Y-34859096D01*
X59555221Y-34856573D01*
X59551280Y-34853651D01*
X59547645Y-34850355D01*
X59544349Y-34846720D01*
X59541427Y-34842779D01*
X59538904Y-34838570D01*
X59536806Y-34834134D01*
X59535153Y-34829514D01*
X59533961Y-34824755D01*
X59533241Y-34819901D01*
X59533000Y-34815000D01*
X59533000Y-34665000D01*
X59533241Y-34660099D01*
X59533961Y-34655245D01*
X59535153Y-34650486D01*
X59536806Y-34645866D01*
X59538904Y-34641430D01*
X59541427Y-34637221D01*
X59544349Y-34633280D01*
X59547645Y-34629645D01*
X59551280Y-34626349D01*
X59555221Y-34623427D01*
X59559430Y-34620904D01*
X59563866Y-34618806D01*
X59568486Y-34617153D01*
X59573245Y-34615961D01*
X59578099Y-34615241D01*
X59583000Y-34615000D01*
X60083000Y-34615000D01*
X60087901Y-34615241D01*
X60087901Y-34615241D01*
G37*
D19*
X59833000Y-34740000D03*
D16*
G36*
X60087901Y-35115241D02*
X60092755Y-35115961D01*
X60097514Y-35117153D01*
X60102134Y-35118806D01*
X60106570Y-35120904D01*
X60110779Y-35123427D01*
X60114720Y-35126349D01*
X60118355Y-35129645D01*
X60121651Y-35133280D01*
X60124573Y-35137221D01*
X60127096Y-35141430D01*
X60129194Y-35145866D01*
X60130847Y-35150486D01*
X60132039Y-35155245D01*
X60132759Y-35160099D01*
X60133000Y-35165000D01*
X60133000Y-35315000D01*
X60132759Y-35319901D01*
X60132039Y-35324755D01*
X60130847Y-35329514D01*
X60129194Y-35334134D01*
X60127096Y-35338570D01*
X60124573Y-35342779D01*
X60121651Y-35346720D01*
X60118355Y-35350355D01*
X60114720Y-35353651D01*
X60110779Y-35356573D01*
X60106570Y-35359096D01*
X60102134Y-35361194D01*
X60097514Y-35362847D01*
X60092755Y-35364039D01*
X60087901Y-35364759D01*
X60083000Y-35365000D01*
X59583000Y-35365000D01*
X59578099Y-35364759D01*
X59573245Y-35364039D01*
X59568486Y-35362847D01*
X59563866Y-35361194D01*
X59559430Y-35359096D01*
X59555221Y-35356573D01*
X59551280Y-35353651D01*
X59547645Y-35350355D01*
X59544349Y-35346720D01*
X59541427Y-35342779D01*
X59538904Y-35338570D01*
X59536806Y-35334134D01*
X59535153Y-35329514D01*
X59533961Y-35324755D01*
X59533241Y-35319901D01*
X59533000Y-35315000D01*
X59533000Y-35165000D01*
X59533241Y-35160099D01*
X59533961Y-35155245D01*
X59535153Y-35150486D01*
X59536806Y-35145866D01*
X59538904Y-35141430D01*
X59541427Y-35137221D01*
X59544349Y-35133280D01*
X59547645Y-35129645D01*
X59551280Y-35126349D01*
X59555221Y-35123427D01*
X59559430Y-35120904D01*
X59563866Y-35118806D01*
X59568486Y-35117153D01*
X59573245Y-35115961D01*
X59578099Y-35115241D01*
X59583000Y-35115000D01*
X60083000Y-35115000D01*
X60087901Y-35115241D01*
X60087901Y-35115241D01*
G37*
D19*
X59833000Y-35240000D03*
G04 #@! TD*
D14*
G04 #@! TO.C,NT1*
X48260000Y-15240000D03*
X45560000Y-15240000D03*
G04 #@! TD*
G04 #@! TO.C,NT2*
X45675001Y-17450001D03*
X48375001Y-17450001D03*
G04 #@! TD*
M02*
