<br />
<b>Warning</b>:  Division by zero in <b>/home/hipergen/public_html/addonDomains/escalalibre.com/edwt/kicad_sizeConverter.php</b> on line <b>85</b><br />
(module Logo (layer F.Cu)
  (at 0 0)
 (fp_text reference "G***" (at 0 0) (layer F.SilkS) hide
  (effects (font (thickness 0.3)))
  )
  (fp_text value "Logo" (at 0.75 0) (layer F.SilkS) hide
  (effects (font (thickness 0.3)))
  )
  (fp_poly (pts (xy 32.351579 -20.551836) (xy 30.170444 -22.856055) (xy 26.980861 -25.847007) (xy 23.504254 -28.387939) (xy 19.752710 -30.472086) (xy 15.738316 -32.092683) (xy 11.693003 -33.196553) (xy 9.292389 -33.575830)
     (xy 6.575858 -33.780167) (xy 3.732805 -33.809564) (xy 0.952624 -33.664020) (xy -1.575290 -33.343535) (xy -2.335107 -33.196553) (xy -6.591271 -32.021329) (xy -10.593237 -30.380258) (xy -14.320026 -28.288693)
     (xy -17.750655 -25.761988) (xy -20.864145 -22.815495) (xy -23.639513 -19.464568) (xy -25.943987 -15.920273) (xy -27.752858 -12.369894) (xy -29.072024 -8.824532) (xy -29.933513 -5.172012) (xy -30.369357 -1.300158)
     (xy -30.416486 -0.256725) (xy -30.341235 4.085327) (xy -29.814441 8.168533) (xy -28.822588 12.040761) (xy -27.352163 15.749882) (xy -25.389650 19.343765) (xy -24.496455 20.712059) (xy -21.805356 24.188866)
     (xy -18.749200 27.280535) (xy -15.351434 29.969359) (xy -11.635502 32.237637) (xy -7.624851 34.067662) (xy -6.058975 34.634180) (xy -3.342105 35.550811) (xy -17.846842 35.555405) (xy -32.351578 35.560000)
     (xy -32.351578 -35.292631) (xy 32.351579 -35.292631) (xy 32.351579 -20.551836) )(layer F.SilkS) (width  0.010000)
  )
  (fp_poly (pts (xy 7.955212 -32.948669) (xy 9.876142 -32.787803) (xy 11.414403 -32.547128) (xy 15.512390 -31.409799) (xy 19.421964 -29.822065) (xy 23.088505 -27.816757) (xy 26.457393 -25.426704) (xy 29.474008 -22.684736)
     (xy 31.357871 -20.559832) (xy 32.351579 -19.329137) (xy 32.351579 21.817757) (xy 30.741883 23.715940) (xy 27.909169 26.648992) (xy 24.709799 29.222506) (xy 21.199128 31.405348) (xy 17.432511 33.166386)
     (xy 13.465303 34.474487) (xy 10.447096 35.130169) (xy 8.543669 35.365259) (xy 6.325714 35.496105) (xy 3.980024 35.522635) (xy 1.693390 35.444779) (xy -0.347394 35.262466) (xy -1.203157 35.134604)
     (xy -5.318252 34.141001) (xy -9.264346 32.656116) (xy -12.997440 30.708590) (xy -16.473537 28.327063) (xy -19.648638 25.540174) (xy -22.478745 22.376564) (xy -24.004386 20.292528) (xy -24.443210 19.589180)
     (xy -24.977178 18.653105) (xy -25.552632 17.589274) (xy -26.115913 16.502657) (xy -26.613362 15.498227) (xy -26.991322 14.680953) (xy -27.196133 14.155806) (xy -27.210552 14.020377) (xy -27.028495 14.178324)
     (xy -26.634825 14.688676) (xy -26.104414 15.452320) (xy -25.930319 15.715222) (xy -24.799326 17.234505) (xy -23.355598 18.868987) (xy -21.749552 20.466596) (xy -20.131605 21.875260) (xy -19.014930 22.706731)
     (xy -16.962105 23.944438) (xy -14.631774 25.096991) (xy -12.266146 26.052101) (xy -10.770611 26.528824) (xy -9.897645 26.749294) (xy -9.043221 26.906765) (xy -8.091001 27.011164) (xy -6.924647 27.072418)
     (xy -5.427821 27.100455) (xy -4.010526 27.105654) (xy -1.719657 27.074474) (xy 0.173825 26.963107) (xy 1.804591 26.744813) (xy 3.307313 26.392851) (xy 4.816664 25.880482) (xy 6.467315 25.180966)
     (xy 7.059226 24.907670) (xy 9.750960 23.486543) (xy 12.106052 21.873434) (xy 14.319749 19.931453) (xy 14.713636 19.541071) (xy 17.198990 16.673090) (xy 19.214621 13.558097) (xy 20.749996 10.219493)
     (xy 21.794583 6.680674) (xy 22.337847 2.965039) (xy 22.366946 2.540000) (xy 22.341631 -1.159281) (xy 21.830771 -4.705807) (xy 20.868941 -8.071000) (xy 19.490715 -11.226281) (xy 17.730669 -14.143069)
     (xy 15.623377 -16.792787) (xy 13.203413 -19.146855) (xy 10.505352 -21.176693) (xy 7.563769 -22.853722) (xy 4.413239 -24.149364) (xy 1.088335 -25.035039) (xy -2.376367 -25.482168) (xy -5.946293 -25.462172)
     (xy -9.586868 -24.946471) (xy -10.602427 -24.712296) (xy -13.861073 -23.640987) (xy -17.005420 -22.112339) (xy -19.941743 -20.188073) (xy -22.576319 -17.929910) (xy -24.815420 -15.399573) (xy -24.886119 -15.305981)
     (xy -25.642422 -14.308846) (xy -26.099291 -13.742433) (xy -26.271934 -13.605093) (xy -26.175554 -13.895173) (xy -25.825357 -14.611025) (xy -25.502392 -15.239086) (xy -23.461232 -18.608347) (xy -20.981785 -21.718033)
     (xy -18.110843 -24.533611) (xy -14.895196 -27.020544) (xy -11.381636 -29.144298) (xy -7.616955 -30.870338) (xy -3.647944 -32.164129) (xy -2.056507 -32.543712) (xy -0.501835 -32.785815) (xy 1.427258 -32.947400)
     (xy 3.580186 -33.028430) (xy 5.806366 -33.028866) (xy 7.955212 -32.948669) )(layer F.SilkS) (width  0.010000)
  )
  (fp_poly (pts (xy 32.351579 35.560000) (xy 22.525790 35.551085) (xy 12.700000 35.542170) (xy 15.373685 34.658744) (xy 19.128264 33.205159) (xy 22.553815 31.415132) (xy 25.749923 29.227064) (xy 28.816170 26.579358)
     (xy 29.477369 25.934869) (xy 32.351579 23.076866) (xy 32.351579 35.560000) )(layer F.SilkS) (width  0.010000)
  )
  (fp_poly (pts (xy -1.117513 -24.628598) (xy 2.240228 -24.002845) (xy 5.470452 -22.937680) (xy 8.531249 -21.456557) (xy 11.380708 -19.582932) (xy 13.976918 -17.340259) (xy 16.277969 -14.751992) (xy 18.241949 -11.841585)
     (xy 19.826949 -8.632494) (xy 20.902256 -5.481053) (xy 21.232885 -3.822646) (xy 21.443369 -1.810215) (xy 21.533582 0.396271) (xy 21.503397 2.636845) (xy 21.352689 4.751537) (xy 21.081332 6.580379)
     (xy 20.912319 7.294822) (xy 19.686332 10.786828) (xy 18.035609 14.004485) (xy 16.000203 16.920092) (xy 13.620169 19.505946) (xy 10.935562 21.734347) (xy 7.986436 23.577593) (xy 4.812845 25.007982)
     (xy 1.454844 25.997812) (xy -2.047514 26.519383) (xy -5.654173 26.544993) (xy -6.782319 26.448417) (xy -10.242674 25.814068) (xy -13.607381 24.688902) (xy -16.803737 23.114014) (xy -19.759041 21.130496)
     (xy -22.400592 18.779441) (xy -24.346658 16.520462) (xy -26.402018 13.376464) (xy -27.956354 10.052746) (xy -29.003453 6.572329) (xy -29.537103 2.958236) (xy -29.551091 -0.766511) (xy -29.413104 -2.254623)
     (xy -29.008388 -4.798458) (xy -28.406650 -7.060956) (xy -27.535084 -9.280888) (xy -27.298815 -9.767982) (xy -23.261052 -9.767982) (xy -23.261052 12.198742) (xy -13.970000 17.586807) (xy -11.935816 18.760864)
     (xy -10.040643 19.843914) (xy -8.335288 20.807724) (xy -6.870559 21.624059) (xy -5.697262 22.264687) (xy -4.866204 22.701373) (xy -4.428192 22.905885) (xy -4.377385 22.917436) (xy -4.086638 22.775228)
     (xy -3.384354 22.393722) (xy -2.321639 21.801771) (xy -0.949597 21.028231) (xy 0.680666 20.101956) (xy 2.518045 19.051799) (xy 4.511435 17.906616) (xy 5.181036 17.520696) (xy 14.437895 12.181393)
     (xy 14.428549 -9.758947) (xy 5.142169 -15.106316) (xy 3.106934 -16.274325) (xy 1.211897 -17.354303) (xy -0.492061 -18.317819) (xy -1.954065 -19.136441) (xy -3.123236 -19.781737) (xy -3.948697 -20.225278)
     (xy -4.379570 -20.438631) (xy -4.426954 -20.453684) (xy -4.713378 -20.324294) (xy -5.411476 -19.955093) (xy -6.470345 -19.374533) (xy -7.839081 -18.611069) (xy -9.466781 -17.693153) (xy -11.302542 -16.649239)
     (xy -13.295461 -15.507779) (xy -13.985375 -15.110833) (xy -23.261052 -9.767982) (xy -27.298815 -9.767982) (xy -26.823145 -10.748622) (xy -24.876043 -13.982270) (xy -22.566319 -16.823992) (xy -19.904240 -19.265132)
     (xy -16.900072 -21.297037) (xy -13.564083 -22.911050) (xy -11.536730 -23.634846) (xy -8.047903 -24.468053) (xy -4.560860 -24.791486) (xy -1.117513 -24.628598) )(layer F.SilkS) (width  0.010000)
  )
  (fp_poly (pts (xy -27.271578 13.502105) (xy -27.405263 13.635790) (xy -27.538947 13.502105) (xy -27.405263 13.368421) (xy -27.271578 13.502105) )(layer F.SilkS) (width  0.010000)
  )
  (fp_poly (pts (xy -13.038060 -2.241521) (xy -11.309167 -1.243766) (xy -9.729838 -0.327315) (xy -8.359977 0.472670) (xy -7.259488 1.121031) (xy -6.488274 1.582606) (xy -6.106239 1.822235) (xy -6.078637 1.843268)
     (xy -6.029651 2.150410) (xy -5.989514 2.924900) (xy -5.959316 4.099404) (xy -5.940147 5.606589) (xy -5.933100 7.379123) (xy -5.939262 9.349672) (xy -5.944953 10.097721) (xy -6.015789 18.155454)
     (xy -12.833684 14.207244) (xy -19.651578 10.259033) (xy -19.722270 2.064721) (xy -19.792962 -6.129590) (xy -13.038060 -2.241521) )(layer F.SilkS) (width  0.010000)
  )
  (fp_poly (pts (xy 10.899258 1.950157) (xy 10.910469 3.973956) (xy 10.908047 5.824338) (xy 10.893086 7.433834) (xy 10.866679 8.734975) (xy 10.829920 9.660293) (xy 10.783904 10.142318) (xy 10.765574 10.194057)
     (xy 10.485469 10.379313) (xy 9.807803 10.791628) (xy 8.798762 11.391822) (xy 7.524531 12.140716) (xy 6.051295 12.999129) (xy 4.946316 13.638860) (xy 3.307430 14.585473) (xy 1.759005 15.480223)
     (xy 0.382215 16.276175) (xy -0.741768 16.926391) (xy -1.531768 17.383937) (xy -1.808620 17.544671) (xy -2.948819 18.208146) (xy -2.878094 10.000115) (xy -2.807368 1.792085) (xy 10.828422 -6.091277)
     (xy 10.899258 1.950157) )(layer F.SilkS) (width  0.010000)
  )
  (fp_poly (pts (xy 2.384007 -12.681982) (xy 4.124388 -11.681803) (xy 5.715063 -10.763465) (xy 7.096516 -9.961661) (xy 8.209232 -9.311084) (xy 8.993697 -8.846427) (xy 9.390395 -8.602384) (xy 9.424215 -8.578007)
     (xy 9.257955 -8.390102) (xy 8.623995 -7.948748) (xy 7.521962 -7.253723) (xy 5.951486 -6.304804) (xy 3.912194 -5.101766) (xy 1.403714 -3.644388) (xy -1.574324 -1.932446) (xy -2.944134 -1.149495)
     (xy -4.443540 -0.293727) (xy -11.261161 -4.224232) (xy -12.989761 -5.228872) (xy -14.559546 -6.156694) (xy -15.912649 -6.972255) (xy -16.991201 -7.640114) (xy -17.737335 -8.124827) (xy -18.093184 -8.390953)
     (xy -18.115105 -8.422105) (xy -17.901665 -8.618284) (xy -17.280298 -9.043461) (xy -16.307930 -9.662328) (xy -15.041484 -10.439577) (xy -13.537884 -11.339899) (xy -11.854054 -12.327987) (xy -11.303812 -12.646918)
     (xy -4.456197 -16.604362) (xy 2.384007 -12.681982) )(layer F.SilkS) (width  0.010000)
  )
)
