(module MAX1616EUK&plus_ (layer F.Cu) (tedit 5E59BFCF)
  (fp_text reference REF** (at 0.23 -2.75) (layer F.SilkS)
    (effects (font (size 1 1) (thickness 0.15)))
  )
  (fp_text value 21-0057F (at -0.08 2.45) (layer F.SilkS)
    (effects (font (size 1 1) (thickness 0.15)))
  )
  (fp_text user * (at -1.61645 -2.561) (layer F.SilkS)
    (effects (font (size 1 1) (thickness 0.15)))
  )
  (fp_text user * (at -0.6223 -1.5958) (layer F.Fab)
    (effects (font (size 1 1) (thickness 0.15)))
  )
  (fp_text user * (at -0.6223 -1.5958) (layer F.Fab)
    (effects (font (size 1 1) (thickness 0.15)))
  )
  (fp_text user * (at -1.61645 -2.561) (layer F.SilkS)
    (effects (font (size 1 1) (thickness 0.15)))
  )
  (fp_line (start -1.0033 1.6256) (end 1.0033 1.6256) (layer F.SilkS) (width 0.1524))
  (fp_line (start 1.0033 0.383261) (end 1.0033 -0.383261) (layer F.SilkS) (width 0.1524))
  (fp_line (start 1.0033 -1.6256) (end -1.0033 -1.6256) (layer F.SilkS) (width 0.1524))
  (fp_line (start -0.8763 1.4986) (end 0.8763 1.4986) (layer F.Fab) (width 0.1524))
  (fp_line (start 0.8763 1.4986) (end 0.8763 -1.4986) (layer F.Fab) (width 0.1524))
  (fp_line (start 0.8763 -1.4986) (end -0.8763 -1.4986) (layer F.Fab) (width 0.1524))
  (fp_line (start -0.8763 -1.4986) (end -0.8763 1.4986) (layer F.Fab) (width 0.1524))
  (fp_line (start -0.8763 -0.696) (end -0.8763 -1.204) (layer F.Fab) (width 0.1524))
  (fp_line (start -0.8763 -1.204) (end -1.4986 -1.204) (layer F.Fab) (width 0.1524))
  (fp_line (start -1.4986 -1.204) (end -1.4986 -0.696) (layer F.Fab) (width 0.1524))
  (fp_line (start -1.4986 -0.696) (end -0.8763 -0.696) (layer F.Fab) (width 0.1524))
  (fp_line (start -0.8763 0.254) (end -0.8763 -0.254) (layer F.Fab) (width 0.1524))
  (fp_line (start -0.8763 -0.254) (end -1.4986 -0.254) (layer F.Fab) (width 0.1524))
  (fp_line (start -1.4986 -0.254) (end -1.4986 0.254) (layer F.Fab) (width 0.1524))
  (fp_line (start -1.4986 0.254) (end -0.8763 0.254) (layer F.Fab) (width 0.1524))
  (fp_line (start -0.8763 1.204) (end -0.8763 0.696) (layer F.Fab) (width 0.1524))
  (fp_line (start -0.8763 0.696) (end -1.4986 0.696) (layer F.Fab) (width 0.1524))
  (fp_line (start -1.4986 0.696) (end -1.4986 1.204) (layer F.Fab) (width 0.1524))
  (fp_line (start -1.4986 1.204) (end -0.8763 1.204) (layer F.Fab) (width 0.1524))
  (fp_line (start 0.8763 0.696) (end 0.8763 1.204) (layer F.Fab) (width 0.1524))
  (fp_line (start 0.8763 1.204) (end 1.4986 1.204) (layer F.Fab) (width 0.1524))
  (fp_line (start 1.4986 1.204) (end 1.4986 0.696) (layer F.Fab) (width 0.1524))
  (fp_line (start 1.4986 0.696) (end 0.8763 0.696) (layer F.Fab) (width 0.1524))
  (fp_line (start 0.8763 -1.204) (end 0.8763 -0.696) (layer F.Fab) (width 0.1524))
  (fp_line (start 0.8763 -0.696) (end 1.4986 -0.696) (layer F.Fab) (width 0.1524))
  (fp_line (start 1.4986 -0.696) (end 1.4986 -1.204) (layer F.Fab) (width 0.1524))
  (fp_line (start 1.4986 -1.204) (end 0.8763 -1.204) (layer F.Fab) (width 0.1524))
  (fp_line (start -1.1303 1.7526) (end -1.1303 1.438) (layer F.CrtYd) (width 0.1524))
  (fp_line (start -1.1303 1.438) (end -2.102599 1.438) (layer F.CrtYd) (width 0.1524))
  (fp_line (start -2.102599 1.438) (end -2.102599 -1.438) (layer F.CrtYd) (width 0.1524))
  (fp_line (start -2.102599 -1.438) (end -1.1303 -1.438) (layer F.CrtYd) (width 0.1524))
  (fp_line (start -1.1303 -1.438) (end -1.1303 -1.7526) (layer F.CrtYd) (width 0.1524))
  (fp_line (start -1.1303 -1.7526) (end 1.1303 -1.7526) (layer F.CrtYd) (width 0.1524))
  (fp_line (start 1.1303 -1.7526) (end 1.1303 -1.438) (layer F.CrtYd) (width 0.1524))
  (fp_line (start 1.1303 -1.438) (end 2.102599 -1.438) (layer F.CrtYd) (width 0.1524))
  (fp_line (start 2.102599 -1.438) (end 2.102599 1.438) (layer F.CrtYd) (width 0.1524))
  (fp_line (start 2.102599 1.438) (end 1.1303 1.438) (layer F.CrtYd) (width 0.1524))
  (fp_line (start 1.1303 1.438) (end 1.1303 1.7526) (layer F.CrtYd) (width 0.1524))
  (fp_line (start 1.1303 1.7526) (end -1.1303 1.7526) (layer F.CrtYd) (width 0.1524))
  (fp_arc (start 0 -1.4986) (end 0.3048 -1.4986) (angle 180) (layer F.Fab) (width 0.1524))
  (pad 1 smd rect (at -1.362451 -0.950001) (size 0.972299 0.468) (layers F.Cu F.Paste F.Mask))
  (pad 2 smd rect (at -1.362451 0) (size 0.972299 0.468) (layers F.Cu F.Paste F.Mask))
  (pad 3 smd rect (at -1.362451 0.950001) (size 0.972299 0.468) (layers F.Cu F.Paste F.Mask))
  (pad 4 smd rect (at 1.362451 0.950001) (size 0.972299 0.468) (layers F.Cu F.Paste F.Mask))
  (pad 5 smd rect (at 1.362451 -0.950001) (size 0.972299 0.468) (layers F.Cu F.Paste F.Mask))
)
