(module SO-8 (layer F.Cu) (tedit 5EFFEA74)
  (descr "<b>small outline</b>")
  (fp_text reference REF** (at 1.143175 -2.730905) (layer F.SilkS)
    (effects (font (size 1.00015 1.00015) (thickness 0.015)))
  )
  (fp_text value SO-8 (at 0.50815 4.00163) (layer F.Fab)
    (effects (font (size 1.000283 1.000283) (thickness 0.015)))
  )
  (fp_poly (pts (xy 1.85784 2.3622) (xy 2.8702 2.3622) (xy 2.8702 2.72314) (xy 1.85784 2.72314)) (layer F.Fab) (width 0.01))
  (fp_poly (pts (xy 1.85571 1.0922) (xy 2.8702 1.0922) (xy 2.8702 1.44898) (xy 1.85571 1.44898)) (layer F.Fab) (width 0.01))
  (fp_poly (pts (xy 1.85658 -0.1778) (xy 2.8702 -0.1778) (xy 2.8702 0.178028) (xy 1.85658 0.178028)) (layer F.Fab) (width 0.01))
  (fp_poly (pts (xy 1.85711 -1.4478) (xy 2.8702 -1.4478) (xy 2.8702 -1.09391) (xy 1.85711 -1.09391)) (layer F.Fab) (width 0.01))
  (fp_poly (pts (xy -2.87495 2.3622) (xy -1.8542 2.3622) (xy -1.8542 2.7223) (xy -2.87495 2.7223)) (layer F.Fab) (width 0.01))
  (fp_poly (pts (xy -2.87304 1.0922) (xy -1.8542 1.0922) (xy -1.8542 1.44923) (xy -2.87304 1.44923)) (layer F.Fab) (width 0.01))
  (fp_poly (pts (xy -2.87344 -0.1778) (xy -1.8542 -0.1778) (xy -1.8542 0.178001) (xy -2.87344 0.178001)) (layer F.Fab) (width 0.01))
  (fp_poly (pts (xy -2.87587 -1.4478) (xy -1.8542 -1.4478) (xy -1.8542 -1.09436) (xy -2.87587 -1.09436)) (layer F.Fab) (width 0.01))
  (fp_text user 8 (at 0.763056 -0.508704) (layer F.SilkS)
    (effects (font (size 0.80111 0.80111) (thickness 0.015)))
  )
  (fp_circle (center -1.2446 -1.1684) (end -0.889 -1.1684) (layer F.SilkS) (width 0.0508))
  (fp_line (start 1.8034 -1.7272) (end -1.8034 -1.7272) (layer F.SilkS) (width 0.127))
  (fp_line (start 1.8034 2.9972) (end 1.8034 -1.7272) (layer F.SilkS) (width 0.127))
  (fp_line (start -1.8034 2.9972) (end 1.8034 2.9972) (layer F.SilkS) (width 0.127))
  (fp_line (start -1.8034 -1.7272) (end -1.8034 2.9972) (layer F.SilkS) (width 0.127))
  (pad 5 smd rect (at 2.7432 2.54) (size 1.524 0.6096) (layers F.Cu F.Paste F.Mask))
  (pad 4 smd rect (at -2.7432 2.54) (size 1.524 0.6096) (layers F.Cu F.Paste F.Mask))
  (pad 6 smd rect (at 2.7432 1.27) (size 1.524 0.6096) (layers F.Cu F.Paste F.Mask))
  (pad 7 smd rect (at 2.7432 0) (size 1.524 0.6096) (layers F.Cu F.Paste F.Mask))
  (pad 3 smd rect (at -2.7432 1.27) (size 1.524 0.6096) (layers F.Cu F.Paste F.Mask))
  (pad 2 smd rect (at -2.7432 0) (size 1.524 0.6096) (layers F.Cu F.Paste F.Mask))
  (pad 8 smd rect (at 2.7432 -1.27) (size 1.524 0.6096) (layers F.Cu F.Paste F.Mask))
  (pad 1 smd rect (at -2.7432 -1.27) (size 1.524 0.6096) (layers F.Cu F.Paste F.Mask))
)
