M48
;Layer_Color=9474304
;FILE_FORMAT=2:5
INCH,TZ
;TYPE=PLATED
T1F00S00C0.01378
T2F00S00C0.03543
%
T01
X180492Y49390
X190157Y49213
X197638Y54331
X235039Y37795
X254331Y25197
X252756Y61811
X269291Y53937
X281102Y36614
X121653Y46850
X102362Y36614
X80315Y25197
X103937Y97638
X141339Y96457
X135433Y127165
X194095Y148031
X273622Y143701
X274803Y109449
X254331Y88976
X223622Y89370
X172835Y77559
T02
X179134Y15748
X169134
X160138Y103150
X23425Y138484
Y148484
X188091Y103150
X303937Y96063
Y86063
Y76063
X303701Y184646
X293701
M30
