PCBNEW-LibModule-V1  
# encoding utf-8
Units mm
$INDEX
QFP80P1600X1600X120-64N
$EndINDEX
$MODULE QFP80P1600X1600X120-64N
Po 0 0 0 15 00000000 00000000 ~~
Li QFP80P1600X1600X120-64N
Cd 
Sc 00000000
At SMD
Op 0 0 0
.SolderMask 0
.SolderPaste 0
T0 -0.66166 10.1793 1.64311 1.64311 0 0.05 N V 21 "QFP80P1600X1600X120-64N"
T1 1.75409 -12.2279 1.64141 1.64141 0 0.05 N V 21 "VAL**"
DS -7.0104 6.5786 -7.0104 7.0104 0.1524 21
DS 6.5786 7.0104 7.0104 7.0104 0.1524 21
DS 7.0104 -6.5786 7.0104 -7.0104 0.1524 21
DS -6.5786 -7.0104 -7.0104 -7.0104 0.1524 21
DS -7.0104 7.0104 -6.5786 7.0104 0.1524 21
DS 7.0104 7.0104 7.0104 6.5786 0.1524 21
DS 7.0104 -7.0104 6.5786 -7.0104 0.1524 21
DS -7.0104 -7.0104 -7.0104 -6.5786 0.1524 21
DS -7.0104 7.0104 -6.223 7.0104 0 27
DS -5.7658 7.0104 -5.4356 7.0104 0 27
DS -4.9784 7.0104 -4.6228 7.0104 0 27
DS -4.1656 7.0104 -3.8354 7.0104 0 27
DS -3.3782 7.0104 -3.0226 7.0104 0 27
DS -2.5654 7.0104 -2.2352 7.0104 0 27
DS -1.778 7.0104 -1.4224 7.0104 0 27
DS -0.9652 7.0104 -0.635 7.0104 0 27
DS -0.1778 7.0104 0.1778 7.0104 0 27
DS 0.635 7.0104 0.9652 7.0104 0 27
DS 1.4224 7.0104 1.778 7.0104 0 27
DS 2.2352 7.0104 2.5654 7.0104 0 27
DS 3.0226 7.0104 3.3782 7.0104 0 27
DS 3.8354 7.0104 4.1656 7.0104 0 27
DS 4.6228 7.0104 4.9784 7.0104 0 27
DS 5.4356 7.0104 5.7658 7.0104 0 27
DS 6.223 7.0104 7.0104 7.0104 0 27
DS 7.0104 7.0104 7.0104 6.223 0 27
DS 7.0104 5.7658 7.0104 5.4356 0 27
DS 7.0104 4.9784 7.0104 4.6228 0 27
DS 7.0104 4.1656 7.0104 3.8354 0 27
DS 7.0104 3.3782 7.0104 3.0226 0 27
DS 7.0104 2.5654 7.0104 2.2352 0 27
DS 7.0104 1.778 7.0104 1.4224 0 27
DS 7.0104 0.9652 7.0104 0.635 0 27
DS 7.0104 0.1778 7.0104 -0.1778 0 27
DS 7.0104 -0.635 7.0104 -0.9652 0 27
DS 7.0104 -1.4224 7.0104 -1.778 0 27
DS 7.0104 -2.2352 7.0104 -2.5654 0 27
DS 7.0104 -3.0226 7.0104 -3.3782 0 27
DS 7.0104 -3.8354 7.0104 -4.1656 0 27
DS 7.0104 -4.6228 7.0104 -4.9784 0 27
DS 7.0104 -5.4356 7.0104 -5.7658 0 27
DS 7.0104 -6.223 7.0104 -7.0104 0 27
DS 7.0104 -7.0104 6.223 -7.0104 0 27
DS 5.7658 -7.0104 5.4356 -7.0104 0 27
DS 4.9784 -7.0104 4.6228 -7.0104 0 27
DS 4.1656 -7.0104 3.8354 -7.0104 0 27
DS 3.3782 -7.0104 3.0226 -7.0104 0 27
DS 2.5654 -7.0104 2.2352 -7.0104 0 27
DS 1.778 -7.0104 1.4224 -7.0104 0 27
DS 0.9652 -7.0104 0.635 -7.0104 0 27
DS 0.1778 -7.0104 -0.1778 -7.0104 0 27
DS -0.635 -7.0104 -0.9652 -7.0104 0 27
DS -1.4224 -7.0104 -1.778 -7.0104 0 27
DS -2.2352 -7.0104 -2.5654 -7.0104 0 27
DS -3.0226 -7.0104 -3.3782 -7.0104 0 27
DS -3.8354 -7.0104 -4.1656 -7.0104 0 27
DS -4.6228 -7.0104 -4.9784 -7.0104 0 27
DS -5.4356 -7.0104 -5.7404 -7.0104 0 27
DS -5.7404 -7.0104 -5.7658 -7.0104 0 27
DS -6.223 -7.0104 -7.0104 -7.0104 0 27
DS -7.0104 -7.0104 -7.0104 -6.223 0 27
DS -7.0104 -5.7658 -7.0104 -5.7404 0 27
DS -7.0104 -5.7404 -7.0104 -5.4356 0 27
DS -7.0104 -4.9784 -7.0104 -4.6228 0 27
DS -7.0104 -4.1656 -7.0104 -3.8354 0 27
DS -7.0104 -3.3782 -7.0104 -3.0226 0 27
DS -7.0104 -2.5654 -7.0104 -2.2352 0 27
DS -7.0104 -1.778 -7.0104 -1.4224 0 27
DS -7.0104 -0.9652 -7.0104 -0.635 0 27
DS -7.0104 -0.1778 -7.0104 0.1778 0 27
DS -7.0104 0.635 -7.0104 0.9652 0 27
DS -7.0104 1.4224 -7.0104 1.778 0 27
DS -7.0104 2.2352 -7.0104 2.5654 0 27
DS -7.0104 3.0226 -7.0104 3.3782 0 27
DS -7.0104 3.8354 -7.0104 4.1656 0 27
DS -7.0104 4.6228 -7.0104 4.9784 0 27
DS -7.0104 5.4356 -7.0104 5.7658 0 27
DS -7.0104 6.223 -7.0104 7.0104 0 27
DS 5.7658 -7.0104 6.223 -7.0104 0 27
DS 6.223 -7.0104 6.223 -8.001 0 27
DS 6.223 -8.001 5.7658 -8.001 0 27
DS 5.7658 -8.001 5.7658 -7.0104 0 27
DS 4.9784 -7.0104 5.4356 -7.0104 0 27
DS 5.4356 -7.0104 5.4356 -8.001 0 27
DS 5.4356 -8.001 4.9784 -8.001 0 27
DS 4.9784 -8.001 4.9784 -7.0104 0 27
DS 4.1656 -7.0104 4.6228 -7.0104 0 27
DS 4.6228 -7.0104 4.6228 -8.001 0 27
DS 4.6228 -8.001 4.1656 -8.001 0 27
DS 4.1656 -8.001 4.1656 -7.0104 0 27
DS 3.3782 -7.0104 3.8354 -7.0104 0 27
DS 3.8354 -7.0104 3.8354 -8.001 0 27
DS 3.8354 -8.001 3.3782 -8.001 0 27
DS 3.3782 -8.001 3.3782 -7.0104 0 27
DS 2.5654 -7.0104 3.0226 -7.0104 0 27
DS 3.0226 -7.0104 3.0226 -8.001 0 27
DS 3.0226 -8.001 2.5654 -8.001 0 27
DS 2.5654 -8.001 2.5654 -7.0104 0 27
DS 1.778 -7.0104 2.2352 -7.0104 0 27
DS 2.2352 -7.0104 2.2352 -8.001 0 27
DS 2.2352 -8.001 1.778 -8.001 0 27
DS 1.778 -8.001 1.778 -7.0104 0 27
DS 0.9652 -7.0104 1.4224 -7.0104 0 27
DS 1.4224 -7.0104 1.4224 -8.001 0 27
DS 1.4224 -8.001 0.9652 -8.001 0 27
DS 0.9652 -8.001 0.9652 -7.0104 0 27
DS 0.1778 -7.0104 0.635 -7.0104 0 27
DS 0.635 -7.0104 0.635 -8.001 0 27
DS 0.635 -8.001 0.1778 -8.001 0 27
DS 0.1778 -8.001 0.1778 -7.0104 0 27
DS -0.635 -7.0104 -0.1778 -7.0104 0 27
DS -0.1778 -7.0104 -0.1778 -8.001 0 27
DS -0.1778 -8.001 -0.635 -8.001 0 27
DS -0.635 -8.001 -0.635 -7.0104 0 27
DS -1.4224 -7.0104 -0.9652 -7.0104 0 27
DS -0.9652 -7.0104 -0.9652 -8.001 0 27
DS -0.9652 -8.001 -1.4224 -8.001 0 27
DS -1.4224 -8.001 -1.4224 -7.0104 0 27
DS -2.2352 -7.0104 -1.778 -7.0104 0 27
DS -1.778 -7.0104 -1.778 -8.001 0 27
DS -1.778 -8.001 -2.2352 -8.001 0 27
DS -2.2352 -8.001 -2.2352 -7.0104 0 27
DS -3.0226 -7.0104 -2.5654 -7.0104 0 27
DS -2.5654 -7.0104 -2.5654 -8.001 0 27
DS -2.5654 -8.001 -3.0226 -8.001 0 27
DS -3.0226 -8.001 -3.0226 -7.0104 0 27
DS -3.8354 -7.0104 -3.3782 -7.0104 0 27
DS -3.3782 -7.0104 -3.3782 -8.001 0 27
DS -3.3782 -8.001 -3.8354 -8.001 0 27
DS -3.8354 -8.001 -3.8354 -7.0104 0 27
DS -4.6228 -7.0104 -4.1656 -7.0104 0 27
DS -4.1656 -7.0104 -4.1656 -8.001 0 27
DS -4.1656 -8.001 -4.6228 -8.001 0 27
DS -4.6228 -8.001 -4.6228 -7.0104 0 27
DS -5.4356 -7.0104 -4.9784 -7.0104 0 27
DS -4.9784 -7.0104 -4.9784 -8.001 0 27
DS -4.9784 -8.001 -5.4356 -8.001 0 27
DS -5.4356 -8.001 -5.4356 -7.0104 0 27
DS -6.223 -7.0104 -5.7658 -7.0104 0 27
DS -5.7658 -7.0104 -5.7658 -8.001 0 27
DS -5.7658 -8.001 -6.223 -8.001 0 27
DS -6.223 -8.001 -6.223 -7.0104 0 27
DS -7.0104 -5.7658 -7.0104 -6.223 0 27
DS -7.0104 -6.223 -8.001 -6.223 0 27
DS -8.001 -6.223 -8.001 -5.7658 0 27
DS -8.001 -5.7658 -7.0104 -5.7658 0 27
DS -7.0104 -4.9784 -7.0104 -5.4356 0 27
DS -7.0104 -5.4356 -8.001 -5.4356 0 27
DS -8.001 -5.4356 -8.001 -4.9784 0 27
DS -8.001 -4.9784 -7.0104 -4.9784 0 27
DS -7.0104 -4.1656 -7.0104 -4.6228 0 27
DS -7.0104 -4.6228 -8.001 -4.6228 0 27
DS -8.001 -4.6228 -8.001 -4.1656 0 27
DS -8.001 -4.1656 -7.0104 -4.1656 0 27
DS -7.0104 -3.3782 -7.0104 -3.8354 0 27
DS -7.0104 -3.8354 -8.001 -3.8354 0 27
DS -8.001 -3.8354 -8.001 -3.3782 0 27
DS -8.001 -3.3782 -7.0104 -3.3782 0 27
DS -7.0104 -2.5654 -7.0104 -3.0226 0 27
DS -7.0104 -3.0226 -8.001 -3.0226 0 27
DS -8.001 -3.0226 -8.001 -2.5654 0 27
DS -8.001 -2.5654 -7.0104 -2.5654 0 27
DS -7.0104 -1.778 -7.0104 -2.2352 0 27
DS -7.0104 -2.2352 -8.001 -2.2352 0 27
DS -8.001 -2.2352 -8.001 -1.778 0 27
DS -8.001 -1.778 -7.0104 -1.778 0 27
DS -7.0104 -0.9652 -7.0104 -1.4224 0 27
DS -7.0104 -1.4224 -8.001 -1.4224 0 27
DS -8.001 -1.4224 -8.001 -0.9652 0 27
DS -8.001 -0.9652 -7.0104 -0.9652 0 27
DS -7.0104 -0.1778 -7.0104 -0.635 0 27
DS -7.0104 -0.635 -8.001 -0.635 0 27
DS -8.001 -0.635 -8.001 -0.1778 0 27
DS -8.001 -0.1778 -7.0104 -0.1778 0 27
DS -7.0104 0.635 -7.0104 0.1778 0 27
DS -7.0104 0.1778 -8.001 0.1778 0 27
DS -8.001 0.1778 -8.001 0.635 0 27
DS -8.001 0.635 -7.0104 0.635 0 27
DS -7.0104 1.4224 -7.0104 0.9652 0 27
DS -7.0104 0.9652 -8.001 0.9652 0 27
DS -8.001 0.9652 -8.001 1.4224 0 27
DS -8.001 1.4224 -7.0104 1.4224 0 27
DS -7.0104 2.2352 -7.0104 1.778 0 27
DS -7.0104 1.778 -8.001 1.778 0 27
DS -8.001 1.778 -8.001 2.2352 0 27
DS -8.001 2.2352 -7.0104 2.2352 0 27
DS -7.0104 3.0226 -7.0104 2.5654 0 27
DS -7.0104 2.5654 -8.001 2.5654 0 27
DS -8.001 2.5654 -8.001 3.0226 0 27
DS -8.001 3.0226 -7.0104 3.0226 0 27
DS -7.0104 3.8354 -7.0104 3.3782 0 27
DS -7.0104 3.3782 -8.001 3.3782 0 27
DS -8.001 3.3782 -8.001 3.8354 0 27
DS -8.001 3.8354 -7.0104 3.8354 0 27
DS -7.0104 4.6228 -7.0104 4.1656 0 27
DS -7.0104 4.1656 -8.001 4.1656 0 27
DS -8.001 4.1656 -8.001 4.6228 0 27
DS -8.001 4.6228 -7.0104 4.6228 0 27
DS -7.0104 5.4356 -7.0104 4.9784 0 27
DS -7.0104 4.9784 -8.001 4.9784 0 27
DS -8.001 4.9784 -8.001 5.4356 0 27
DS -8.001 5.4356 -7.0104 5.4356 0 27
DS -7.0104 6.223 -7.0104 5.7658 0 27
DS -7.0104 5.7658 -8.001 5.7658 0 27
DS -8.001 5.7658 -8.001 6.223 0 27
DS -8.001 6.223 -7.0104 6.223 0 27
DS -5.7658 7.0104 -6.223 7.0104 0 27
DS -6.223 7.0104 -6.223 8.001 0 27
DS -6.223 8.001 -5.7658 8.001 0 27
DS -5.7658 8.001 -5.7658 7.0104 0 27
DS -4.9784 7.0104 -5.4356 7.0104 0 27
DS -5.4356 7.0104 -5.4356 8.001 0 27
DS -5.4356 8.001 -4.9784 8.001 0 27
DS -4.9784 8.001 -4.9784 7.0104 0 27
DS -4.1656 7.0104 -4.6228 7.0104 0 27
DS -4.6228 7.0104 -4.6228 8.001 0 27
DS -4.6228 8.001 -4.1656 8.001 0 27
DS -4.1656 8.001 -4.1656 7.0104 0 27
DS -3.3782 7.0104 -3.8354 7.0104 0 27
DS -3.8354 7.0104 -3.8354 8.001 0 27
DS -3.8354 8.001 -3.3782 8.001 0 27
DS -3.3782 8.001 -3.3782 7.0104 0 27
DS -2.5654 7.0104 -3.0226 7.0104 0 27
DS -3.0226 7.0104 -3.0226 8.001 0 27
DS -3.0226 8.001 -2.5654 8.001 0 27
DS -2.5654 8.001 -2.5654 7.0104 0 27
DS -1.778 7.0104 -2.2352 7.0104 0 27
DS -2.2352 7.0104 -2.2352 8.001 0 27
DS -2.2352 8.001 -1.778 8.001 0 27
DS -1.778 8.001 -1.778 7.0104 0 27
DS -0.9652 7.0104 -1.4224 7.0104 0 27
DS -1.4224 7.0104 -1.4224 8.001 0 27
DS -1.4224 8.001 -0.9652 8.001 0 27
DS -0.9652 8.001 -0.9652 7.0104 0 27
DS -0.1778 7.0104 -0.635 7.0104 0 27
DS -0.635 7.0104 -0.635 8.001 0 27
DS -0.635 8.001 -0.1778 8.001 0 27
DS -0.1778 8.001 -0.1778 7.0104 0 27
DS 0.635 7.0104 0.1778 7.0104 0 27
DS 0.1778 7.0104 0.1778 8.001 0 27
DS 0.1778 8.001 0.635 8.001 0 27
DS 0.635 8.001 0.635 7.0104 0 27
DS 1.4224 7.0104 0.9652 7.0104 0 27
DS 0.9652 7.0104 0.9652 8.001 0 27
DS 0.9652 8.001 1.4224 8.001 0 27
DS 1.4224 8.001 1.4224 7.0104 0 27
DS 2.2352 7.0104 1.778 7.0104 0 27
DS 1.778 7.0104 1.778 8.001 0 27
DS 1.778 8.001 2.2352 8.001 0 27
DS 2.2352 8.001 2.2352 7.0104 0 27
DS 3.0226 7.0104 2.5654 7.0104 0 27
DS 2.5654 7.0104 2.5654 8.001 0 27
DS 2.5654 8.001 3.0226 8.001 0 27
DS 3.0226 8.001 3.0226 7.0104 0 27
DS 3.8354 7.0104 3.3782 7.0104 0 27
DS 3.3782 7.0104 3.3782 8.001 0 27
DS 3.3782 8.001 3.8354 8.001 0 27
DS 3.8354 8.001 3.8354 7.0104 0 27
DS 4.6228 7.0104 4.1656 7.0104 0 27
DS 4.1656 7.0104 4.1656 8.001 0 27
DS 4.1656 8.001 4.6228 8.001 0 27
DS 4.6228 8.001 4.6228 7.0104 0 27
DS 5.4356 7.0104 4.9784 7.0104 0 27
DS 4.9784 7.0104 4.9784 8.001 0 27
DS 4.9784 8.001 5.4356 8.001 0 27
DS 5.4356 8.001 5.4356 7.0104 0 27
DS 6.223 7.0104 5.7658 7.0104 0 27
DS 5.7658 7.0104 5.7658 8.001 0 27
DS 5.7658 8.001 6.223 8.001 0 27
DS 6.223 8.001 6.223 7.0104 0 27
DS 7.0104 5.7658 7.0104 6.223 0 27
DS 7.0104 6.223 8.001 6.223 0 27
DS 8.001 6.223 8.001 5.7658 0 27
DS 8.001 5.7658 7.0104 5.7658 0 27
DS 7.0104 4.9784 7.0104 5.4356 0 27
DS 7.0104 5.4356 8.001 5.4356 0 27
DS 8.001 5.4356 8.001 4.9784 0 27
DS 8.001 4.9784 7.0104 4.9784 0 27
DS 7.0104 4.1656 7.0104 4.6228 0 27
DS 7.0104 4.6228 8.001 4.6228 0 27
DS 8.001 4.6228 8.001 4.1656 0 27
DS 8.001 4.1656 7.0104 4.1656 0 27
DS 7.0104 3.3782 7.0104 3.8354 0 27
DS 7.0104 3.8354 8.001 3.8354 0 27
DS 8.001 3.8354 8.001 3.3782 0 27
DS 8.001 3.3782 7.0104 3.3782 0 27
DS 7.0104 2.5654 7.0104 3.0226 0 27
DS 7.0104 3.0226 8.001 3.0226 0 27
DS 8.001 3.0226 8.001 2.5654 0 27
DS 8.001 2.5654 7.0104 2.5654 0 27
DS 7.0104 1.778 7.0104 2.2352 0 27
DS 7.0104 2.2352 8.001 2.2352 0 27
DS 8.001 2.2352 8.001 1.778 0 27
DS 8.001 1.778 7.0104 1.778 0 27
DS 7.0104 0.9652 7.0104 1.4224 0 27
DS 7.0104 1.4224 8.001 1.4224 0 27
DS 8.001 1.4224 8.001 0.9652 0 27
DS 8.001 0.9652 7.0104 0.9652 0 27
DS 7.0104 0.1778 7.0104 0.635 0 27
DS 7.0104 0.635 8.001 0.635 0 27
DS 8.001 0.635 8.001 0.1778 0 27
DS 8.001 0.1778 7.0104 0.1778 0 27
DS 7.0104 -0.635 7.0104 -0.1778 0 27
DS 7.0104 -0.1778 8.001 -0.1778 0 27
DS 8.001 -0.1778 8.001 -0.635 0 27
DS 8.001 -0.635 7.0104 -0.635 0 27
DS 7.0104 -1.4224 7.0104 -0.9652 0 27
DS 7.0104 -0.9652 8.001 -0.9652 0 27
DS 8.001 -0.9652 8.001 -1.4224 0 27
DS 8.001 -1.4224 7.0104 -1.4224 0 27
DS 7.0104 -2.2352 7.0104 -1.778 0 27
DS 7.0104 -1.778 8.001 -1.778 0 27
DS 8.001 -1.778 8.001 -2.2352 0 27
DS 8.001 -2.2352 7.0104 -2.2352 0 27
DS 7.0104 -3.0226 7.0104 -2.5654 0 27
DS 7.0104 -2.5654 8.001 -2.5654 0 27
DS 8.001 -2.5654 8.001 -3.0226 0 27
DS 8.001 -3.0226 7.0104 -3.0226 0 27
DS 7.0104 -3.8354 7.0104 -3.3782 0 27
DS 7.0104 -3.3782 8.001 -3.3782 0 27
DS 8.001 -3.3782 8.001 -3.8354 0 27
DS 8.001 -3.8354 7.0104 -3.8354 0 27
DS 7.0104 -4.6228 7.0104 -4.1656 0 27
DS 7.0104 -4.1656 8.001 -4.1656 0 27
DS 8.001 -4.1656 8.001 -4.6228 0 27
DS 8.001 -4.6228 7.0104 -4.6228 0 27
DS 7.0104 -5.4356 7.0104 -4.9784 0 27
DS 7.0104 -4.9784 8.001 -4.9784 0 27
DS 8.001 -4.9784 8.001 -5.4356 0 27
DS 8.001 -5.4356 7.0104 -5.4356 0 27
DS 7.0104 -6.223 7.0104 -5.7658 0 27
DS 7.0104 -5.7658 8.001 -5.7658 0 27
DS 8.001 -5.7658 8.001 -6.223 0 27
DS 8.001 -6.223 7.0104 -6.223 0 27
DS -7.0104 -5.7404 -5.7404 -7.0104 0 27
DS -4.9784 7.0104 4.9784 7.0104 0 27
DS 7.0104 5.4356 7.0104 -5.4356 0 27
DS 5.7658 -7.0104 -5.7658 -7.0104 0 27
DS -7.0104 -6.223 -7.0104 6.223 0 27
$PAD
Sh "1" R 0.508 1.4732 0 0 2700
At SMD N 00888000
.SolderMask 0
.SolderPaste 0
Ne 0 ""
Po -7.62 -5.9944
$EndPAD
$PAD
Sh "2" R 0.508 1.4732 0 0 2700
At SMD N 00888000
.SolderMask 0
.SolderPaste 0
Ne 0 ""
Po -7.62 -5.207
$EndPAD
$PAD
Sh "3" R 0.508 1.4732 0 0 2700
At SMD N 00888000
.SolderMask 0
.SolderPaste 0
Ne 0 ""
Po -7.62 -4.3942
$EndPAD
$PAD
Sh "4" R 0.508 1.4732 0 0 2700
At SMD N 00888000
.SolderMask 0
.SolderPaste 0
Ne 0 ""
Po -7.62 -3.6068
$EndPAD
$PAD
Sh "5" R 0.508 1.4732 0 0 2700
At SMD N 00888000
.SolderMask 0
.SolderPaste 0
Ne 0 ""
Po -7.62 -2.794
$EndPAD
$PAD
Sh "6" R 0.508 1.4732 0 0 2700
At SMD N 00888000
.SolderMask 0
.SolderPaste 0
Ne 0 ""
Po -7.62 -2.0066
$EndPAD
$PAD
Sh "7" R 0.508 1.4732 0 0 2700
At SMD N 00888000
.SolderMask 0
.SolderPaste 0
Ne 0 ""
Po -7.62 -1.1938
$EndPAD
$PAD
Sh "8" R 0.508 1.4732 0 0 2700
At SMD N 00888000
.SolderMask 0
.SolderPaste 0
Ne 0 ""
Po -7.62 -0.4064
$EndPAD
$PAD
Sh "9" R 0.508 1.4732 0 0 2700
At SMD N 00888000
.SolderMask 0
.SolderPaste 0
Ne 0 ""
Po -7.62 0.4064
$EndPAD
$PAD
Sh "10" R 0.508 1.4732 0 0 2700
At SMD N 00888000
.SolderMask 0
.SolderPaste 0
Ne 0 ""
Po -7.62 1.1938
$EndPAD
$PAD
Sh "11" R 0.508 1.4732 0 0 2700
At SMD N 00888000
.SolderMask 0
.SolderPaste 0
Ne 0 ""
Po -7.62 2.0066
$EndPAD
$PAD
Sh "12" R 0.508 1.4732 0 0 2700
At SMD N 00888000
.SolderMask 0
.SolderPaste 0
Ne 0 ""
Po -7.62 2.794
$EndPAD
$PAD
Sh "13" R 0.508 1.4732 0 0 2700
At SMD N 00888000
.SolderMask 0
.SolderPaste 0
Ne 0 ""
Po -7.62 3.6068
$EndPAD
$PAD
Sh "14" R 0.508 1.4732 0 0 2700
At SMD N 00888000
.SolderMask 0
.SolderPaste 0
Ne 0 ""
Po -7.62 4.3942
$EndPAD
$PAD
Sh "15" R 0.508 1.4732 0 0 2700
At SMD N 00888000
.SolderMask 0
.SolderPaste 0
Ne 0 ""
Po -7.62 5.207
$EndPAD
$PAD
Sh "16" R 0.508 1.4732 0 0 2700
At SMD N 00888000
.SolderMask 0
.SolderPaste 0
Ne 0 ""
Po -7.62 5.9944
$EndPAD
$PAD
Sh "17" R 0.508 1.4732 0 0 1800
At SMD N 00888000
.SolderMask 0
.SolderPaste 0
Ne 0 ""
Po -5.9944 7.62
$EndPAD
$PAD
Sh "18" R 0.508 1.4732 0 0 1800
At SMD N 00888000
.SolderMask 0
.SolderPaste 0
Ne 0 ""
Po -5.207 7.62
$EndPAD
$PAD
Sh "19" R 0.508 1.4732 0 0 1800
At SMD N 00888000
.SolderMask 0
.SolderPaste 0
Ne 0 ""
Po -4.3942 7.62
$EndPAD
$PAD
Sh "20" R 0.508 1.4732 0 0 1800
At SMD N 00888000
.SolderMask 0
.SolderPaste 0
Ne 0 ""
Po -3.6068 7.62
$EndPAD
$PAD
Sh "21" R 0.508 1.4732 0 0 1800
At SMD N 00888000
.SolderMask 0
.SolderPaste 0
Ne 0 ""
Po -2.794 7.62
$EndPAD
$PAD
Sh "22" R 0.508 1.4732 0 0 1800
At SMD N 00888000
.SolderMask 0
.SolderPaste 0
Ne 0 ""
Po -2.0066 7.62
$EndPAD
$PAD
Sh "23" R 0.508 1.4732 0 0 1800
At SMD N 00888000
.SolderMask 0
.SolderPaste 0
Ne 0 ""
Po -1.1938 7.62
$EndPAD
$PAD
Sh "24" R 0.508 1.4732 0 0 1800
At SMD N 00888000
.SolderMask 0
.SolderPaste 0
Ne 0 ""
Po -0.4064 7.62
$EndPAD
$PAD
Sh "25" R 0.508 1.4732 0 0 1800
At SMD N 00888000
.SolderMask 0
.SolderPaste 0
Ne 0 ""
Po 0.4064 7.62
$EndPAD
$PAD
Sh "26" R 0.508 1.4732 0 0 1800
At SMD N 00888000
.SolderMask 0
.SolderPaste 0
Ne 0 ""
Po 1.1938 7.62
$EndPAD
$PAD
Sh "27" R 0.508 1.4732 0 0 1800
At SMD N 00888000
.SolderMask 0
.SolderPaste 0
Ne 0 ""
Po 2.0066 7.62
$EndPAD
$PAD
Sh "28" R 0.508 1.4732 0 0 1800
At SMD N 00888000
.SolderMask 0
.SolderPaste 0
Ne 0 ""
Po 2.794 7.62
$EndPAD
$PAD
Sh "29" R 0.508 1.4732 0 0 1800
At SMD N 00888000
.SolderMask 0
.SolderPaste 0
Ne 0 ""
Po 3.6068 7.62
$EndPAD
$PAD
Sh "30" R 0.508 1.4732 0 0 1800
At SMD N 00888000
.SolderMask 0
.SolderPaste 0
Ne 0 ""
Po 4.3942 7.62
$EndPAD
$PAD
Sh "31" R 0.508 1.4732 0 0 1800
At SMD N 00888000
.SolderMask 0
.SolderPaste 0
Ne 0 ""
Po 5.207 7.62
$EndPAD
$PAD
Sh "32" R 0.508 1.4732 0 0 1800
At SMD N 00888000
.SolderMask 0
.SolderPaste 0
Ne 0 ""
Po 5.9944 7.62
$EndPAD
$PAD
Sh "33" R 0.508 1.4732 0 0 2700
At SMD N 00888000
.SolderMask 0
.SolderPaste 0
Ne 0 ""
Po 7.62 5.9944
$EndPAD
$PAD
Sh "34" R 0.508 1.4732 0 0 2700
At SMD N 00888000
.SolderMask 0
.SolderPaste 0
Ne 0 ""
Po 7.62 5.207
$EndPAD
$PAD
Sh "35" R 0.508 1.4732 0 0 2700
At SMD N 00888000
.SolderMask 0
.SolderPaste 0
Ne 0 ""
Po 7.62 4.3942
$EndPAD
$PAD
Sh "36" R 0.508 1.4732 0 0 2700
At SMD N 00888000
.SolderMask 0
.SolderPaste 0
Ne 0 ""
Po 7.62 3.6068
$EndPAD
$PAD
Sh "37" R 0.508 1.4732 0 0 2700
At SMD N 00888000
.SolderMask 0
.SolderPaste 0
Ne 0 ""
Po 7.62 2.794
$EndPAD
$PAD
Sh "38" R 0.508 1.4732 0 0 2700
At SMD N 00888000
.SolderMask 0
.SolderPaste 0
Ne 0 ""
Po 7.62 2.0066
$EndPAD
$PAD
Sh "39" R 0.508 1.4732 0 0 2700
At SMD N 00888000
.SolderMask 0
.SolderPaste 0
Ne 0 ""
Po 7.62 1.1938
$EndPAD
$PAD
Sh "40" R 0.508 1.4732 0 0 2700
At SMD N 00888000
.SolderMask 0
.SolderPaste 0
Ne 0 ""
Po 7.62 0.4064
$EndPAD
$PAD
Sh "41" R 0.508 1.4732 0 0 2700
At SMD N 00888000
.SolderMask 0
.SolderPaste 0
Ne 0 ""
Po 7.62 -0.4064
$EndPAD
$PAD
Sh "42" R 0.508 1.4732 0 0 2700
At SMD N 00888000
.SolderMask 0
.SolderPaste 0
Ne 0 ""
Po 7.62 -1.1938
$EndPAD
$PAD
Sh "43" R 0.508 1.4732 0 0 2700
At SMD N 00888000
.SolderMask 0
.SolderPaste 0
Ne 0 ""
Po 7.62 -2.0066
$EndPAD
$PAD
Sh "44" R 0.508 1.4732 0 0 2700
At SMD N 00888000
.SolderMask 0
.SolderPaste 0
Ne 0 ""
Po 7.62 -2.794
$EndPAD
$PAD
Sh "45" R 0.508 1.4732 0 0 2700
At SMD N 00888000
.SolderMask 0
.SolderPaste 0
Ne 0 ""
Po 7.62 -3.6068
$EndPAD
$PAD
Sh "46" R 0.508 1.4732 0 0 2700
At SMD N 00888000
.SolderMask 0
.SolderPaste 0
Ne 0 ""
Po 7.62 -4.3942
$EndPAD
$PAD
Sh "47" R 0.508 1.4732 0 0 2700
At SMD N 00888000
.SolderMask 0
.SolderPaste 0
Ne 0 ""
Po 7.62 -5.207
$EndPAD
$PAD
Sh "48" R 0.508 1.4732 0 0 2700
At SMD N 00888000
.SolderMask 0
.SolderPaste 0
Ne 0 ""
Po 7.62 -5.9944
$EndPAD
$PAD
Sh "49" R 0.508 1.4732 0 0 1800
At SMD N 00888000
.SolderMask 0
.SolderPaste 0
Ne 0 ""
Po 5.9944 -7.62
$EndPAD
$PAD
Sh "50" R 0.508 1.4732 0 0 1800
At SMD N 00888000
.SolderMask 0
.SolderPaste 0
Ne 0 ""
Po 5.207 -7.62
$EndPAD
$PAD
Sh "51" R 0.508 1.4732 0 0 1800
At SMD N 00888000
.SolderMask 0
.SolderPaste 0
Ne 0 ""
Po 4.3942 -7.62
$EndPAD
$PAD
Sh "52" R 0.508 1.4732 0 0 1800
At SMD N 00888000
.SolderMask 0
.SolderPaste 0
Ne 0 ""
Po 3.6068 -7.62
$EndPAD
$PAD
Sh "53" R 0.508 1.4732 0 0 1800
At SMD N 00888000
.SolderMask 0
.SolderPaste 0
Ne 0 ""
Po 2.794 -7.62
$EndPAD
$PAD
Sh "54" R 0.508 1.4732 0 0 1800
At SMD N 00888000
.SolderMask 0
.SolderPaste 0
Ne 0 ""
Po 2.0066 -7.62
$EndPAD
$PAD
Sh "55" R 0.508 1.4732 0 0 1800
At SMD N 00888000
.SolderMask 0
.SolderPaste 0
Ne 0 ""
Po 1.1938 -7.62
$EndPAD
$PAD
Sh "56" R 0.508 1.4732 0 0 1800
At SMD N 00888000
.SolderMask 0
.SolderPaste 0
Ne 0 ""
Po 0.4064 -7.62
$EndPAD
$PAD
Sh "57" R 0.508 1.4732 0 0 1800
At SMD N 00888000
.SolderMask 0
.SolderPaste 0
Ne 0 ""
Po -0.4064 -7.62
$EndPAD
$PAD
Sh "58" R 0.508 1.4732 0 0 1800
At SMD N 00888000
.SolderMask 0
.SolderPaste 0
Ne 0 ""
Po -1.1938 -7.62
$EndPAD
$PAD
Sh "59" R 0.508 1.4732 0 0 1800
At SMD N 00888000
.SolderMask 0
.SolderPaste 0
Ne 0 ""
Po -2.0066 -7.62
$EndPAD
$PAD
Sh "60" R 0.508 1.4732 0 0 1800
At SMD N 00888000
.SolderMask 0
.SolderPaste 0
Ne 0 ""
Po -2.794 -7.62
$EndPAD
$PAD
Sh "61" R 0.508 1.4732 0 0 1800
At SMD N 00888000
.SolderMask 0
.SolderPaste 0
Ne 0 ""
Po -3.6068 -7.62
$EndPAD
$PAD
Sh "62" R 0.508 1.4732 0 0 1800
At SMD N 00888000
.SolderMask 0
.SolderPaste 0
Ne 0 ""
Po -4.3942 -7.62
$EndPAD
$PAD
Sh "63" R 0.508 1.4732 0 0 1800
At SMD N 00888000
.SolderMask 0
.SolderPaste 0
Ne 0 ""
Po -5.207 -7.62
$EndPAD
$PAD
Sh "64" R 0.508 1.4732 0 0 1800
At SMD N 00888000
.SolderMask 0
.SolderPaste 0
Ne 0 ""
Po -5.9944 -7.62
$EndPAD
$EndMODULE QFP80P1600X1600X120-64N
