PCBNEW-LibModule-V1  
# encoding utf-8
Units mm
$INDEX
SOIC127P600X175-16N
$EndINDEX
$MODULE SOIC127P600X175-16N
Po 0 0 0 15 00000000 00000000 ~~
Li SOIC127P600X175-16N
Cd 
Sc 00000000
At SMD
Op 0 0 0
.SolderMask 0
.SolderPaste 0
T0 -3.0052 -11.5115 1.64438 1.64438 0 0.05 N V 21 "SOIC127P600X175-16N"
T1 -2.72048 2.61878 1.64161 1.64161 0 0.05 N V 21 "VAL**"
DS -3.556 0.5588 -1.2446 0.5588 0.1524 21
DS -1.2446 -9.4488 -2.0828 -9.4488 0.1524 21
DS -2.0828 -9.4488 -2.6924 -9.4488 0.1524 21
DS -2.6924 -9.4488 -3.556 -9.4488 0.1524 21
DA -2.3876 -9.4488 -2.6924 -9.4488 -1800 0 21
DS -4.8006 -8.89 -4.3942 -8.89 0.1524 27
DS -4.8006 -7.62 -4.3942 -7.62 0.1524 27
DS -4.8006 -6.35 -4.3942 -6.35 0.1524 27
DS -4.8006 -5.08 -4.3942 -5.08 0.1524 27
DS -4.8006 -3.81 -4.3942 -3.81 0.1524 27
DS -4.8006 -2.54 -4.3942 -2.54 0.1524 27
DS -4.8006 -1.27 -4.3942 -1.27 0.1524 27
DS -4.8006 0 -4.3942 0 0.1524 27
DS 0 0 -0.4064 0 0.1524 27
DS 0 -1.27 -0.4064 -1.27 0.1524 27
DS 0 -2.54 -0.4064 -2.54 0.1524 27
DS 0 -3.81 -0.4064 -3.81 0.1524 27
DS 0 -5.08 -0.4064 -5.08 0.1524 27
DS 0 -6.35 -0.4064 -6.35 0.1524 27
DS 0 -7.62 -0.4064 -7.62 0.1524 27
DS 0 -8.89 -0.4064 -8.89 0.1524 27
DS -4.3942 0.5588 -0.4064 0.5588 0.1524 27
DS -0.4064 0.5588 -0.4064 -9.4488 0.1524 27
DS -0.4064 -9.4488 -2.0828 -9.4488 0.1524 27
DS -2.0828 -9.4488 -2.6924 -9.4488 0.1524 27
DS -2.6924 -9.4488 -4.3942 -9.4488 0.1524 27
DS -4.3942 -9.4488 -4.3942 0.5588 0.1524 27
DA -2.3876 -9.4488 -2.6924 -9.4488 -1800 0 27
$PAD
Sh "1" R 2.0574 0.6096 0 0 0
At SMD N 00888000
.SolderMask 0
.SolderPaste 0
Ne 0 ""
Po -4.8006 -8.89
$EndPAD
$PAD
Sh "2" R 2.0574 0.6096 0 0 0
At SMD N 00888000
.SolderMask 0
.SolderPaste 0
Ne 0 ""
Po -4.8006 -7.62
$EndPAD
$PAD
Sh "3" R 2.0574 0.6096 0 0 0
At SMD N 00888000
.SolderMask 0
.SolderPaste 0
Ne 0 ""
Po -4.8006 -6.35
$EndPAD
$PAD
Sh "4" R 2.0574 0.6096 0 0 0
At SMD N 00888000
.SolderMask 0
.SolderPaste 0
Ne 0 ""
Po -4.8006 -5.08
$EndPAD
$PAD
Sh "5" R 2.0574 0.6096 0 0 0
At SMD N 00888000
.SolderMask 0
.SolderPaste 0
Ne 0 ""
Po -4.8006 -3.81
$EndPAD
$PAD
Sh "6" R 2.0574 0.6096 0 0 0
At SMD N 00888000
.SolderMask 0
.SolderPaste 0
Ne 0 ""
Po -4.8006 -2.54
$EndPAD
$PAD
Sh "7" R 2.0574 0.6096 0 0 0
At SMD N 00888000
.SolderMask 0
.SolderPaste 0
Ne 0 ""
Po -4.8006 -1.27
$EndPAD
$PAD
Sh "8" R 2.0574 0.6096 0 0 0
At SMD N 00888000
.SolderMask 0
.SolderPaste 0
Ne 0 ""
Po -4.8006 0
$EndPAD
$PAD
Sh "9" R 2.0574 0.6096 0 0 0
At SMD N 00888000
.SolderMask 0
.SolderPaste 0
Ne 0 ""
Po 0 0
$EndPAD
$PAD
Sh "10" R 2.0574 0.6096 0 0 0
At SMD N 00888000
.SolderMask 0
.SolderPaste 0
Ne 0 ""
Po 0 -1.27
$EndPAD
$PAD
Sh "11" R 2.0574 0.6096 0 0 0
At SMD N 00888000
.SolderMask 0
.SolderPaste 0
Ne 0 ""
Po 0 -2.54
$EndPAD
$PAD
Sh "12" R 2.0574 0.6096 0 0 0
At SMD N 00888000
.SolderMask 0
.SolderPaste 0
Ne 0 ""
Po 0 -3.81
$EndPAD
$PAD
Sh "13" R 2.0574 0.6096 0 0 0
At SMD N 00888000
.SolderMask 0
.SolderPaste 0
Ne 0 ""
Po 0 -5.08
$EndPAD
$PAD
Sh "14" R 2.0574 0.6096 0 0 0
At SMD N 00888000
.SolderMask 0
.SolderPaste 0
Ne 0 ""
Po 0 -6.35
$EndPAD
$PAD
Sh "15" R 2.0574 0.6096 0 0 0
At SMD N 00888000
.SolderMask 0
.SolderPaste 0
Ne 0 ""
Po 0 -7.62
$EndPAD
$PAD
Sh "16" R 2.0574 0.6096 0 0 0
At SMD N 00888000
.SolderMask 0
.SolderPaste 0
Ne 0 ""
Po 0 -8.89
$EndPAD
$EndMODULE SOIC127P600X175-16N
