PCBNEW-LibModule-V1  
# encoding utf-8
Units mm
$INDEX
DPAK508P1524X483-3N
$EndINDEX
$MODULE DPAK508P1524X483-3N
Po 0 0 0 15 00000000 00000000 ~~
Li DPAK508P1524X483-3N
Cd 
Sc 00000000
At SMD
Op 0 0 0
.SolderMask 0
.SolderPaste 0
T0 -3.76472 -13.78 1.41553 1.41553 0 0.05 N V 21 "DPAK508P1524X483-3N"
T1 -2.9292 13.7134 1.4115 1.4115 0 0.05 N V 21 "VAL**"
DS -5.34 3.24 -5.34 -6.42 0.12 27
DS -5.34 3.24 5.32 3.24 0.12 21
DS 5.34 -6.42 5.34 3.24 0.12 27
DS 3.45 -8.54 -3.45 -8.54 0.05 26
DS -3.32 8.54 3.32 8.54 0.05 26
DC -4.05 6.8 -3.8 6.8 0 21
DP 0 0 0 0 4 0 23
Dl -4.68696 -8.4
Dl 3.3 -8.4
Dl 3.3 -0.284062
Dl -4.68696 -0.284062
DP 0 0 0 0 4 0 19
Dl -1.11113 -8.15
Dl 0.8 -8.15
Dl 0.8 -8.19441
Dl -1.11113 -8.19441
DP 0 0 0 0 4 0 19
Dl -4.29479 -5.4
Dl -1.45 -5.4
Dl -1.45 -4.4346
Dl -4.29479 -4.4346
DP 0 0 0 0 4 0 19
Dl -1.12647 -5.4
Dl 0.8 -5.4
Dl 0.8 -4.4348
Dl -1.12647 -4.4348
DP 0 0 0 0 4 0 19
Dl 2.0311 -5.4
Dl 3.05 -5.4
Dl 3.05 -4.41197
Dl 2.0311 -4.41197
DP 0 0 0 0 4 0 19
Dl -4.31436 -2.65
Dl -1.45 -2.65
Dl -1.45 -0.564732
Dl -4.31436 -0.564732
DP 0 0 0 0 4 0 19
Dl -1.13827 -2.65
Dl 0.8 -2.65
Dl 0.8 -0.568142
Dl -1.13827 -0.568142
DP 0 0 0 0 4 0 19
Dl 2.02418 -2.65
Dl 3.05 -2.65
Dl 3.05 -0.55712
Dl 2.02418 -0.55712
DP 0 0 0 0 4 0 19
Dl -4.24158 -8.15
Dl -1.45 -8.15
Dl -1.45 -8.20498
Dl -4.24158 -8.20498
DP 0 0 0 0 4 0 19
Dl 2.03642 -8.15
Dl 3.05 -8.15
Dl 3.05 -8.2864
Dl 2.03642 -8.2864
DS 3.45 -6.67 3.45 -8.54 0.05 26
DS -3.45 -8.54 -3.45 -6.67 0.05 26
DS 5.59 3.49 5.59 -6.67 0.05 26
DS -5.59 -6.67 -5.59 3.49 0.05 26
DS 5.59 -6.67 3.45 -6.67 0.05 26
DS -3.45 -6.67 -5.59 -6.67 0.05 26
DS -3.32 3.49 -3.32 8.54 0.05 26
DS 3.32 8.54 3.32 3.49 0.05 26
DS -5.59 3.49 -3.32 3.49 0.05 26
DS 3.32 3.49 5.59 3.49 0.05 26
$PAD
Sh "1" R 1.06 3.78 0 0 0
At SMD N 00888000
.SolderMask 0
.SolderPaste 0
Ne 0 ""
Po -2.54 6.4
$EndPAD
$PAD
Sh "3" R 1.06 3.78 0 0 0
At SMD N 00888000
.SolderMask 0
.SolderPaste 0
Ne 0 ""
Po 2.54 6.4
$EndPAD
$PAD
Sh "2" R 6.39 8 0 0 0
At SMD N 00888000
Ne 0 ""
Po 0 -4.29
$EndPAD
$EndMODULE DPAK508P1524X483-3N
