PCBNEW-LibModule-V1  
# encoding utf-8
Units mm
$INDEX
RESC3216X62
$EndINDEX
$MODULE RESC3216X62
Po 0 0 0 15 00000000 00000000 ~~
Li RESC3216X62
Cd <b>RESISTOR</b>
Sc 00000000
At SMD
Op 0 0 0
.SolderMask 0
.SolderPaste 0
T0 -1.5 -1.9 0.787402 0.787402 0 0.05 N V 21 "RESC3216X62"
T1 -1 1.9 0.787402 0.787402 0 0.05 N V 21 "VAL**"
DS -3.4 -1.2 3.4 -1.2 0.127 26
DS 3.4 -1.2 3.4 1.2 0.127 26
DS 3.4 1.2 -3.4 1.2 0.127 26
DS -3.4 1.2 -3.4 -1.2 0.127 26
DS -1.6 -0.8 1.6 -0.8 0.127 27
DS 1.6 -0.8 1.6 0.8 0.127 27
DS 1.6 0.8 -1.6 0.8 0.127 27
DS -1.6 0.8 -1.6 -0.8 0.127 27
DP 0 0 0 0 4 0 27
Dl -1.6 -0.8
Dl -1.1 -0.8
Dl -1.1 0.8
Dl -1.6 0.8
DP 0 0 0 0 4 0 27
Dl 1.1 -0.8
Dl 1.6 -0.8
Dl 1.6 0.8
Dl 1.1 0.8
DS -0.4 -0.8 0.4 -0.8 0.127 21
DS -0.4 0.8 0.4 0.8 0.127 21
$PAD
Sh "2" R 2.5 1.84 0 0 0
At SMD N 00888000
.SolderMask 0
.SolderPaste 0
Ne 0 ""
Po 1.85 0
$EndPAD
$PAD
Sh "1" R 2.5 1.84 0 0 0
At SMD N 00888000
.SolderMask 0
.SolderPaste 0
Ne 0 ""
Po -1.85 0
$EndPAD
$EndMODULE RESC3216X62
