PCBNEW-LibModule-V1  
# encoding utf-8
Units mm
$INDEX
TO254P1052X465X1989-3
$EndINDEX
$MODULE TO254P1052X465X1989-3
Po 0 0 0 15 00000000 00000000 ~~
Li TO254P1052X465X1989-3
Cd 
Sc 00000000
At STD
Op 0 0 0
.SolderMask 0
.SolderPaste 0
T0 -1.3744 -4.2954 0.64 0.64 0 0.05 N V 21 "TO254P1052X465X1989-3"
T1 -0.968 2.7936 0.64 0.64 0 0.05 N V 21 "VAL**"
DS -2.72 1.5 -2.72 -3.16 0.127 27
DS -2.72 -3.16 7.8 -3.16 0.127 27
DS 7.8 -3.16 7.8 1.5 0.127 27
DS 7.8 1.5 -2.72 1.5 0.127 27
DS -2.72 1.5 -2.72 -3.16 0.127 21
DS -2.72 -3.16 7.8 -3.16 0.127 21
DS 7.8 -3.16 7.8 1.5 0.127 21
DS 7.8 1.5 -2.72 1.5 0.127 21
DS -3.04 2.005 -3.04 -3.655 0.05 26
DS -3.04 -3.655 8.12 -3.655 0.05 26
DS 8.12 -3.655 8.12 2.005 0.05 26
DS 8.12 2.005 -3.04 2.005 0.05 26
DC -3.5 -0.2 -3.4 -0.2 0.2 21
DC -3.5 -0.2 -3.4 -0.2 0.2 27
$PAD
Sh "1" R 2.01 2.01 0 0 0
Dr 1.34 0 0
At STD N 00C0FFFF
.SolderMask 0
Ne 0 ""
Po 0 0
$EndPAD
$PAD
Sh "2" C 2.01 2.01 0 0 0
Dr 1.34 0 0
At STD N 00C0FFFF
.SolderMask 0
Ne 0 ""
Po 2.54 0
$EndPAD
$PAD
Sh "3" C 2.01 2.01 0 0 0
Dr 1.34 0 0
At STD N 00C0FFFF
.SolderMask 0
Ne 0 ""
Po 5.08 0
$EndPAD
$EndMODULE TO254P1052X465X1989-3
