EESchema Schematic File Version 4
LIBS:Master_Regulator-cache
EELAYER 29 0
EELAYER END
$Descr A4 11693 8268
encoding utf-8
Sheet 4 4
Title ""
Date ""
Rev ""
Comp ""
Comment1 ""
Comment2 ""
Comment3 ""
Comment4 ""
$EndDescr
$Comp
L Ueet:LTC3689 U5
U 1 1 5D049C7E
P 6100 4150
F 0 "U5" H 6000 5728 50  0000 C CNN
F 1 "LTC3689" H 6000 5637 50  0000 C CNN
F 2 "Housings_SSOP:SSOP-28_3.9x9.9mm_Pitch0.635mm" H 6050 4150 50  0001 C CNN
F 3 "" H 6050 4150 50  0001 C CNN
	1    6100 4150
	1    0    0    -1  
$EndComp
Wire Wire Line
	5800 2750 5800 2200
$Comp
L device:R R17
U 1 1 5D0D9524
P 5800 2050
F 0 "R17" H 5870 2096 50  0000 L CNN
F 1 "2.2 ohm" H 5870 2005 50  0000 L CNN
F 2 "Resistors_SMD:R_0805_HandSoldering" V 5730 2050 50  0001 C CNN
F 3 "" H 5800 2050 50  0001 C CNN
	1    5800 2050
	1    0    0    -1  
$EndComp
$Comp
L device:C C33
U 1 1 5D0D96BD
P 6100 2350
F 0 "C33" H 6215 2396 50  0000 L CNN
F 1 "1um" H 6215 2305 50  0000 L CNN
F 2 "Capacitors_SMD:C_0805_HandSoldering" H 6138 2200 50  0001 C CNN
F 3 "" H 6100 2350 50  0001 C CNN
	1    6100 2350
	1    0    0    -1  
$EndComp
$Comp
L device:C C39
U 1 1 5D0D9769
P 8300 2050
F 0 "C39" H 8415 2096 50  0000 L CNN
F 1 "22uF" H 8415 2005 50  0000 L CNN
F 2 "Capacitors_SMD:C_0805_HandSoldering" H 8338 1900 50  0001 C CNN
F 3 "" H 8300 2050 50  0001 C CNN
	1    8300 2050
	1    0    0    -1  
$EndComp
$Comp
L power:GND #PWR0122
U 1 1 5D0D9861
P 6100 2500
F 0 "#PWR0122" H 6100 2250 50  0001 C CNN
F 1 "GND" H 6105 2327 50  0000 C CNN
F 2 "" H 6100 2500 50  0001 C CNN
F 3 "" H 6100 2500 50  0001 C CNN
	1    6100 2500
	1    0    0    -1  
$EndComp
$Comp
L power:GND #PWR0123
U 1 1 5D0D987B
P 8300 2200
F 0 "#PWR0123" H 8300 1950 50  0001 C CNN
F 1 "GND" H 8305 2027 50  0000 C CNN
F 2 "" H 8300 2200 50  0001 C CNN
F 3 "" H 8300 2200 50  0001 C CNN
	1    8300 2200
	1    0    0    -1  
$EndComp
Wire Wire Line
	5800 2200 6100 2200
Connection ~ 5800 2750
Wire Wire Line
	5800 2750 5000 2750
$Comp
L device:D_Zener D5
U 1 1 5D0D9D97
P 7100 3000
F 0 "D5" V 7146 2921 50  0000 R CNN
F 1 "D_Zener" V 7055 2921 50  0000 R CNN
F 2 "" H 7100 3000 50  0001 C CNN
F 3 "https://en.wikipedia.org/wiki/Zener_diode" H 7100 3000 50  0001 C CNN
	1    7100 3000
	0    -1   -1   0   
$EndComp
$Comp
L device:Q_NMOS_DGS Q3
U 1 1 5D0DA338
P 7850 3200
F 0 "Q3" H 8055 3246 50  0000 L CNN
F 1 "Q_NMOS_DGS" H 8055 3155 50  0000 L CNN
F 2 "" H 8050 3300 50  0001 C CNN
F 3 "" H 7850 3200 50  0001 C CNN
	1    7850 3200
	1    0    0    -1  
$EndComp
$Comp
L device:Q_NMOS_DGS Q4
U 1 1 5D0DA466
P 7850 3700
F 0 "Q4" H 8055 3746 50  0000 L CNN
F 1 "Q_NMOS_DGS" H 8055 3655 50  0000 L CNN
F 2 "" H 8050 3800 50  0001 C CNN
F 3 "" H 7850 3700 50  0001 C CNN
	1    7850 3700
	1    0    0    -1  
$EndComp
$Comp
L device:D_Zener D6
U 1 1 5D0DA8FA
P 8200 3650
F 0 "D6" V 8154 3729 50  0000 L CNN
F 1 "D_Zener" V 8245 3729 50  0000 L CNN
F 2 "" H 8200 3650 50  0001 C CNN
F 3 "https://en.wikipedia.org/wiki/Zener_diode" H 8200 3650 50  0001 C CNN
	1    8200 3650
	0    1    1    0   
$EndComp
Wire Wire Line
	7950 3900 7950 4000
Wire Wire Line
	7950 4000 8200 4000
Wire Wire Line
	8200 4000 8200 3800
Wire Wire Line
	7950 3500 7950 3400
Connection ~ 7950 3500
Connection ~ 7950 4000
$Comp
L device:Q_NMOS_DGS Q2
U 1 1 5D0DA564
P 3700 3750
F 0 "Q2" H 3906 3704 50  0000 L CNN
F 1 "Q_NMOS_DGS" H 3906 3795 50  0000 L CNN
F 2 "" H 3900 3850 50  0001 C CNN
F 3 "" H 3700 3750 50  0001 C CNN
	1    3700 3750
	-1   0    0    1   
$EndComp
$Comp
L device:Q_NMOS_DGS Q1
U 1 1 5D0DA509
P 3700 3200
F 0 "Q1" H 3906 3154 50  0000 L CNN
F 1 "Q_NMOS_DGS" H 3906 3245 50  0000 L CNN
F 2 "" H 3900 3300 50  0001 C CNN
F 3 "" H 3700 3200 50  0001 C CNN
	1    3700 3200
	-1   0    0    1   
$EndComp
Wire Wire Line
	3600 3550 3600 3500
Wire Wire Line
	3600 3950 3600 4000
$Comp
L device:D_Zener D3
U 1 1 5D0DB109
P 3350 3750
F 0 "D3" V 3304 3829 50  0000 L CNN
F 1 "D_Zener" V 3395 3829 50  0000 L CNN
F 2 "" H 3350 3750 50  0001 C CNN
F 3 "https://en.wikipedia.org/wiki/Zener_diode" H 3350 3750 50  0001 C CNN
	1    3350 3750
	0    1    1    0   
$EndComp
$Comp
L power:GND #PWR0124
U 1 1 5D0DB1C6
P 3600 4000
F 0 "#PWR0124" H 3600 3750 50  0001 C CNN
F 1 "GND" H 3605 3827 50  0000 C CNN
F 2 "" H 3600 4000 50  0001 C CNN
F 3 "" H 3600 4000 50  0001 C CNN
	1    3600 4000
	1    0    0    -1  
$EndComp
Wire Wire Line
	3600 3950 3350 3950
Wire Wire Line
	3350 3950 3350 3900
Wire Wire Line
	3600 3500 3350 3500
Wire Wire Line
	3350 3500 3350 3600
Connection ~ 3600 3500
Wire Wire Line
	3600 3500 3600 3400
Wire Wire Line
	4700 3750 4700 3700
Wire Wire Line
	4700 3700 5100 3700
Wire Wire Line
	3900 3750 4700 3750
Wire Wire Line
	3600 3500 4900 3500
Wire Wire Line
	4900 3500 4900 3550
Wire Wire Line
	4900 3550 5100 3550
Wire Wire Line
	5100 3100 5000 3100
Wire Wire Line
	5000 3100 5000 2750
Connection ~ 5000 2750
Wire Wire Line
	4050 2750 4750 2750
Wire Wire Line
	3600 3000 3600 1900
$Comp
L device:C_Small C36
U 1 1 5D0DE883
P 7350 3400
F 0 "C36" V 7121 3400 50  0000 C CNN
F 1 "0.1uF" V 7212 3400 50  0000 C CNN
F 2 "Capacitors_SMD:C_0805_HandSoldering" H 7350 3400 50  0001 C CNN
F 3 "" H 7350 3400 50  0001 C CNN
	1    7350 3400
	0    1    1    0   
$EndComp
Wire Wire Line
	4150 3400 3600 3400
Wire Wire Line
	4350 3400 4750 3400
$Comp
L device:D_Zener D4
U 1 1 5D0DF5DC
P 4750 2950
F 0 "D4" V 4796 2871 50  0000 R CNN
F 1 "D_Zener" V 4705 2871 50  0000 R CNN
F 2 "" H 4750 2950 50  0001 C CNN
F 3 "https://en.wikipedia.org/wiki/Zener_diode" H 4750 2950 50  0001 C CNN
	1    4750 2950
	0    -1   -1   0   
$EndComp
Wire Wire Line
	4750 2800 4750 2750
Connection ~ 4750 2750
Wire Wire Line
	4750 2750 5000 2750
Wire Wire Line
	4750 3100 4750 3400
Connection ~ 4750 3400
Wire Wire Line
	4750 3400 5100 3400
$Comp
L device:C_Small C28
U 1 1 5D0E01C8
P 4050 2850
F 0 "C28" H 4142 2896 50  0000 L CNN
F 1 "4.7uF" H 4142 2805 50  0000 L CNN
F 2 "Capacitors_SMD:C_0805_HandSoldering" H 4050 2850 50  0001 C CNN
F 3 "" H 4050 2850 50  0001 C CNN
	1    4050 2850
	1    0    0    -1  
$EndComp
$Comp
L power:GND #PWR0125
U 1 1 5D0E0252
P 4050 2950
F 0 "#PWR0125" H 4050 2700 50  0001 C CNN
F 1 "GND" H 4055 2777 50  0000 C CNN
F 2 "" H 4050 2950 50  0001 C CNN
F 3 "" H 4050 2950 50  0001 C CNN
	1    4050 2950
	1    0    0    -1  
$EndComp
$Comp
L pspice:INDUCTOR L6
U 1 1 5D0E056F
P 8600 3500
F 0 "L6" H 8600 3715 50  0000 C CNN
F 1 "3.3um" H 8600 3624 50  0000 C CNN
F 2 "bluesat-inductors:L_Bourns_SRR1210" H 8600 3500 50  0001 C CNN
F 3 "" H 8600 3500 50  0001 C CNN
	1    8600 3500
	1    0    0    -1  
$EndComp
Wire Wire Line
	6900 3400 7100 3400
Wire Wire Line
	7450 3400 7950 3400
Wire Wire Line
	6900 3500 7950 3500
Wire Wire Line
	7100 3150 7100 3400
Connection ~ 7100 3400
Wire Wire Line
	7100 3400 7250 3400
Wire Wire Line
	6900 3200 7650 3200
Wire Wire Line
	7650 3700 7100 3700
Wire Wire Line
	7100 3700 7100 3600
Wire Wire Line
	7100 3600 6900 3600
Wire Wire Line
	7950 4000 7100 4000
Wire Wire Line
	7100 4000 7100 3750
Wire Wire Line
	7100 3750 7000 3750
Wire Wire Line
	3350 3500 3200 3500
Connection ~ 3350 3500
$Comp
L pspice:INDUCTOR L5
U 1 1 5D0E890D
P 2950 3500
F 0 "L5" H 2950 3715 50  0000 C CNN
F 1 "3.3um" H 2950 3624 50  0000 C CNN
F 2 "bluesat-inductors:L_Bourns_SRR1210" H 2950 3500 50  0001 C CNN
F 3 "" H 2950 3500 50  0001 C CNN
	1    2950 3500
	1    0    0    -1  
$EndComp
$Comp
L device:C_Small C29
U 1 1 5D0E8995
P 4250 3400
F 0 "C29" V 4021 3400 50  0000 C CNN
F 1 "C_Small" V 4112 3400 50  0000 C CNN
F 2 "Capacitors_SMD:C_0805_HandSoldering" H 4250 3400 50  0001 C CNN
F 3 "" H 4250 3400 50  0001 C CNN
	1    4250 3400
	0    1    1    0   
$EndComp
$Comp
L device:C_Small C31
U 1 1 5D0E8CCD
P 4800 4300
F 0 "C31" H 4892 4346 50  0000 L CNN
F 1 "1000pF" H 4892 4255 50  0000 L CNN
F 2 "Capacitors_SMD:C_0805_HandSoldering" H 4800 4300 50  0001 C CNN
F 3 "" H 4800 4300 50  0001 C CNN
	1    4800 4300
	1    0    0    -1  
$EndComp
$Comp
L device:C_Small C35
U 1 1 5D0E8D4C
P 7200 4300
F 0 "C35" H 7292 4346 50  0000 L CNN
F 1 "1000pF" H 7292 4255 50  0000 L CNN
F 2 "Capacitors_SMD:C_0805_HandSoldering" H 7200 4300 50  0001 C CNN
F 3 "" H 7200 4300 50  0001 C CNN
	1    7200 4300
	1    0    0    -1  
$EndComp
Wire Wire Line
	5100 4250 5000 4250
Wire Wire Line
	5000 4250 5000 4100
Wire Wire Line
	5000 4100 4800 4100
Wire Wire Line
	4800 4100 4800 4200
Wire Wire Line
	6900 4250 7050 4250
Wire Wire Line
	7050 4250 7050 4200
Wire Wire Line
	7050 4200 7200 4200
Wire Wire Line
	6900 4400 7200 4400
$Comp
L device:R R19
U 1 1 5D0F189D
P 7350 4200
F 0 "R19" V 7143 4200 50  0000 C CNN
F 1 "10 ohm" V 7234 4200 50  0000 C CNN
F 2 "Resistors_SMD:R_0805_HandSoldering" V 7280 4200 50  0001 C CNN
F 3 "" H 7350 4200 50  0001 C CNN
	1    7350 4200
	0    1    1    0   
$EndComp
$Comp
L device:R R20
U 1 1 5D0F1968
P 7350 4400
F 0 "R20" V 7143 4400 50  0000 C CNN
F 1 "10 ohm" V 7234 4400 50  0000 C CNN
F 2 "Resistors_SMD:R_0805_HandSoldering" V 7280 4400 50  0001 C CNN
F 3 "" H 7350 4400 50  0001 C CNN
	1    7350 4400
	0    1    1    0   
$EndComp
Wire Wire Line
	7500 4400 8100 4400
$Comp
L device:R R16
U 1 1 5D0F4E78
P 4550 4200
F 0 "R16" V 4343 4200 50  0000 C CNN
F 1 "10 ohm" V 4434 4200 50  0000 C CNN
F 2 "Resistors_SMD:R_0805_HandSoldering" V 4480 4200 50  0001 C CNN
F 3 "" H 4550 4200 50  0001 C CNN
	1    4550 4200
	0    1    1    0   
$EndComp
$Comp
L device:R R15
U 1 1 5D0F4F6A
P 4450 4400
F 0 "R15" V 4243 4400 50  0000 C CNN
F 1 "10 ohm" V 4334 4400 50  0000 C CNN
F 2 "Resistors_SMD:R_0805_HandSoldering" V 4380 4400 50  0001 C CNN
F 3 "" H 4450 4400 50  0001 C CNN
	1    4450 4400
	0    1    1    0   
$EndComp
$Comp
L device:R R11
U 1 1 5D0F52BE
P 2700 4250
F 0 "R11" H 2770 4296 50  0000 L CNN
F 1 "8 milliohm" H 2770 4205 50  0000 L CNN
F 2 "Resistors_SMD:R_0805_HandSoldering" V 2630 4250 50  0001 C CNN
F 3 "" H 2700 4250 50  0001 C CNN
	1    2700 4250
	1    0    0    -1  
$EndComp
Wire Wire Line
	4700 4200 4800 4200
Wire Wire Line
	4300 4400 2700 4400
Wire Wire Line
	4400 4200 3050 4200
Wire Wire Line
	3050 4200 3050 4100
Wire Wire Line
	3050 4100 2700 4100
Wire Wire Line
	2700 3500 2700 4100
$Comp
L device:R R24
U 1 1 5D0FB93F
P 8850 4250
F 0 "R24" H 8920 4296 50  0000 L CNN
F 1 "8 milliohm" H 8920 4205 50  0000 L CNN
F 2 "Resistors_SMD:R_0805_HandSoldering" V 8780 4250 50  0001 C CNN
F 3 "" H 8850 4250 50  0001 C CNN
	1    8850 4250
	1    0    0    -1  
$EndComp
Wire Wire Line
	7500 4200 8550 4200
Wire Wire Line
	8550 4200 8550 4100
Wire Wire Line
	8550 4100 8850 4100
Wire Wire Line
	8850 4100 8850 3500
Wire Wire Line
	6900 4900 8100 4900
Wire Wire Line
	8100 4900 8100 4400
Connection ~ 8100 4400
Wire Wire Line
	8100 4400 8850 4400
Wire Wire Line
	8850 4400 8850 5050
$Comp
L device:R R23
U 1 1 5D104E23
P 8600 5050
F 0 "R23" V 8393 5050 50  0000 C CNN
F 1 "147k ohm" V 8484 5050 50  0000 C CNN
F 2 "Resistors_SMD:R_0805_HandSoldering" V 8530 5050 50  0001 C CNN
F 3 "" H 8600 5050 50  0001 C CNN
	1    8600 5050
	0    1    1    0   
$EndComp
$Comp
L device:C_Small C40
U 1 1 5D104F39
P 8600 4850
F 0 "C40" V 8371 4850 50  0000 C CNN
F 1 "10pF" V 8462 4850 50  0000 C CNN
F 2 "Capacitors_SMD:C_0805_HandSoldering" H 8600 4850 50  0001 C CNN
F 3 "" H 8600 4850 50  0001 C CNN
	1    8600 4850
	0    1    1    0   
$EndComp
Wire Wire Line
	8850 5050 8800 5050
Wire Wire Line
	8450 5050 8300 5050
Wire Wire Line
	8500 4850 8300 4850
Wire Wire Line
	8300 4850 8300 5050
Connection ~ 8300 5050
Wire Wire Line
	8300 5050 6900 5050
Wire Wire Line
	8700 4850 8800 4850
Wire Wire Line
	8800 4850 8800 5050
Connection ~ 8800 5050
Wire Wire Line
	8800 5050 8750 5050
Wire Wire Line
	8850 5050 8850 5200
Wire Wire Line
	8850 5200 9150 5200
Connection ~ 8850 5050
$Comp
L device:R R12
U 1 1 5D10E3B6
P 2950 5200
F 0 "R12" V 2743 5200 50  0000 C CNN
F 1 "90.9k ohm" V 2834 5200 50  0000 C CNN
F 2 "Resistors_SMD:R_0805_HandSoldering" V 2880 5200 50  0001 C CNN
F 3 "" H 2950 5200 50  0001 C CNN
	1    2950 5200
	0    1    1    0   
$EndComp
$Comp
L device:C_Small C26
U 1 1 5D10E726
P 2950 5000
F 0 "C26" V 2721 5000 50  0000 C CNN
F 1 "C_Small" V 2812 5000 50  0000 C CNN
F 2 "Capacitors_SMD:C_0805_HandSoldering" H 2950 5000 50  0001 C CNN
F 3 "" H 2950 5000 50  0001 C CNN
	1    2950 5000
	0    1    1    0   
$EndComp
Wire Wire Line
	3050 5000 3200 5000
Wire Wire Line
	3200 5000 3200 5200
Connection ~ 3200 5200
Wire Wire Line
	3200 5200 3100 5200
Wire Wire Line
	2700 5200 2750 5200
Wire Wire Line
	2850 5000 2750 5000
Wire Wire Line
	2750 5000 2750 5200
Connection ~ 2750 5200
Wire Wire Line
	2750 5200 2800 5200
$Comp
L device:C_Small C32
U 1 1 5D117BED
P 5550 5800
F 0 "C32" H 5642 5846 50  0000 L CNN
F 1 "0.1uF" H 5642 5755 50  0000 L CNN
F 2 "Capacitors_SMD:C_0805_HandSoldering" H 5550 5800 50  0001 C CNN
F 3 "" H 5550 5800 50  0001 C CNN
	1    5550 5800
	1    0    0    -1  
$EndComp
$Comp
L device:C_Small C34
U 1 1 5D117D45
P 6450 5800
F 0 "C34" H 6542 5846 50  0000 L CNN
F 1 "0.1uF" H 6542 5755 50  0000 L CNN
F 2 "Capacitors_SMD:C_0805_HandSoldering" H 6450 5800 50  0001 C CNN
F 3 "" H 6450 5800 50  0001 C CNN
	1    6450 5800
	1    0    0    -1  
$EndComp
Wire Wire Line
	7950 3000 7950 1900
Connection ~ 7950 1900
Wire Wire Line
	2700 5900 3200 5900
$Comp
L device:CP1_Small C25
U 1 1 5D127C94
P 2700 5800
F 0 "C25" H 2791 5846 50  0000 L CNN
F 1 "CP1_Small" H 2791 5755 50  0000 L CNN
F 2 "" H 2700 5800 50  0001 C CNN
F 3 "" H 2700 5800 50  0001 C CNN
	1    2700 5800
	1    0    0    -1  
$EndComp
$Comp
L device:CP1_Small C41
U 1 1 5D127F3E
P 8850 5800
F 0 "C41" H 8941 5846 50  0000 L CNN
F 1 "CP" H 8941 5755 50  0000 L CNN
F 2 "" H 8850 5800 50  0001 C CNN
F 3 "" H 8850 5800 50  0001 C CNN
	1    8850 5800
	1    0    0    -1  
$EndComp
$Comp
L device:R R13
U 1 1 5D12859B
P 3200 5600
F 0 "R13" H 3270 5646 50  0000 L CNN
F 1 "20k ohm" H 3270 5555 50  0000 L CNN
F 2 "Resistors_SMD:R_0805_HandSoldering" V 3130 5600 50  0001 C CNN
F 3 "" H 3200 5600 50  0001 C CNN
	1    3200 5600
	1    0    0    -1  
$EndComp
$Comp
L device:R R14
U 1 1 5D1286B3
P 3750 5700
F 0 "R14" H 3820 5746 50  0000 L CNN
F 1 "10k ohm" H 3820 5655 50  0000 L CNN
F 2 "Resistors_SMD:R_0805_HandSoldering" V 3680 5700 50  0001 C CNN
F 3 "" H 3750 5700 50  0001 C CNN
	1    3750 5700
	1    0    0    -1  
$EndComp
$Comp
L device:C_Small C27
U 1 1 5D128788
P 3750 5450
F 0 "C27" H 3842 5496 50  0000 L CNN
F 1 "C_Small" H 3842 5405 50  0000 L CNN
F 2 "Capacitors_SMD:C_0805_HandSoldering" H 3750 5450 50  0001 C CNN
F 3 "" H 3750 5450 50  0001 C CNN
	1    3750 5450
	1    0    0    -1  
$EndComp
$Comp
L device:C_Small C30
U 1 1 5D128890
P 4450 5600
F 0 "C30" H 4542 5646 50  0000 L CNN
F 1 "100pF" H 4542 5555 50  0000 L CNN
F 2 "Capacitors_SMD:C_0805_HandSoldering" H 4450 5600 50  0001 C CNN
F 3 "" H 4450 5600 50  0001 C CNN
	1    4450 5600
	1    0    0    -1  
$EndComp
$Comp
L device:C_Small C37
U 1 1 5D1289B6
P 7450 5350
F 0 "C37" H 7542 5396 50  0000 L CNN
F 1 "1000pF" H 7542 5305 50  0000 L CNN
F 2 "Capacitors_SMD:C_0805_HandSoldering" H 7450 5350 50  0001 C CNN
F 3 "" H 7450 5350 50  0001 C CNN
	1    7450 5350
	1    0    0    -1  
$EndComp
$Comp
L device:C_Small C38
U 1 1 5D128AA5
P 7850 5700
F 0 "C38" H 7942 5746 50  0000 L CNN
F 1 "100pF" H 7942 5655 50  0000 L CNN
F 2 "Capacitors_SMD:C_0805_HandSoldering" H 7850 5700 50  0001 C CNN
F 3 "" H 7850 5700 50  0001 C CNN
	1    7850 5700
	1    0    0    -1  
$EndComp
$Comp
L device:R R21
U 1 1 5D128B6D
P 7450 5600
F 0 "R21" H 7520 5646 50  0000 L CNN
F 1 "15k ohm" H 7520 5555 50  0000 L CNN
F 2 "Resistors_SMD:R_0805_HandSoldering" V 7380 5600 50  0001 C CNN
F 3 "" H 7450 5600 50  0001 C CNN
	1    7450 5600
	1    0    0    -1  
$EndComp
$Comp
L device:R R22
U 1 1 5D128C1B
P 8300 5700
F 0 "R22" H 8370 5746 50  0000 L CNN
F 1 "20k ohm" H 8370 5655 50  0000 L CNN
F 2 "Resistors_SMD:R_0805_HandSoldering" V 8230 5700 50  0001 C CNN
F 3 "" H 8300 5700 50  0001 C CNN
	1    8300 5700
	1    0    0    -1  
$EndComp
Wire Wire Line
	3200 5450 3200 5200
Wire Wire Line
	3200 5750 3200 5900
Connection ~ 3200 5900
Wire Wire Line
	3200 5900 3750 5900
Wire Wire Line
	2700 4400 2700 5200
Connection ~ 2700 5200
Wire Wire Line
	2700 5200 2700 5700
Wire Wire Line
	8850 5700 8850 5200
Connection ~ 8850 5200
Wire Wire Line
	8300 5850 8300 5900
Connection ~ 8300 5900
Wire Wire Line
	8300 5900 8850 5900
Connection ~ 7450 5900
Wire Wire Line
	7450 5900 7850 5900
$Comp
L device:R R18
U 1 1 5D14EA6E
P 7050 5650
F 0 "R18" H 7120 5696 50  0000 L CNN
F 1 "122k ohm" H 7120 5605 50  0000 L CNN
F 2 "Resistors_SMD:R_0805_HandSoldering" V 6980 5650 50  0001 C CNN
F 3 "" H 7050 5650 50  0001 C CNN
	1    7050 5650
	1    0    0    -1  
$EndComp
Wire Wire Line
	8300 5050 8300 5550
Wire Wire Line
	6900 5200 7450 5200
Wire Wire Line
	7850 5200 7850 5600
Wire Wire Line
	7850 5800 7850 5900
Connection ~ 7850 5900
Wire Wire Line
	7850 5900 8300 5900
Wire Wire Line
	7450 5250 7450 5200
Connection ~ 7450 5200
Wire Wire Line
	7450 5200 7850 5200
Wire Wire Line
	7050 5800 7050 5900
Connection ~ 7050 5900
Wire Wire Line
	7050 5900 7450 5900
Wire Wire Line
	7050 5500 7050 5350
Wire Wire Line
	7050 5350 6900 5350
Wire Wire Line
	7450 5850 7450 5900
Wire Wire Line
	7450 5750 7450 5900
Wire Wire Line
	5100 5350 4450 5350
Wire Wire Line
	3750 5850 3750 5900
Wire Wire Line
	3200 5200 5100 5200
Connection ~ 3750 5900
Wire Wire Line
	3750 5900 4450 5900
Wire Wire Line
	4450 5500 4450 5350
Connection ~ 4450 5350
Wire Wire Line
	4450 5350 3750 5350
Wire Wire Line
	4450 5700 4450 5900
Connection ~ 4450 5900
Wire Wire Line
	7100 2850 7100 2750
Text HLabel 9150 5200 2    50   Output ~ 0
5V_OUT
Wire Wire Line
	5100 3200 3900 3200
Wire Wire Line
	2400 5200 2700 5200
Text HLabel 2400 5200 0    50   Output ~ 0
3.3V_OUT
Text HLabel 8750 1900 2    50   Input ~ 0
8.4V_INPUT
Wire Wire Line
	5900 6250 5900 6500
$Comp
L power:GND #PWR0126
U 1 1 5D1F1E78
P 5900 6500
F 0 "#PWR0126" H 5900 6250 50  0001 C CNN
F 1 "GND" H 5905 6327 50  0000 C CNN
F 2 "" H 5900 6500 50  0001 C CNN
F 3 "" H 5900 6500 50  0001 C CNN
	1    5900 6500
	1    0    0    -1  
$EndComp
Wire Wire Line
	6050 6250 5900 6250
$Comp
L Ueet:NetTie U6
U 1 1 5D211A6A
P 6250 6050
F 0 "U6" H 6250 6275 50  0000 C CNN
F 1 "NetTie" H 6250 6184 50  0000 C CNN
F 2 "Solar cell:NetTie" H 6250 6150 50  0001 C CNN
F 3 "" H 6250 6150 50  0001 C CNN
	1    6250 6050
	1    0    0    -1  
$EndComp
Wire Wire Line
	6450 6050 7250 6050
Wire Wire Line
	7250 6050 7250 4600
Wire Wire Line
	7250 4600 7000 4600
Wire Wire Line
	7000 4600 7000 3750
Connection ~ 7000 3750
Wire Wire Line
	7000 3750 6900 3750
Wire Wire Line
	3600 1900 7950 1900
Wire Wire Line
	5800 2750 7100 2750
Wire Wire Line
	7950 3500 8350 3500
Wire Wire Line
	4600 4400 5100 4400
Wire Wire Line
	7950 1900 8750 1900
Wire Wire Line
	4450 5900 7050 5900
Wire Wire Line
	6050 5700 6050 6250
$EndSCHEMATC
