Added Pin To Net: NetName=VCC_BAT Pin=B1-1
Added Pin To Net: NetName=GND Pin=B1-4
Added Pin To Net: NetName=BAT_INTERCONNECT Pin=B1-2
Added Pin To Net: NetName=BAT_INTERCONNECT Pin=B1-3
Added Net: Name=BAT_INTERCONNECT
