Change Component Library : Designator=H1 Old Library=BLUEsat_Cubesat_Integrated_Library.IntLib New Library=CustomParts.SchLib
Change Component Library : Designator=H2 Old Library=BLUEsat_Cubesat_Integrated_Library.IntLib New Library=CustomParts.SchLib
Added Component: Designator=B1(Keystone 1049 (18650 Dual Holder))
Added Component: Designator=U1(Arduino Nano (DIP 30))
Added Pin To Net: NetName=VCC_BAT Pin=B1-1
Added Pin To Net: NetName=BAT_INTERCONNECT Pin=B1-2
Added Pin To Net: NetName=BAT_INTERCONNECT Pin=B1-3
Added Pin To Net: NetName=GND Pin=B1-4
Added Pin To Net: NetName=I2C_SCL Pin=H1-41
Added Pin To Net: NetName=I2C_SDA Pin=H1-43
Added Pin To Net: NetName=5V_VCC Pin=H2-25
Added Pin To Net: NetName=5V_VCC Pin=H2-26
Added Pin To Net: NetName=3V3_VCC Pin=H2-27
Added Pin To Net: NetName=3V3_VCC Pin=H2-28
Added Pin To Net: NetName=GND Pin=H2-29
Added Pin To Net: NetName=GND Pin=H2-30
Added Pin To Net: NetName=GND Pin=H2-31
Added Pin To Net: NetName=GND Pin=H2-32
Added Pin To Net: NetName=VCC_BAT Pin=H2-45
Added Pin To Net: NetName=VCC_BAT Pin=H2-46
Added Pin To Net: NetName=VCC_BAT Pin=P1-1
Added Pin To Net: NetName=GND Pin=P1-2
Added Pin To Net: NetName=GND Pin=U1-4
Added Pin To Net: NetName=I2C_SDA Pin=U1-23
Added Pin To Net: NetName=I2C_SCL Pin=U1-24
Added Pin To Net: NetName=GND Pin=U1-29
Added Pin To Net: NetName=VCC_BAT Pin=U1-30
Added Member To Class: ClassName=PC-104 bat_ctrl Member=Component B1 Battery Holder
Added Member To Class: ClassName=PC-104 bat_ctrl Member=Component H1 26X2 Header
Added Member To Class: ClassName=PC-104 bat_ctrl Member=Component H2 26X2 Header
Added Member To Class: ClassName=PC-104 bat_ctrl Member=Component P1 Header 2
Added Member To Class: ClassName=PC-104 bat_ctrl Member=Component U1 Arduino Nano
Change Room Name: Old Name=EXT_CONTROL_2_I2C New Name=PC-104 bat_ctrl
Change Room Scope: Old Scope=InComponentClass('EXT_CONTROL_2_I2C') New Scope=InComponentClass('PC-104 bat_ctrl')
