Added Component: Designator=U1(Arduino Nano (DIP 30))
Added Pin To Net: NetName=GND Pin=U1-4
Added Pin To Net: NetName=I2C_SDA Pin=U1-23
Added Pin To Net: NetName=I2C_SCL Pin=U1-24
Added Pin To Net: NetName=GND Pin=U1-29
Added Pin To Net: NetName=VCC_BAT Pin=U1-30
Added Member To Class: ClassName=PC-104 bat_ctrl Member=Component U1 Arduino Nano
