Added Component: Designator=B1(Keystone 1049 (18650 Dual Holder))
Added Component: Designator=H1(26X2 Header)
Added Component: Designator=H2(26X2 Header)
Added Component: Designator=P1(HDR1X2)
Added Component: Designator=U1(Arduino Nano (DIP 30))
Added Pin To Net: NetName=3V3_VCC Pin=H2-27
Added Pin To Net: NetName=3V3_VCC Pin=H2-28
Added Net: Name=3V3_VCC
Added Pin To Net: NetName=5V_VCC Pin=H2-25
Added Pin To Net: NetName=5V_VCC Pin=H2-26
Added Net: Name=5V_VCC
Added Pin To Net: NetName=BAT_INTERCONNECT Pin=B1-2
Added Pin To Net: NetName=BAT_INTERCONNECT Pin=B1-3
Added Net: Name=BAT_INTERCONNECT
Added Pin To Net: NetName=GND Pin=B1-4
Added Pin To Net: NetName=GND Pin=H2-29
Added Pin To Net: NetName=GND Pin=H2-30
Added Pin To Net: NetName=GND Pin=H2-31
Added Pin To Net: NetName=GND Pin=H2-32
Added Pin To Net: NetName=GND Pin=P1-2
Added Pin To Net: NetName=GND Pin=U1-4
Added Pin To Net: NetName=GND Pin=U1-29
Added Net: Name=GND
Added Pin To Net: NetName=I2C_SCL Pin=H1-41
Added Pin To Net: NetName=I2C_SCL Pin=U1-24
Added Net: Name=I2C_SCL
Added Pin To Net: NetName=I2C_SDA Pin=H1-43
Added Pin To Net: NetName=I2C_SDA Pin=U1-23
Added Net: Name=I2C_SDA
Added Pin To Net: NetName=VCC_BAT Pin=B1-1
Added Pin To Net: NetName=VCC_BAT Pin=H2-45
Added Pin To Net: NetName=VCC_BAT Pin=H2-46
Added Pin To Net: NetName=VCC_BAT Pin=P1-1
Added Pin To Net: NetName=VCC_BAT Pin=U1-30
Added Net: Name=VCC_BAT
Added Class: Name=PC-104 bat_ctrl
Added Room: Name=PC-104 bat_ctrl
