Removed Pin From Net: NetName=BAT_INTERCONNECT Pin=B1-2
Removed Pin From Net: NetName=BAT_INTERCONNECT Pin=B1-2
Removed Pin From Net: NetName=GND Pin=B1-4
Removed Pin From Net: NetName=GND Pin=B1-4
Added Component: Designator=C1_BATTERY_MONITOR_1(0805C-TBD)
Added Component: Designator=C1_BATTERY_MONITOR_2(0805C-TBD)
Added Component: Designator=Q1_BATTERY_MONITOR_1(TN2501 - TO-243AA (SOT-89))
Added Component: Designator=Q1_BATTERY_MONITOR_2(TN2501 - TO-243AA (SOT-89))
Added Component: Designator=Q2_BATTERY_MONITOR_1(TN2501 - TO-243AA (SOT-89))
Added Component: Designator=Q2_BATTERY_MONITOR_2(TN2501 - TO-243AA (SOT-89))
Added Component: Designator=R1_BATTERY_MONITOR_1(0805R-4K7)
Added Component: Designator=R1_BATTERY_MONITOR_2(0805R-4K7)
Added Component: Designator=R2_BATTERY_MONITOR_1(0805R-4K7)
Added Component: Designator=R2_BATTERY_MONITOR_2(0805R-4K7)
Added Component: Designator=R3_BATTERY_MONITOR_1(0805R-1K)
Added Component: Designator=R3_BATTERY_MONITOR_2(0805R-1K)
Added Component: Designator=R4_BATTERY_MONITOR_1(0805R-150)
Added Component: Designator=R4_BATTERY_MONITOR_2(0805R-150)
Added Component: Designator=RSNS_3_BATTERY_MONITOR_1(LVK12)
Added Component: Designator=RSNS_3_BATTERY_MONITOR_2(LVK12)
Added Component: Designator=U2_BATTERY_MONITOR_1(DS2786 - TDFN 10)
Added Component: Designator=U2_BATTERY_MONITOR_2(DS2786 - TDFN 10)
Added Pin To Net: NetName=BAT_INTERCONNECT Pin=Q1_BATTERY_MONITOR_1-1
Added Pin To Net: NetName=VCC_BAT Pin=Q1_BATTERY_MONITOR_2-1
Added Pin To Net: NetName=BAT_INTERCONNECT Pin=Q2_BATTERY_MONITOR_1-1
Added Pin To Net: NetName=VCC_BAT Pin=Q2_BATTERY_MONITOR_2-1
Added Pin To Net: NetName=BAT_INTERCONNECT Pin=R1_BATTERY_MONITOR_1-1
Added Pin To Net: NetName=VCC_BAT Pin=R1_BATTERY_MONITOR_2-1
Added Pin To Net: NetName=BAT_INTERCONNECT Pin=R2_BATTERY_MONITOR_1-1
Added Pin To Net: NetName=VCC_BAT Pin=R2_BATTERY_MONITOR_2-1
Added Pin To Net: NetName=BAT_INTERCONNECT Pin=R3_BATTERY_MONITOR_1-1
Added Pin To Net: NetName=VCC_BAT Pin=R3_BATTERY_MONITOR_2-1
Added Pin To Net: NetName=BAT_INTERCONNECT Pin=R4_BATTERY_MONITOR_1-1
Added Pin To Net: NetName=VCC_BAT Pin=R4_BATTERY_MONITOR_2-1
Added Pin To Net: NetName=GND Pin=RSNS_3_BATTERY_MONITOR_1-2
Added Pin To Net: NetName=BAT_INTERCONNECT Pin=RSNS_3_BATTERY_MONITOR_2-2
Change Net Name : Old Net Name=GND New Net Name=SYSTEM_LOW_BATTERY_MONITOR_1
Change Net Name : Old Net Name=VCC_BAT New Net Name=BATTERY_HIGH_BATTERY_MONITOR_2
Added Pin To Net: NetName=BATTERY_1_LOW Pin=B1-4
Added Pin To Net: NetName=BATTERY_1_LOW Pin=B1-4
Added Pin To Net: NetName=BATTERY_1_LOW Pin=RSNS_3_BATTERY_MONITOR_1-3
Added Net: Name=BATTERY_1_LOW
Added Pin To Net: NetName=BATTERY_2_LOW Pin=B1-2
Added Pin To Net: NetName=BATTERY_2_LOW Pin=B1-2
Added Pin To Net: NetName=BATTERY_2_LOW Pin=RSNS_3_BATTERY_MONITOR_2-3
Added Net: Name=BATTERY_2_LOW
Added Pin To Net: NetName=SCL_PULLUP_BATTERY_MONITOR_1 Pin=Q2_BATTERY_MONITOR_1-3
Added Pin To Net: NetName=SCL_PULLUP_BATTERY_MONITOR_1 Pin=R2_BATTERY_MONITOR_1-2
Added Pin To Net: NetName=SCL_PULLUP_BATTERY_MONITOR_1 Pin=U2_BATTERY_MONITOR_1-3
Added Net: Name=SCL_PULLUP_BATTERY_MONITOR_1
Added Pin To Net: NetName=SCL_PULLUP_BATTERY_MONITOR_2 Pin=Q2_BATTERY_MONITOR_2-3
Added Pin To Net: NetName=SCL_PULLUP_BATTERY_MONITOR_2 Pin=R2_BATTERY_MONITOR_2-2
Added Pin To Net: NetName=SCL_PULLUP_BATTERY_MONITOR_2 Pin=U2_BATTERY_MONITOR_2-3
Added Net: Name=SCL_PULLUP_BATTERY_MONITOR_2
Added Pin To Net: NetName=SCL Pin=Q2_BATTERY_MONITOR_1-2
Added Pin To Net: NetName=SCL Pin=Q2_BATTERY_MONITOR_2-2
Added Net: Name=SCL
Added Pin To Net: NetName=SDA_PULLUP_BATTERY_MONITOR_1 Pin=Q1_BATTERY_MONITOR_1-3
Added Pin To Net: NetName=SDA_PULLUP_BATTERY_MONITOR_1 Pin=R1_BATTERY_MONITOR_1-2
Added Pin To Net: NetName=SDA_PULLUP_BATTERY_MONITOR_1 Pin=U2_BATTERY_MONITOR_1-4
Added Net: Name=SDA_PULLUP_BATTERY_MONITOR_1
Added Pin To Net: NetName=SDA_PULLUP_BATTERY_MONITOR_2 Pin=Q1_BATTERY_MONITOR_2-3
Added Pin To Net: NetName=SDA_PULLUP_BATTERY_MONITOR_2 Pin=R1_BATTERY_MONITOR_2-2
Added Pin To Net: NetName=SDA_PULLUP_BATTERY_MONITOR_2 Pin=U2_BATTERY_MONITOR_2-4
Added Net: Name=SDA_PULLUP_BATTERY_MONITOR_2
Added Pin To Net: NetName=SDA Pin=Q1_BATTERY_MONITOR_1-2
Added Pin To Net: NetName=SDA Pin=Q1_BATTERY_MONITOR_2-2
Added Net: Name=SDA
Added Pin To Net: NetName=SNS_BATTERY_MONITOR_1 Pin=RSNS_3_BATTERY_MONITOR_1-1
Added Pin To Net: NetName=SNS_BATTERY_MONITOR_1 Pin=U2_BATTERY_MONITOR_1-5
Added Net: Name=SNS_BATTERY_MONITOR_1
Added Pin To Net: NetName=SNS_BATTERY_MONITOR_2 Pin=RSNS_3_BATTERY_MONITOR_2-1
Added Pin To Net: NetName=SNS_BATTERY_MONITOR_2 Pin=U2_BATTERY_MONITOR_2-5
Added Net: Name=SNS_BATTERY_MONITOR_2
Added Pin To Net: NetName=VDD_BATTERY_MONITOR_1 Pin=C1_BATTERY_MONITOR_1-2
Added Pin To Net: NetName=VDD_BATTERY_MONITOR_1 Pin=R4_BATTERY_MONITOR_1-2
Added Pin To Net: NetName=VDD_BATTERY_MONITOR_1 Pin=U2_BATTERY_MONITOR_1-10
Added Net: Name=VDD_BATTERY_MONITOR_1
Added Pin To Net: NetName=VDD_BATTERY_MONITOR_2 Pin=C1_BATTERY_MONITOR_2-2
Added Pin To Net: NetName=VDD_BATTERY_MONITOR_2 Pin=R4_BATTERY_MONITOR_2-2
Added Pin To Net: NetName=VDD_BATTERY_MONITOR_2 Pin=U2_BATTERY_MONITOR_2-10
Added Net: Name=VDD_BATTERY_MONITOR_2
Added Pin To Net: NetName=VIN_BATTERY_MONITOR_1 Pin=R3_BATTERY_MONITOR_1-2
Added Pin To Net: NetName=VIN_BATTERY_MONITOR_1 Pin=U2_BATTERY_MONITOR_1-9
Added Net: Name=VIN_BATTERY_MONITOR_1
Added Pin To Net: NetName=VIN_BATTERY_MONITOR_2 Pin=R3_BATTERY_MONITOR_2-2
Added Pin To Net: NetName=VIN_BATTERY_MONITOR_2 Pin=U2_BATTERY_MONITOR_2-9
Added Net: Name=VIN_BATTERY_MONITOR_2
Added Pin To Net: NetName=VSS_BATTERY_MONITOR_1 Pin=C1_BATTERY_MONITOR_1-1
Added Pin To Net: NetName=VSS_BATTERY_MONITOR_1 Pin=RSNS_3_BATTERY_MONITOR_1-4
Added Pin To Net: NetName=VSS_BATTERY_MONITOR_1 Pin=U2_BATTERY_MONITOR_1-6
Added Pin To Net: NetName=VSS_BATTERY_MONITOR_1 Pin=U2_BATTERY_MONITOR_1-7
Added Pin To Net: NetName=VSS_BATTERY_MONITOR_1 Pin=U2_BATTERY_MONITOR_1-11
Added Net: Name=VSS_BATTERY_MONITOR_1
Added Pin To Net: NetName=VSS_BATTERY_MONITOR_2 Pin=C1_BATTERY_MONITOR_2-1
Added Pin To Net: NetName=VSS_BATTERY_MONITOR_2 Pin=RSNS_3_BATTERY_MONITOR_2-4
Added Pin To Net: NetName=VSS_BATTERY_MONITOR_2 Pin=U2_BATTERY_MONITOR_2-6
Added Pin To Net: NetName=VSS_BATTERY_MONITOR_2 Pin=U2_BATTERY_MONITOR_2-7
Added Pin To Net: NetName=VSS_BATTERY_MONITOR_2 Pin=U2_BATTERY_MONITOR_2-11
Added Net: Name=VSS_BATTERY_MONITOR_2
Added Class: Name=BATTERY_MONITOR_1
Added Class: Name=BATTERY_MONITOR_2
Added Class: Name=BATTERY_MONITOR
Added Room: Name=BATTERY_MONITOR_1
Added Room: Name=BATTERY_MONITOR_2
