Added Component: Designator=D4(0805 LED)
Added Component: Designator=D5(1N400X)
Added Component: Designator=R8(0805R-150)
Added Pin To Net: NetName=GND Pin=D5-A
Added Pin To Net: NetName=RELAY_CTRL Pin=D5-K
Added Pin To Net: NetName=NetG1_4 Pin=R8-1
Change Net Name : Old Net Name=NetG1_3 New Net Name=IS_LOW
Change Net Name : Old Net Name=NetG1_4 New Net Name=IS_HIGH
Added Pin To Net: NetName=LED_4 Pin=R8-2
Added Net: Name=LED_4
Added Member To Class: ClassName=PC-104 bat_ctrl Member=Component D4 LED
Added Member To Class: ClassName=PC-104 bat_ctrl Member=Component D5 1N4001
Added Member To Class: ClassName=PC-104 bat_ctrl Member=Component R8 150R
