Change Net Name : Old Net Name=NetC_5V_HI_1 New Net Name=5V_IN
Added Member To Class: ClassName=POWER_CONTROL_rev6 Member=Component RSENSE_5V LVK12 Kelvin Sense Resistor
Added Room: Name=POWER_CONTROL_rev6
