Change Net Name : Old Net Name=NetQ1_3V3_2 New Net Name=3V3_MID
Change Net Name : Old Net Name=NetQ1_5V_2 New Net Name=5V_MID
Change Net Name : Old Net Name=NetQ2_3V3_3 New Net Name=3V3_NMOS
Change Net Name : Old Net Name=NetQ2_5V_3 New Net Name=5V_NMOS
Added Room: Name=POWER_CONTROL_rev6
