Removed Pin From Net: NetName=5V_IN Pin=C_POT_HI-1
Removed Pin From Net: NetName=GND Pin=C_POT_HI-2
Removed Pin From Net: NetName=5V_IN Pin=C_POT_LO-1
Removed Pin From Net: NetName=GND Pin=C_POT_LO-2
Added Pin To Net: NetName=GND Pin=C_POT_HI-1
Added Pin To Net: NetName=5V_IN Pin=C_POT_HI-2
Added Pin To Net: NetName=GND Pin=C_POT_LO-1
Added Pin To Net: NetName=5V_IN Pin=C_POT_LO-2
Added Room: Name=POWER_CONTROL_rev6
