EESchema Schematic File Version 4
LIBS:Rev3-cache
EELAYER 26 0
EELAYER END
$Descr A4 11693 8268
encoding utf-8
Sheet 1 1
Title ""
Date ""
Rev ""
Comp ""
Comment1 ""
Comment2 ""
Comment3 ""
Comment4 ""
$EndDescr
$Comp
L Device:R_Small R?
U 1 1 5B654202
P 1800 1400
F 0 "R?" H 1859 1446 50  0000 L CNN
F 1 "R_Small" H 1859 1355 50  0000 L CNN
F 2 "" H 1800 1400 50  0001 C CNN
F 3 "~" H 1800 1400 50  0001 C CNN
	1    1800 1400
	1    0    0    -1  
$EndComp
$Comp
L Connector:Screw_Terminal_01x02 J?
U 1 1 5B6542B5
P 1250 1150
F 0 "J?" H 1170 1367 50  0000 C CNN
F 1 "Screw_Terminal_01x02" H 1170 1276 50  0000 C CNN
F 2 "" H 1250 1150 50  0001 C CNN
F 3 "~" H 1250 1150 50  0001 C CNN
	1    1250 1150
	-1   0    0    -1  
$EndComp
$Comp
L Device:D_Schottky D?
U 1 1 5B65443B
P 3750 1850
F 0 "D?" H 3750 2066 50  0000 C CNN
F 1 "D_Schottky" H 3750 1975 50  0000 C CNN
F 2 "" H 3750 1850 50  0001 C CNN
F 3 "~" H 3750 1850 50  0001 C CNN
	1    3750 1850
	-1   0    0    -1  
$EndComp
$Comp
L Device:LED D?
U 1 1 5B6547FD
P 1800 1800
F 0 "D?" V 1838 1683 50  0000 R CNN
F 1 "LED" V 1747 1683 50  0000 R CNN
F 2 "" H 1800 1800 50  0001 C CNN
F 3 "~" H 1800 1800 50  0001 C CNN
	1    1800 1800
	0    -1   -1   0   
$EndComp
$Comp
L power:GNDPWR #PWR?
U 1 1 5B65488E
P 1350 3350
F 0 "#PWR?" H 1350 3150 50  0001 C CNN
F 1 "GNDPWR" H 1354 3196 50  0000 C CNN
F 2 "" H 1350 3300 50  0001 C CNN
F 3 "" H 1350 3300 50  0001 C CNN
	1    1350 3350
	1    0    0    -1  
$EndComp
$Comp
L Device:R_Shunt R?
U 1 1 5B654FAE
P 4350 1850
F 0 "R?" V 4125 1850 50  0000 C CNN
F 1 "33m" V 4216 1850 50  0000 C CNN
F 2 "" V 4280 1850 50  0001 C CNN
F 3 "~" H 4350 1850 50  0001 C CNN
	1    4350 1850
	0    1    1    0   
$EndComp
$Comp
L Device:C_Small C?
U 1 1 5B655099
P 2350 4250
F 0 "C?" H 2442 4296 50  0000 L CNN
F 1 "1nF" H 2442 4205 50  0000 L CNN
F 2 "" H 2350 4250 50  0001 C CNN
F 3 "~" H 2350 4250 50  0001 C CNN
	1    2350 4250
	1    0    0    -1  
$EndComp
$Comp
L Device:C_Small C?
U 1 1 5B6550FC
P 4550 2800
F 0 "C?" H 4642 2846 50  0000 L CNN
F 1 "C_Small" H 4642 2755 50  0000 L CNN
F 2 "" H 4550 2800 50  0001 C CNN
F 3 "~" H 4550 2800 50  0001 C CNN
	1    4550 2800
	1    0    0    -1  
$EndComp
$Comp
L Device:Q_NMOS_SGD Q?
U 1 1 5B655311
P 6650 2400
F 0 "Q?" H 6855 2446 50  0000 L CNN
F 1 "Q_NMOS_SGD" H 6855 2355 50  0000 L CNN
F 2 "" H 6850 2500 50  0001 C CNN
F 3 "~" H 6650 2400 50  0001 C CNN
	1    6650 2400
	1    0    0    -1  
$EndComp
$Comp
L Device:Q_NMOS_SGD Q?
U 1 1 5B6553CC
P 6650 3500
F 0 "Q?" H 6855 3546 50  0000 L CNN
F 1 "Q_NMOS_SGD" H 6855 3455 50  0000 L CNN
F 2 "" H 6850 3600 50  0001 C CNN
F 3 "~" H 6650 3500 50  0001 C CNN
	1    6650 3500
	1    0    0    -1  
$EndComp
$Comp
L Device:C_Small C?
U 1 1 5B6554BE
P 7600 2300
F 0 "C?" H 7692 2346 50  0000 L CNN
F 1 "C_Small" H 7692 2255 50  0000 L CNN
F 2 "" H 7600 2300 50  0001 C CNN
F 3 "~" H 7600 2300 50  0001 C CNN
	1    7600 2300
	1    0    0    -1  
$EndComp
$Comp
L Device:C_Small C?
U 1 1 5B655528
P 8000 2300
F 0 "C?" H 8092 2346 50  0000 L CNN
F 1 "C_Small" H 8092 2255 50  0000 L CNN
F 2 "" H 8000 2300 50  0001 C CNN
F 3 "~" H 8000 2300 50  0001 C CNN
	1    8000 2300
	1    0    0    -1  
$EndComp
$Comp
L Device:C_Small C?
U 1 1 5B65555A
P 8400 2300
F 0 "C?" H 8492 2346 50  0000 L CNN
F 1 "C_Small" H 8492 2255 50  0000 L CNN
F 2 "" H 8400 2300 50  0001 C CNN
F 3 "~" H 8400 2300 50  0001 C CNN
	1    8400 2300
	1    0    0    -1  
$EndComp
$Comp
L Connector:Screw_Terminal_01x02 J?
U 1 1 5B6555D3
P 8100 1900
F 0 "J?" H 8020 2117 50  0000 C CNN
F 1 "Screw_Terminal_01x02" H 8020 2026 50  0000 C CNN
F 2 "" H 8100 1900 50  0001 C CNN
F 3 "~" H 8100 1900 50  0001 C CNN
	1    8100 1900
	1    0    0    -1  
$EndComp
$Comp
L Device:R_Shunt R?
U 1 1 5B65764C
P 7750 3150
F 0 "R?" V 7525 3150 50  0000 C CNN
F 1 "33m" V 7616 3150 50  0000 C CNN
F 2 "" V 7680 3150 50  0001 C CNN
F 3 "~" H 7750 3150 50  0001 C CNN
	1    7750 3150
	0    1    1    0   
$EndComp
$Comp
L Connector:Screw_Terminal_01x02 J?
U 1 1 5B6576A2
P 9850 3200
F 0 "J?" H 9770 3417 50  0000 C CNN
F 1 "Screw_Terminal_01x02" H 9770 3326 50  0000 C CNN
F 2 "" H 9850 3200 50  0001 C CNN
F 3 "~" H 9850 3200 50  0001 C CNN
	1    9850 3200
	1    0    0    -1  
$EndComp
$Comp
L Device:C_Small C?
U 1 1 5B657712
P 8250 3300
F 0 "C?" H 8342 3346 50  0000 L CNN
F 1 "C_Small" H 8342 3255 50  0000 L CNN
F 2 "" H 8250 3300 50  0001 C CNN
F 3 "~" H 8250 3300 50  0001 C CNN
	1    8250 3300
	1    0    0    -1  
$EndComp
$Comp
L Device:C_Small C?
U 1 1 5B65776A
P 8600 3300
F 0 "C?" H 8692 3346 50  0000 L CNN
F 1 "C_Small" H 8692 3255 50  0000 L CNN
F 2 "" H 8600 3300 50  0001 C CNN
F 3 "~" H 8600 3300 50  0001 C CNN
	1    8600 3300
	1    0    0    -1  
$EndComp
$Comp
L Device:C_Small C?
U 1 1 5B6577B2
P 8900 3300
F 0 "C?" H 8992 3346 50  0000 L CNN
F 1 "C_Small" H 8992 3255 50  0000 L CNN
F 2 "" H 8900 3300 50  0001 C CNN
F 3 "~" H 8900 3300 50  0001 C CNN
	1    8900 3300
	1    0    0    -1  
$EndComp
$Comp
L Device:Thermistor TH?
U 1 1 5B65787F
P 9350 3750
F 0 "TH?" H 9455 3796 50  0000 L CNN
F 1 "Thermistor" H 9455 3705 50  0000 L CNN
F 2 "" H 9350 3750 50  0001 C CNN
F 3 "~" H 9350 3750 50  0001 C CNN
	1    9350 3750
	1    0    0    -1  
$EndComp
$Comp
L Device:D_Schottky D?
U 1 1 5B657927
P 2050 1150
F 0 "D?" H 2050 1366 50  0000 C CNN
F 1 "D_Schottky" H 2050 1275 50  0000 C CNN
F 2 "" H 2050 1150 50  0001 C CNN
F 3 "~" H 2050 1150 50  0001 C CNN
	1    2050 1150
	-1   0    0    -1  
$EndComp
$Comp
L bluesat_ic_chips:MAX1737 U?
U 1 1 5B65A6E6
P 3350 2300
F 0 "U?" H 3500 2675 50  0000 C CNN
F 1 "MAX1737" H 3500 2584 50  0000 C CNN
F 2 "" H 3650 2650 50  0001 C CNN
F 3 "" H 3650 2650 50  0001 C CNN
	1    3350 2300
	1    0    0    -1  
$EndComp
$Comp
L Device:C_Small C?
U 1 1 5B65ACD9
P 2050 4250
F 0 "C?" H 2142 4296 50  0000 L CNN
F 1 "1nF" H 2142 4205 50  0000 L CNN
F 2 "" H 2050 4250 50  0001 C CNN
F 3 "~" H 2050 4250 50  0001 C CNN
	1    2050 4250
	1    0    0    -1  
$EndComp
$Comp
L Device:C_Small C?
U 1 1 5B65AD17
P 1750 4250
F 0 "C?" H 1842 4296 50  0000 L CNN
F 1 "47nF" H 1842 4205 50  0000 L CNN
F 2 "" H 1750 4250 50  0001 C CNN
F 3 "~" H 1750 4250 50  0001 C CNN
	1    1750 4250
	1    0    0    -1  
$EndComp
$Comp
L Device:C_Small C?
U 1 1 5B65ADAA
P 1450 4250
F 0 "C?" H 1542 4296 50  0000 L CNN
F 1 "47nF" H 1542 4205 50  0000 L CNN
F 2 "" H 1450 4250 50  0001 C CNN
F 3 "~" H 1450 4250 50  0001 C CNN
	1    1450 4250
	1    0    0    -1  
$EndComp
$Comp
L Device:C_Small C?
U 1 1 5B65ADF6
P 1150 4250
F 0 "C?" H 1242 4296 50  0000 L CNN
F 1 "1nF" H 1242 4205 50  0000 L CNN
F 2 "" H 1150 4250 50  0001 C CNN
F 3 "~" H 1150 4250 50  0001 C CNN
	1    1150 4250
	1    0    0    -1  
$EndComp
$Comp
L Device:C_Small C?
U 1 1 5B65B302
P 850 4250
F 0 "C?" H 942 4296 50  0000 L CNN
F 1 "0.1uF" H 942 4205 50  0000 L CNN
F 2 "" H 850 4250 50  0001 C CNN
F 3 "~" H 850 4250 50  0001 C CNN
	1    850  4250
	1    0    0    -1  
$EndComp
$Comp
L Device:R_Small R?
U 1 1 5B65B7C4
P 850 3900
F 0 "R?" H 909 3946 50  0000 L CNN
F 1 "10k" H 909 3855 50  0000 L CNN
F 2 "" H 850 3900 50  0001 C CNN
F 3 "~" H 850 3900 50  0001 C CNN
	1    850  3900
	1    0    0    -1  
$EndComp
$Comp
L Connector:Conn_01x02_Male J?
U 1 1 5B65BBA7
P 1100 3200
F 0 "J?" H 1206 3378 50  0000 C CNN
F 1 "1S Setting" H 1206 3287 50  0000 C CNN
F 2 "" H 1100 3200 50  0001 C CNN
F 3 "~" H 1100 3200 50  0001 C CNN
	1    1100 3200
	1    0    0    -1  
$EndComp
Text Notes 1100 4700 0    50   ~ 0
Sensitive analog components
Text Notes 550  3450 0    50   ~ 0
Charger settings
$Comp
L Device:R_Small R?
U 1 1 5B65C857
P 1300 2800
F 0 "R?" H 1359 2846 50  0000 L CNN
F 1 "R_Small" H 1359 2755 50  0000 L CNN
F 2 "" H 1300 2800 50  0001 C CNN
F 3 "~" H 1300 2800 50  0001 C CNN
	1    1300 2800
	1    0    0    -1  
$EndComp
$Comp
L Device:R_Small R?
U 1 1 5B65CB9B
P 1300 2550
F 0 "R?" H 1359 2596 50  0000 L CNN
F 1 "R_Small" H 1359 2505 50  0000 L CNN
F 2 "" H 1300 2550 50  0001 C CNN
F 3 "~" H 1300 2550 50  0001 C CNN
	1    1300 2550
	1    0    0    -1  
$EndComp
$Comp
L Device:R_Small R?
U 1 1 5B65D3D7
P 2050 2800
F 0 "R?" H 2109 2846 50  0000 L CNN
F 1 "R_Small" H 2109 2755 50  0000 L CNN
F 2 "" H 2050 2800 50  0001 C CNN
F 3 "~" H 2050 2800 50  0001 C CNN
	1    2050 2800
	1    0    0    -1  
$EndComp
$Comp
L Device:R_Small R?
U 1 1 5B65D3DE
P 2050 2550
F 0 "R?" H 2109 2596 50  0000 L CNN
F 1 "R_Small" H 2109 2505 50  0000 L CNN
F 2 "" H 2050 2550 50  0001 C CNN
F 3 "~" H 2050 2550 50  0001 C CNN
	1    2050 2550
	1    0    0    -1  
$EndComp
$Comp
L Device:C_Small C?
U 1 1 5B65DA23
P 2250 2100
F 0 "C?" H 2342 2146 50  0000 L CNN
F 1 "0.1uF" H 2342 2055 50  0000 L CNN
F 2 "" H 2250 2100 50  0001 C CNN
F 3 "~" H 2250 2100 50  0001 C CNN
	1    2250 2100
	1    0    0    -1  
$EndComp
$Comp
L Device:C_Small C?
U 1 1 5B65E03F
P 850 2550
F 0 "C?" H 942 2596 50  0000 L CNN
F 1 "C_Small" H 942 2505 50  0000 L CNN
F 2 "" H 850 2550 50  0001 C CNN
F 3 "~" H 850 2550 50  0001 C CNN
	1    850  2550
	1    0    0    -1  
$EndComp
$Comp
L Device:C_Small C?
U 1 1 5B65EFAD
P 1900 2100
F 0 "C?" H 1992 2146 50  0000 L CNN
F 1 "10uF" H 1992 2055 50  0000 L CNN
F 2 "" H 1900 2100 50  0001 C CNN
F 3 "~" H 1900 2100 50  0001 C CNN
	1    1900 2100
	1    0    0    -1  
$EndComp
$Comp
L Connector:Conn_01x04_Male J?
U 1 1 5B660EE0
P 5550 3900
F 0 "J?" H 5523 3873 50  0000 R CNN
F 1 "Conn_01x04_Male" H 5523 3782 50  0000 R CNN
F 2 "" H 5550 3900 50  0001 C CNN
F 3 "~" H 5550 3900 50  0001 C CNN
	1    5550 3900
	-1   0    0    -1  
$EndComp
$Comp
L Device:R_Small R?
U 1 1 5B661057
P 4450 4100
F 0 "R?" V 4500 3900 50  0000 L CNN
F 1 "10k" V 4500 4200 50  0000 L CNN
F 2 "" H 4450 4100 50  0001 C CNN
F 3 "~" H 4450 4100 50  0001 C CNN
	1    4450 4100
	0    1    1    0   
$EndComp
$Comp
L Device:R_Small R?
U 1 1 5B662CD2
P 4450 3950
F 0 "R?" V 4500 3750 50  0000 L CNN
F 1 "10k" V 4500 4050 50  0000 L CNN
F 2 "" H 4450 3950 50  0001 C CNN
F 3 "~" H 4450 3950 50  0001 C CNN
	1    4450 3950
	0    1    1    0   
$EndComp
$Comp
L Device:R_Small R?
U 1 1 5B662D3C
P 4450 3800
F 0 "R?" V 4500 3600 50  0000 L CNN
F 1 "10k" V 4500 3900 50  0000 L CNN
F 2 "" H 4450 3800 50  0001 C CNN
F 3 "~" H 4450 3800 50  0001 C CNN
	1    4450 3800
	0    1    1    0   
$EndComp
$Comp
L Device:C_Small C?
U 1 1 5B66499D
P 4550 3500
F 0 "C?" V 4600 3550 50  0000 L CNN
F 1 "C_Small" V 4600 3150 50  0000 L CNN
F 2 "" H 4550 3500 50  0001 C CNN
F 3 "~" H 4550 3500 50  0001 C CNN
	1    4550 3500
	0    -1   -1   0   
$EndComp
$Comp
L Device:C_Small C?
U 1 1 5B664D5B
P 4850 3350
F 0 "C?" V 4900 3400 50  0000 L CNN
F 1 "C_Small" V 4900 3000 50  0000 L CNN
F 2 "" H 4850 3350 50  0001 C CNN
F 3 "~" H 4850 3350 50  0001 C CNN
	1    4850 3350
	0    -1   -1   0   
$EndComp
$Comp
L Device:D_Schottky D?
U 1 1 5B66520E
P 4550 2450
F 0 "D?" H 4550 2666 50  0000 C CNN
F 1 "D_Schottky" H 4550 2575 50  0000 C CNN
F 2 "" H 4550 2450 50  0001 C CNN
F 3 "~" H 4550 2450 50  0001 C CNN
	1    4550 2450
	0    1    -1   0   
$EndComp
$Comp
L Device:C_Small C?
U 1 1 5B665A80
P 4800 2150
F 0 "C?" H 4892 2196 50  0000 L CNN
F 1 "C_Small" H 4892 2105 50  0000 L CNN
F 2 "" H 4800 2150 50  0001 C CNN
F 3 "~" H 4800 2150 50  0001 C CNN
	1    4800 2150
	1    0    0    -1  
$EndComp
$Comp
L Device:C_Small C?
U 1 1 5B665B4A
P 5100 2150
F 0 "C?" H 5192 2196 50  0000 L CNN
F 1 "C_Small" H 5192 2105 50  0000 L CNN
F 2 "" H 5100 2150 50  0001 C CNN
F 3 "~" H 5100 2150 50  0001 C CNN
	1    5100 2150
	1    0    0    -1  
$EndComp
$EndSCHEMATC
