Added Component: Designator=C1(0805C-TBD)
Added Component: Designator=C2(0805C-TBD)
Added Component: Designator=C3(0805C-TBD)
Added Component: Designator=C4(0805C-TBD)
Added Component: Designator=C5(0805C-TBD)
Added Component: Designator=C6(0805C-TBD)
Added Component: Designator=C7(0805C-TBD)
Added Component: Designator=C8(0805C-TBD)
Added Component: Designator=C9(0805C-TBD)
Added Component: Designator=C10(0805C-TBD)
Added Component: Designator=C11(0805C-TBD)
Added Component: Designator=C12(0805C-TBD)
Added Component: Designator=C13(0805C-TBD)
Added Component: Designator=C14(0805C-TBD)
Added Component: Designator=C15(0805C-TBD)
Added Component: Designator=C20(0805C-TBD)
Added Component: Designator=C21(0805C-TBD)
Added Component: Designator=C22(0805C-TBD)
Added Component: Designator=C23(0805C-TBD)
Added Component: Designator=C24(0805C-TBD)
Added Component: Designator=C43(1206C-GENERIC)
Added Component: Designator=C44(1206C-GENERIC)
Added Component: Designator=C45(1206C-GENERIC)
Added Component: Designator=C46(1206C-GENERIC)
Added Component: Designator=D1(0805 LED)
Added Component: Designator=D2(0805 LED)
Added Component: Designator=D3(0805 LED)
Added Component: Designator=D4(0805 LED)
Added Component: Designator=IC2(SOP127P1030X265-28N)
Added Component: Designator=K1(HEADER-1X2)
Added Component: Designator=K2(HEADER-1X2)
Added Component: Designator=K3(HEADER-1X2)
Added Component: Designator=K4(HEADER-1X2)
Added Component: Designator=L1(XAL1010-472)
Added Component: Designator=Q_HI_A(SOIC127P600X265-8N)
Added Component: Designator=Q_HI_B(SOIC127P600X265-8N)
Added Component: Designator=Q_LO_A(SOIC127P600X265-8N)
Added Component: Designator=Q_LO_B(SOIC127P600X265-8N)
Added Component: Designator=R1(0805R-TBD)
Added Component: Designator=R2(0805R-10K)
Added Component: Designator=R3(0805R-10K)
Added Component: Designator=R4(0805R-10K)
Added Component: Designator=R5(0805R-10K)
Added Component: Designator=R12(0805R-TBD)
Added Component: Designator=R13(0805R-TBD)
Added Component: Designator=R14(0805R-TBD)
Added Component: Designator=R15(0805R-TBD)
Added Component: Designator=R16(0805R-TBD)
Added Component: Designator=R17(0805R-10K)
Added Component: Designator=R18(0805R-10K)
Added Component: Designator=R19(0805R-10K)
Added Component: Designator=R22(0805R-TBD)
Added Component: Designator=R23(0805R-GENERIC)
Added Component: Designator=R24(0805R-GENERIC)
Added Component: Designator=R25(0805R-GENERIC)
Added Component: Designator=R28(0805R-GENERIC)
Added Component: Designator=R30(0805R-GENERIC)
Added Component: Designator=R31(0805R-GENERIC)
Added Component: Designator=R32(0805R-GENERIC)
Added Component: Designator=R33(0805R-GENERIC)
Added Component: Designator=R34(0805R-GENERIC)
Added Component: Designator=R35(0805R-GENERIC)
Added Component: Designator=R36(0805R-GENERIC)
Added Component: Designator=R37(0805R-TBD)
Added Component: Designator=R40(0805R-10K)
Added Component: Designator=R41(0805R-10K)
Added Component: Designator=R42(0805R-GENERIC)
Added Component: Designator=R43(0805R-GENERIC)
Added Component: Designator=R44(0805R-TBD)
Added Component: Designator=R45(0805R-TBD)
Added Component: Designator=R?(0805R-GENERIC)
Added Component: Designator=RB1(0805R-TBD)
Added Component: Designator=RB2(0805R-TBD)
Added Component: Designator=RB3(0805R-TBD)
Added Component: Designator=RB4(0805R-TBD)
Added Component: Designator=RFB1(0805R-TBD)
Added Component: Designator=RFT1(0805R-TBD)
Added Component: Designator=RK1(LVK12)
Added Component: Designator=RK2(LVK12)
Added Component: Designator=RK3(LVK12)
Added Component: Designator=RK4(LVK12)
Added Component: Designator=RT1(0805R-TBD)
Added Component: Designator=RT2(0805R-TBD)
Added Component: Designator=RT3(0805R-TBD)
Added Component: Designator=RT4(0805R-TBD)
Added Pin To Net: NetName=5V Pin=RT2-2
Added Net: Name=5V
Added Pin To Net: NetName=A2 Pin=RB2-1
Added Pin To Net: NetName=A2 Pin=RT2-1
Added Net: Name=A2
Added Pin To Net: NetName=AGND Pin=C1-2
Added Pin To Net: NetName=AGND Pin=C2-2
Added Pin To Net: NetName=AGND Pin=C3-2
Added Pin To Net: NetName=AGND Pin=C5-1
Added Pin To Net: NetName=AGND Pin=C7-2
Added Pin To Net: NetName=AGND Pin=C8-2
Added Pin To Net: NetName=AGND Pin=C9-2
Added Pin To Net: NetName=AGND Pin=C10-2
Added Pin To Net: NetName=AGND Pin=C12-2
Added Pin To Net: NetName=AGND Pin=C13-2
Added Pin To Net: NetName=AGND Pin=C14-1
Added Pin To Net: NetName=AGND Pin=C20-1
Added Pin To Net: NetName=AGND Pin=C21-2
Added Pin To Net: NetName=AGND Pin=C22-2
Added Pin To Net: NetName=AGND Pin=C23-2
Added Pin To Net: NetName=AGND Pin=C24-2
Added Pin To Net: NetName=AGND Pin=C43-1
Added Pin To Net: NetName=AGND Pin=C44-1
Added Pin To Net: NetName=AGND Pin=C45-1
Added Pin To Net: NetName=AGND Pin=C46-1
Added Pin To Net: NetName=AGND Pin=IC2-5
Added Pin To Net: NetName=AGND Pin=IC2-23
Added Pin To Net: NetName=AGND Pin=Q_LO_A-1
Added Pin To Net: NetName=AGND Pin=Q_LO_A-2
Added Pin To Net: NetName=AGND Pin=Q_LO_A-3
Added Pin To Net: NetName=AGND Pin=Q_LO_B-1
Added Pin To Net: NetName=AGND Pin=Q_LO_B-2
Added Pin To Net: NetName=AGND Pin=Q_LO_B-3
Added Pin To Net: NetName=AGND Pin=R5-1
Added Pin To Net: NetName=AGND Pin=R13-2
Added Pin To Net: NetName=AGND Pin=R16-2
Added Pin To Net: NetName=AGND Pin=R19-1
Added Pin To Net: NetName=AGND Pin=R24-1
Added Pin To Net: NetName=AGND Pin=R25-1
Added Pin To Net: NetName=AGND Pin=R35-2
Added Pin To Net: NetName=AGND Pin=R37-2
Added Pin To Net: NetName=AGND Pin=R42-1
Added Pin To Net: NetName=AGND Pin=R43-2
Added Pin To Net: NetName=AGND Pin=R44-2
Added Pin To Net: NetName=AGND Pin=R45-2
Added Pin To Net: NetName=AGND Pin=RB2-2
Added Pin To Net: NetName=AGND Pin=RB3-1
Added Pin To Net: NetName=AGND Pin=RB4-2
Added Pin To Net: NetName=AGND Pin=RFB1-2
Added Net: Name=AGND
Added Pin To Net: NetName=AIIN+ Pin=R15-2
Added Pin To Net: NetName=AIIN+ Pin=RK1-1
Added Net: Name=AIIN+
Added Pin To Net: NetName=AIIN- Pin=R1-1
Added Net: Name=AIIN-
Added Pin To Net: NetName=AIIN Pin=R16-1
Added Net: Name=AIIN
Added Pin To Net: NetName=AIOUT+ Pin=RK4-3
Added Net: Name=AIOUT+
Added Pin To Net: NetName=AIOUT Pin=R37-1
Added Net: Name=AIOUT
Added Pin To Net: NetName=AVIN Pin=R12-1
Added Pin To Net: NetName=AVIN Pin=R13-1
Added Net: Name=AVIN
Added Pin To Net: NetName=AVOUT Pin=RFB1-1
Added Pin To Net: NetName=AVOUT Pin=RFT1-1
Added Net: Name=AVOUT
Added Pin To Net: NetName=BIN Pin=IC2-4
Added Pin To Net: NetName=BIN Pin=K2-1
Added Net: Name=BIN
Added Pin To Net: NetName=BOUT Pin=IC2-11
Added Pin To Net: NetName=BOUT Pin=K2-2
Added Net: Name=BOUT
Added Pin To Net: NetName=HBA Pin=C11-1
Added Pin To Net: NetName=HBA Pin=IC2-26
Added Net: Name=HBA
Added Pin To Net: NetName=HBB Pin=C15-1
Added Pin To Net: NetName=HBB Pin=IC2-20
Added Net: Name=HBB
Added Pin To Net: NetName=HIA Pin=IC2-7
Added Net: Name=HIA
Added Pin To Net: NetName=HIB Pin=IC2-8
Added Net: Name=HIB
Added Pin To Net: NetName=HOB Pin=IC2-19
Added Pin To Net: NetName=HOB Pin=R36-1
Added Net: Name=HOB
Added Pin To Net: NetName=HSA Pin=C11-2
Added Pin To Net: NetName=HSA Pin=IC2-28
Added Pin To Net: NetName=HSA Pin=Q_HI_A-1
Added Pin To Net: NetName=HSA Pin=Q_HI_A-2
Added Pin To Net: NetName=HSA Pin=Q_HI_A-3
Added Pin To Net: NetName=HSA Pin=Q_LO_A-5
Added Pin To Net: NetName=HSA Pin=Q_LO_A-6
Added Pin To Net: NetName=HSA Pin=Q_LO_A-7
Added Pin To Net: NetName=HSA Pin=Q_LO_A-8
Added Net: Name=HSA
Added Pin To Net: NetName=HSB Pin=C15-2
Added Pin To Net: NetName=HSB Pin=IC2-18
Added Pin To Net: NetName=HSB Pin=Q_HI_B-1
Added Pin To Net: NetName=HSB Pin=Q_HI_B-2
Added Pin To Net: NetName=HSB Pin=Q_HI_B-3
Added Pin To Net: NetName=HSB Pin=Q_LO_B-5
Added Pin To Net: NetName=HSB Pin=Q_LO_B-6
Added Pin To Net: NetName=HSB Pin=Q_LO_B-7
Added Pin To Net: NetName=HSB Pin=Q_LO_B-8
Added Net: Name=HSB
Added Pin To Net: NetName=IIN Pin=C14-2
Added Pin To Net: NetName=IIN Pin=IC2-3
Added Pin To Net: NetName=IIN Pin=K3-1
Added Pin To Net: NetName=IIN Pin=R24-2
Added Net: Name=IIN
Added Pin To Net: NetName=IOUT Pin=C5-2
Added Pin To Net: NetName=IOUT Pin=IC2-12
Added Pin To Net: NetName=IOUT Pin=K3-2
Added Pin To Net: NetName=IOUT Pin=R25-2
Added Net: Name=IOUT
Added Pin To Net: NetName=LIA Pin=IC2-6
Added Net: Name=LIA
Added Pin To Net: NetName=LIB Pin=IC2-9
Added Net: Name=LIB
Added Pin To Net: NetName=LOA Pin=IC2-24
Added Pin To Net: NetName=LOA Pin=R32-1
Added Net: Name=LOA
Added Pin To Net: NetName=LOB Pin=IC2-22
Added Pin To Net: NetName=LOB Pin=R33-1
Added Net: Name=LOB
Added Pin To Net: NetName=NetC4_2 Pin=C4-2
Added Pin To Net: NetName=NetC4_2 Pin=IC2-2
Added Pin To Net: NetName=NetC4_2 Pin=R30-2
Added Net: Name=NetC4_2
Added Pin To Net: NetName=NetC6_1 Pin=C6-1
Added Pin To Net: NetName=NetC6_1 Pin=IC2-13
Added Pin To Net: NetName=NetC6_1 Pin=R28-1
Added Net: Name=NetC6_1
Added Pin To Net: NetName=NetD1_1 Pin=D1-1
Added Pin To Net: NetName=NetD1_1 Pin=IC2-10
Added Net: Name=NetD1_1
Added Pin To Net: NetName=NetD1_2 Pin=D1-2
Added Pin To Net: NetName=NetD1_2 Pin=R42-2
Added Net: Name=NetD1_2
Added Pin To Net: NetName=NetD2_1 Pin=D2-1
Added Pin To Net: NetName=NetD2_1 Pin=IC2-15
Added Net: Name=NetD2_1
Added Pin To Net: NetName=NetD2_2 Pin=D2-2
Added Pin To Net: NetName=NetD2_2 Pin=R43-1
Added Net: Name=NetD2_2
Added Pin To Net: NetName=NetD3_2 Pin=D3-2
Added Pin To Net: NetName=NetD3_2 Pin=R44-1
Added Net: Name=NetD3_2
Added Pin To Net: NetName=NetD4_2 Pin=D4-2
Added Pin To Net: NetName=NetD4_2 Pin=R45-1
Added Net: Name=NetD4_2
Added Pin To Net: NetName=NetIC1_1 Pin=R2-2
Added Net: Name=NetIC1_1
Added Pin To Net: NetName=NetIC1_5 Pin=R3-2
Added Net: Name=NetIC1_5
Added Pin To Net: NetName=NetIC1_6 Pin=R4-2
Added Net: Name=NetIC1_6
Added Pin To Net: NetName=NetIC1_7 Pin=R5-2
Added Net: Name=NetIC1_7
Added Pin To Net: NetName=NetIC1_14 Pin=RB1-2
Added Pin To Net: NetName=NetIC1_14 Pin=RT1-2
Added Net: Name=NetIC1_14
Added Pin To Net: NetName=NetIC1_18 Pin=RB3-2
Added Pin To Net: NetName=NetIC1_18 Pin=RT3-1
Added Net: Name=NetIC1_18
Added Pin To Net: NetName=NetIC1_20 Pin=RB4-1
Added Pin To Net: NetName=NetIC1_20 Pin=RT4-1
Added Net: Name=NetIC1_20
Added Pin To Net: NetName=NetIC1_22 Pin=R19-2
Added Net: Name=NetIC1_22
Added Pin To Net: NetName=NetIC1_23 Pin=R18-2
Added Net: Name=NetIC1_23
Added Pin To Net: NetName=NetIC1_28 Pin=R17-2
Added Net: Name=NetIC1_28
Added Pin To Net: NetName=NetIC2_1 Pin=IC2-1
Added Pin To Net: NetName=NetIC2_1 Pin=R23-2
Added Net: Name=NetIC2_1
Added Pin To Net: NetName=NetIC2_14 Pin=IC2-14
Added Pin To Net: NetName=NetIC2_14 Pin=R?-1
Added Net: Name=NetIC2_14
Added Pin To Net: NetName=NetIC2_27 Pin=IC2-27
Added Pin To Net: NetName=NetIC2_27 Pin=R31-1
Added Net: Name=NetIC2_27
Added Pin To Net: NetName=NetIC3_1 Pin=R1-2
Added Net: Name=NetIC3_1
Added Pin To Net: NetName=NetIC3_6 Pin=R15-1
Added Net: Name=NetIC3_6
Added Pin To Net: NetName=NetIC4_1 Pin=R14-2
Added Net: Name=NetIC4_1
Added Pin To Net: NetName=NetQ_HI_A_4 Pin=Q_HI_A-4
Added Pin To Net: NetName=NetQ_HI_A_4 Pin=R31-2
Added Net: Name=NetQ_HI_A_4
Added Pin To Net: NetName=NetQ_HI_B_4 Pin=Q_HI_B-4
Added Pin To Net: NetName=NetQ_HI_B_4 Pin=R36-2
Added Net: Name=NetQ_HI_B_4
Added Pin To Net: NetName=NetQ_LO_A_4 Pin=Q_LO_A-4
Added Pin To Net: NetName=NetQ_LO_A_4 Pin=R32-2
Added Net: Name=NetQ_LO_A_4
Added Pin To Net: NetName=NetQ_LO_B_4 Pin=Q_LO_B-4
Added Pin To Net: NetName=NetQ_LO_B_4 Pin=R33-2
Added Net: Name=NetQ_LO_B_4
Added Pin To Net: NetName=NetR14_1 Pin=R14-1
Added Pin To Net: NetName=NetR14_1 Pin=RK3-4
Added Net: Name=NetR14_1
Added Pin To Net: NetName=NetR22_2 Pin=R22-2
Added Pin To Net: NetName=NetR22_2 Pin=RK3-1
Added Net: Name=NetR22_2
Added Pin To Net: NetName=OVS Pin=IC2-16
Added Pin To Net: NetName=OVS Pin=R34-2
Added Pin To Net: NetName=OVS Pin=R35-1
Added Net: Name=OVS
Added Pin To Net: NetName=PV_NET1 Pin=R30-1
Added Pin To Net: NetName=PV_NET1 Pin=RK1-2
Added Pin To Net: NetName=PV_NET1 Pin=RK2-3
Added Pin To Net: NetName=PV_NET1 Pin=RK2-4
Added Net: Name=PV_NET1
Added Pin To Net: NetName=SCL Pin=K1-1
Added Pin To Net: NetName=SCL Pin=R41-2
Added Net: Name=SCL
Added Pin To Net: NetName=SDA Pin=K1-2
Added Pin To Net: NetName=SDA Pin=R40-2
Added Net: Name=SDA
Added Pin To Net: NetName=SIA+ Pin=C4-1
Added Pin To Net: NetName=SIA+ Pin=D3-1
Added Pin To Net: NetName=SIA+ Pin=R12-2
Added Pin To Net: NetName=SIA+ Pin=R23-1
Added Pin To Net: NetName=SIA+ Pin=RK2-2
Added Net: Name=SIA+
Added Pin To Net: NetName=SIB+ Pin=C6-2
Added Pin To Net: NetName=SIB+ Pin=R?-2
Added Pin To Net: NetName=SIB+ Pin=RK4-2
Added Net: Name=SIB+
Added Pin To Net: NetName=SOB+ Pin=R28-2
Added Pin To Net: NetName=SOB+ Pin=RK3-2
Added Pin To Net: NetName=SOB+ Pin=RK4-4
Added Net: Name=SOB+
Added Pin To Net: NetName=V0 Pin=C7-1
Added Pin To Net: NetName=V0 Pin=C8-1
Added Pin To Net: NetName=V0 Pin=C10-1
Added Pin To Net: NetName=V0 Pin=C20-2
Added Pin To Net: NetName=V0 Pin=C45-2
Added Pin To Net: NetName=V0 Pin=C46-2
Added Pin To Net: NetName=V0 Pin=D4-1
Added Pin To Net: NetName=V0 Pin=IC2-21
Added Pin To Net: NetName=V0 Pin=IC2-25
Added Pin To Net: NetName=V0 Pin=RK3-3
Added Net: Name=V0
Added Pin To Net: NetName=VCC Pin=C1-1
Added Pin To Net: NetName=VCC Pin=C2-1
Added Pin To Net: NetName=VCC Pin=C3-1
Added Pin To Net: NetName=VCC Pin=C21-1
Added Pin To Net: NetName=VCC Pin=C22-1
Added Pin To Net: NetName=VCC Pin=C23-1
Added Pin To Net: NetName=VCC Pin=C24-1
Added Pin To Net: NetName=VCC Pin=IC2-17
Added Pin To Net: NetName=VCC Pin=K4-1
Added Pin To Net: NetName=VCC Pin=R2-1
Added Pin To Net: NetName=VCC Pin=R3-1
Added Pin To Net: NetName=VCC Pin=R4-1
Added Pin To Net: NetName=VCC Pin=R17-1
Added Pin To Net: NetName=VCC Pin=R18-1
Added Pin To Net: NetName=VCC Pin=R40-1
Added Pin To Net: NetName=VCC Pin=R41-1
Added Pin To Net: NetName=VCC Pin=RT1-1
Added Pin To Net: NetName=VCC Pin=RT3-2
Added Pin To Net: NetName=VCC Pin=RT4-2
Added Net: Name=VCC
Added Pin To Net: NetName=VIN Pin=C12-1
Added Pin To Net: NetName=VIN Pin=C13-1
Added Pin To Net: NetName=VIN Pin=C43-2
Added Pin To Net: NetName=VIN Pin=C44-2
Added Pin To Net: NetName=VIN Pin=Q_HI_A-5
Added Pin To Net: NetName=VIN Pin=Q_HI_A-6
Added Pin To Net: NetName=VIN Pin=Q_HI_A-7
Added Pin To Net: NetName=VIN Pin=Q_HI_A-8
Added Pin To Net: NetName=VIN Pin=RK1-3
Added Net: Name=VIN
Added Pin To Net: NetName=VMOS Pin=C9-1
Added Pin To Net: NetName=VMOS Pin=Q_HI_B-5
Added Pin To Net: NetName=VMOS Pin=Q_HI_B-6
Added Pin To Net: NetName=VMOS Pin=Q_HI_B-7
Added Pin To Net: NetName=VMOS Pin=Q_HI_B-8
Added Pin To Net: NetName=VMOS Pin=R34-1
Added Pin To Net: NetName=VMOS Pin=RK4-1
Added Net: Name=VMOS
Added Pin To Net: NetName=VO Pin=RFT1-2
Added Net: Name=VO
Added Class: Name=MPPT_V1SCHEM
Added Room: Name=MPPT_V1SCHEM
