%TF.GenerationSoftware,KiCad,Pcbnew,(5.0.0)*%
%TF.CreationDate,2019-03-25T10:18:54+11:00*%
%TF.ProjectId,MainMk1,4D61696E4D6B312E6B696361645F7063,rev?*%
%TF.SameCoordinates,Original*%
%TF.FileFunction,Legend,Bot*%
%TF.FilePolarity,Positive*%
%FSLAX46Y46*%
G04 Gerber Fmt 4.6, Leading zero omitted, Abs format (unit mm)*
G04 Created by KiCad (PCBNEW (5.0.0)) date 03/25/19 10:18:54*
%MOMM*%
%LPD*%
G01*
G04 APERTURE LIST*
%ADD10C,0.150000*%
%ADD11C,0.120000*%
%ADD12C,0.125000*%
G04 APERTURE END LIST*
D10*
X90000000Y0D02*
X90000000Y-12030000D01*
X90000000Y-90000000D02*
X90000000Y-49000000D01*
X85000000Y-17030000D02*
X85000000Y-44000000D01*
X85000000Y-44000000D02*
G75*
G02X90000000Y-49000000I0J-5000000D01*
G01*
X85000000Y-17030000D02*
G75*
G03X90000000Y-12030000I0J5000000D01*
G01*
X0Y-90000000D02*
X0Y0D01*
X90000000Y-90000000D02*
X0Y-90000000D01*
X0Y0D02*
X90000000Y0D01*
D11*
X31254000Y-57695200D02*
X30254000Y-57695200D01*
X30254000Y-55995200D02*
X31254000Y-55995200D01*
D10*
X51865772Y-58947057D02*
X51865772Y-64027057D01*
X51865772Y-64027057D02*
X56945772Y-64027057D01*
X56945772Y-64027057D02*
X56945772Y-58947057D01*
X56945772Y-58947057D02*
X51865772Y-58947057D01*
X75125000Y-67925000D02*
X74325000Y-67125000D01*
X74325000Y-67125000D02*
X71625000Y-67125000D01*
X71625000Y-67125000D02*
X71625000Y-72575000D01*
X71625000Y-72575000D02*
X75125000Y-72575000D01*
X75125000Y-72575000D02*
X75125000Y-67925000D01*
X69377500Y-49100000D02*
X68577500Y-49900000D01*
X68577500Y-49900000D02*
X68577500Y-59100000D01*
X68577500Y-59100000D02*
X74272500Y-59100000D01*
X74272500Y-59100000D02*
X74272500Y-49100000D01*
X74272500Y-49100000D02*
X69377500Y-49100000D01*
X64420000Y-71005000D02*
X64420000Y-66195000D01*
X54980000Y-71005000D02*
X64420000Y-71005000D01*
X54980000Y-65395000D02*
X54980000Y-71005000D01*
X63620000Y-65395000D02*
X54980000Y-65395000D01*
X64420000Y-66195000D02*
X63620000Y-65395000D01*
D11*
X81425000Y-45800000D02*
X81425000Y-46800000D01*
X79725000Y-46800000D02*
X79725000Y-45800000D01*
X76500000Y-41250000D02*
X77500000Y-41250000D01*
X77500000Y-42950000D02*
X76500000Y-42950000D01*
X52335772Y-57237057D02*
X51335772Y-57237057D01*
X51335772Y-55537057D02*
X52335772Y-55537057D01*
X63025000Y-54050000D02*
X63025000Y-53050000D01*
X64725000Y-53050000D02*
X64725000Y-54050000D01*
X73500000Y-74050000D02*
X74500000Y-74050000D01*
X74500000Y-75750000D02*
X73500000Y-75750000D01*
X67900000Y-64625000D02*
X66900000Y-64625000D01*
X66900000Y-62925000D02*
X67900000Y-62925000D01*
X63950000Y-57325000D02*
X64950000Y-57325000D01*
X64950000Y-59025000D02*
X63950000Y-59025000D01*
X76630000Y-46825000D02*
X76630000Y-45625000D01*
X74870000Y-45625000D02*
X74870000Y-46825000D01*
X58925000Y-45480000D02*
X60125000Y-45480000D01*
X60125000Y-43720000D02*
X58925000Y-43720000D01*
X59195000Y-53050000D02*
X59195000Y-54250000D01*
X60955000Y-54250000D02*
X60955000Y-53050000D01*
X65375000Y-48220000D02*
X64175000Y-48220000D01*
X64175000Y-49980000D02*
X65375000Y-49980000D01*
X64200000Y-45480000D02*
X65400000Y-45480000D01*
X65400000Y-43720000D02*
X64200000Y-43720000D01*
D10*
X54700000Y-82625000D02*
X55500000Y-83425000D01*
X55500000Y-83425000D02*
X65800000Y-83425000D01*
X65800000Y-83425000D02*
X65800000Y-72225000D01*
X65800000Y-72225000D02*
X54700000Y-72225000D01*
X54700000Y-72225000D02*
X54700000Y-82625000D01*
X60200000Y-60000000D02*
X59400000Y-60800000D01*
X59400000Y-60800000D02*
X59400000Y-63500000D01*
X59400000Y-63500000D02*
X64850000Y-63500000D01*
X64850000Y-63500000D02*
X64850000Y-60000000D01*
X64850000Y-60000000D02*
X60200000Y-60000000D01*
D11*
X55645000Y-45185000D02*
X45485000Y-45185000D01*
X55645000Y-43915000D02*
X55645000Y-51535000D01*
X55645000Y-51535000D02*
X45485000Y-51535000D01*
X45485000Y-51535000D02*
X45485000Y-43915000D01*
X45485000Y-43915000D02*
X55645000Y-43915000D01*
X14470000Y-72335000D02*
X14370000Y-72435000D01*
X19870000Y-72335000D02*
X14470000Y-72335000D01*
X19970000Y-72435000D02*
X19870000Y-72335000D01*
X19870000Y-77335000D02*
X19970000Y-77235000D01*
X14470000Y-77335000D02*
X19870000Y-77335000D01*
X14370000Y-77235000D02*
X14470000Y-77335000D01*
X13670000Y-77235000D02*
X14370000Y-77235000D01*
X13620000Y-70885000D02*
X14320000Y-70885000D01*
X14320000Y-70885000D02*
X14420000Y-70985000D01*
X14420000Y-70985000D02*
X19820000Y-70985000D01*
X19820000Y-70985000D02*
X19920000Y-70885000D01*
X19920000Y-66085000D02*
X19820000Y-65985000D01*
X19820000Y-65985000D02*
X14420000Y-65985000D01*
X14420000Y-65985000D02*
X14320000Y-66085000D01*
X11470000Y-57310000D02*
X11570000Y-57410000D01*
X11470000Y-51910000D02*
X11470000Y-57310000D01*
X11570000Y-51810000D02*
X11470000Y-51910000D01*
X16470000Y-51910000D02*
X16370000Y-51810000D01*
X16470000Y-57310000D02*
X16470000Y-51910000D01*
X16370000Y-57410000D02*
X16470000Y-57310000D01*
X16370000Y-58110000D02*
X16370000Y-57410000D01*
X30060158Y-72551220D02*
X29543002Y-72551220D01*
X30060158Y-73971220D02*
X29543002Y-73971220D01*
D10*
X36939600Y-63198200D02*
X36939600Y-61198200D01*
X31589600Y-63198200D02*
X36939600Y-63198200D01*
X31589600Y-60398200D02*
X31589600Y-63198200D01*
X36139600Y-60398200D02*
X31589600Y-60398200D01*
X36939600Y-61198200D02*
X36139600Y-60398200D01*
D11*
X36208400Y-70193800D02*
X37208400Y-70193800D01*
X37208400Y-71893800D02*
X36208400Y-71893800D01*
X23254400Y-78677400D02*
X24254400Y-78677400D01*
X24254400Y-80377400D02*
X23254400Y-80377400D01*
X28015780Y-76981420D02*
X27015780Y-76981420D01*
X27015780Y-75281420D02*
X28015780Y-75281420D01*
X33640100Y-72937000D02*
X34640100Y-72937000D01*
X34640100Y-74637000D02*
X33640100Y-74637000D01*
X34617600Y-76999200D02*
X33617600Y-76999200D01*
X33617600Y-75299200D02*
X34617600Y-75299200D01*
X23304440Y-72271520D02*
X24304440Y-72271520D01*
X24304440Y-73971520D02*
X23304440Y-73971520D01*
X27443800Y-63919800D02*
X27443800Y-64919800D01*
X25743800Y-64919800D02*
X25743800Y-63919800D01*
X35562600Y-54496600D02*
X36562600Y-54496600D01*
X36562600Y-56196600D02*
X35562600Y-56196600D01*
X35598480Y-56444780D02*
X36598480Y-56444780D01*
X36598480Y-58144780D02*
X35598480Y-58144780D01*
X38672200Y-74692400D02*
X39872200Y-74692400D01*
X39872200Y-72932400D02*
X38672200Y-72932400D01*
X10989400Y-64944600D02*
X10989400Y-59744600D01*
X7349400Y-59744600D02*
X7349400Y-64944600D01*
X34868400Y-77656800D02*
X33668400Y-77656800D01*
X33668400Y-79416800D02*
X34868400Y-79416800D01*
X11294000Y-78658000D02*
X11294000Y-77458000D01*
X9534000Y-77458000D02*
X9534000Y-78658000D01*
X21338220Y-64867680D02*
X22538220Y-64867680D01*
X22538220Y-63107680D02*
X21338220Y-63107680D01*
X27037500Y-69515880D02*
X28237500Y-69515880D01*
X28237500Y-67755880D02*
X27037500Y-67755880D01*
X18170000Y-54947500D02*
X18170000Y-56147500D01*
X19930000Y-56147500D02*
X19930000Y-54947500D01*
X25654800Y-59140200D02*
X24454800Y-59140200D01*
X24454800Y-60900200D02*
X25654800Y-60900200D01*
X23250000Y-54947500D02*
X23250000Y-56147500D01*
X25010000Y-56147500D02*
X25010000Y-54947500D01*
X31279400Y-51240800D02*
X30079400Y-51240800D01*
X30079400Y-53000800D02*
X31279400Y-53000800D01*
X36718800Y-51545600D02*
X35518800Y-51545600D01*
X35518800Y-53305600D02*
X36718800Y-53305600D01*
X22470000Y-56147500D02*
X22470000Y-54947500D01*
X20710000Y-54947500D02*
X20710000Y-56147500D01*
D12*
X31075428Y-58773771D02*
X31099238Y-58797580D01*
X31170666Y-58821390D01*
X31218285Y-58821390D01*
X31289714Y-58797580D01*
X31337333Y-58749961D01*
X31361142Y-58702342D01*
X31384952Y-58607104D01*
X31384952Y-58535676D01*
X31361142Y-58440438D01*
X31337333Y-58392819D01*
X31289714Y-58345200D01*
X31218285Y-58321390D01*
X31170666Y-58321390D01*
X31099238Y-58345200D01*
X31075428Y-58369009D01*
X30623047Y-58321390D02*
X30861142Y-58321390D01*
X30884952Y-58559485D01*
X30861142Y-58535676D01*
X30813523Y-58511866D01*
X30694476Y-58511866D01*
X30646857Y-58535676D01*
X30623047Y-58559485D01*
X30599238Y-58607104D01*
X30599238Y-58726152D01*
X30623047Y-58773771D01*
X30646857Y-58797580D01*
X30694476Y-58821390D01*
X30813523Y-58821390D01*
X30861142Y-58797580D01*
X30884952Y-58773771D01*
X30289714Y-58321390D02*
X30242095Y-58321390D01*
X30194476Y-58345200D01*
X30170666Y-58369009D01*
X30146857Y-58416628D01*
X30123047Y-58511866D01*
X30123047Y-58630914D01*
X30146857Y-58726152D01*
X30170666Y-58773771D01*
X30194476Y-58797580D01*
X30242095Y-58821390D01*
X30289714Y-58821390D01*
X30337333Y-58797580D01*
X30361142Y-58773771D01*
X30384952Y-58726152D01*
X30408761Y-58630914D01*
X30408761Y-58511866D01*
X30384952Y-58416628D01*
X30361142Y-58369009D01*
X30337333Y-58345200D01*
X30289714Y-58321390D01*
X50869581Y-61439437D02*
X50845772Y-61391818D01*
X50798152Y-61344199D01*
X50726724Y-61272771D01*
X50702914Y-61225152D01*
X50702914Y-61177533D01*
X50821962Y-61201342D02*
X50798152Y-61153723D01*
X50750533Y-61106104D01*
X50655295Y-61082295D01*
X50488629Y-61082295D01*
X50393391Y-61106104D01*
X50345772Y-61153723D01*
X50321962Y-61201342D01*
X50321962Y-61296580D01*
X50345772Y-61344199D01*
X50393391Y-61391818D01*
X50488629Y-61415628D01*
X50655295Y-61415628D01*
X50750533Y-61391818D01*
X50798152Y-61344199D01*
X50821962Y-61296580D01*
X50821962Y-61201342D01*
X50821962Y-61891818D02*
X50821962Y-61606104D01*
X50821962Y-61748961D02*
X50321962Y-61748961D01*
X50393391Y-61701342D01*
X50441010Y-61653723D01*
X50464819Y-61606104D01*
X74839285Y-66351190D02*
X75005952Y-66113095D01*
X75125000Y-66351190D02*
X75125000Y-65851190D01*
X74934523Y-65851190D01*
X74886904Y-65875000D01*
X74863095Y-65898809D01*
X74839285Y-65946428D01*
X74839285Y-66017857D01*
X74863095Y-66065476D01*
X74886904Y-66089285D01*
X74934523Y-66113095D01*
X75125000Y-66113095D01*
X74744047Y-66398809D02*
X74363095Y-66398809D01*
X74267857Y-66327380D02*
X74196428Y-66351190D01*
X74077380Y-66351190D01*
X74029761Y-66327380D01*
X74005952Y-66303571D01*
X73982142Y-66255952D01*
X73982142Y-66208333D01*
X74005952Y-66160714D01*
X74029761Y-66136904D01*
X74077380Y-66113095D01*
X74172619Y-66089285D01*
X74220238Y-66065476D01*
X74244047Y-66041666D01*
X74267857Y-65994047D01*
X74267857Y-65946428D01*
X74244047Y-65898809D01*
X74220238Y-65875000D01*
X74172619Y-65851190D01*
X74053571Y-65851190D01*
X73982142Y-65875000D01*
X73767857Y-66089285D02*
X73601190Y-66089285D01*
X73529761Y-66351190D02*
X73767857Y-66351190D01*
X73767857Y-65851190D01*
X73529761Y-65851190D01*
X73315476Y-66351190D02*
X73315476Y-65851190D01*
X73029761Y-66351190D01*
X73029761Y-65851190D01*
X72815476Y-66327380D02*
X72744047Y-66351190D01*
X72625000Y-66351190D01*
X72577380Y-66327380D01*
X72553571Y-66303571D01*
X72529761Y-66255952D01*
X72529761Y-66208333D01*
X72553571Y-66160714D01*
X72577380Y-66136904D01*
X72625000Y-66113095D01*
X72720238Y-66089285D01*
X72767857Y-66065476D01*
X72791666Y-66041666D01*
X72815476Y-65994047D01*
X72815476Y-65946428D01*
X72791666Y-65898809D01*
X72767857Y-65875000D01*
X72720238Y-65851190D01*
X72601190Y-65851190D01*
X72529761Y-65875000D01*
X72315476Y-66089285D02*
X72148809Y-66089285D01*
X72077380Y-66351190D02*
X72315476Y-66351190D01*
X72315476Y-65851190D01*
X72077380Y-65851190D01*
X71601190Y-66351190D02*
X71886904Y-66351190D01*
X71744047Y-66351190D02*
X71744047Y-65851190D01*
X71791666Y-65922619D01*
X71839285Y-65970238D01*
X71886904Y-65994047D01*
X73473809Y-54380952D02*
X73069047Y-54380952D01*
X73021428Y-54357142D01*
X72997619Y-54333333D01*
X72973809Y-54285714D01*
X72973809Y-54190476D01*
X72997619Y-54142857D01*
X73021428Y-54119047D01*
X73069047Y-54095238D01*
X73473809Y-54095238D01*
X73426190Y-53880952D02*
X73450000Y-53857142D01*
X73473809Y-53809523D01*
X73473809Y-53690476D01*
X73450000Y-53642857D01*
X73426190Y-53619047D01*
X73378571Y-53595238D01*
X73330952Y-53595238D01*
X73259523Y-53619047D01*
X72973809Y-53904761D01*
X72973809Y-53595238D01*
X60080952Y-64121190D02*
X60080952Y-64525952D01*
X60057142Y-64573571D01*
X60033333Y-64597380D01*
X59985714Y-64621190D01*
X59890476Y-64621190D01*
X59842857Y-64597380D01*
X59819047Y-64573571D01*
X59795238Y-64525952D01*
X59795238Y-64121190D01*
X59604761Y-64121190D02*
X59295238Y-64121190D01*
X59461904Y-64311666D01*
X59390476Y-64311666D01*
X59342857Y-64335476D01*
X59319047Y-64359285D01*
X59295238Y-64406904D01*
X59295238Y-64525952D01*
X59319047Y-64573571D01*
X59342857Y-64597380D01*
X59390476Y-64621190D01*
X59533333Y-64621190D01*
X59580952Y-64597380D01*
X59604761Y-64573571D01*
X82503571Y-46216666D02*
X82527380Y-46192857D01*
X82551190Y-46121428D01*
X82551190Y-46073809D01*
X82527380Y-46002380D01*
X82479761Y-45954761D01*
X82432142Y-45930952D01*
X82336904Y-45907142D01*
X82265476Y-45907142D01*
X82170238Y-45930952D01*
X82122619Y-45954761D01*
X82075000Y-46002380D01*
X82051190Y-46073809D01*
X82051190Y-46121428D01*
X82075000Y-46192857D01*
X82098809Y-46216666D01*
X82551190Y-46692857D02*
X82551190Y-46407142D01*
X82551190Y-46550000D02*
X82051190Y-46550000D01*
X82122619Y-46502380D01*
X82170238Y-46454761D01*
X82194047Y-46407142D01*
X77033333Y-41103571D02*
X77057142Y-41127380D01*
X77128571Y-41151190D01*
X77176190Y-41151190D01*
X77247619Y-41127380D01*
X77295238Y-41079761D01*
X77319047Y-41032142D01*
X77342857Y-40936904D01*
X77342857Y-40865476D01*
X77319047Y-40770238D01*
X77295238Y-40722619D01*
X77247619Y-40675000D01*
X77176190Y-40651190D01*
X77128571Y-40651190D01*
X77057142Y-40675000D01*
X77033333Y-40698809D01*
X76842857Y-40698809D02*
X76819047Y-40675000D01*
X76771428Y-40651190D01*
X76652380Y-40651190D01*
X76604761Y-40675000D01*
X76580952Y-40698809D01*
X76557142Y-40746428D01*
X76557142Y-40794047D01*
X76580952Y-40865476D01*
X76866666Y-41151190D01*
X76557142Y-41151190D01*
X51919105Y-54815628D02*
X51942914Y-54839437D01*
X52014343Y-54863247D01*
X52061962Y-54863247D01*
X52133391Y-54839437D01*
X52181010Y-54791818D01*
X52204819Y-54744199D01*
X52228629Y-54648961D01*
X52228629Y-54577533D01*
X52204819Y-54482295D01*
X52181010Y-54434676D01*
X52133391Y-54387057D01*
X52061962Y-54363247D01*
X52014343Y-54363247D01*
X51942914Y-54387057D01*
X51919105Y-54410866D01*
X51752438Y-54363247D02*
X51442914Y-54363247D01*
X51609581Y-54553723D01*
X51538152Y-54553723D01*
X51490533Y-54577533D01*
X51466724Y-54601342D01*
X51442914Y-54648961D01*
X51442914Y-54768009D01*
X51466724Y-54815628D01*
X51490533Y-54839437D01*
X51538152Y-54863247D01*
X51681010Y-54863247D01*
X51728629Y-54839437D01*
X51752438Y-54815628D01*
X65803571Y-53466666D02*
X65827380Y-53442857D01*
X65851190Y-53371428D01*
X65851190Y-53323809D01*
X65827380Y-53252380D01*
X65779761Y-53204761D01*
X65732142Y-53180952D01*
X65636904Y-53157142D01*
X65565476Y-53157142D01*
X65470238Y-53180952D01*
X65422619Y-53204761D01*
X65375000Y-53252380D01*
X65351190Y-53323809D01*
X65351190Y-53371428D01*
X65375000Y-53442857D01*
X65398809Y-53466666D01*
X65517857Y-53895238D02*
X65851190Y-53895238D01*
X65327380Y-53776190D02*
X65684523Y-53657142D01*
X65684523Y-53966666D01*
X74083333Y-76828571D02*
X74107142Y-76852380D01*
X74178571Y-76876190D01*
X74226190Y-76876190D01*
X74297619Y-76852380D01*
X74345238Y-76804761D01*
X74369047Y-76757142D01*
X74392857Y-76661904D01*
X74392857Y-76590476D01*
X74369047Y-76495238D01*
X74345238Y-76447619D01*
X74297619Y-76400000D01*
X74226190Y-76376190D01*
X74178571Y-76376190D01*
X74107142Y-76400000D01*
X74083333Y-76423809D01*
X73630952Y-76376190D02*
X73869047Y-76376190D01*
X73892857Y-76614285D01*
X73869047Y-76590476D01*
X73821428Y-76566666D01*
X73702380Y-76566666D01*
X73654761Y-76590476D01*
X73630952Y-76614285D01*
X73607142Y-76661904D01*
X73607142Y-76780952D01*
X73630952Y-76828571D01*
X73654761Y-76852380D01*
X73702380Y-76876190D01*
X73821428Y-76876190D01*
X73869047Y-76852380D01*
X73892857Y-76828571D01*
X67483333Y-65703571D02*
X67507142Y-65727380D01*
X67578571Y-65751190D01*
X67626190Y-65751190D01*
X67697619Y-65727380D01*
X67745238Y-65679761D01*
X67769047Y-65632142D01*
X67792857Y-65536904D01*
X67792857Y-65465476D01*
X67769047Y-65370238D01*
X67745238Y-65322619D01*
X67697619Y-65275000D01*
X67626190Y-65251190D01*
X67578571Y-65251190D01*
X67507142Y-65275000D01*
X67483333Y-65298809D01*
X67054761Y-65251190D02*
X67150000Y-65251190D01*
X67197619Y-65275000D01*
X67221428Y-65298809D01*
X67269047Y-65370238D01*
X67292857Y-65465476D01*
X67292857Y-65655952D01*
X67269047Y-65703571D01*
X67245238Y-65727380D01*
X67197619Y-65751190D01*
X67102380Y-65751190D01*
X67054761Y-65727380D01*
X67030952Y-65703571D01*
X67007142Y-65655952D01*
X67007142Y-65536904D01*
X67030952Y-65489285D01*
X67054761Y-65465476D01*
X67102380Y-65441666D01*
X67197619Y-65441666D01*
X67245238Y-65465476D01*
X67269047Y-65489285D01*
X67292857Y-65536904D01*
X61828571Y-57136904D02*
X61852380Y-57113095D01*
X61876190Y-57041666D01*
X61876190Y-56994047D01*
X61852380Y-56922619D01*
X61804761Y-56875000D01*
X61757142Y-56851190D01*
X61661904Y-56827380D01*
X61590476Y-56827380D01*
X61495238Y-56851190D01*
X61447619Y-56875000D01*
X61400000Y-56922619D01*
X61376190Y-56994047D01*
X61376190Y-57041666D01*
X61400000Y-57113095D01*
X61423809Y-57136904D01*
X61923809Y-57232142D02*
X61923809Y-57613095D01*
X61828571Y-58017857D02*
X61852380Y-57994047D01*
X61876190Y-57922619D01*
X61876190Y-57875000D01*
X61852380Y-57803571D01*
X61804761Y-57755952D01*
X61757142Y-57732142D01*
X61661904Y-57708333D01*
X61590476Y-57708333D01*
X61495238Y-57732142D01*
X61447619Y-57755952D01*
X61400000Y-57803571D01*
X61376190Y-57875000D01*
X61376190Y-57922619D01*
X61400000Y-57994047D01*
X61423809Y-58017857D01*
X61876190Y-58470238D02*
X61876190Y-58232142D01*
X61376190Y-58232142D01*
X61876190Y-58636904D02*
X61376190Y-58636904D01*
X61876190Y-58922619D01*
X61376190Y-58922619D01*
X61876190Y-59422619D02*
X61876190Y-59136904D01*
X61876190Y-59279761D02*
X61376190Y-59279761D01*
X61447619Y-59232142D01*
X61495238Y-59184523D01*
X61519047Y-59136904D01*
X77676190Y-46141666D02*
X77438095Y-45975000D01*
X77676190Y-45855952D02*
X77176190Y-45855952D01*
X77176190Y-46046428D01*
X77200000Y-46094047D01*
X77223809Y-46117857D01*
X77271428Y-46141666D01*
X77342857Y-46141666D01*
X77390476Y-46117857D01*
X77414285Y-46094047D01*
X77438095Y-46046428D01*
X77438095Y-45855952D01*
X77676190Y-46617857D02*
X77676190Y-46332142D01*
X77676190Y-46475000D02*
X77176190Y-46475000D01*
X77247619Y-46427380D01*
X77295238Y-46379761D01*
X77319047Y-46332142D01*
X59658333Y-43126190D02*
X59825000Y-42888095D01*
X59944047Y-43126190D02*
X59944047Y-42626190D01*
X59753571Y-42626190D01*
X59705952Y-42650000D01*
X59682142Y-42673809D01*
X59658333Y-42721428D01*
X59658333Y-42792857D01*
X59682142Y-42840476D01*
X59705952Y-42864285D01*
X59753571Y-42888095D01*
X59944047Y-42888095D01*
X59467857Y-42673809D02*
X59444047Y-42650000D01*
X59396428Y-42626190D01*
X59277380Y-42626190D01*
X59229761Y-42650000D01*
X59205952Y-42673809D01*
X59182142Y-42721428D01*
X59182142Y-42769047D01*
X59205952Y-42840476D01*
X59491666Y-43126190D01*
X59182142Y-43126190D01*
X58601190Y-53566666D02*
X58363095Y-53400000D01*
X58601190Y-53280952D02*
X58101190Y-53280952D01*
X58101190Y-53471428D01*
X58125000Y-53519047D01*
X58148809Y-53542857D01*
X58196428Y-53566666D01*
X58267857Y-53566666D01*
X58315476Y-53542857D01*
X58339285Y-53519047D01*
X58363095Y-53471428D01*
X58363095Y-53280952D01*
X58101190Y-53733333D02*
X58101190Y-54042857D01*
X58291666Y-53876190D01*
X58291666Y-53947619D01*
X58315476Y-53995238D01*
X58339285Y-54019047D01*
X58386904Y-54042857D01*
X58505952Y-54042857D01*
X58553571Y-54019047D01*
X58577380Y-53995238D01*
X58601190Y-53947619D01*
X58601190Y-53804761D01*
X58577380Y-53757142D01*
X58553571Y-53733333D01*
X65751190Y-51026190D02*
X65917857Y-50788095D01*
X66036904Y-51026190D02*
X66036904Y-50526190D01*
X65846428Y-50526190D01*
X65798809Y-50550000D01*
X65775000Y-50573809D01*
X65751190Y-50621428D01*
X65751190Y-50692857D01*
X65775000Y-50740476D01*
X65798809Y-50764285D01*
X65846428Y-50788095D01*
X66036904Y-50788095D01*
X65655952Y-51073809D02*
X65275000Y-51073809D01*
X65155952Y-51026190D02*
X65155952Y-50526190D01*
X64870238Y-51026190D01*
X64870238Y-50526190D01*
X64703571Y-50526190D02*
X64417857Y-50526190D01*
X64560714Y-51026190D02*
X64560714Y-50526190D01*
X63965476Y-50978571D02*
X63989285Y-51002380D01*
X64060714Y-51026190D01*
X64108333Y-51026190D01*
X64179761Y-51002380D01*
X64227380Y-50954761D01*
X64251190Y-50907142D01*
X64275000Y-50811904D01*
X64275000Y-50740476D01*
X64251190Y-50645238D01*
X64227380Y-50597619D01*
X64179761Y-50550000D01*
X64108333Y-50526190D01*
X64060714Y-50526190D01*
X63989285Y-50550000D01*
X63965476Y-50573809D01*
X63489285Y-51026190D02*
X63775000Y-51026190D01*
X63632142Y-51026190D02*
X63632142Y-50526190D01*
X63679761Y-50597619D01*
X63727380Y-50645238D01*
X63775000Y-50669047D01*
X65514285Y-43126190D02*
X65680952Y-42888095D01*
X65800000Y-43126190D02*
X65800000Y-42626190D01*
X65609523Y-42626190D01*
X65561904Y-42650000D01*
X65538095Y-42673809D01*
X65514285Y-42721428D01*
X65514285Y-42792857D01*
X65538095Y-42840476D01*
X65561904Y-42864285D01*
X65609523Y-42888095D01*
X65800000Y-42888095D01*
X65419047Y-43173809D02*
X65038095Y-43173809D01*
X64633333Y-43126190D02*
X64800000Y-42888095D01*
X64919047Y-43126190D02*
X64919047Y-42626190D01*
X64728571Y-42626190D01*
X64680952Y-42650000D01*
X64657142Y-42673809D01*
X64633333Y-42721428D01*
X64633333Y-42792857D01*
X64657142Y-42840476D01*
X64680952Y-42864285D01*
X64728571Y-42888095D01*
X64919047Y-42888095D01*
X64490476Y-42626190D02*
X64204761Y-42626190D01*
X64347619Y-43126190D02*
X64347619Y-42626190D01*
X63776190Y-43126190D02*
X64061904Y-43126190D01*
X63919047Y-43126190D02*
X63919047Y-42626190D01*
X63966666Y-42697619D01*
X64014285Y-42745238D01*
X64061904Y-42769047D01*
X60333333Y-84651190D02*
X60571428Y-84651190D01*
X60571428Y-84151190D01*
X59904761Y-84651190D02*
X60190476Y-84651190D01*
X60047619Y-84651190D02*
X60047619Y-84151190D01*
X60095238Y-84222619D01*
X60142857Y-84270238D01*
X60190476Y-84294047D01*
X58173809Y-62476190D02*
X58411904Y-62642857D01*
X58173809Y-62761904D02*
X58673809Y-62761904D01*
X58673809Y-62571428D01*
X58650000Y-62523809D01*
X58626190Y-62500000D01*
X58578571Y-62476190D01*
X58507142Y-62476190D01*
X58459523Y-62500000D01*
X58435714Y-62523809D01*
X58411904Y-62571428D01*
X58411904Y-62761904D01*
X58126190Y-62380952D02*
X58126190Y-62000000D01*
X58221428Y-61595238D02*
X58197619Y-61619047D01*
X58173809Y-61690476D01*
X58173809Y-61738095D01*
X58197619Y-61809523D01*
X58245238Y-61857142D01*
X58292857Y-61880952D01*
X58388095Y-61904761D01*
X58459523Y-61904761D01*
X58554761Y-61880952D01*
X58602380Y-61857142D01*
X58650000Y-61809523D01*
X58673809Y-61738095D01*
X58673809Y-61690476D01*
X58650000Y-61619047D01*
X58626190Y-61595238D01*
X58173809Y-61142857D02*
X58173809Y-61380952D01*
X58673809Y-61380952D01*
X58173809Y-60714285D02*
X58173809Y-61000000D01*
X58173809Y-60857142D02*
X58673809Y-60857142D01*
X58602380Y-60904761D01*
X58554761Y-60952380D01*
X58530952Y-61000000D01*
X71056428Y-30839690D02*
X71056428Y-30339690D01*
X70770714Y-30839690D01*
X70770714Y-30339690D01*
X70604047Y-30339690D02*
X70318333Y-30339690D01*
X70461190Y-30839690D02*
X70461190Y-30339690D01*
X70175476Y-30387309D02*
X70151666Y-30363500D01*
X70104047Y-30339690D01*
X69985000Y-30339690D01*
X69937380Y-30363500D01*
X69913571Y-30387309D01*
X69889761Y-30434928D01*
X69889761Y-30482547D01*
X69913571Y-30553976D01*
X70199285Y-30839690D01*
X69889761Y-30839690D01*
X48375866Y-50475390D02*
X48375866Y-50832533D01*
X48399676Y-50903961D01*
X48447295Y-50951580D01*
X48518723Y-50975390D01*
X48566342Y-50975390D01*
X47875866Y-50975390D02*
X48161580Y-50975390D01*
X48018723Y-50975390D02*
X48018723Y-50475390D01*
X48066342Y-50546819D01*
X48113961Y-50594438D01*
X48161580Y-50618247D01*
X17217619Y-78608809D02*
X17265238Y-78585000D01*
X17312857Y-78537380D01*
X17384285Y-78465952D01*
X17431904Y-78442142D01*
X17479523Y-78442142D01*
X17455714Y-78561190D02*
X17503333Y-78537380D01*
X17550952Y-78489761D01*
X17574761Y-78394523D01*
X17574761Y-78227857D01*
X17550952Y-78132619D01*
X17503333Y-78085000D01*
X17455714Y-78061190D01*
X17360476Y-78061190D01*
X17312857Y-78085000D01*
X17265238Y-78132619D01*
X17241428Y-78227857D01*
X17241428Y-78394523D01*
X17265238Y-78489761D01*
X17312857Y-78537380D01*
X17360476Y-78561190D01*
X17455714Y-78561190D01*
X17050952Y-78108809D02*
X17027142Y-78085000D01*
X16979523Y-78061190D01*
X16860476Y-78061190D01*
X16812857Y-78085000D01*
X16789047Y-78108809D01*
X16765238Y-78156428D01*
X16765238Y-78204047D01*
X16789047Y-78275476D01*
X17074761Y-78561190D01*
X16765238Y-78561190D01*
X17187539Y-70883269D02*
X17235158Y-70859460D01*
X17282777Y-70811840D01*
X17354205Y-70740412D01*
X17401824Y-70716602D01*
X17449443Y-70716602D01*
X17425634Y-70835650D02*
X17473253Y-70811840D01*
X17520872Y-70764221D01*
X17544681Y-70668983D01*
X17544681Y-70502317D01*
X17520872Y-70407079D01*
X17473253Y-70359460D01*
X17425634Y-70335650D01*
X17330396Y-70335650D01*
X17282777Y-70359460D01*
X17235158Y-70407079D01*
X17211348Y-70502317D01*
X17211348Y-70668983D01*
X17235158Y-70764221D01*
X17282777Y-70811840D01*
X17330396Y-70835650D01*
X17425634Y-70835650D01*
X17044681Y-70335650D02*
X16735158Y-70335650D01*
X16901824Y-70526126D01*
X16830396Y-70526126D01*
X16782777Y-70549936D01*
X16758967Y-70573745D01*
X16735158Y-70621364D01*
X16735158Y-70740412D01*
X16758967Y-70788031D01*
X16782777Y-70811840D01*
X16830396Y-70835650D01*
X16973253Y-70835650D01*
X17020872Y-70811840D01*
X17044681Y-70788031D01*
X14017619Y-59963809D02*
X14065238Y-59940000D01*
X14112857Y-59892380D01*
X14184285Y-59820952D01*
X14231904Y-59797142D01*
X14279523Y-59797142D01*
X14255714Y-59916190D02*
X14303333Y-59892380D01*
X14350952Y-59844761D01*
X14374761Y-59749523D01*
X14374761Y-59582857D01*
X14350952Y-59487619D01*
X14303333Y-59440000D01*
X14255714Y-59416190D01*
X14160476Y-59416190D01*
X14112857Y-59440000D01*
X14065238Y-59487619D01*
X14041428Y-59582857D01*
X14041428Y-59749523D01*
X14065238Y-59844761D01*
X14112857Y-59892380D01*
X14160476Y-59916190D01*
X14255714Y-59916190D01*
X13612857Y-59582857D02*
X13612857Y-59916190D01*
X13731904Y-59392380D02*
X13850952Y-59749523D01*
X13541428Y-59749523D01*
X29994349Y-72123430D02*
X30161016Y-71885335D01*
X30280063Y-72123430D02*
X30280063Y-71623430D01*
X30089587Y-71623430D01*
X30041968Y-71647240D01*
X30018159Y-71671049D01*
X29994349Y-71718668D01*
X29994349Y-71790097D01*
X30018159Y-71837716D01*
X30041968Y-71861525D01*
X30089587Y-71885335D01*
X30280063Y-71885335D01*
X29851492Y-71623430D02*
X29565778Y-71623430D01*
X29708635Y-72123430D02*
X29708635Y-71623430D01*
X29137206Y-72123430D02*
X29422920Y-72123430D01*
X29280063Y-72123430D02*
X29280063Y-71623430D01*
X29327682Y-71694859D01*
X29375301Y-71742478D01*
X29422920Y-71766287D01*
X35280552Y-63861190D02*
X35280552Y-64265952D01*
X35256742Y-64313571D01*
X35232933Y-64337380D01*
X35185314Y-64361190D01*
X35090076Y-64361190D01*
X35042457Y-64337380D01*
X35018647Y-64313571D01*
X34994838Y-64265952D01*
X34994838Y-63861190D01*
X34542457Y-63861190D02*
X34637695Y-63861190D01*
X34685314Y-63885000D01*
X34709123Y-63908809D01*
X34756742Y-63980238D01*
X34780552Y-64075476D01*
X34780552Y-64265952D01*
X34756742Y-64313571D01*
X34732933Y-64337380D01*
X34685314Y-64361190D01*
X34590076Y-64361190D01*
X34542457Y-64337380D01*
X34518647Y-64313571D01*
X34494838Y-64265952D01*
X34494838Y-64146904D01*
X34518647Y-64099285D01*
X34542457Y-64075476D01*
X34590076Y-64051666D01*
X34685314Y-64051666D01*
X34732933Y-64075476D01*
X34756742Y-64099285D01*
X34780552Y-64146904D01*
X37029828Y-72972371D02*
X37053638Y-72996180D01*
X37125066Y-73019990D01*
X37172685Y-73019990D01*
X37244114Y-72996180D01*
X37291733Y-72948561D01*
X37315542Y-72900942D01*
X37339352Y-72805704D01*
X37339352Y-72734276D01*
X37315542Y-72639038D01*
X37291733Y-72591419D01*
X37244114Y-72543800D01*
X37172685Y-72519990D01*
X37125066Y-72519990D01*
X37053638Y-72543800D01*
X37029828Y-72567609D01*
X36601257Y-72686657D02*
X36601257Y-73019990D01*
X36720304Y-72496180D02*
X36839352Y-72853323D01*
X36529828Y-72853323D01*
X36386971Y-72519990D02*
X36077447Y-72519990D01*
X36244114Y-72710466D01*
X36172685Y-72710466D01*
X36125066Y-72734276D01*
X36101257Y-72758085D01*
X36077447Y-72805704D01*
X36077447Y-72924752D01*
X36101257Y-72972371D01*
X36125066Y-72996180D01*
X36172685Y-73019990D01*
X36315542Y-73019990D01*
X36363161Y-72996180D01*
X36386971Y-72972371D01*
X24075828Y-81455971D02*
X24099638Y-81479780D01*
X24171066Y-81503590D01*
X24218685Y-81503590D01*
X24290114Y-81479780D01*
X24337733Y-81432161D01*
X24361542Y-81384542D01*
X24385352Y-81289304D01*
X24385352Y-81217876D01*
X24361542Y-81122638D01*
X24337733Y-81075019D01*
X24290114Y-81027400D01*
X24218685Y-81003590D01*
X24171066Y-81003590D01*
X24099638Y-81027400D01*
X24075828Y-81051209D01*
X23647257Y-81170257D02*
X23647257Y-81503590D01*
X23766304Y-80979780D02*
X23885352Y-81336923D01*
X23575828Y-81336923D01*
X23171066Y-81170257D02*
X23171066Y-81503590D01*
X23290114Y-80979780D02*
X23409161Y-81336923D01*
X23099638Y-81336923D01*
X27837208Y-78059991D02*
X27861018Y-78083800D01*
X27932446Y-78107610D01*
X27980065Y-78107610D01*
X28051494Y-78083800D01*
X28099113Y-78036181D01*
X28122922Y-77988562D01*
X28146732Y-77893324D01*
X28146732Y-77821896D01*
X28122922Y-77726658D01*
X28099113Y-77679039D01*
X28051494Y-77631420D01*
X27980065Y-77607610D01*
X27932446Y-77607610D01*
X27861018Y-77631420D01*
X27837208Y-77655229D01*
X27408637Y-77774277D02*
X27408637Y-78107610D01*
X27527684Y-77583800D02*
X27646732Y-77940943D01*
X27337208Y-77940943D01*
X26908637Y-77607610D02*
X27146732Y-77607610D01*
X27170541Y-77845705D01*
X27146732Y-77821896D01*
X27099113Y-77798086D01*
X26980065Y-77798086D01*
X26932446Y-77821896D01*
X26908637Y-77845705D01*
X26884827Y-77893324D01*
X26884827Y-78012372D01*
X26908637Y-78059991D01*
X26932446Y-78083800D01*
X26980065Y-78107610D01*
X27099113Y-78107610D01*
X27146732Y-78083800D01*
X27170541Y-78059991D01*
X34461528Y-75715571D02*
X34485338Y-75739380D01*
X34556766Y-75763190D01*
X34604385Y-75763190D01*
X34675814Y-75739380D01*
X34723433Y-75691761D01*
X34747242Y-75644142D01*
X34771052Y-75548904D01*
X34771052Y-75477476D01*
X34747242Y-75382238D01*
X34723433Y-75334619D01*
X34675814Y-75287000D01*
X34604385Y-75263190D01*
X34556766Y-75263190D01*
X34485338Y-75287000D01*
X34461528Y-75310809D01*
X34032957Y-75429857D02*
X34032957Y-75763190D01*
X34152004Y-75239380D02*
X34271052Y-75596523D01*
X33961528Y-75596523D01*
X33556766Y-75263190D02*
X33652004Y-75263190D01*
X33699623Y-75287000D01*
X33723433Y-75310809D01*
X33771052Y-75382238D01*
X33794861Y-75477476D01*
X33794861Y-75667952D01*
X33771052Y-75715571D01*
X33747242Y-75739380D01*
X33699623Y-75763190D01*
X33604385Y-75763190D01*
X33556766Y-75739380D01*
X33532957Y-75715571D01*
X33509147Y-75667952D01*
X33509147Y-75548904D01*
X33532957Y-75501285D01*
X33556766Y-75477476D01*
X33604385Y-75453666D01*
X33699623Y-75453666D01*
X33747242Y-75477476D01*
X33771052Y-75501285D01*
X33794861Y-75548904D01*
X34439028Y-78077771D02*
X34462838Y-78101580D01*
X34534266Y-78125390D01*
X34581885Y-78125390D01*
X34653314Y-78101580D01*
X34700933Y-78053961D01*
X34724742Y-78006342D01*
X34748552Y-77911104D01*
X34748552Y-77839676D01*
X34724742Y-77744438D01*
X34700933Y-77696819D01*
X34653314Y-77649200D01*
X34581885Y-77625390D01*
X34534266Y-77625390D01*
X34462838Y-77649200D01*
X34439028Y-77673009D01*
X34010457Y-77792057D02*
X34010457Y-78125390D01*
X34129504Y-77601580D02*
X34248552Y-77958723D01*
X33939028Y-77958723D01*
X33796171Y-77625390D02*
X33462838Y-77625390D01*
X33677123Y-78125390D01*
X24125868Y-75050091D02*
X24149678Y-75073900D01*
X24221106Y-75097710D01*
X24268725Y-75097710D01*
X24340154Y-75073900D01*
X24387773Y-75026281D01*
X24411582Y-74978662D01*
X24435392Y-74883424D01*
X24435392Y-74811996D01*
X24411582Y-74716758D01*
X24387773Y-74669139D01*
X24340154Y-74621520D01*
X24268725Y-74597710D01*
X24221106Y-74597710D01*
X24149678Y-74621520D01*
X24125868Y-74645329D01*
X23697297Y-74764377D02*
X23697297Y-75097710D01*
X23816344Y-74573900D02*
X23935392Y-74931043D01*
X23625868Y-74931043D01*
X23363963Y-74811996D02*
X23411582Y-74788186D01*
X23435392Y-74764377D01*
X23459201Y-74716758D01*
X23459201Y-74692948D01*
X23435392Y-74645329D01*
X23411582Y-74621520D01*
X23363963Y-74597710D01*
X23268725Y-74597710D01*
X23221106Y-74621520D01*
X23197297Y-74645329D01*
X23173487Y-74692948D01*
X23173487Y-74716758D01*
X23197297Y-74764377D01*
X23221106Y-74788186D01*
X23268725Y-74811996D01*
X23363963Y-74811996D01*
X23411582Y-74835805D01*
X23435392Y-74859615D01*
X23459201Y-74907234D01*
X23459201Y-75002472D01*
X23435392Y-75050091D01*
X23411582Y-75073900D01*
X23363963Y-75097710D01*
X23268725Y-75097710D01*
X23221106Y-75073900D01*
X23197297Y-75050091D01*
X23173487Y-75002472D01*
X23173487Y-74907234D01*
X23197297Y-74859615D01*
X23221106Y-74835805D01*
X23268725Y-74811996D01*
X28522371Y-64098371D02*
X28546180Y-64074561D01*
X28569990Y-64003133D01*
X28569990Y-63955514D01*
X28546180Y-63884085D01*
X28498561Y-63836466D01*
X28450942Y-63812657D01*
X28355704Y-63788847D01*
X28284276Y-63788847D01*
X28189038Y-63812657D01*
X28141419Y-63836466D01*
X28093800Y-63884085D01*
X28069990Y-63955514D01*
X28069990Y-64003133D01*
X28093800Y-64074561D01*
X28117609Y-64098371D01*
X28236657Y-64526942D02*
X28569990Y-64526942D01*
X28046180Y-64407895D02*
X28403323Y-64288847D01*
X28403323Y-64598371D01*
X28569990Y-64812657D02*
X28569990Y-64907895D01*
X28546180Y-64955514D01*
X28522371Y-64979323D01*
X28450942Y-65026942D01*
X28355704Y-65050752D01*
X28165228Y-65050752D01*
X28117609Y-65026942D01*
X28093800Y-65003133D01*
X28069990Y-64955514D01*
X28069990Y-64860276D01*
X28093800Y-64812657D01*
X28117609Y-64788847D01*
X28165228Y-64765038D01*
X28284276Y-64765038D01*
X28331895Y-64788847D01*
X28355704Y-64812657D01*
X28379514Y-64860276D01*
X28379514Y-64955514D01*
X28355704Y-65003133D01*
X28331895Y-65026942D01*
X28284276Y-65050752D01*
X36384028Y-53775171D02*
X36407838Y-53798980D01*
X36479266Y-53822790D01*
X36526885Y-53822790D01*
X36598314Y-53798980D01*
X36645933Y-53751361D01*
X36669742Y-53703742D01*
X36693552Y-53608504D01*
X36693552Y-53537076D01*
X36669742Y-53441838D01*
X36645933Y-53394219D01*
X36598314Y-53346600D01*
X36526885Y-53322790D01*
X36479266Y-53322790D01*
X36407838Y-53346600D01*
X36384028Y-53370409D01*
X35931647Y-53322790D02*
X36169742Y-53322790D01*
X36193552Y-53560885D01*
X36169742Y-53537076D01*
X36122123Y-53513266D01*
X36003076Y-53513266D01*
X35955457Y-53537076D01*
X35931647Y-53560885D01*
X35907838Y-53608504D01*
X35907838Y-53727552D01*
X35931647Y-53775171D01*
X35955457Y-53798980D01*
X36003076Y-53822790D01*
X36122123Y-53822790D01*
X36169742Y-53798980D01*
X36193552Y-53775171D01*
X35431647Y-53822790D02*
X35717361Y-53822790D01*
X35574504Y-53822790D02*
X35574504Y-53322790D01*
X35622123Y-53394219D01*
X35669742Y-53441838D01*
X35717361Y-53465647D01*
X36419908Y-59223351D02*
X36443718Y-59247160D01*
X36515146Y-59270970D01*
X36562765Y-59270970D01*
X36634194Y-59247160D01*
X36681813Y-59199541D01*
X36705622Y-59151922D01*
X36729432Y-59056684D01*
X36729432Y-58985256D01*
X36705622Y-58890018D01*
X36681813Y-58842399D01*
X36634194Y-58794780D01*
X36562765Y-58770970D01*
X36515146Y-58770970D01*
X36443718Y-58794780D01*
X36419908Y-58818589D01*
X35967527Y-58770970D02*
X36205622Y-58770970D01*
X36229432Y-59009065D01*
X36205622Y-58985256D01*
X36158003Y-58961446D01*
X36038956Y-58961446D01*
X35991337Y-58985256D01*
X35967527Y-59009065D01*
X35943718Y-59056684D01*
X35943718Y-59175732D01*
X35967527Y-59223351D01*
X35991337Y-59247160D01*
X36038956Y-59270970D01*
X36158003Y-59270970D01*
X36205622Y-59247160D01*
X36229432Y-59223351D01*
X35753241Y-58818589D02*
X35729432Y-58794780D01*
X35681813Y-58770970D01*
X35562765Y-58770970D01*
X35515146Y-58794780D01*
X35491337Y-58818589D01*
X35467527Y-58866208D01*
X35467527Y-58913827D01*
X35491337Y-58985256D01*
X35777051Y-59270970D01*
X35467527Y-59270970D01*
X39593628Y-75738590D02*
X39760295Y-75500495D01*
X39879342Y-75738590D02*
X39879342Y-75238590D01*
X39688866Y-75238590D01*
X39641247Y-75262400D01*
X39617438Y-75286209D01*
X39593628Y-75333828D01*
X39593628Y-75405257D01*
X39617438Y-75452876D01*
X39641247Y-75476685D01*
X39688866Y-75500495D01*
X39879342Y-75500495D01*
X39117438Y-75738590D02*
X39403152Y-75738590D01*
X39260295Y-75738590D02*
X39260295Y-75238590D01*
X39307914Y-75310019D01*
X39355533Y-75357638D01*
X39403152Y-75381447D01*
X38879342Y-75738590D02*
X38784104Y-75738590D01*
X38736485Y-75714780D01*
X38712676Y-75690971D01*
X38665057Y-75619542D01*
X38641247Y-75524304D01*
X38641247Y-75333828D01*
X38665057Y-75286209D01*
X38688866Y-75262400D01*
X38736485Y-75238590D01*
X38831723Y-75238590D01*
X38879342Y-75262400D01*
X38903152Y-75286209D01*
X38926961Y-75333828D01*
X38926961Y-75452876D01*
X38903152Y-75500495D01*
X38879342Y-75524304D01*
X38831723Y-75548114D01*
X38736485Y-75548114D01*
X38688866Y-75524304D01*
X38665057Y-75500495D01*
X38641247Y-75452876D01*
X11995590Y-62023171D02*
X11757495Y-61856504D01*
X11995590Y-61737457D02*
X11495590Y-61737457D01*
X11495590Y-61927933D01*
X11519400Y-61975552D01*
X11543209Y-61999361D01*
X11590828Y-62023171D01*
X11662257Y-62023171D01*
X11709876Y-61999361D01*
X11733685Y-61975552D01*
X11757495Y-61927933D01*
X11757495Y-61737457D01*
X11543209Y-62213647D02*
X11519400Y-62237457D01*
X11495590Y-62285076D01*
X11495590Y-62404123D01*
X11519400Y-62451742D01*
X11543209Y-62475552D01*
X11590828Y-62499361D01*
X11638447Y-62499361D01*
X11709876Y-62475552D01*
X11995590Y-62189838D01*
X11995590Y-62499361D01*
X11495590Y-62808885D02*
X11495590Y-62856504D01*
X11519400Y-62904123D01*
X11543209Y-62927933D01*
X11590828Y-62951742D01*
X11686066Y-62975552D01*
X11805114Y-62975552D01*
X11900352Y-62951742D01*
X11947971Y-62927933D01*
X11971780Y-62904123D01*
X11995590Y-62856504D01*
X11995590Y-62808885D01*
X11971780Y-62761266D01*
X11947971Y-62737457D01*
X11900352Y-62713647D01*
X11805114Y-62689838D01*
X11686066Y-62689838D01*
X11590828Y-62713647D01*
X11543209Y-62737457D01*
X11519400Y-62761266D01*
X11495590Y-62808885D01*
X34589828Y-80462990D02*
X34756495Y-80224895D01*
X34875542Y-80462990D02*
X34875542Y-79962990D01*
X34685066Y-79962990D01*
X34637447Y-79986800D01*
X34613638Y-80010609D01*
X34589828Y-80058228D01*
X34589828Y-80129657D01*
X34613638Y-80177276D01*
X34637447Y-80201085D01*
X34685066Y-80224895D01*
X34875542Y-80224895D01*
X34399352Y-80010609D02*
X34375542Y-79986800D01*
X34327923Y-79962990D01*
X34208876Y-79962990D01*
X34161257Y-79986800D01*
X34137447Y-80010609D01*
X34113638Y-80058228D01*
X34113638Y-80105847D01*
X34137447Y-80177276D01*
X34423161Y-80462990D01*
X34113638Y-80462990D01*
X33637447Y-80462990D02*
X33923161Y-80462990D01*
X33780304Y-80462990D02*
X33780304Y-79962990D01*
X33827923Y-80034419D01*
X33875542Y-80082038D01*
X33923161Y-80105847D01*
X8940190Y-77736571D02*
X8702095Y-77569904D01*
X8940190Y-77450857D02*
X8440190Y-77450857D01*
X8440190Y-77641333D01*
X8464000Y-77688952D01*
X8487809Y-77712761D01*
X8535428Y-77736571D01*
X8606857Y-77736571D01*
X8654476Y-77712761D01*
X8678285Y-77688952D01*
X8702095Y-77641333D01*
X8702095Y-77450857D01*
X8487809Y-77927047D02*
X8464000Y-77950857D01*
X8440190Y-77998476D01*
X8440190Y-78117523D01*
X8464000Y-78165142D01*
X8487809Y-78188952D01*
X8535428Y-78212761D01*
X8583047Y-78212761D01*
X8654476Y-78188952D01*
X8940190Y-77903238D01*
X8940190Y-78212761D01*
X8487809Y-78403238D02*
X8464000Y-78427047D01*
X8440190Y-78474666D01*
X8440190Y-78593714D01*
X8464000Y-78641333D01*
X8487809Y-78665142D01*
X8535428Y-78688952D01*
X8583047Y-78688952D01*
X8654476Y-78665142D01*
X8940190Y-78379428D01*
X8940190Y-78688952D01*
X22259648Y-65913870D02*
X22426315Y-65675775D01*
X22545362Y-65913870D02*
X22545362Y-65413870D01*
X22354886Y-65413870D01*
X22307267Y-65437680D01*
X22283458Y-65461489D01*
X22259648Y-65509108D01*
X22259648Y-65580537D01*
X22283458Y-65628156D01*
X22307267Y-65651965D01*
X22354886Y-65675775D01*
X22545362Y-65675775D01*
X22069172Y-65461489D02*
X22045362Y-65437680D01*
X21997743Y-65413870D01*
X21878696Y-65413870D01*
X21831077Y-65437680D01*
X21807267Y-65461489D01*
X21783458Y-65509108D01*
X21783458Y-65556727D01*
X21807267Y-65628156D01*
X22092981Y-65913870D01*
X21783458Y-65913870D01*
X21616791Y-65413870D02*
X21307267Y-65413870D01*
X21473934Y-65604346D01*
X21402505Y-65604346D01*
X21354886Y-65628156D01*
X21331077Y-65651965D01*
X21307267Y-65699584D01*
X21307267Y-65818632D01*
X21331077Y-65866251D01*
X21354886Y-65890060D01*
X21402505Y-65913870D01*
X21545362Y-65913870D01*
X21592981Y-65890060D01*
X21616791Y-65866251D01*
X27958928Y-70562070D02*
X28125595Y-70323975D01*
X28244642Y-70562070D02*
X28244642Y-70062070D01*
X28054166Y-70062070D01*
X28006547Y-70085880D01*
X27982738Y-70109689D01*
X27958928Y-70157308D01*
X27958928Y-70228737D01*
X27982738Y-70276356D01*
X28006547Y-70300165D01*
X28054166Y-70323975D01*
X28244642Y-70323975D01*
X27768452Y-70109689D02*
X27744642Y-70085880D01*
X27697023Y-70062070D01*
X27577976Y-70062070D01*
X27530357Y-70085880D01*
X27506547Y-70109689D01*
X27482738Y-70157308D01*
X27482738Y-70204927D01*
X27506547Y-70276356D01*
X27792261Y-70562070D01*
X27482738Y-70562070D01*
X27054166Y-70228737D02*
X27054166Y-70562070D01*
X27173214Y-70038260D02*
X27292261Y-70395403D01*
X26982738Y-70395403D01*
X20976190Y-55226071D02*
X20738095Y-55059404D01*
X20976190Y-54940357D02*
X20476190Y-54940357D01*
X20476190Y-55130833D01*
X20500000Y-55178452D01*
X20523809Y-55202261D01*
X20571428Y-55226071D01*
X20642857Y-55226071D01*
X20690476Y-55202261D01*
X20714285Y-55178452D01*
X20738095Y-55130833D01*
X20738095Y-54940357D01*
X20523809Y-55416547D02*
X20500000Y-55440357D01*
X20476190Y-55487976D01*
X20476190Y-55607023D01*
X20500000Y-55654642D01*
X20523809Y-55678452D01*
X20571428Y-55702261D01*
X20619047Y-55702261D01*
X20690476Y-55678452D01*
X20976190Y-55392738D01*
X20976190Y-55702261D01*
X20476190Y-56154642D02*
X20476190Y-55916547D01*
X20714285Y-55892738D01*
X20690476Y-55916547D01*
X20666666Y-55964166D01*
X20666666Y-56083214D01*
X20690476Y-56130833D01*
X20714285Y-56154642D01*
X20761904Y-56178452D01*
X20880952Y-56178452D01*
X20928571Y-56154642D01*
X20952380Y-56130833D01*
X20976190Y-56083214D01*
X20976190Y-55964166D01*
X20952380Y-55916547D01*
X20928571Y-55892738D01*
X25376228Y-61946390D02*
X25542895Y-61708295D01*
X25661942Y-61946390D02*
X25661942Y-61446390D01*
X25471466Y-61446390D01*
X25423847Y-61470200D01*
X25400038Y-61494009D01*
X25376228Y-61541628D01*
X25376228Y-61613057D01*
X25400038Y-61660676D01*
X25423847Y-61684485D01*
X25471466Y-61708295D01*
X25661942Y-61708295D01*
X25185752Y-61494009D02*
X25161942Y-61470200D01*
X25114323Y-61446390D01*
X24995276Y-61446390D01*
X24947657Y-61470200D01*
X24923847Y-61494009D01*
X24900038Y-61541628D01*
X24900038Y-61589247D01*
X24923847Y-61660676D01*
X25209561Y-61946390D01*
X24900038Y-61946390D01*
X24471466Y-61446390D02*
X24566704Y-61446390D01*
X24614323Y-61470200D01*
X24638133Y-61494009D01*
X24685752Y-61565438D01*
X24709561Y-61660676D01*
X24709561Y-61851152D01*
X24685752Y-61898771D01*
X24661942Y-61922580D01*
X24614323Y-61946390D01*
X24519085Y-61946390D01*
X24471466Y-61922580D01*
X24447657Y-61898771D01*
X24423847Y-61851152D01*
X24423847Y-61732104D01*
X24447657Y-61684485D01*
X24471466Y-61660676D01*
X24519085Y-61636866D01*
X24614323Y-61636866D01*
X24661942Y-61660676D01*
X24685752Y-61684485D01*
X24709561Y-61732104D01*
X22656190Y-55226071D02*
X22418095Y-55059404D01*
X22656190Y-54940357D02*
X22156190Y-54940357D01*
X22156190Y-55130833D01*
X22180000Y-55178452D01*
X22203809Y-55202261D01*
X22251428Y-55226071D01*
X22322857Y-55226071D01*
X22370476Y-55202261D01*
X22394285Y-55178452D01*
X22418095Y-55130833D01*
X22418095Y-54940357D01*
X22203809Y-55416547D02*
X22180000Y-55440357D01*
X22156190Y-55487976D01*
X22156190Y-55607023D01*
X22180000Y-55654642D01*
X22203809Y-55678452D01*
X22251428Y-55702261D01*
X22299047Y-55702261D01*
X22370476Y-55678452D01*
X22656190Y-55392738D01*
X22656190Y-55702261D01*
X22156190Y-55868928D02*
X22156190Y-56202261D01*
X22656190Y-55987976D01*
X31000828Y-50646990D02*
X31167495Y-50408895D01*
X31286542Y-50646990D02*
X31286542Y-50146990D01*
X31096066Y-50146990D01*
X31048447Y-50170800D01*
X31024638Y-50194609D01*
X31000828Y-50242228D01*
X31000828Y-50313657D01*
X31024638Y-50361276D01*
X31048447Y-50385085D01*
X31096066Y-50408895D01*
X31286542Y-50408895D01*
X30810352Y-50194609D02*
X30786542Y-50170800D01*
X30738923Y-50146990D01*
X30619876Y-50146990D01*
X30572257Y-50170800D01*
X30548447Y-50194609D01*
X30524638Y-50242228D01*
X30524638Y-50289847D01*
X30548447Y-50361276D01*
X30834161Y-50646990D01*
X30524638Y-50646990D01*
X30238923Y-50361276D02*
X30286542Y-50337466D01*
X30310352Y-50313657D01*
X30334161Y-50266038D01*
X30334161Y-50242228D01*
X30310352Y-50194609D01*
X30286542Y-50170800D01*
X30238923Y-50146990D01*
X30143685Y-50146990D01*
X30096066Y-50170800D01*
X30072257Y-50194609D01*
X30048447Y-50242228D01*
X30048447Y-50266038D01*
X30072257Y-50313657D01*
X30096066Y-50337466D01*
X30143685Y-50361276D01*
X30238923Y-50361276D01*
X30286542Y-50385085D01*
X30310352Y-50408895D01*
X30334161Y-50456514D01*
X30334161Y-50551752D01*
X30310352Y-50599371D01*
X30286542Y-50623180D01*
X30238923Y-50646990D01*
X30143685Y-50646990D01*
X30096066Y-50623180D01*
X30072257Y-50599371D01*
X30048447Y-50551752D01*
X30048447Y-50456514D01*
X30072257Y-50408895D01*
X30096066Y-50385085D01*
X30143685Y-50361276D01*
X36440228Y-54351790D02*
X36606895Y-54113695D01*
X36725942Y-54351790D02*
X36725942Y-53851790D01*
X36535466Y-53851790D01*
X36487847Y-53875600D01*
X36464038Y-53899409D01*
X36440228Y-53947028D01*
X36440228Y-54018457D01*
X36464038Y-54066076D01*
X36487847Y-54089885D01*
X36535466Y-54113695D01*
X36725942Y-54113695D01*
X36249752Y-53899409D02*
X36225942Y-53875600D01*
X36178323Y-53851790D01*
X36059276Y-53851790D01*
X36011657Y-53875600D01*
X35987847Y-53899409D01*
X35964038Y-53947028D01*
X35964038Y-53994647D01*
X35987847Y-54066076D01*
X36273561Y-54351790D01*
X35964038Y-54351790D01*
X35725942Y-54351790D02*
X35630704Y-54351790D01*
X35583085Y-54327980D01*
X35559276Y-54304171D01*
X35511657Y-54232742D01*
X35487847Y-54137504D01*
X35487847Y-53947028D01*
X35511657Y-53899409D01*
X35535466Y-53875600D01*
X35583085Y-53851790D01*
X35678323Y-53851790D01*
X35725942Y-53875600D01*
X35749752Y-53899409D01*
X35773561Y-53947028D01*
X35773561Y-54066076D01*
X35749752Y-54113695D01*
X35725942Y-54137504D01*
X35678323Y-54161314D01*
X35583085Y-54161314D01*
X35535466Y-54137504D01*
X35511657Y-54113695D01*
X35487847Y-54066076D01*
X23516190Y-55226071D02*
X23278095Y-55059404D01*
X23516190Y-54940357D02*
X23016190Y-54940357D01*
X23016190Y-55130833D01*
X23040000Y-55178452D01*
X23063809Y-55202261D01*
X23111428Y-55226071D01*
X23182857Y-55226071D01*
X23230476Y-55202261D01*
X23254285Y-55178452D01*
X23278095Y-55130833D01*
X23278095Y-54940357D01*
X23016190Y-55392738D02*
X23016190Y-55702261D01*
X23206666Y-55535595D01*
X23206666Y-55607023D01*
X23230476Y-55654642D01*
X23254285Y-55678452D01*
X23301904Y-55702261D01*
X23420952Y-55702261D01*
X23468571Y-55678452D01*
X23492380Y-55654642D01*
X23516190Y-55607023D01*
X23516190Y-55464166D01*
X23492380Y-55416547D01*
X23468571Y-55392738D01*
X23016190Y-56011785D02*
X23016190Y-56059404D01*
X23040000Y-56107023D01*
X23063809Y-56130833D01*
X23111428Y-56154642D01*
X23206666Y-56178452D01*
X23325714Y-56178452D01*
X23420952Y-56154642D01*
X23468571Y-56130833D01*
X23492380Y-56107023D01*
X23516190Y-56059404D01*
X23516190Y-56011785D01*
X23492380Y-55964166D01*
X23468571Y-55940357D01*
X23420952Y-55916547D01*
X23325714Y-55892738D01*
X23206666Y-55892738D01*
X23111428Y-55916547D01*
X23063809Y-55940357D01*
X23040000Y-55964166D01*
X23016190Y-56011785D01*
M02*
