Removed Member From Class: ClassName=MPPT Member=Cin2
Change Component Designator: OldDesignator=Cin1 NewDesignator=CinPV1
Change Component Designator: OldDesignator=Cin2 NewDesignator=CinPV2
Added Member To Class: ClassName=MPPT Member=Component CinPV2 100uF
