EESchema Schematic File Version 4
LIBS:Battery_monitoring 3-cache
EELAYER 29 0
EELAYER END
$Descr A4 11693 8268
encoding utf-8
Sheet 1 1
Title ""
Date ""
Rev ""
Comp ""
Comment1 ""
Comment2 ""
Comment3 ""
Comment4 ""
$EndDescr
$Comp
L device:D_Zener_Small D2
U 1 1 5E358EFC
P 7600 4350
F 0 "D2" V 7554 4418 50  0000 L CNN
F 1 "D_Zener_Small" V 7645 4418 50  0000 L CNN
F 2 "Diodes_THT:D_5W_P12.70mm_Horizontal" V 7600 4350 50  0001 C CNN
F 3 "https://en.wikipedia.org/wiki/Zener_diode" V 7600 4350 50  0001 C CNN
	1    7600 4350
	0    1    1    0   
$EndComp
$Comp
L device:D_Zener_Small D1
U 1 1 5E3591E8
P 7300 4350
F 0 "D1" V 7254 4418 50  0000 L CNN
F 1 "D_Zener_Small" V 7345 4418 50  0000 L CNN
F 2 "Diodes_THT:D_5W_P12.70mm_Horizontal" V 7300 4350 50  0001 C CNN
F 3 "https://en.wikipedia.org/wiki/Zener_diode" V 7300 4350 50  0001 C CNN
	1    7300 4350
	0    1    1    0   
$EndComp
$Comp
L device:R_Small 500K1
U 1 1 5E3596F9
P 10150 3050
F 0 "500K1" H 10209 3096 50  0000 L CNN
F 1 "R_Small" H 10209 3005 50  0000 L CNN
F 2 "Resistors_SMD:R_0805_HandSoldering" H 10150 3050 50  0001 C CNN
F 3 "" H 10150 3050 50  0001 C CNN
	1    10150 3050
	1    0    0    -1  
$EndComp
$Comp
L device:R_Small 150Ω2111111111
U 1 1 5E359A97
P 7150 3650
F 0 "150Ω2111111111" H 7209 3696 50  0000 L CNN
F 1 "R_Small" H 7209 3605 50  0000 L CNN
F 2 "Resistors_SMD:R_0805_HandSoldering" H 7150 3650 50  0001 C CNN
F 3 "" H 7150 3650 50  0001 C CNN
	1    7150 3650
	0    1    1    0   
$EndComp
$Comp
L device:R_Small 150Ω1111111111
U 1 1 5E359C56
P 7150 3400
F 0 "150Ω1111111111" V 6954 3400 50  0000 C CNN
F 1 "R_Small" V 7045 3400 50  0000 C CNN
F 2 "Resistors_SMD:R_0805_HandSoldering" H 7150 3400 50  0001 C CNN
F 3 "" H 7150 3400 50  0001 C CNN
	1    7150 3400
	0    1    1    0   
$EndComp
$Comp
L device:R_Small 10m1
U 1 1 5E359E7E
P 8700 4600
F 0 "10m1" V 8504 4600 50  0000 C CNN
F 1 "R_Small" V 8595 4600 50  0000 C CNN
F 2 "Resistors_SMD:R_0805_HandSoldering" H 8700 4600 50  0001 C CNN
F 3 "" H 8700 4600 50  0001 C CNN
	1    8700 4600
	0    1    1    0   
$EndComp
$Comp
L device:R_Small 500K2
U 1 1 5E35A067
P 10150 3750
F 0 "500K2" H 10209 3796 50  0000 L CNN
F 1 "R_Small" H 10209 3705 50  0000 L CNN
F 2 "Resistors_SMD:R_0805_HandSoldering" H 10150 3750 50  0001 C CNN
F 3 "" H 10150 3750 50  0001 C CNN
	1    10150 3750
	1    0    0    -1  
$EndComp
$Comp
L device:R_Small 500Ω1111111111
U 1 1 5E35A2A4
P 9900 2500
F 0 "500Ω1111111111" H 9959 2546 50  0000 L CNN
F 1 "R_Small" H 9959 2455 50  0000 L CNN
F 2 "Resistors_SMD:R_0805_HandSoldering" H 9900 2500 50  0001 C CNN
F 3 "" H 9900 2500 50  0001 C CNN
	1    9900 2500
	1    0    0    -1  
$EndComp
Wire Wire Line
	8100 2300 8100 2000
Wire Wire Line
	8100 2000 7950 2000
Wire Wire Line
	9050 2750 8950 2750
Wire Wire Line
	8950 2750 8950 2800
Connection ~ 8950 2750
Wire Wire Line
	8950 2750 8850 2750
$Comp
L power:GND #PWR02
U 1 1 5E35CFBD
P 8950 2800
F 0 "#PWR02" H 8950 2550 50  0001 C CNN
F 1 "GND" H 8955 2627 50  0000 C CNN
F 2 "" H 8950 2800 50  0001 C CNN
F 3 "" H 8950 2800 50  0001 C CNN
	1    8950 2800
	1    0    0    -1  
$EndComp
Wire Wire Line
	7950 2000 7950 1850
Wire Wire Line
	7950 1850 7550 1850
Wire Wire Line
	7550 1850 7550 1950
Connection ~ 7550 1850
$Comp
L power:GND #PWR01
U 1 1 5E3612A4
P 7550 2200
F 0 "#PWR01" H 7550 1950 50  0001 C CNN
F 1 "GND" H 7555 2027 50  0000 C CNN
F 2 "" H 7550 2200 50  0001 C CNN
F 3 "" H 7550 2200 50  0001 C CNN
	1    7550 2200
	1    0    0    -1  
$EndComp
Wire Wire Line
	7550 2150 7550 2200
$Comp
L power:GND #PWR03
U 1 1 5E364812
P 9700 2300
F 0 "#PWR03" H 9700 2050 50  0001 C CNN
F 1 "GND" H 9705 2127 50  0000 C CNN
F 2 "" H 9700 2300 50  0001 C CNN
F 3 "" H 9700 2300 50  0001 C CNN
	1    9700 2300
	1    0    0    -1  
$EndComp
Wire Wire Line
	9900 2000 9900 2400
Wire Wire Line
	10150 3650 10150 3600
Wire Wire Line
	7900 4150 7900 4600
Wire Wire Line
	7900 4600 8600 4600
Wire Wire Line
	8800 4600 9500 4600
Wire Wire Line
	9500 4600 9500 4150
Wire Wire Line
	9900 4050 9900 4600
Wire Wire Line
	9900 4600 9500 4600
Connection ~ 9500 4600
Wire Wire Line
	9900 4600 10150 4600
Wire Wire Line
	10150 4600 10150 3850
Connection ~ 9900 4600
Wire Wire Line
	10150 2950 10150 2000
Wire Wire Line
	10150 2000 9900 2000
Connection ~ 9900 2000
Wire Wire Line
	10600 2000 10150 2000
Connection ~ 10150 2000
Wire Wire Line
	10600 4600 10150 4600
Connection ~ 10150 4600
Wire Wire Line
	7600 4250 7600 3400
Wire Wire Line
	7300 4250 7300 3650
Wire Wire Line
	7600 3400 7250 3400
Wire Wire Line
	7300 3650 7250 3650
Wire Wire Line
	7050 3650 6800 3650
Wire Wire Line
	7900 4600 7600 4600
Connection ~ 7900 4600
Wire Wire Line
	7300 4450 7300 4600
Connection ~ 7300 4600
Wire Wire Line
	7600 4450 7600 4600
Connection ~ 7600 4600
Wire Wire Line
	7600 4600 7300 4600
$Comp
L device:C_Small 0.1uF1
U 1 1 5E38294E
P 7550 2050
F 0 "0.1uF1" H 7642 2096 50  0000 L CNN
F 1 "C_Small" H 7642 2005 50  0000 L CNN
F 2 "Capacitors_SMD:C_0805_HandSoldering" H 7550 2050 50  0001 C CNN
F 3 "" H 7550 2050 50  0001 C CNN
	1    7550 2050
	1    0    0    -1  
$EndComp
$Comp
L device:C_Small 4.7uF1
U 1 1 5E383108
P 9700 2100
F 0 "4.7uF1" H 9792 2146 50  0000 L CNN
F 1 "C_Small" H 9792 2055 50  0000 L CNN
F 2 "Capacitors_SMD:C_0805_HandSoldering" H 9700 2100 50  0001 C CNN
F 3 "" H 9700 2100 50  0001 C CNN
	1    9700 2100
	1    0    0    -1  
$EndComp
$Comp
L device:C_Small 0.1uF2
U 1 1 5E38331F
P 9900 3950
F 0 "0.1uF2" H 9992 3996 50  0000 L CNN
F 1 "C_Small" H 9992 3905 50  0000 L CNN
F 2 "Capacitors_SMD:C_0805_HandSoldering" H 9900 3950 50  0001 C CNN
F 3 "" H 9900 3950 50  0001 C CNN
	1    9900 3950
	1    0    0    -1  
$EndComp
Wire Wire Line
	9700 2300 9700 2200
$Comp
L conn:Conn_01x02 I2C1
U 1 1 5E430531
P 5200 3850
F 0 "I2C1" H 5118 3525 50  0000 C CNN
F 1 "Conn_01x02" H 5118 3616 50  0000 C CNN
F 2 "Pin_Headers:Pin_Header_Straight_1x02_Pitch2.00mm" H 5200 3850 50  0001 C CNN
F 3 "~" H 5200 3850 50  0001 C CNN
	1    5200 3850
	-1   0    0    1   
$EndComp
$Comp
L conn:Conn_01x01 Programmable_port1
U 1 1 5E433C70
P 7750 3950
F 0 "Programmable_port1" H 7668 3725 50  0000 C CNN
F 1 "Conn_01x01" H 7668 3816 50  0000 C CNN
F 2 "Pin_Headers:Pin_Header_Straight_1x01_Pitch1.00mm" H 7750 3950 50  0001 C CNN
F 3 "~" H 7750 3950 50  0001 C CNN
	1    7750 3950
	-1   0    0    1   
$EndComp
$Comp
L conn:Conn_01x02 Battery1
U 1 1 5E434732
P 4400 3450
F 0 "Battery1" H 4318 3125 50  0000 C CNN
F 1 "Conn_01x02" H 4318 3216 50  0000 C CNN
F 2 "Pin_Headers:Pin_Header_Straight_1x02_Pitch2.00mm" H 4400 3450 50  0001 C CNN
F 3 "~" H 4400 3450 50  0001 C CNN
	1    4400 3450
	-1   0    0    1   
$EndComp
Wire Wire Line
	5550 3650 5550 3750
Wire Wire Line
	5550 3750 5400 3750
Wire Wire Line
	5500 3900 5500 3850
Wire Wire Line
	5500 3850 5400 3850
Wire Wire Line
	4750 4450 4750 3450
Wire Wire Line
	4750 3450 4600 3450
Wire Wire Line
	5850 2550 4950 2550
Wire Wire Line
	4950 2550 4950 3350
Wire Wire Line
	4950 3350 4600 3350
Wire Wire Line
	10600 2000 10600 4600
Wire Wire Line
	5850 2550 5850 1850
Wire Wire Line
	5850 1850 7550 1850
Wire Wire Line
	6500 4450 6500 4600
Wire Wire Line
	6500 4600 7300 4600
Wire Wire Line
	4750 4450 6500 4450
Wire Wire Line
	6800 3900 6800 3650
Wire Wire Line
	5500 3900 6800 3900
Wire Wire Line
	6450 3650 6450 3400
Wire Wire Line
	6450 3400 7050 3400
Wire Wire Line
	5550 3650 6450 3650
NoConn ~ 9450 3950
$Comp
L Battery_monitor:DS2782 U?
U 1 1 5F687689
P 8800 3850
F 0 "U?" H 8725 4715 50  0000 C CNN
F 1 "DS2782" H 8725 4624 50  0000 C CNN
F 2 "" H 8800 3900 50  0001 C CNN
F 3 "" H 8800 3900 50  0001 C CNN
	1    8800 3850
	1    0    0    -1  
$EndComp
Wire Wire Line
	9900 2600 9900 3350
Wire Wire Line
	9450 3650 10100 3650
Wire Wire Line
	10100 3650 10100 3600
Wire Wire Line
	10100 3600 10150 3600
Connection ~ 10150 3600
Wire Wire Line
	10150 3600 10150 3150
Wire Wire Line
	9450 3350 9900 3350
Connection ~ 9900 3350
Wire Wire Line
	9900 3350 9900 3850
Wire Wire Line
	9450 4250 9450 4150
Wire Wire Line
	9450 4150 9500 4150
Wire Wire Line
	8000 3950 7950 3950
Wire Wire Line
	7300 3650 7750 3650
Wire Wire Line
	7750 3650 7750 3600
Wire Wire Line
	7750 3600 8000 3600
Connection ~ 7300 3650
Wire Wire Line
	7600 3400 7600 3300
Wire Wire Line
	7600 3300 8000 3300
Connection ~ 7600 3400
Wire Wire Line
	7900 4150 8000 4150
Wire Wire Line
	8000 4150 8000 4250
$Comp
L Battery_monitor:MAX1616 U?
U 1 1 5F6A9E14
P 8900 2150
F 0 "U?" H 8900 2525 50  0000 C CNN
F 1 "MAX1616" H 8900 2434 50  0000 C CNN
F 2 "" H 8900 2150 50  0001 C CNN
F 3 "" H 8900 2150 50  0001 C CNN
	1    8900 2150
	1    0    0    -1  
$EndComp
Wire Wire Line
	8850 2500 8800 2500
Wire Wire Line
	8850 2500 8850 2750
Wire Wire Line
	9050 2500 9000 2500
Wire Wire Line
	9050 2500 9050 2750
Wire Wire Line
	9300 2050 9550 2050
Wire Wire Line
	9550 2050 9550 2000
Wire Wire Line
	9550 2000 9700 2000
Connection ~ 9700 2000
Wire Wire Line
	9700 2000 9900 2000
Wire Wire Line
	8100 2000 8500 2000
Connection ~ 8100 2000
Wire Wire Line
	8100 2300 8400 2300
Wire Wire Line
	8400 2300 8400 2250
Wire Wire Line
	8400 2250 8500 2250
$EndSCHEMATC
