EESchema Schematic File Version 4
EELAYER 30 0
EELAYER END
$Descr A4 11693 8268
encoding utf-8
Sheet 1 1
Title ""
Date ""
Rev ""
Comp ""
Comment1 ""
Comment2 ""
Comment3 ""
Comment4 ""
$EndDescr
$Comp
L Battery_charging-rescue:MAX1737-Battery_charger-Battery_charging-rescue MAX?
U 1 1 5EEE2968
P 4850 3950
F 0 "MAX?" H 4925 2477 50  0000 C CNN
F 1 "MAX1737" H 4925 2386 50  0000 C CNN
F 2 "" H 4950 3950 50  0001 C CNN
F 3 "" H 4950 3950 50  0001 C CNN
	1    4850 3950
	1    0    0    -1  
$EndComp
$Comp
L Battery_charging-rescue:D-device D?
U 1 1 5EF6A0E2
P 1850 1600
F 0 "D?" H 1850 1384 50  0000 C CNN
F 1 "D" H 1850 1475 50  0000 C CNN
F 2 "" H 1850 1600 50  0001 C CNN
F 3 "" H 1850 1600 50  0001 C CNN
	1    1850 1600
	-1   0    0    1   
$EndComp
$Comp
L Battery_charging-rescue:C_Small-device 0.1µF
U 1 1 5EF6A6AF
P 5900 4400
F 0 "0.1µF" H 5992 4446 50  0000 L CNN
F 1 "C_Small" H 5992 4355 50  0000 L CNN
F 2 "" H 5900 4400 50  0001 C CNN
F 3 "" H 5900 4400 50  0001 C CNN
	1    5900 4400
	1    0    0    -1  
$EndComp
$Comp
L Battery_charging-rescue:C_Small-device 1µF
U 1 1 5EF6AA19
P 3850 5150
F 0 "1µF" V 3621 5150 50  0000 C CNN
F 1 "C_Small" V 3712 5150 50  0000 C CNN
F 2 "" H 3850 5150 50  0001 C CNN
F 3 "" H 3850 5150 50  0001 C CNN
	1    3850 5150
	0    1    1    0   
$EndComp
$Comp
L Battery_charging-rescue:C_Small-device 47µF
U 1 1 5EF6AC47
P 3850 4800
F 0 "47µF" V 3621 4800 50  0000 C CNN
F 1 "C_Small" V 3712 4800 50  0000 C CNN
F 2 "" H 3850 4800 50  0001 C CNN
F 3 "" H 3850 4800 50  0001 C CNN
	1    3850 4800
	0    1    1    0   
$EndComp
$Comp
L Battery_charging-rescue:C_Small-device 0.1µF
U 1 1 5EF6AE30
P 5850 3250
F 0 "0.1µF" H 5942 3296 50  0000 L CNN
F 1 "C_Small" H 5942 3205 50  0000 L CNN
F 2 "" H 5850 3250 50  0001 C CNN
F 3 "" H 5850 3250 50  0001 C CNN
	1    5850 3250
	1    0    0    -1  
$EndComp
$Comp
L Battery_charging-rescue:C_Small-device 1µF
U 1 1 5EF6AF78
P 3850 5450
F 0 "1µF" V 3621 5450 50  0000 C CNN
F 1 "C_Small" V 3712 5450 50  0000 C CNN
F 2 "" H 3850 5450 50  0001 C CNN
F 3 "" H 3850 5450 50  0001 C CNN
	1    3850 5450
	0    1    1    0   
$EndComp
$Comp
L Battery_charging-rescue:C_Small-device 0.1µF
U 1 1 5EF6B275
P 5900 1700
F 0 "0.1µF" H 5992 1746 50  0000 L CNN
F 1 "C_Small" H 5992 1655 50  0000 L CNN
F 2 "" H 5900 1700 50  0001 C CNN
F 3 "" H 5900 1700 50  0001 C CNN
	1    5900 1700
	1    0    0    -1  
$EndComp
$Comp
L Battery_charging-rescue:C_Small-device 0.1µF
U 1 1 5EF6B3EB
P 6150 2650
F 0 "0.1µF" H 6242 2696 50  0000 L CNN
F 1 "C_Small" H 6242 2605 50  0000 L CNN
F 2 "" H 6150 2650 50  0001 C CNN
F 3 "" H 6150 2650 50  0001 C CNN
	1    6150 2650
	1    0    0    -1  
$EndComp
$Comp
L Battery_charging-rescue:C_Small-device 47µF
U 1 1 5EF6B54A
P 3850 4500
F 0 "47µF" V 3621 4500 50  0000 C CNN
F 1 "C_Small" V 3712 4500 50  0000 C CNN
F 2 "" H 3850 4500 50  0001 C CNN
F 3 "" H 3850 4500 50  0001 C CNN
	1    3850 4500
	0    1    1    0   
$EndComp
$Comp
L Battery_charging-rescue:C_Small-device 0.1µF
U 1 1 5EF6B6C0
P 5900 4800
F 0 "0.1µF" H 5992 4846 50  0000 L CNN
F 1 "C_Small" H 5992 4755 50  0000 L CNN
F 2 "" H 5900 4800 50  0001 C CNN
F 3 "" H 5900 4800 50  0001 C CNN
	1    5900 4800
	1    0    0    -1  
$EndComp
$Comp
L Battery_charging-rescue:C_Small-device 0.1µF
U 1 1 5EF6B87B
P 5900 2100
F 0 "0.1µF" H 5992 2146 50  0000 L CNN
F 1 "C_Small" H 5992 2055 50  0000 L CNN
F 2 "" H 5900 2100 50  0001 C CNN
F 3 "" H 5900 2100 50  0001 C CNN
	1    5900 2100
	1    0    0    -1  
$EndComp
$Comp
L Battery_charging-rescue:C_Small-device 0.1µF
U 1 1 5EF6B9C3
P 3950 1700
F 0 "0.1µF" H 4042 1746 50  0000 L CNN
F 1 "C_Small" H 4042 1655 50  0000 L CNN
F 2 "" H 3950 1700 50  0001 C CNN
F 3 "" H 3950 1700 50  0001 C CNN
	1    3950 1700
	1    0    0    -1  
$EndComp
$Comp
L Battery_charging-rescue:C_Small-device 0.1µF
U 1 1 5EF6BB50
P 3100 4150
F 0 "0.1µF" V 2871 4150 50  0000 C CNN
F 1 "C_Small" V 2962 4150 50  0000 C CNN
F 2 "" H 3100 4150 50  0001 C CNN
F 3 "" H 3100 4150 50  0001 C CNN
	1    3100 4150
	0    1    1    0   
$EndComp
$Comp
L Battery_charging-rescue:C_Small-device 1µF
U 1 1 5EF6BD22
P 2400 3300
F 0 "1µF" H 2492 3346 50  0000 L CNN
F 1 "C_Small" H 2492 3255 50  0000 L CNN
F 2 "" H 2400 3300 50  0001 C CNN
F 3 "" H 2400 3300 50  0001 C CNN
	1    2400 3300
	1    0    0    -1  
$EndComp
$Comp
L Battery_charging-rescue:CP1_Small-device 25µF
U 1 1 5EF6CCAB
P 7100 2350
F 0 "25µF" H 7191 2396 50  0000 L CNN
F 1 "CP1_Small" H 7191 2305 50  0000 L CNN
F 2 "" H 7100 2350 50  0001 C CNN
F 3 "" H 7100 2350 50  0001 C CNN
	1    7100 2350
	1    0    0    -1  
$EndComp
$Comp
L Battery_charging-rescue:CP1_Small-device 50µF
U 1 1 5EF6CF6F
P 7950 3450
F 0 "50µF" H 8041 3496 50  0000 L CNN
F 1 "CP1_Small" H 8041 3405 50  0000 L CNN
F 2 "" H 7950 3450 50  0001 C CNN
F 3 "" H 7950 3450 50  0001 C CNN
	1    7950 3450
	1    0    0    -1  
$EndComp
$Comp
L Battery_charging-rescue:CP1_Small-device 25µF
U 1 1 5EF6D0EF
P 7550 2350
F 0 "25µF" H 7641 2396 50  0000 L CNN
F 1 "CP1_Small" H 7641 2305 50  0000 L CNN
F 2 "" H 7550 2350 50  0001 C CNN
F 3 "" H 7550 2350 50  0001 C CNN
	1    7550 2350
	1    0    0    -1  
$EndComp
$Comp
L Battery_charging-rescue:R-device 0.33Ω
U 1 1 5EF6FC85
P 6750 1750
F 0 "0.33Ω" H 6820 1796 50  0000 L CNN
F 1 "R" H 6820 1705 50  0000 L CNN
F 2 "" V 6680 1750 50  0001 C CNN
F 3 "" H 6750 1750 50  0001 C CNN
	1    6750 1750
	1    0    0    -1  
$EndComp
$Comp
L Battery_charging-rescue:R-device 1kΩ
U 1 1 5EF6FFBA
P 1000 4450
F 0 "1kΩ" H 1070 4496 50  0000 L CNN
F 1 "R" H 1070 4405 50  0000 L CNN
F 2 "" V 930 4450 50  0001 C CNN
F 3 "" H 1000 4450 50  0001 C CNN
	1    1000 4450
	1    0    0    -1  
$EndComp
$Comp
L Battery_charging-rescue:R-device 1kΩ
U 1 1 5EF701CD
P 1250 4450
F 0 "1kΩ" H 1320 4496 50  0000 L CNN
F 1 "R" H 1320 4405 50  0000 L CNN
F 2 "" V 1180 4450 50  0001 C CNN
F 3 "" H 1250 4450 50  0001 C CNN
	1    1250 4450
	1    0    0    -1  
$EndComp
$Comp
L Battery_charging-rescue:R-device 1kΩ
U 1 1 5EF703CB
P 1500 4450
F 0 "1kΩ" H 1570 4496 50  0000 L CNN
F 1 "R" H 1570 4405 50  0000 L CNN
F 2 "" V 1430 4450 50  0001 C CNN
F 3 "" H 1500 4450 50  0001 C CNN
	1    1500 4450
	1    0    0    -1  
$EndComp
$Comp
L Battery_charging-rescue:D_Zener-device D?
U 1 1 5EF77293
P 2700 1200
F 0 "D?" H 2700 984 50  0000 C CNN
F 1 "D_Zener" H 2700 1075 50  0000 C CNN
F 2 "" H 2700 1200 50  0001 C CNN
F 3 "https://en.wikipedia.org/wiki/Zener_diode" H 2700 1200 50  0001 C CNN
	1    2700 1200
	-1   0    0    1   
$EndComp
Wire Wire Line
	1700 1600 1500 1600
Wire Wire Line
	2000 1600 2100 1600
Wire Wire Line
	1500 1600 1500 1200
Wire Wire Line
	1500 1200 2550 1200
Connection ~ 1500 1600
Wire Wire Line
	2850 1200 6750 1200
Connection ~ 3950 1600
Wire Wire Line
	3950 1600 4200 1600
$Comp
L Battery_charging-rescue:LED-device D?
U 1 1 5EF93435
P 2750 5750
F 0 "D?" H 2743 5495 50  0000 C CNN
F 1 "LED" H 2743 5586 50  0000 C CNN
F 2 "" H 2750 5750 50  0001 C CNN
F 3 "" H 2750 5750 50  0001 C CNN
	1    2750 5750
	-1   0    0    1   
$EndComp
$Comp
L Battery_charging-rescue:LED-device D?
U 1 1 5EF94985
P 2750 5900
F 0 "D?" H 2743 5645 50  0000 C CNN
F 1 "LED" H 2743 5736 50  0000 C CNN
F 2 "" H 2750 5900 50  0001 C CNN
F 3 "" H 2750 5900 50  0001 C CNN
	1    2750 5900
	-1   0    0    1   
$EndComp
$Comp
L Battery_charging-rescue:LED-device D?
U 1 1 5EF96895
P 2750 6050
F 0 "D?" H 2743 5795 50  0000 C CNN
F 1 "LED" H 2743 5886 50  0000 C CNN
F 2 "" H 2750 6050 50  0001 C CNN
F 3 "" H 2750 6050 50  0001 C CNN
	1    2750 6050
	-1   0    0    1   
$EndComp
Wire Wire Line
	1500 4600 1500 5750
Wire Wire Line
	1500 5750 2600 5750
Wire Wire Line
	2900 5750 4200 5750
Wire Wire Line
	1500 4150 1250 4150
Wire Wire Line
	1250 4150 1250 4300
Wire Wire Line
	1500 4150 1500 4300
Wire Wire Line
	1250 4150 1000 4150
Wire Wire Line
	1000 4150 1000 4300
Connection ~ 1250 4150
Wire Wire Line
	1000 4600 1000 6050
Wire Wire Line
	1000 6050 2600 6050
Wire Wire Line
	1250 4600 1250 5900
Wire Wire Line
	1250 5900 2600 5900
Wire Wire Line
	2900 5900 4200 5900
Wire Wire Line
	2900 6050 4200 6050
Wire Wire Line
	5700 1600 5900 1600
Wire Wire Line
	6750 1200 6750 1600
Connection ~ 6750 1600
Wire Wire Line
	5700 2000 5900 2000
Wire Wire Line
	6750 2000 6750 1900
Connection ~ 5900 1600
Wire Wire Line
	5900 1600 6750 1600
Connection ~ 5900 2000
Wire Wire Line
	5900 2000 6750 2000
$Comp
L Battery_charging-rescue:D-device D?
U 1 1 5EF9DE0E
P 5850 2700
F 0 "D?" V 5896 2621 50  0000 R CNN
F 1 "D" V 5805 2621 50  0000 R CNN
F 2 "" H 5850 2700 50  0001 C CNN
F 3 "" H 5850 2700 50  0001 C CNN
	1    5850 2700
	0    -1   -1   0   
$EndComp
Wire Wire Line
	5650 2550 5850 2550
Wire Wire Line
	5700 2900 5850 2900
Wire Wire Line
	5850 2900 5850 2850
Wire Wire Line
	5850 2550 6150 2550
Connection ~ 5850 2550
$Comp
L Battery_charging-rescue:Q_NMOS_DGS-device Q?
U 1 1 5EF6E24C
P 6650 3100
F 0 "Q?" H 6856 3146 50  0000 L CNN
F 1 "Q_NMOS_DGS" H 6450 3250 50  0000 L CNN
F 2 "" H 6850 3200 50  0001 C CNN
F 3 "" H 6650 3100 50  0001 C CNN
	1    6650 3100
	1    0    0    -1  
$EndComp
Wire Wire Line
	6750 2900 6750 2250
Connection ~ 6750 2000
Wire Wire Line
	5700 3400 5850 3400
Wire Wire Line
	6750 3400 6750 3350
Wire Wire Line
	5850 3350 5850 3400
Connection ~ 5850 3400
Wire Wire Line
	5850 3400 6750 3400
Wire Wire Line
	5700 3700 6450 3700
Wire Wire Line
	6750 3500 6750 3400
Connection ~ 6750 3400
Wire Wire Line
	5700 4000 6750 4000
Wire Wire Line
	6750 4000 6750 3900
$Comp
L pspice:INDUCTOR 6.2µH
U 1 1 5EFB3271
P 7000 3350
F 0 "6.2µH" H 7000 3550 50  0000 C CNN
F 1 "INDUCTOR" H 7000 3474 50  0000 C CNN
F 2 "" H 7000 3350 50  0001 C CNN
F 3 "" H 7000 3350 50  0001 C CNN
	1    7000 3350
	1    0    0    -1  
$EndComp
Connection ~ 6750 3350
Wire Wire Line
	6750 3350 6750 3300
Wire Wire Line
	5700 4300 5900 4300
Wire Wire Line
	7250 4300 7250 3350
Wire Wire Line
	7250 3350 7300 3350
Connection ~ 7250 3350
$Comp
L Battery_charging-rescue:R-device 0.0667Ω
U 1 1 5EFB63CB
P 7450 3350
F 0 "0.0667Ω" V 7243 3350 50  0000 C CNN
F 1 "R" V 7334 3350 50  0000 C CNN
F 2 "" V 7380 3350 50  0001 C CNN
F 3 "" H 7450 3350 50  0001 C CNN
	1    7450 3350
	0    1    1    0   
$EndComp
Wire Wire Line
	7700 4700 7700 3350
Wire Wire Line
	7700 3350 7600 3350
Wire Wire Line
	7700 3350 7950 3350
Connection ~ 7700 3350
Connection ~ 7950 3350
Wire Wire Line
	7950 3350 8450 3350
Connection ~ 5900 4300
Wire Wire Line
	5900 4300 7250 4300
Wire Wire Line
	5700 4700 5900 4700
Connection ~ 5900 4700
Wire Wire Line
	5900 4700 7700 4700
$Comp
L Battery_charging-rescue:Battery-device BT?
U 1 1 5EFBD7FB
P 8450 4450
F 0 "BT?" H 8558 4496 50  0000 L CNN
F 1 "Battery" H 8558 4405 50  0000 L CNN
F 2 "" V 8450 4510 50  0001 C CNN
F 3 "~" V 8450 4510 50  0001 C CNN
	1    8450 4450
	1    0    0    -1  
$EndComp
$Comp
L Battery_charging-rescue:Thermistor-device 10kΩ
U 1 1 5EFBF4C8
P 8150 4450
F 0 "10kΩ" H 8255 4496 50  0000 L CNN
F 1 "Thermistor" H 8255 4405 50  0000 L CNN
F 2 "" H 8150 4450 50  0001 C CNN
F 3 "" H 8150 4450 50  0001 C CNN
	1    8150 4450
	1    0    0    -1  
$EndComp
Wire Wire Line
	8450 3350 8450 4250
Wire Wire Line
	5700 5100 7900 5100
Wire Wire Line
	7900 5100 7900 4150
Wire Wire Line
	7900 4150 8150 4150
Wire Wire Line
	8150 4150 8150 4250
Wire Wire Line
	8150 4650 8150 4750
Wire Wire Line
	8150 4750 8450 4750
Wire Wire Line
	8450 4750 8450 4650
Wire Wire Line
	6750 2250 7100 2250
Connection ~ 6750 2250
Wire Wire Line
	6750 2250 6750 2000
Connection ~ 7100 2250
Wire Wire Line
	7100 2250 7550 2250
Connection ~ 7550 2250
Wire Wire Line
	7550 2250 8100 2250
Wire Wire Line
	4200 5450 3950 5450
Wire Wire Line
	4200 5150 3950 5150
Wire Wire Line
	4200 4800 3950 4800
Wire Wire Line
	4200 4500 3950 4500
Wire Wire Line
	3750 4500 3350 4500
Wire Wire Line
	3750 4800 3350 4800
Wire Wire Line
	3750 5150 3350 5150
Wire Wire Line
	3750 5450 3350 5450
Wire Wire Line
	1200 1600 1500 1600
Wire Wire Line
	4200 3100 4000 3100
Wire Wire Line
	4000 3100 4000 2900
Wire Wire Line
	4000 2900 4200 2900
Wire Wire Line
	4000 2900 4000 2700
Wire Wire Line
	4000 2700 4200 2700
Connection ~ 4000 2900
Wire Wire Line
	4200 3700 3900 3700
Wire Wire Line
	3900 3700 3900 3550
Wire Wire Line
	3900 3550 4200 3550
Wire Wire Line
	4200 3300 3100 3300
$Comp
L Battery_charging-rescue:R-device 10kΩ
U 1 1 5EFDEAA2
P 3100 3000
F 0 "10kΩ" H 3170 3046 50  0000 L CNN
F 1 "R" H 3170 2955 50  0000 L CNN
F 2 "" V 3030 3000 50  0001 C CNN
F 3 "" H 3100 3000 50  0001 C CNN
	1    3100 3000
	1    0    0    -1  
$EndComp
$Comp
L Battery_charging-rescue:R-device 10kΩ
U 1 1 5EFDF234
P 3100 3600
F 0 "10kΩ" H 3170 3646 50  0000 L CNN
F 1 "R" H 3170 3555 50  0000 L CNN
F 2 "" V 3030 3600 50  0001 C CNN
F 3 "" H 3100 3600 50  0001 C CNN
	1    3100 3600
	1    0    0    -1  
$EndComp
Wire Wire Line
	3100 3300 3100 3150
Wire Wire Line
	3100 2850 3100 2700
Wire Wire Line
	3100 2700 4000 2700
Connection ~ 4000 2700
Wire Wire Line
	3100 3450 3100 3300
Connection ~ 3100 3300
Wire Wire Line
	3100 2700 2400 2700
Wire Wire Line
	2400 2700 2400 3200
Connection ~ 3100 2700
$Comp
L Battery_charging-rescue:R-device 10kΩ
U 1 1 5EFE99B0
P 3650 4150
F 0 "10kΩ" V 3443 4150 50  0000 C CNN
F 1 "R" V 3534 4150 50  0000 C CNN
F 2 "" V 3580 4150 50  0001 C CNN
F 3 "" H 3650 4150 50  0001 C CNN
	1    3650 4150
	0    1    1    0   
$EndComp
Wire Wire Line
	4200 4150 4050 4150
Wire Wire Line
	3500 4150 3200 4150
$Comp
L Battery_charging-rescue:C_Small-device 1µF
U 1 1 5EFEFDB5
P 3400 4350
F 0 "1µF" V 3171 4350 50  0000 C CNN
F 1 "C_Small" V 3262 4350 50  0000 C CNN
F 2 "" H 3400 4350 50  0001 C CNN
F 3 "" H 3400 4350 50  0001 C CNN
	1    3400 4350
	0    1    1    0   
$EndComp
Wire Wire Line
	3500 4350 4050 4350
Wire Wire Line
	4050 4350 4050 4150
Connection ~ 4050 4150
Wire Wire Line
	4050 4150 3800 4150
Wire Wire Line
	3300 4350 2750 4350
Wire Wire Line
	2750 4350 2750 4150
Wire Wire Line
	2750 4150 3000 4150
Wire Wire Line
	4200 2250 3900 2250
Wire Wire Line
	3900 2250 3900 2000
Wire Wire Line
	3900 2000 4200 2000
Wire Wire Line
	3900 2000 3550 2000
Connection ~ 3900 2000
$Comp
L Battery_charging-rescue:C_Small-device 4.7µF
U 1 1 5EFFD187
P 3000 2100
F 0 "4.7µF" H 3092 2146 50  0000 L CNN
F 1 "C_Small" H 3092 2055 50  0000 L CNN
F 2 "" H 3000 2100 50  0001 C CNN
F 3 "" H 3000 2100 50  0001 C CNN
	1    3000 2100
	1    0    0    -1  
$EndComp
$Comp
L Battery_charging-rescue:C_Small-device 0.1µF
U 1 1 5EFFD736
P 3550 2100
F 0 "0.1µF" H 3642 2146 50  0000 L CNN
F 1 "C_Small" H 3642 2055 50  0000 L CNN
F 2 "" H 3550 2100 50  0001 C CNN
F 3 "" H 3550 2100 50  0001 C CNN
	1    3550 2100
	1    0    0    -1  
$EndComp
Connection ~ 3550 2000
Wire Wire Line
	3550 2000 3000 2000
$Comp
L power:GND #PWR?
U 1 1 5EFFE0FE
P 7100 2450
F 0 "#PWR?" H 7100 2200 50  0001 C CNN
F 1 "GND" H 7105 2277 50  0000 C CNN
F 2 "" H 7100 2450 50  0001 C CNN
F 3 "" H 7100 2450 50  0001 C CNN
	1    7100 2450
	1    0    0    -1  
$EndComp
$Comp
L power:GND #PWR?
U 1 1 5EFFEDBF
P 7550 2450
F 0 "#PWR?" H 7550 2200 50  0001 C CNN
F 1 "GND" H 7555 2277 50  0000 C CNN
F 2 "" H 7550 2450 50  0001 C CNN
F 3 "" H 7550 2450 50  0001 C CNN
	1    7550 2450
	1    0    0    -1  
$EndComp
$Comp
L power:GND #PWR?
U 1 1 5EFFF239
P 7950 3550
F 0 "#PWR?" H 7950 3300 50  0001 C CNN
F 1 "GND" H 7955 3377 50  0000 C CNN
F 2 "" H 7950 3550 50  0001 C CNN
F 3 "" H 7950 3550 50  0001 C CNN
	1    7950 3550
	1    0    0    -1  
$EndComp
$Comp
L power:GND #PWR?
U 1 1 5EFFF76E
P 6750 4000
F 0 "#PWR?" H 6750 3750 50  0001 C CNN
F 1 "GND" H 6755 3827 50  0000 C CNN
F 2 "" H 6750 4000 50  0001 C CNN
F 3 "" H 6750 4000 50  0001 C CNN
	1    6750 4000
	1    0    0    -1  
$EndComp
Connection ~ 6750 4000
$Comp
L power:GND #PWR?
U 1 1 5EFFFC6A
P 8450 4750
F 0 "#PWR?" H 8450 4500 50  0001 C CNN
F 1 "GND" H 8455 4577 50  0000 C CNN
F 2 "" H 8450 4750 50  0001 C CNN
F 3 "" H 8450 4750 50  0001 C CNN
	1    8450 4750
	1    0    0    -1  
$EndComp
Connection ~ 8450 4750
$Comp
L power:Earth #PWR?
U 1 1 5F0005CE
P 3100 3750
F 0 "#PWR?" H 3100 3500 50  0001 C CNN
F 1 "Earth" H 3100 3600 50  0001 C CNN
F 2 "" H 3100 3750 50  0001 C CNN
F 3 "~" H 3100 3750 50  0001 C CNN
	1    3100 3750
	1    0    0    -1  
$EndComp
$Comp
L power:Earth #PWR?
U 1 1 5F001015
P 3350 4500
F 0 "#PWR?" H 3350 4250 50  0001 C CNN
F 1 "Earth" H 3350 4350 50  0001 C CNN
F 2 "" H 3350 4500 50  0001 C CNN
F 3 "~" H 3350 4500 50  0001 C CNN
	1    3350 4500
	1    0    0    -1  
$EndComp
$Comp
L power:Earth #PWR?
U 1 1 5F001B3F
P 3350 4800
F 0 "#PWR?" H 3350 4550 50  0001 C CNN
F 1 "Earth" H 3350 4650 50  0001 C CNN
F 2 "" H 3350 4800 50  0001 C CNN
F 3 "~" H 3350 4800 50  0001 C CNN
	1    3350 4800
	1    0    0    -1  
$EndComp
$Comp
L power:Earth #PWR?
U 1 1 5F00211C
P 2750 4350
F 0 "#PWR?" H 2750 4100 50  0001 C CNN
F 1 "Earth" H 2750 4200 50  0001 C CNN
F 2 "" H 2750 4350 50  0001 C CNN
F 3 "~" H 2750 4350 50  0001 C CNN
	1    2750 4350
	1    0    0    -1  
$EndComp
Connection ~ 2750 4350
$Comp
L power:Earth #PWR?
U 1 1 5F0026E2
P 3350 5150
F 0 "#PWR?" H 3350 4900 50  0001 C CNN
F 1 "Earth" H 3350 5000 50  0001 C CNN
F 2 "" H 3350 5150 50  0001 C CNN
F 3 "~" H 3350 5150 50  0001 C CNN
	1    3350 5150
	1    0    0    -1  
$EndComp
$Comp
L power:Earth #PWR?
U 1 1 5F002A3B
P 3350 5450
F 0 "#PWR?" H 3350 5200 50  0001 C CNN
F 1 "Earth" H 3350 5300 50  0001 C CNN
F 2 "" H 3350 5450 50  0001 C CNN
F 3 "~" H 3350 5450 50  0001 C CNN
	1    3350 5450
	1    0    0    -1  
$EndComp
$Comp
L power:Earth #PWR?
U 1 1 5F002EED
P 5900 4900
F 0 "#PWR?" H 5900 4650 50  0001 C CNN
F 1 "Earth" H 5900 4750 50  0001 C CNN
F 2 "" H 5900 4900 50  0001 C CNN
F 3 "~" H 5900 4900 50  0001 C CNN
	1    5900 4900
	1    0    0    -1  
$EndComp
$Comp
L power:Earth #PWR?
U 1 1 5F00361A
P 5900 4500
F 0 "#PWR?" H 5900 4250 50  0001 C CNN
F 1 "Earth" H 5900 4350 50  0001 C CNN
F 2 "" H 5900 4500 50  0001 C CNN
F 3 "~" H 5900 4500 50  0001 C CNN
	1    5900 4500
	1    0    0    -1  
$EndComp
$Comp
L power:Earth #PWR?
U 1 1 5F0039AF
P 6150 2750
F 0 "#PWR?" H 6150 2500 50  0001 C CNN
F 1 "Earth" H 6150 2600 50  0001 C CNN
F 2 "" H 6150 2750 50  0001 C CNN
F 3 "~" H 6150 2750 50  0001 C CNN
	1    6150 2750
	1    0    0    -1  
$EndComp
$Comp
L power:Earth #PWR?
U 1 1 5F0041D9
P 5900 2200
F 0 "#PWR?" H 5900 1950 50  0001 C CNN
F 1 "Earth" H 5900 2050 50  0001 C CNN
F 2 "" H 5900 2200 50  0001 C CNN
F 3 "~" H 5900 2200 50  0001 C CNN
	1    5900 2200
	1    0    0    -1  
$EndComp
$Comp
L power:Earth #PWR?
U 1 1 5F0046B0
P 5900 1800
F 0 "#PWR?" H 5900 1550 50  0001 C CNN
F 1 "Earth" H 5900 1650 50  0001 C CNN
F 2 "" H 5900 1800 50  0001 C CNN
F 3 "~" H 5900 1800 50  0001 C CNN
	1    5900 1800
	1    0    0    -1  
$EndComp
$Comp
L power:Earth #PWR?
U 1 1 5F004931
P 3950 1800
F 0 "#PWR?" H 3950 1550 50  0001 C CNN
F 1 "Earth" H 3950 1650 50  0001 C CNN
F 2 "" H 3950 1800 50  0001 C CNN
F 3 "~" H 3950 1800 50  0001 C CNN
	1    3950 1800
	1    0    0    -1  
$EndComp
$Comp
L power:Earth #PWR?
U 1 1 5F004E4D
P 3550 2200
F 0 "#PWR?" H 3550 1950 50  0001 C CNN
F 1 "Earth" H 3550 2050 50  0001 C CNN
F 2 "" H 3550 2200 50  0001 C CNN
F 3 "~" H 3550 2200 50  0001 C CNN
	1    3550 2200
	1    0    0    -1  
$EndComp
$Comp
L power:Earth #PWR?
U 1 1 5F005591
P 3000 2200
F 0 "#PWR?" H 3000 1950 50  0001 C CNN
F 1 "Earth" H 3000 2050 50  0001 C CNN
F 2 "" H 3000 2200 50  0001 C CNN
F 3 "~" H 3000 2200 50  0001 C CNN
	1    3000 2200
	1    0    0    -1  
$EndComp
$Comp
L power:Earth #PWR?
U 1 1 5F005B37
P 2400 3400
F 0 "#PWR?" H 2400 3150 50  0001 C CNN
F 1 "Earth" H 2400 3250 50  0001 C CNN
F 2 "" H 2400 3400 50  0001 C CNN
F 3 "~" H 2400 3400 50  0001 C CNN
	1    2400 3400
	1    0    0    -1  
$EndComp
$Comp
L power:Earth #PWR?
U 1 1 5F006376
P 3900 3700
F 0 "#PWR?" H 3900 3450 50  0001 C CNN
F 1 "Earth" H 3900 3550 50  0001 C CNN
F 2 "" H 3900 3700 50  0001 C CNN
F 3 "~" H 3900 3700 50  0001 C CNN
	1    3900 3700
	1    0    0    -1  
$EndComp
Connection ~ 3900 3700
Text HLabel 1200 1600 0    50   Input ~ 0
VIN
Text HLabel 8100 2250 2    50   Output ~ 0
SYSTEM_LOAD
Wire Wire Line
	5850 2900 5850 3100
Connection ~ 5850 2900
Wire Wire Line
	5850 3100 5850 3150
Wire Wire Line
	5700 3100 6450 3100
Wire Wire Line
	1500 4150 1500 1800
Wire Wire Line
	1500 1800 2100 1800
Wire Wire Line
	2100 1800 2100 1600
Connection ~ 1500 4150
Connection ~ 2100 1600
Wire Wire Line
	2100 1600 3950 1600
$Comp
L Battery_charging-rescue:Q_NMOS_DGS-device Q?
U 1 1 5F022E44
P 6650 3700
F 0 "Q?" H 6856 3746 50  0000 L CNN
F 1 "Q_NMOS_DGS" H 6856 3655 50  0000 L CNN
F 2 "" H 6850 3800 50  0001 C CNN
F 3 "" H 6650 3700 50  0001 C CNN
	1    6650 3700
	1    0    0    -1  
$EndComp
$EndSCHEMATC
