(kicad_pcb (version 20171130) (host pcbnew "(5.1.2-1)-1")

  (general
    (thickness 1.6)
    (drawings 0)
    (tracks 134)
    (zones 0)
    (modules 16)
    (nets 12)
  )

  (page A4)
  (layers
    (0 F.Cu signal)
    (31 B.Cu signal)
    (32 B.Adhes user)
    (33 F.Adhes user)
    (34 B.Paste user)
    (35 F.Paste user)
    (36 B.SilkS user)
    (37 F.SilkS user)
    (38 B.Mask user)
    (39 F.Mask user)
    (40 Dwgs.User user)
    (41 Cmts.User user)
    (42 Eco1.User user)
    (43 Eco2.User user)
    (44 Edge.Cuts user)
    (45 Margin user)
    (46 B.CrtYd user)
    (47 F.CrtYd user)
    (48 B.Fab user)
    (49 F.Fab user)
  )

  (setup
    (last_trace_width 0.25)
    (user_trace_width 1.5)
    (trace_clearance 0.2)
    (zone_clearance 0.508)
    (zone_45_only no)
    (trace_min 0.2)
    (via_size 0.8)
    (via_drill 0.4)
    (via_min_size 0.4)
    (via_min_drill 0.3)
    (user_via 1.8 1.5)
    (uvia_size 0.3)
    (uvia_drill 0.1)
    (uvias_allowed no)
    (uvia_min_size 0.2)
    (uvia_min_drill 0.1)
    (edge_width 0.05)
    (segment_width 0.2)
    (pcb_text_width 0.3)
    (pcb_text_size 1.5 1.5)
    (mod_edge_width 0.12)
    (mod_text_size 1 1)
    (mod_text_width 0.15)
    (pad_size 1.524 1.524)
    (pad_drill 0.762)
    (pad_to_mask_clearance 0.051)
    (solder_mask_min_width 0.25)
    (aux_axis_origin 0 0)
    (visible_elements FFFFFF7F)
    (pcbplotparams
      (layerselection 0x010fc_ffffffff)
      (usegerberextensions false)
      (usegerberattributes false)
      (usegerberadvancedattributes false)
      (creategerberjobfile false)
      (excludeedgelayer true)
      (linewidth 0.100000)
      (plotframeref false)
      (viasonmask false)
      (mode 1)
      (useauxorigin false)
      (hpglpennumber 1)
      (hpglpenspeed 20)
      (hpglpendiameter 15.000000)
      (psnegative false)
      (psa4output false)
      (plotreference true)
      (plotvalue true)
      (plotinvisibletext false)
      (padsonsilk false)
      (subtractmaskfromsilk false)
      (outputformat 1)
      (mirror false)
      (drillshape 0)
      (scaleselection 1)
      (outputdirectory "../"))
  )

  (net 0 "")
  (net 1 GND)
  (net 2 "Net-(0.1uF2-Pad2)")
  (net 3 "Net-(0.1uF2-Pad1)")
  (net 4 "Net-(500K1-Pad2)")
  (net 5 "Net-(Programmable_port1-Pad1)")
  (net 6 "Net-(0.1uF1-Pad1)")
  (net 7 "Net-(10m1-Pad2)")
  (net 8 "Net-(150Ω1111111111-Pad2)")
  (net 9 "Net-(150Ω1111111111-Pad1)")
  (net 10 "Net-(150Ω2111111111-Pad1)")
  (net 11 "Net-(150Ω2111111111-Pad2)")

  (net_class Default "This is the default net class."
    (clearance 0.2)
    (trace_width 0.25)
    (via_dia 0.8)
    (via_drill 0.4)
    (uvia_dia 0.3)
    (uvia_drill 0.1)
    (add_net GND)
    (add_net "Net-(0.1uF1-Pad1)")
    (add_net "Net-(0.1uF2-Pad1)")
    (add_net "Net-(0.1uF2-Pad2)")
    (add_net "Net-(10m1-Pad2)")
    (add_net "Net-(150Ω1111111111-Pad1)")
    (add_net "Net-(150Ω1111111111-Pad2)")
    (add_net "Net-(150Ω2111111111-Pad1)")
    (add_net "Net-(150Ω2111111111-Pad2)")
    (add_net "Net-(500K1-Pad2)")
    (add_net "Net-(Programmable_port1-Pad1)")
  )

  (module Capacitors_SMD:C_0805_HandSoldering (layer F.Cu) (tedit 58AA84A8) (tstamp 5E3E0B93)
    (at 67.75 138.9)
    (descr "Capacitor SMD 0805, hand soldering")
    (tags "capacitor 0805")
    (path /5E38294E)
    (attr smd)
    (fp_text reference 0.1uF1 (at 0 -1.75) (layer F.SilkS)
      (effects (font (size 1 1) (thickness 0.15)))
    )
    (fp_text value C_Small (at 0 1.75) (layer F.Fab)
      (effects (font (size 1 1) (thickness 0.15)))
    )
    (fp_line (start 2.25 0.87) (end -2.25 0.87) (layer F.CrtYd) (width 0.05))
    (fp_line (start 2.25 0.87) (end 2.25 -0.88) (layer F.CrtYd) (width 0.05))
    (fp_line (start -2.25 -0.88) (end -2.25 0.87) (layer F.CrtYd) (width 0.05))
    (fp_line (start -2.25 -0.88) (end 2.25 -0.88) (layer F.CrtYd) (width 0.05))
    (fp_line (start -0.5 0.85) (end 0.5 0.85) (layer F.SilkS) (width 0.12))
    (fp_line (start 0.5 -0.85) (end -0.5 -0.85) (layer F.SilkS) (width 0.12))
    (fp_line (start -1 -0.62) (end 1 -0.62) (layer F.Fab) (width 0.1))
    (fp_line (start 1 -0.62) (end 1 0.62) (layer F.Fab) (width 0.1))
    (fp_line (start 1 0.62) (end -1 0.62) (layer F.Fab) (width 0.1))
    (fp_line (start -1 0.62) (end -1 -0.62) (layer F.Fab) (width 0.1))
    (fp_text user %R (at 0 -1.75) (layer F.Fab)
      (effects (font (size 1 1) (thickness 0.15)))
    )
    (pad 2 smd rect (at 1.25 0) (size 1.5 1.25) (layers F.Cu F.Paste F.Mask)
      (net 1 GND))
    (pad 1 smd rect (at -1.25 0) (size 1.5 1.25) (layers F.Cu F.Paste F.Mask)
      (net 6 "Net-(0.1uF1-Pad1)"))
    (model Capacitors_SMD.3dshapes/C_0805.wrl
      (at (xyz 0 0 0))
      (scale (xyz 1 1 1))
      (rotate (xyz 0 0 0))
    )
  )

  (module Capacitors_SMD:C_0805_HandSoldering (layer F.Cu) (tedit 58AA84A8) (tstamp 5E3E0BA4)
    (at 62.75 152.4 180)
    (descr "Capacitor SMD 0805, hand soldering")
    (tags "capacitor 0805")
    (path /5E38331F)
    (attr smd)
    (fp_text reference 0.1uF2 (at 0 -1.75) (layer F.SilkS)
      (effects (font (size 1 1) (thickness 0.15)))
    )
    (fp_text value C_Small (at 0 1.75) (layer F.Fab)
      (effects (font (size 1 1) (thickness 0.15)))
    )
    (fp_line (start 2.25 0.87) (end -2.25 0.87) (layer F.CrtYd) (width 0.05))
    (fp_line (start 2.25 0.87) (end 2.25 -0.88) (layer F.CrtYd) (width 0.05))
    (fp_line (start -2.25 -0.88) (end -2.25 0.87) (layer F.CrtYd) (width 0.05))
    (fp_line (start -2.25 -0.88) (end 2.25 -0.88) (layer F.CrtYd) (width 0.05))
    (fp_line (start -0.5 0.85) (end 0.5 0.85) (layer F.SilkS) (width 0.12))
    (fp_line (start 0.5 -0.85) (end -0.5 -0.85) (layer F.SilkS) (width 0.12))
    (fp_line (start -1 -0.62) (end 1 -0.62) (layer F.Fab) (width 0.1))
    (fp_line (start 1 -0.62) (end 1 0.62) (layer F.Fab) (width 0.1))
    (fp_line (start 1 0.62) (end -1 0.62) (layer F.Fab) (width 0.1))
    (fp_line (start -1 0.62) (end -1 -0.62) (layer F.Fab) (width 0.1))
    (fp_text user %R (at 0 -1.75) (layer F.Fab)
      (effects (font (size 1 1) (thickness 0.15)))
    )
    (pad 2 smd rect (at 1.25 0 180) (size 1.5 1.25) (layers F.Cu F.Paste F.Mask)
      (net 2 "Net-(0.1uF2-Pad2)"))
    (pad 1 smd rect (at -1.25 0 180) (size 1.5 1.25) (layers F.Cu F.Paste F.Mask)
      (net 3 "Net-(0.1uF2-Pad1)"))
    (model Capacitors_SMD.3dshapes/C_0805.wrl
      (at (xyz 0 0 0))
      (scale (xyz 1 1 1))
      (rotate (xyz 0 0 0))
    )
  )

  (module Resistors_SMD:R_0805_HandSoldering (layer F.Cu) (tedit 58E0A804) (tstamp 5E3E0BB5)
    (at 62.7 154.5)
    (descr "Resistor SMD 0805, hand soldering")
    (tags "resistor 0805")
    (path /5E359E7E)
    (attr smd)
    (fp_text reference 10m1 (at 0 -1.7) (layer F.SilkS)
      (effects (font (size 1 1) (thickness 0.15)))
    )
    (fp_text value R_Small (at 0 1.75) (layer F.Fab)
      (effects (font (size 1 1) (thickness 0.15)))
    )
    (fp_text user %R (at 0 0) (layer F.Fab)
      (effects (font (size 0.5 0.5) (thickness 0.075)))
    )
    (fp_line (start -1 0.62) (end -1 -0.62) (layer F.Fab) (width 0.1))
    (fp_line (start 1 0.62) (end -1 0.62) (layer F.Fab) (width 0.1))
    (fp_line (start 1 -0.62) (end 1 0.62) (layer F.Fab) (width 0.1))
    (fp_line (start -1 -0.62) (end 1 -0.62) (layer F.Fab) (width 0.1))
    (fp_line (start 0.6 0.88) (end -0.6 0.88) (layer F.SilkS) (width 0.12))
    (fp_line (start -0.6 -0.88) (end 0.6 -0.88) (layer F.SilkS) (width 0.12))
    (fp_line (start -2.35 -0.9) (end 2.35 -0.9) (layer F.CrtYd) (width 0.05))
    (fp_line (start -2.35 -0.9) (end -2.35 0.9) (layer F.CrtYd) (width 0.05))
    (fp_line (start 2.35 0.9) (end 2.35 -0.9) (layer F.CrtYd) (width 0.05))
    (fp_line (start 2.35 0.9) (end -2.35 0.9) (layer F.CrtYd) (width 0.05))
    (pad 1 smd rect (at -1.35 0) (size 1.5 1.3) (layers F.Cu F.Paste F.Mask)
      (net 2 "Net-(0.1uF2-Pad2)"))
    (pad 2 smd rect (at 1.35 0) (size 1.5 1.3) (layers F.Cu F.Paste F.Mask)
      (net 7 "Net-(10m1-Pad2)"))
    (model ${KISYS3DMOD}/Resistors_SMD.3dshapes/R_0805.wrl
      (at (xyz 0 0 0))
      (scale (xyz 1 1 1))
      (rotate (xyz 0 0 0))
    )
  )

  (module Resistors_SMD:R_0805_HandSoldering (layer F.Cu) (tedit 58E0A804) (tstamp 5E3E0BC6)
    (at 100.1 154.7)
    (descr "Resistor SMD 0805, hand soldering")
    (tags "resistor 0805")
    (path /5E359C56)
    (attr smd)
    (fp_text reference 150Ω1111111111 (at 0 -1.7) (layer F.SilkS)
      (effects (font (size 1 1) (thickness 0.15)))
    )
    (fp_text value R_Small (at 0 1.75) (layer F.Fab)
      (effects (font (size 1 1) (thickness 0.15)))
    )
    (fp_line (start 2.35 0.9) (end -2.35 0.9) (layer F.CrtYd) (width 0.05))
    (fp_line (start 2.35 0.9) (end 2.35 -0.9) (layer F.CrtYd) (width 0.05))
    (fp_line (start -2.35 -0.9) (end -2.35 0.9) (layer F.CrtYd) (width 0.05))
    (fp_line (start -2.35 -0.9) (end 2.35 -0.9) (layer F.CrtYd) (width 0.05))
    (fp_line (start -0.6 -0.88) (end 0.6 -0.88) (layer F.SilkS) (width 0.12))
    (fp_line (start 0.6 0.88) (end -0.6 0.88) (layer F.SilkS) (width 0.12))
    (fp_line (start -1 -0.62) (end 1 -0.62) (layer F.Fab) (width 0.1))
    (fp_line (start 1 -0.62) (end 1 0.62) (layer F.Fab) (width 0.1))
    (fp_line (start 1 0.62) (end -1 0.62) (layer F.Fab) (width 0.1))
    (fp_line (start -1 0.62) (end -1 -0.62) (layer F.Fab) (width 0.1))
    (fp_text user %R (at 0 0) (layer F.Fab)
      (effects (font (size 0.5 0.5) (thickness 0.075)))
    )
    (pad 2 smd rect (at 1.35 0) (size 1.5 1.3) (layers F.Cu F.Paste F.Mask)
      (net 8 "Net-(150Ω1111111111-Pad2)"))
    (pad 1 smd rect (at -1.35 0) (size 1.5 1.3) (layers F.Cu F.Paste F.Mask)
      (net 9 "Net-(150Ω1111111111-Pad1)"))
    (model ${KISYS3DMOD}/Resistors_SMD.3dshapes/R_0805.wrl
      (at (xyz 0 0 0))
      (scale (xyz 1 1 1))
      (rotate (xyz 0 0 0))
    )
  )

  (module Resistors_SMD:R_0805_HandSoldering (layer F.Cu) (tedit 58E0A804) (tstamp 5E3E0BD7)
    (at 78.75 167.6)
    (descr "Resistor SMD 0805, hand soldering")
    (tags "resistor 0805")
    (path /5E359A97)
    (attr smd)
    (fp_text reference 150Ω2111111111 (at 0 -1.7) (layer F.SilkS)
      (effects (font (size 1 1) (thickness 0.15)))
    )
    (fp_text value R_Small (at 0 1.75) (layer F.Fab)
      (effects (font (size 1 1) (thickness 0.15)))
    )
    (fp_text user %R (at 0 0) (layer F.Fab)
      (effects (font (size 0.5 0.5) (thickness 0.075)))
    )
    (fp_line (start -1 0.62) (end -1 -0.62) (layer F.Fab) (width 0.1))
    (fp_line (start 1 0.62) (end -1 0.62) (layer F.Fab) (width 0.1))
    (fp_line (start 1 -0.62) (end 1 0.62) (layer F.Fab) (width 0.1))
    (fp_line (start -1 -0.62) (end 1 -0.62) (layer F.Fab) (width 0.1))
    (fp_line (start 0.6 0.88) (end -0.6 0.88) (layer F.SilkS) (width 0.12))
    (fp_line (start -0.6 -0.88) (end 0.6 -0.88) (layer F.SilkS) (width 0.12))
    (fp_line (start -2.35 -0.9) (end 2.35 -0.9) (layer F.CrtYd) (width 0.05))
    (fp_line (start -2.35 -0.9) (end -2.35 0.9) (layer F.CrtYd) (width 0.05))
    (fp_line (start 2.35 0.9) (end 2.35 -0.9) (layer F.CrtYd) (width 0.05))
    (fp_line (start 2.35 0.9) (end -2.35 0.9) (layer F.CrtYd) (width 0.05))
    (pad 1 smd rect (at -1.35 0) (size 1.5 1.3) (layers F.Cu F.Paste F.Mask)
      (net 10 "Net-(150Ω2111111111-Pad1)"))
    (pad 2 smd rect (at 1.35 0) (size 1.5 1.3) (layers F.Cu F.Paste F.Mask)
      (net 11 "Net-(150Ω2111111111-Pad2)"))
    (model ${KISYS3DMOD}/Resistors_SMD.3dshapes/R_0805.wrl
      (at (xyz 0 0 0))
      (scale (xyz 1 1 1))
      (rotate (xyz 0 0 0))
    )
  )

  (module Capacitors_SMD:C_0805_HandSoldering (layer F.Cu) (tedit 58AA84A8) (tstamp 5E3E0BE8)
    (at 57.6 138.8 90)
    (descr "Capacitor SMD 0805, hand soldering")
    (tags "capacitor 0805")
    (path /5E383108)
    (attr smd)
    (fp_text reference 4.7uF1 (at 0 -1.75 90) (layer F.SilkS)
      (effects (font (size 1 1) (thickness 0.15)))
    )
    (fp_text value C_Small (at 0 1.75 90) (layer F.Fab)
      (effects (font (size 1 1) (thickness 0.15)))
    )
    (fp_text user %R (at 0 -1.75 90) (layer F.Fab)
      (effects (font (size 1 1) (thickness 0.15)))
    )
    (fp_line (start -1 0.62) (end -1 -0.62) (layer F.Fab) (width 0.1))
    (fp_line (start 1 0.62) (end -1 0.62) (layer F.Fab) (width 0.1))
    (fp_line (start 1 -0.62) (end 1 0.62) (layer F.Fab) (width 0.1))
    (fp_line (start -1 -0.62) (end 1 -0.62) (layer F.Fab) (width 0.1))
    (fp_line (start 0.5 -0.85) (end -0.5 -0.85) (layer F.SilkS) (width 0.12))
    (fp_line (start -0.5 0.85) (end 0.5 0.85) (layer F.SilkS) (width 0.12))
    (fp_line (start -2.25 -0.88) (end 2.25 -0.88) (layer F.CrtYd) (width 0.05))
    (fp_line (start -2.25 -0.88) (end -2.25 0.87) (layer F.CrtYd) (width 0.05))
    (fp_line (start 2.25 0.87) (end 2.25 -0.88) (layer F.CrtYd) (width 0.05))
    (fp_line (start 2.25 0.87) (end -2.25 0.87) (layer F.CrtYd) (width 0.05))
    (pad 1 smd rect (at -1.25 0 90) (size 1.5 1.25) (layers F.Cu F.Paste F.Mask)
      (net 2 "Net-(0.1uF2-Pad2)"))
    (pad 2 smd rect (at 1.25 0 90) (size 1.5 1.25) (layers F.Cu F.Paste F.Mask)
      (net 1 GND))
    (model Capacitors_SMD.3dshapes/C_0805.wrl
      (at (xyz 0 0 0))
      (scale (xyz 1 1 1))
      (rotate (xyz 0 0 0))
    )
  )

  (module Resistors_SMD:R_0805_HandSoldering (layer F.Cu) (tedit 58E0A804) (tstamp 5E3E0BF9)
    (at 62.75 148.4)
    (descr "Resistor SMD 0805, hand soldering")
    (tags "resistor 0805")
    (path /5E3596F9)
    (attr smd)
    (fp_text reference 500K1 (at 0 -1.7) (layer F.SilkS)
      (effects (font (size 1 1) (thickness 0.15)))
    )
    (fp_text value R_Small (at -0.025001 1.959999) (layer F.Fab)
      (effects (font (size 1 1) (thickness 0.15)))
    )
    (fp_line (start 2.35 0.9) (end -2.35 0.9) (layer F.CrtYd) (width 0.05))
    (fp_line (start 2.35 0.9) (end 2.35 -0.9) (layer F.CrtYd) (width 0.05))
    (fp_line (start -2.35 -0.9) (end -2.35 0.9) (layer F.CrtYd) (width 0.05))
    (fp_line (start -2.35 -0.9) (end 2.35 -0.9) (layer F.CrtYd) (width 0.05))
    (fp_line (start -0.6 -0.88) (end 0.6 -0.88) (layer F.SilkS) (width 0.12))
    (fp_line (start 0.6 0.88) (end -0.6 0.88) (layer F.SilkS) (width 0.12))
    (fp_line (start -1 -0.62) (end 1 -0.62) (layer F.Fab) (width 0.1))
    (fp_line (start 1 -0.62) (end 1 0.62) (layer F.Fab) (width 0.1))
    (fp_line (start 1 0.62) (end -1 0.62) (layer F.Fab) (width 0.1))
    (fp_line (start -1 0.62) (end -1 -0.62) (layer F.Fab) (width 0.1))
    (fp_text user %R (at 0 0) (layer F.Fab)
      (effects (font (size 0.5 0.5) (thickness 0.075)))
    )
    (pad 2 smd rect (at 1.35 0) (size 1.5 1.3) (layers F.Cu F.Paste F.Mask)
      (net 4 "Net-(500K1-Pad2)"))
    (pad 1 smd rect (at -1.35 0) (size 1.5 1.3) (layers F.Cu F.Paste F.Mask)
      (net 2 "Net-(0.1uF2-Pad2)"))
    (model ${KISYS3DMOD}/Resistors_SMD.3dshapes/R_0805.wrl
      (at (xyz 0 0 0))
      (scale (xyz 1 1 1))
      (rotate (xyz 0 0 0))
    )
  )

  (module Resistors_SMD:R_0805_HandSoldering (layer F.Cu) (tedit 58E0A804) (tstamp 5E3E0C0A)
    (at 62.75 146.3 180)
    (descr "Resistor SMD 0805, hand soldering")
    (tags "resistor 0805")
    (path /5E35A067)
    (attr smd)
    (fp_text reference 500K2 (at 0 -1.7) (layer F.SilkS)
      (effects (font (size 1 1) (thickness 0.15)))
    )
    (fp_text value R_Small (at 0 1.75) (layer F.Fab)
      (effects (font (size 1 1) (thickness 0.15)))
    )
    (fp_line (start 2.35 0.9) (end -2.35 0.9) (layer F.CrtYd) (width 0.05))
    (fp_line (start 2.35 0.9) (end 2.35 -0.9) (layer F.CrtYd) (width 0.05))
    (fp_line (start -2.35 -0.9) (end -2.35 0.9) (layer F.CrtYd) (width 0.05))
    (fp_line (start -2.35 -0.9) (end 2.35 -0.9) (layer F.CrtYd) (width 0.05))
    (fp_line (start -0.6 -0.88) (end 0.6 -0.88) (layer F.SilkS) (width 0.12))
    (fp_line (start 0.6 0.88) (end -0.6 0.88) (layer F.SilkS) (width 0.12))
    (fp_line (start -1 -0.62) (end 1 -0.62) (layer F.Fab) (width 0.1))
    (fp_line (start 1 -0.62) (end 1 0.62) (layer F.Fab) (width 0.1))
    (fp_line (start 1 0.62) (end -1 0.62) (layer F.Fab) (width 0.1))
    (fp_line (start -1 0.62) (end -1 -0.62) (layer F.Fab) (width 0.1))
    (fp_text user %R (at 0 0) (layer F.Fab)
      (effects (font (size 0.5 0.5) (thickness 0.075)))
    )
    (pad 2 smd rect (at 1.35 0 180) (size 1.5 1.3) (layers F.Cu F.Paste F.Mask)
      (net 2 "Net-(0.1uF2-Pad2)"))
    (pad 1 smd rect (at -1.35 0 180) (size 1.5 1.3) (layers F.Cu F.Paste F.Mask)
      (net 4 "Net-(500K1-Pad2)"))
    (model ${KISYS3DMOD}/Resistors_SMD.3dshapes/R_0805.wrl
      (at (xyz 0 0 0))
      (scale (xyz 1 1 1))
      (rotate (xyz 0 0 0))
    )
  )

  (module Resistors_SMD:R_0805_HandSoldering (layer F.Cu) (tedit 58E0A804) (tstamp 5E3E0C1B)
    (at 62.75 150.4)
    (descr "Resistor SMD 0805, hand soldering")
    (tags "resistor 0805")
    (path /5E35A2A4)
    (attr smd)
    (fp_text reference 500Ω1111111111 (at 0 -1.7) (layer F.SilkS)
      (effects (font (size 1 1) (thickness 0.15)))
    )
    (fp_text value R_Small (at 0 1.75) (layer F.Fab)
      (effects (font (size 1 1) (thickness 0.15)))
    )
    (fp_text user %R (at 0 0) (layer F.Fab)
      (effects (font (size 0.5 0.5) (thickness 0.075)))
    )
    (fp_line (start -1 0.62) (end -1 -0.62) (layer F.Fab) (width 0.1))
    (fp_line (start 1 0.62) (end -1 0.62) (layer F.Fab) (width 0.1))
    (fp_line (start 1 -0.62) (end 1 0.62) (layer F.Fab) (width 0.1))
    (fp_line (start -1 -0.62) (end 1 -0.62) (layer F.Fab) (width 0.1))
    (fp_line (start 0.6 0.88) (end -0.6 0.88) (layer F.SilkS) (width 0.12))
    (fp_line (start -0.6 -0.88) (end 0.6 -0.88) (layer F.SilkS) (width 0.12))
    (fp_line (start -2.35 -0.9) (end 2.35 -0.9) (layer F.CrtYd) (width 0.05))
    (fp_line (start -2.35 -0.9) (end -2.35 0.9) (layer F.CrtYd) (width 0.05))
    (fp_line (start 2.35 0.9) (end 2.35 -0.9) (layer F.CrtYd) (width 0.05))
    (fp_line (start 2.35 0.9) (end -2.35 0.9) (layer F.CrtYd) (width 0.05))
    (pad 1 smd rect (at -1.35 0) (size 1.5 1.3) (layers F.Cu F.Paste F.Mask)
      (net 2 "Net-(0.1uF2-Pad2)"))
    (pad 2 smd rect (at 1.35 0) (size 1.5 1.3) (layers F.Cu F.Paste F.Mask)
      (net 3 "Net-(0.1uF2-Pad1)"))
    (model ${KISYS3DMOD}/Resistors_SMD.3dshapes/R_0805.wrl
      (at (xyz 0 0 0))
      (scale (xyz 1 1 1))
      (rotate (xyz 0 0 0))
    )
  )

  (module Diodes_THT:D_5W_P12.70mm_Horizontal (layer F.Cu) (tedit 5921392E) (tstamp 5E3E0C7A)
    (at 71.2 167.5 90)
    (descr "D, 5W series, Axial, Horizontal, pin pitch=12.7mm, , length*diameter=8.9*3.7mm^2, , http://www.diodes.com/_files/packages/8686949.gif")
    (tags "D 5W series Axial Horizontal pin pitch 12.7mm  length 8.9mm diameter 3.7mm")
    (path /5E3591E8)
    (fp_text reference D1 (at 6.35 -2.91 90) (layer F.SilkS)
      (effects (font (size 1 1) (thickness 0.15)))
    )
    (fp_text value D_Zener_Small (at 6.35 2.91 90) (layer F.Fab)
      (effects (font (size 1 1) (thickness 0.15)))
    )
    (fp_text user %R (at 6.35 0 90) (layer F.Fab)
      (effects (font (size 1 1) (thickness 0.15)))
    )
    (fp_line (start 1.9 -1.85) (end 1.9 1.85) (layer F.Fab) (width 0.1))
    (fp_line (start 1.9 1.85) (end 10.8 1.85) (layer F.Fab) (width 0.1))
    (fp_line (start 10.8 1.85) (end 10.8 -1.85) (layer F.Fab) (width 0.1))
    (fp_line (start 10.8 -1.85) (end 1.9 -1.85) (layer F.Fab) (width 0.1))
    (fp_line (start 0 0) (end 1.9 0) (layer F.Fab) (width 0.1))
    (fp_line (start 12.7 0) (end 10.8 0) (layer F.Fab) (width 0.1))
    (fp_line (start 3.235 -1.85) (end 3.235 1.85) (layer F.Fab) (width 0.1))
    (fp_line (start 1.84 -1.91) (end 1.84 1.91) (layer F.SilkS) (width 0.12))
    (fp_line (start 1.84 1.91) (end 10.86 1.91) (layer F.SilkS) (width 0.12))
    (fp_line (start 10.86 1.91) (end 10.86 -1.91) (layer F.SilkS) (width 0.12))
    (fp_line (start 10.86 -1.91) (end 1.84 -1.91) (layer F.SilkS) (width 0.12))
    (fp_line (start 1.58 0) (end 1.84 0) (layer F.SilkS) (width 0.12))
    (fp_line (start 11.12 0) (end 10.86 0) (layer F.SilkS) (width 0.12))
    (fp_line (start 3.235 -1.91) (end 3.235 1.91) (layer F.SilkS) (width 0.12))
    (fp_line (start -1.65 -2.2) (end -1.65 2.2) (layer F.CrtYd) (width 0.05))
    (fp_line (start -1.65 2.2) (end 14.35 2.2) (layer F.CrtYd) (width 0.05))
    (fp_line (start 14.35 2.2) (end 14.35 -2.2) (layer F.CrtYd) (width 0.05))
    (fp_line (start 14.35 -2.2) (end -1.65 -2.2) (layer F.CrtYd) (width 0.05))
    (pad 1 thru_hole rect (at 0 0 90) (size 2.8 2.8) (drill 1.4) (layers *.Cu *.Mask)
      (net 10 "Net-(150Ω2111111111-Pad1)"))
    (pad 2 thru_hole oval (at 12.7 0 90) (size 2.8 2.8) (drill 1.4) (layers *.Cu *.Mask)
      (net 7 "Net-(10m1-Pad2)"))
    (model ${KISYS3DMOD}/Diodes_THT.3dshapes/D_5W_P12.70mm_Horizontal.wrl
      (at (xyz 0 0 0))
      (scale (xyz 0.393701 0.393701 0.393701))
      (rotate (xyz 0 0 0))
    )
  )

  (module Diodes_THT:D_5W_P12.70mm_Horizontal (layer F.Cu) (tedit 5921392E) (tstamp 5E3E0C93)
    (at 78.3 142.2 270)
    (descr "D, 5W series, Axial, Horizontal, pin pitch=12.7mm, , length*diameter=8.9*3.7mm^2, , http://www.diodes.com/_files/packages/8686949.gif")
    (tags "D 5W series Axial Horizontal pin pitch 12.7mm  length 8.9mm diameter 3.7mm")
    (path /5E358EFC)
    (fp_text reference D2 (at 6.35 -2.91 90) (layer F.SilkS)
      (effects (font (size 1 1) (thickness 0.15)))
    )
    (fp_text value D_Zener_Small (at 6.35 2.91 90) (layer F.Fab)
      (effects (font (size 1 1) (thickness 0.15)))
    )
    (fp_line (start 14.35 -2.2) (end -1.65 -2.2) (layer F.CrtYd) (width 0.05))
    (fp_line (start 14.35 2.2) (end 14.35 -2.2) (layer F.CrtYd) (width 0.05))
    (fp_line (start -1.65 2.2) (end 14.35 2.2) (layer F.CrtYd) (width 0.05))
    (fp_line (start -1.65 -2.2) (end -1.65 2.2) (layer F.CrtYd) (width 0.05))
    (fp_line (start 3.235 -1.91) (end 3.235 1.91) (layer F.SilkS) (width 0.12))
    (fp_line (start 11.12 0) (end 10.86 0) (layer F.SilkS) (width 0.12))
    (fp_line (start 1.58 0) (end 1.84 0) (layer F.SilkS) (width 0.12))
    (fp_line (start 10.86 -1.91) (end 1.84 -1.91) (layer F.SilkS) (width 0.12))
    (fp_line (start 10.86 1.91) (end 10.86 -1.91) (layer F.SilkS) (width 0.12))
    (fp_line (start 1.84 1.91) (end 10.86 1.91) (layer F.SilkS) (width 0.12))
    (fp_line (start 1.84 -1.91) (end 1.84 1.91) (layer F.SilkS) (width 0.12))
    (fp_line (start 3.235 -1.85) (end 3.235 1.85) (layer F.Fab) (width 0.1))
    (fp_line (start 12.7 0) (end 10.8 0) (layer F.Fab) (width 0.1))
    (fp_line (start 0 0) (end 1.9 0) (layer F.Fab) (width 0.1))
    (fp_line (start 10.8 -1.85) (end 1.9 -1.85) (layer F.Fab) (width 0.1))
    (fp_line (start 10.8 1.85) (end 10.8 -1.85) (layer F.Fab) (width 0.1))
    (fp_line (start 1.9 1.85) (end 10.8 1.85) (layer F.Fab) (width 0.1))
    (fp_line (start 1.9 -1.85) (end 1.9 1.85) (layer F.Fab) (width 0.1))
    (fp_text user %R (at 6.35 0 90) (layer F.Fab)
      (effects (font (size 1 1) (thickness 0.15)))
    )
    (pad 2 thru_hole oval (at 12.7 0 270) (size 2.8 2.8) (drill 1.4) (layers *.Cu *.Mask)
      (net 7 "Net-(10m1-Pad2)"))
    (pad 1 thru_hole rect (at 0 0 270) (size 2.8 2.8) (drill 1.4) (layers *.Cu *.Mask)
      (net 9 "Net-(150Ω1111111111-Pad1)"))
    (model ${KISYS3DMOD}/Diodes_THT.3dshapes/D_5W_P12.70mm_Horizontal.wrl
      (at (xyz 0 0 0))
      (scale (xyz 0.393701 0.393701 0.393701))
      (rotate (xyz 0 0 0))
    )
  )

  (module Pin_Headers:Pin_Header_Straight_1x02_Pitch2.00mm (layer F.Cu) (tedit 59650533) (tstamp 5E59C506)
    (at 99.9 163.9)
    (descr "Through hole straight pin header, 1x02, 2.00mm pitch, single row")
    (tags "Through hole pin header THT 1x02 2.00mm single row")
    (path /5E430531)
    (fp_text reference I2C1 (at 0 -2.06) (layer F.SilkS)
      (effects (font (size 1 1) (thickness 0.15)))
    )
    (fp_text value Conn_01x02 (at 0 4.06) (layer F.Fab)
      (effects (font (size 1 1) (thickness 0.15)))
    )
    (fp_text user %R (at -1.5 0.9 90) (layer F.Fab)
      (effects (font (size 1 1) (thickness 0.15)))
    )
    (fp_line (start 1.5 -1.5) (end -1.5 -1.5) (layer F.CrtYd) (width 0.05))
    (fp_line (start 1.5 3.5) (end 1.5 -1.5) (layer F.CrtYd) (width 0.05))
    (fp_line (start -1.5 3.5) (end 1.5 3.5) (layer F.CrtYd) (width 0.05))
    (fp_line (start -1.5 -1.5) (end -1.5 3.5) (layer F.CrtYd) (width 0.05))
    (fp_line (start -1.06 -1.06) (end 0 -1.06) (layer F.SilkS) (width 0.12))
    (fp_line (start -1.06 0) (end -1.06 -1.06) (layer F.SilkS) (width 0.12))
    (fp_line (start -1.06 1) (end 1.06 1) (layer F.SilkS) (width 0.12))
    (fp_line (start 1.06 1) (end 1.06 3.06) (layer F.SilkS) (width 0.12))
    (fp_line (start -1.06 1) (end -1.06 3.06) (layer F.SilkS) (width 0.12))
    (fp_line (start -1.06 3.06) (end 1.06 3.06) (layer F.SilkS) (width 0.12))
    (fp_line (start -1 -0.5) (end -0.5 -1) (layer F.Fab) (width 0.1))
    (fp_line (start -1 3) (end -1 -0.5) (layer F.Fab) (width 0.1))
    (fp_line (start 1 3) (end -1 3) (layer F.Fab) (width 0.1))
    (fp_line (start 1 -1) (end 1 3) (layer F.Fab) (width 0.1))
    (fp_line (start -0.5 -1) (end 1 -1) (layer F.Fab) (width 0.1))
    (pad 2 thru_hole oval (at 0 2) (size 1.35 1.35) (drill 0.8) (layers *.Cu *.Mask)
      (net 8 "Net-(150Ω1111111111-Pad2)"))
    (pad 1 thru_hole rect (at 0 0) (size 1.35 1.35) (drill 0.8) (layers *.Cu *.Mask)
      (net 11 "Net-(150Ω2111111111-Pad2)"))
    (model ${KISYS3DMOD}/Pin_Headers.3dshapes/Pin_Header_Straight_1x02_Pitch2.00mm.wrl
      (at (xyz 0 0 0))
      (scale (xyz 1 1 1))
      (rotate (xyz 0 0 0))
    )
  )

  (module Pin_Headers:Pin_Header_Straight_1x01_Pitch1.00mm (layer F.Cu) (tedit 59B55814) (tstamp 5E59C51C)
    (at 98.5 159.3)
    (descr "Through hole straight pin header, 1x01, 1.00mm pitch, single row")
    (tags "Through hole pin header THT 1x01 1.00mm single row")
    (path /5E433C70)
    (fp_text reference Programmable_port1 (at 0 -1.56) (layer F.SilkS)
      (effects (font (size 1 1) (thickness 0.15)))
    )
    (fp_text value Conn_01x01 (at 0 1.56) (layer F.Fab)
      (effects (font (size 1 1) (thickness 0.15)))
    )
    (fp_text user %R (at 0 0 90) (layer F.Fab)
      (effects (font (size 0.76 0.76) (thickness 0.114)))
    )
    (fp_line (start 1.15 -1) (end -1.15 -1) (layer F.CrtYd) (width 0.05))
    (fp_line (start 1.15 1) (end 1.15 -1) (layer F.CrtYd) (width 0.05))
    (fp_line (start -1.15 1) (end 1.15 1) (layer F.CrtYd) (width 0.05))
    (fp_line (start -1.15 -1) (end -1.15 1) (layer F.CrtYd) (width 0.05))
    (fp_line (start -0.695 -0.685) (end 0 -0.685) (layer F.SilkS) (width 0.12))
    (fp_line (start -0.695 0) (end -0.695 -0.685) (layer F.SilkS) (width 0.12))
    (fp_line (start 0.608276 0.685) (end 0.695 0.685) (layer F.SilkS) (width 0.12))
    (fp_line (start -0.695 0.685) (end -0.608276 0.685) (layer F.SilkS) (width 0.12))
    (fp_line (start 0.695 0.685) (end 0.695 0.56) (layer F.SilkS) (width 0.12))
    (fp_line (start -0.695 0.685) (end -0.695 0.56) (layer F.SilkS) (width 0.12))
    (fp_line (start -0.695 0.685) (end 0.695 0.685) (layer F.SilkS) (width 0.12))
    (fp_line (start -0.635 -0.1825) (end -0.3175 -0.5) (layer F.Fab) (width 0.1))
    (fp_line (start -0.635 0.5) (end -0.635 -0.1825) (layer F.Fab) (width 0.1))
    (fp_line (start 0.635 0.5) (end -0.635 0.5) (layer F.Fab) (width 0.1))
    (fp_line (start 0.635 -0.5) (end 0.635 0.5) (layer F.Fab) (width 0.1))
    (fp_line (start -0.3175 -0.5) (end 0.635 -0.5) (layer F.Fab) (width 0.1))
    (pad 1 thru_hole rect (at 0 0) (size 0.85 0.85) (drill 0.5) (layers *.Cu *.Mask)
      (net 5 "Net-(Programmable_port1-Pad1)"))
    (model ${KISYS3DMOD}/Pin_Headers.3dshapes/Pin_Header_Straight_1x01_Pitch1.00mm.wrl
      (at (xyz 0 0 0))
      (scale (xyz 1 1 1))
      (rotate (xyz 0 0 0))
    )
  )

  (module MAX1616:MAX1616EUK&plus_ (layer F.Cu) (tedit 5E59BFCF) (tstamp 5E59C77B)
    (at 62.137549 138.749999)
    (path /5E35C093)
    (fp_text reference U2 (at 0.23 -2.75) (layer F.SilkS)
      (effects (font (size 1 1) (thickness 0.15)))
    )
    (fp_text value MAX1616 (at -0.08 2.45) (layer F.SilkS)
      (effects (font (size 1 1) (thickness 0.15)))
    )
    (fp_text user * (at -1.61645 -2.561) (layer F.SilkS)
      (effects (font (size 1 1) (thickness 0.15)))
    )
    (fp_text user * (at -0.6223 -1.5958) (layer F.Fab)
      (effects (font (size 1 1) (thickness 0.15)))
    )
    (fp_text user * (at -0.6223 -1.5958) (layer F.Fab)
      (effects (font (size 1 1) (thickness 0.15)))
    )
    (fp_text user * (at -1.61645 -2.561) (layer F.SilkS)
      (effects (font (size 1 1) (thickness 0.15)))
    )
    (fp_line (start -1.0033 1.6256) (end 1.0033 1.6256) (layer F.SilkS) (width 0.1524))
    (fp_line (start 1.0033 0.383261) (end 1.0033 -0.383261) (layer F.SilkS) (width 0.1524))
    (fp_line (start 1.0033 -1.6256) (end -1.0033 -1.6256) (layer F.SilkS) (width 0.1524))
    (fp_line (start -0.8763 1.4986) (end 0.8763 1.4986) (layer F.Fab) (width 0.1524))
    (fp_line (start 0.8763 1.4986) (end 0.8763 -1.4986) (layer F.Fab) (width 0.1524))
    (fp_line (start 0.8763 -1.4986) (end -0.8763 -1.4986) (layer F.Fab) (width 0.1524))
    (fp_line (start -0.8763 -1.4986) (end -0.8763 1.4986) (layer F.Fab) (width 0.1524))
    (fp_line (start -0.8763 -0.696) (end -0.8763 -1.204) (layer F.Fab) (width 0.1524))
    (fp_line (start -0.8763 -1.204) (end -1.4986 -1.204) (layer F.Fab) (width 0.1524))
    (fp_line (start -1.4986 -1.204) (end -1.4986 -0.696) (layer F.Fab) (width 0.1524))
    (fp_line (start -1.4986 -0.696) (end -0.8763 -0.696) (layer F.Fab) (width 0.1524))
    (fp_line (start -0.8763 0.254) (end -0.8763 -0.254) (layer F.Fab) (width 0.1524))
    (fp_line (start -0.8763 -0.254) (end -1.4986 -0.254) (layer F.Fab) (width 0.1524))
    (fp_line (start -1.4986 -0.254) (end -1.4986 0.254) (layer F.Fab) (width 0.1524))
    (fp_line (start -1.4986 0.254) (end -0.8763 0.254) (layer F.Fab) (width 0.1524))
    (fp_line (start -0.8763 1.204) (end -0.8763 0.696) (layer F.Fab) (width 0.1524))
    (fp_line (start -0.8763 0.696) (end -1.4986 0.696) (layer F.Fab) (width 0.1524))
    (fp_line (start -1.4986 0.696) (end -1.4986 1.204) (layer F.Fab) (width 0.1524))
    (fp_line (start -1.4986 1.204) (end -0.8763 1.204) (layer F.Fab) (width 0.1524))
    (fp_line (start 0.8763 0.696) (end 0.8763 1.204) (layer F.Fab) (width 0.1524))
    (fp_line (start 0.8763 1.204) (end 1.4986 1.204) (layer F.Fab) (width 0.1524))
    (fp_line (start 1.4986 1.204) (end 1.4986 0.696) (layer F.Fab) (width 0.1524))
    (fp_line (start 1.4986 0.696) (end 0.8763 0.696) (layer F.Fab) (width 0.1524))
    (fp_line (start 0.8763 -1.204) (end 0.8763 -0.696) (layer F.Fab) (width 0.1524))
    (fp_line (start 0.8763 -0.696) (end 1.4986 -0.696) (layer F.Fab) (width 0.1524))
    (fp_line (start 1.4986 -0.696) (end 1.4986 -1.204) (layer F.Fab) (width 0.1524))
    (fp_line (start 1.4986 -1.204) (end 0.8763 -1.204) (layer F.Fab) (width 0.1524))
    (fp_line (start -1.1303 1.7526) (end -1.1303 1.438) (layer F.CrtYd) (width 0.1524))
    (fp_line (start -1.1303 1.438) (end -2.102599 1.438) (layer F.CrtYd) (width 0.1524))
    (fp_line (start -2.102599 1.438) (end -2.102599 -1.438) (layer F.CrtYd) (width 0.1524))
    (fp_line (start -2.102599 -1.438) (end -1.1303 -1.438) (layer F.CrtYd) (width 0.1524))
    (fp_line (start -1.1303 -1.438) (end -1.1303 -1.7526) (layer F.CrtYd) (width 0.1524))
    (fp_line (start -1.1303 -1.7526) (end 1.1303 -1.7526) (layer F.CrtYd) (width 0.1524))
    (fp_line (start 1.1303 -1.7526) (end 1.1303 -1.438) (layer F.CrtYd) (width 0.1524))
    (fp_line (start 1.1303 -1.438) (end 2.102599 -1.438) (layer F.CrtYd) (width 0.1524))
    (fp_line (start 2.102599 -1.438) (end 2.102599 1.438) (layer F.CrtYd) (width 0.1524))
    (fp_line (start 2.102599 1.438) (end 1.1303 1.438) (layer F.CrtYd) (width 0.1524))
    (fp_line (start 1.1303 1.438) (end 1.1303 1.7526) (layer F.CrtYd) (width 0.1524))
    (fp_line (start 1.1303 1.7526) (end -1.1303 1.7526) (layer F.CrtYd) (width 0.1524))
    (fp_arc (start 0 -1.4986) (end 0.3048 -1.4986) (angle 180) (layer F.Fab) (width 0.1524))
    (pad 1 smd rect (at -1.362451 -0.950001) (size 0.972299 0.468) (layers F.Cu F.Paste F.Mask)
      (net 6 "Net-(0.1uF1-Pad1)"))
    (pad 2 smd rect (at -1.362451 0) (size 0.972299 0.468) (layers F.Cu F.Paste F.Mask)
      (net 1 GND))
    (pad 3 smd rect (at -1.362451 0.950001) (size 0.972299 0.468) (layers F.Cu F.Paste F.Mask)
      (net 2 "Net-(0.1uF2-Pad2)"))
    (pad 4 smd rect (at 1.362451 0.950001) (size 0.972299 0.468) (layers F.Cu F.Paste F.Mask)
      (net 1 GND))
    (pad 5 smd rect (at 1.362451 -0.950001) (size 0.972299 0.468) (layers F.Cu F.Paste F.Mask)
      (net 6 "Net-(0.1uF1-Pad1)"))
  )

  (module DS2782:ds2782e&plus_ (layer F.Cu) (tedit 0) (tstamp 5E59C9E2)
    (at 88.9 153.2)
    (path /5E35B087)
    (fp_text reference U1 (at 0 0) (layer F.SilkS)
      (effects (font (size 1 1) (thickness 0.15)))
    )
    (fp_text value DS2782 (at 0 0) (layer F.SilkS)
      (effects (font (size 1 1) (thickness 0.15)))
    )
    (fp_text user "Copyright 2016 Accelerated Designs. All rights reserved." (at 0 0) (layer Cmts.User)
      (effects (font (size 0.127 0.127) (thickness 0.002)))
    )
    (fp_text user * (at -3.175 -2.4736) (layer F.SilkS)
      (effects (font (size 1 1) (thickness 0.15)))
    )
    (fp_text user * (at -1.8288 -1.4732) (layer F.Fab)
      (effects (font (size 1 1) (thickness 0.15)))
    )
    (fp_text user 0.026in/0.65mm (at -5.969 -0.65) (layer Dwgs.User)
      (effects (font (size 1 1) (thickness 0.15)))
    )
    (fp_text user 0.014in/0.356mm (at 5.969 -0.975) (layer Dwgs.User)
      (effects (font (size 1 1) (thickness 0.15)))
    )
    (fp_text user 0.23in/5.842mm (at 0 -3.9624) (layer Dwgs.User)
      (effects (font (size 1 1) (thickness 0.15)))
    )
    (fp_text user 0.056in/1.422mm (at -2.921 3.9624) (layer Dwgs.User)
      (effects (font (size 1 1) (thickness 0.15)))
    )
    (fp_text user * (at -3.175 -2.4736) (layer F.SilkS)
      (effects (font (size 1 1) (thickness 0.15)))
    )
    (fp_text user * (at -1.8288 -1.4732) (layer F.Fab)
      (effects (font (size 1 1) (thickness 0.15)))
    )
    (fp_line (start -2.2098 -0.8226) (end -2.2098 -1.1274) (layer F.Fab) (width 0.1524))
    (fp_line (start -2.2098 -1.1274) (end -3.2766 -1.1274) (layer F.Fab) (width 0.1524))
    (fp_line (start -3.2766 -1.1274) (end -3.2766 -0.8226) (layer F.Fab) (width 0.1524))
    (fp_line (start -3.2766 -0.8226) (end -2.2098 -0.8226) (layer F.Fab) (width 0.1524))
    (fp_line (start -2.2098 -0.1726) (end -2.2098 -0.4774) (layer F.Fab) (width 0.1524))
    (fp_line (start -2.2098 -0.4774) (end -3.2766 -0.4774) (layer F.Fab) (width 0.1524))
    (fp_line (start -3.2766 -0.4774) (end -3.2766 -0.1726) (layer F.Fab) (width 0.1524))
    (fp_line (start -3.2766 -0.1726) (end -2.2098 -0.1726) (layer F.Fab) (width 0.1524))
    (fp_line (start -2.2098 0.4774) (end -2.2098 0.1726) (layer F.Fab) (width 0.1524))
    (fp_line (start -2.2098 0.1726) (end -3.2766 0.1726) (layer F.Fab) (width 0.1524))
    (fp_line (start -3.2766 0.1726) (end -3.2766 0.4774) (layer F.Fab) (width 0.1524))
    (fp_line (start -3.2766 0.4774) (end -2.2098 0.4774) (layer F.Fab) (width 0.1524))
    (fp_line (start -2.2098 1.1274) (end -2.2098 0.8226) (layer F.Fab) (width 0.1524))
    (fp_line (start -2.2098 0.8226) (end -3.2766 0.8226) (layer F.Fab) (width 0.1524))
    (fp_line (start -3.2766 0.8226) (end -3.2766 1.1274) (layer F.Fab) (width 0.1524))
    (fp_line (start -3.2766 1.1274) (end -2.2098 1.1274) (layer F.Fab) (width 0.1524))
    (fp_line (start 2.2098 0.8226) (end 2.2098 1.1274) (layer F.Fab) (width 0.1524))
    (fp_line (start 2.2098 1.1274) (end 3.2766 1.1274) (layer F.Fab) (width 0.1524))
    (fp_line (start 3.2766 1.1274) (end 3.2766 0.8226) (layer F.Fab) (width 0.1524))
    (fp_line (start 3.2766 0.8226) (end 2.2098 0.8226) (layer F.Fab) (width 0.1524))
    (fp_line (start 2.2098 0.1726) (end 2.2098 0.4774) (layer F.Fab) (width 0.1524))
    (fp_line (start 2.2098 0.4774) (end 3.2766 0.4774) (layer F.Fab) (width 0.1524))
    (fp_line (start 3.2766 0.4774) (end 3.2766 0.1726) (layer F.Fab) (width 0.1524))
    (fp_line (start 3.2766 0.1726) (end 2.2098 0.1726) (layer F.Fab) (width 0.1524))
    (fp_line (start 2.2098 -0.4774) (end 2.2098 -0.1726) (layer F.Fab) (width 0.1524))
    (fp_line (start 2.2098 -0.1726) (end 3.2766 -0.1726) (layer F.Fab) (width 0.1524))
    (fp_line (start 3.2766 -0.1726) (end 3.2766 -0.4774) (layer F.Fab) (width 0.1524))
    (fp_line (start 3.2766 -0.4774) (end 2.2098 -0.4774) (layer F.Fab) (width 0.1524))
    (fp_line (start 2.2098 -1.1274) (end 2.2098 -0.8226) (layer F.Fab) (width 0.1524))
    (fp_line (start 2.2098 -0.8226) (end 3.2766 -0.8226) (layer F.Fab) (width 0.1524))
    (fp_line (start 3.2766 -0.8226) (end 3.2766 -1.1274) (layer F.Fab) (width 0.1524))
    (fp_line (start 3.2766 -1.1274) (end 2.2098 -1.1274) (layer F.Fab) (width 0.1524))
    (fp_line (start -2.3368 1.6764) (end 2.3368 1.6764) (layer F.SilkS) (width 0.1524))
    (fp_line (start 2.3368 -1.6764) (end -2.3368 -1.6764) (layer F.SilkS) (width 0.1524))
    (fp_line (start -2.2098 1.5494) (end 2.2098 1.5494) (layer F.Fab) (width 0.1524))
    (fp_line (start 2.2098 1.5494) (end 2.2098 -1.5494) (layer F.Fab) (width 0.1524))
    (fp_line (start 2.2098 -1.5494) (end -2.2098 -1.5494) (layer F.Fab) (width 0.1524))
    (fp_line (start -2.2098 -1.5494) (end -2.2098 1.5494) (layer F.Fab) (width 0.1524))
    (fp_line (start -3.8862 1.4068) (end -3.8862 -1.4068) (layer F.CrtYd) (width 0.1524))
    (fp_line (start -3.8862 -1.4068) (end -2.4638 -1.4068) (layer F.CrtYd) (width 0.1524))
    (fp_line (start -2.4638 -1.4068) (end -2.4638 -1.8034) (layer F.CrtYd) (width 0.1524))
    (fp_line (start -2.4638 -1.8034) (end 2.4638 -1.8034) (layer F.CrtYd) (width 0.1524))
    (fp_line (start 2.4638 -1.8034) (end 2.4638 -1.4068) (layer F.CrtYd) (width 0.1524))
    (fp_line (start 2.4638 -1.4068) (end 3.8862 -1.4068) (layer F.CrtYd) (width 0.1524))
    (fp_line (start 3.8862 -1.4068) (end 3.8862 1.4068) (layer F.CrtYd) (width 0.1524))
    (fp_line (start 3.8862 1.4068) (end 2.4638 1.4068) (layer F.CrtYd) (width 0.1524))
    (fp_line (start 2.4638 1.4068) (end 2.4638 1.8034) (layer F.CrtYd) (width 0.1524))
    (fp_line (start 2.4638 1.8034) (end -2.4638 1.8034) (layer F.CrtYd) (width 0.1524))
    (fp_line (start -2.4638 1.8034) (end -2.4638 1.4068) (layer F.CrtYd) (width 0.1524))
    (fp_line (start -2.4638 1.4068) (end -3.8862 1.4068) (layer F.CrtYd) (width 0.1524))
    (fp_arc (start 0 -1.5494) (end 0.3048 -1.5494) (angle 180) (layer F.Fab) (width 0.1524))
    (pad 1 smd rect (at -2.921 -0.974999) (size 1.4224 0.3556) (layers F.Cu F.Paste F.Mask))
    (pad 2 smd rect (at -2.921 -0.325001) (size 1.4224 0.3556) (layers F.Cu F.Paste F.Mask)
      (net 2 "Net-(0.1uF2-Pad2)"))
    (pad 3 smd rect (at -2.921 0.325001) (size 1.4224 0.3556) (layers F.Cu F.Paste F.Mask)
      (net 4 "Net-(500K1-Pad2)"))
    (pad 4 smd rect (at -2.921 0.974999) (size 1.4224 0.3556) (layers F.Cu F.Paste F.Mask)
      (net 3 "Net-(0.1uF2-Pad1)"))
    (pad 5 smd rect (at 2.921 0.974999) (size 1.4224 0.3556) (layers F.Cu F.Paste F.Mask)
      (net 9 "Net-(150Ω1111111111-Pad1)"))
    (pad 6 smd rect (at 2.921 0.325001) (size 1.4224 0.3556) (layers F.Cu F.Paste F.Mask)
      (net 10 "Net-(150Ω2111111111-Pad1)"))
    (pad 7 smd rect (at 2.921 -0.325001) (size 1.4224 0.3556) (layers F.Cu F.Paste F.Mask)
      (net 7 "Net-(10m1-Pad2)"))
    (pad 8 smd rect (at 2.921 -0.974999) (size 1.4224 0.3556) (layers F.Cu F.Paste F.Mask)
      (net 5 "Net-(Programmable_port1-Pad1)"))
  )

  (module Pin_Headers:Pin_Header_Straight_1x02_Pitch2.00mm (layer F.Cu) (tedit 59650533) (tstamp 5E59DFD2)
    (at 74.3 135.8)
    (descr "Through hole straight pin header, 1x02, 2.00mm pitch, single row")
    (tags "Through hole pin header THT 1x02 2.00mm single row")
    (path /5E434732)
    (fp_text reference Battery1 (at 0 -2.06) (layer F.SilkS)
      (effects (font (size 1 1) (thickness 0.15)))
    )
    (fp_text value Conn_01x02 (at 0 4.06) (layer F.Fab)
      (effects (font (size 1 1) (thickness 0.15)))
    )
    (fp_text user %R (at -1.6 1 90) (layer F.Fab)
      (effects (font (size 1 1) (thickness 0.15)))
    )
    (fp_line (start 1.5 -1.5) (end -1.5 -1.5) (layer F.CrtYd) (width 0.05))
    (fp_line (start 1.5 3.5) (end 1.5 -1.5) (layer F.CrtYd) (width 0.05))
    (fp_line (start -1.5 3.5) (end 1.5 3.5) (layer F.CrtYd) (width 0.05))
    (fp_line (start -1.5 -1.5) (end -1.5 3.5) (layer F.CrtYd) (width 0.05))
    (fp_line (start -1.06 -1.06) (end 0 -1.06) (layer F.SilkS) (width 0.12))
    (fp_line (start -1.06 0) (end -1.06 -1.06) (layer F.SilkS) (width 0.12))
    (fp_line (start -1.06 1) (end 1.06 1) (layer F.SilkS) (width 0.12))
    (fp_line (start 1.06 1) (end 1.06 3.06) (layer F.SilkS) (width 0.12))
    (fp_line (start -1.06 1) (end -1.06 3.06) (layer F.SilkS) (width 0.12))
    (fp_line (start -1.06 3.06) (end 1.06 3.06) (layer F.SilkS) (width 0.12))
    (fp_line (start -1 -0.5) (end -0.5 -1) (layer F.Fab) (width 0.1))
    (fp_line (start -1 3) (end -1 -0.5) (layer F.Fab) (width 0.1))
    (fp_line (start 1 3) (end -1 3) (layer F.Fab) (width 0.1))
    (fp_line (start 1 -1) (end 1 3) (layer F.Fab) (width 0.1))
    (fp_line (start -0.5 -1) (end 1 -1) (layer F.Fab) (width 0.1))
    (pad 2 thru_hole oval (at 0 2) (size 1.35 1.35) (drill 0.8) (layers *.Cu *.Mask)
      (net 6 "Net-(0.1uF1-Pad1)"))
    (pad 1 thru_hole rect (at 0 0) (size 1.35 1.35) (drill 0.8) (layers *.Cu *.Mask)
      (net 7 "Net-(10m1-Pad2)"))
    (model ${KISYS3DMOD}/Pin_Headers.3dshapes/Pin_Header_Straight_1x02_Pitch2.00mm.wrl
      (at (xyz 0 0 0))
      (scale (xyz 1 1 1))
      (rotate (xyz 0 0 0))
    )
  )

  (segment (start 91.821 151.797201) (end 92 151.618201) (width 0.25) (layer F.Cu) (net 5))
  (segment (start 91.821 152.225001) (end 91.821 151.797201) (width 0.25) (layer F.Cu) (net 5) (status 10))
  (via (at 92.5 150.3) (size 0.8) (drill 0.4) (layers F.Cu B.Cu) (net 5))
  (segment (start 92 150.8) (end 92.5 150.3) (width 0.25) (layer F.Cu) (net 5))
  (segment (start 92 151.618201) (end 92 150.8) (width 0.25) (layer F.Cu) (net 5))
  (segment (start 92.5 150.3) (end 94.6 150.3) (width 0.25) (layer B.Cu) (net 5))
  (segment (start 94.6 150.3) (end 95.7 151.4) (width 0.25) (layer B.Cu) (net 5))
  (via (at 95.7 160) (size 0.8) (drill 0.4) (layers F.Cu B.Cu) (net 5))
  (segment (start 95.7 151.4) (end 95.7 160) (width 0.25) (layer B.Cu) (net 5))
  (segment (start 61.511247 138.749999) (end 60.775098 138.749999) (width 0.25) (layer F.Cu) (net 1) (status 20))
  (segment (start 62.29785 138.749999) (end 61.511247 138.749999) (width 0.25) (layer F.Cu) (net 1))
  (segment (start 63.247851 139.7) (end 62.29785 138.749999) (width 0.25) (layer F.Cu) (net 1) (status 10))
  (segment (start 63.5 139.7) (end 63.247851 139.7) (width 0.25) (layer F.Cu) (net 1) (status 30))
  (segment (start 65.399998 137.799998) (end 63.5 137.799998) (width 1.5) (layer F.Cu) (net 6) (status 20))
  (segment (start 66.5 138.9) (end 65.399998 137.799998) (width 1.5) (layer F.Cu) (net 6) (status 10))
  (segment (start 62.021249 137.565998) (end 60.775098 137.565998) (width 1.5) (layer F.Cu) (net 6) (status 20))
  (segment (start 63.266 137.565998) (end 62.021249 137.565998) (width 1.5) (layer F.Cu) (net 6) (status 10))
  (segment (start 63.5 137.799998) (end 63.266 137.565998) (width 1.5) (layer F.Cu) (net 6) (status 30))
  (segment (start 61.5 154.35) (end 61.35 154.5) (width 0.25) (layer F.Cu) (net 2) (status 30))
  (segment (start 61.5 152.4) (end 61.5 154.35) (width 0.25) (layer F.Cu) (net 2) (status 30))
  (segment (start 61.5 146.3) (end 61.4 146.3) (width 0.25) (layer F.Cu) (net 2) (status 30))
  (segment (start 62.475001 151.549999) (end 62.475001 147.275001) (width 0.25) (layer F.Cu) (net 2))
  (segment (start 62.475001 147.275001) (end 61.5 146.3) (width 0.25) (layer F.Cu) (net 2) (status 20))
  (segment (start 61.625 152.4) (end 62.475001 151.549999) (width 0.25) (layer F.Cu) (net 2) (status 10))
  (segment (start 61.5 152.4) (end 61.625 152.4) (width 0.25) (layer F.Cu) (net 2) (status 30))
  (segment (start 62.989999 153.350001) (end 67.649999 153.350001) (width 0.25) (layer F.Cu) (net 2))
  (segment (start 62.475001 152.835003) (end 62.989999 153.350001) (width 0.25) (layer F.Cu) (net 2))
  (segment (start 62.475001 151.549999) (end 62.475001 152.835003) (width 0.25) (layer F.Cu) (net 2))
  (segment (start 67.649999 153.350001) (end 69.6 151.4) (width 0.25) (layer F.Cu) (net 2))
  (segment (start 69.6 151.4) (end 74.5 151.4) (width 0.25) (layer F.Cu) (net 2))
  (via (at 75.2 153.8) (size 0.8) (drill 0.4) (layers F.Cu B.Cu) (net 2))
  (segment (start 75.2 152.1) (end 75.2 153.8) (width 0.25) (layer F.Cu) (net 2))
  (segment (start 74.5 151.4) (end 75.2 152.1) (width 0.25) (layer F.Cu) (net 2))
  (via (at 81.5 157.8) (size 0.8) (drill 0.4) (layers F.Cu B.Cu) (net 2))
  (segment (start 75.2 154.365685) (end 78.634315 157.8) (width 0.25) (layer B.Cu) (net 2))
  (segment (start 78.634315 157.8) (end 81.5 157.8) (width 0.25) (layer B.Cu) (net 2))
  (segment (start 75.2 153.8) (end 75.2 154.365685) (width 0.25) (layer B.Cu) (net 2))
  (segment (start 81.5 157.234315) (end 81.5 157.8) (width 0.25) (layer F.Cu) (net 2))
  (segment (start 81.5 156.392799) (end 81.5 157.234315) (width 0.25) (layer F.Cu) (net 2))
  (segment (start 85.0178 152.874999) (end 81.5 156.392799) (width 0.25) (layer F.Cu) (net 2))
  (segment (start 85.979 152.874999) (end 85.0178 152.874999) (width 0.25) (layer F.Cu) (net 2) (status 10))
  (segment (start 64 150.5) (end 64.1 150.4) (width 0.25) (layer F.Cu) (net 3) (status 30))
  (segment (start 64 152.4) (end 64 150.5) (width 0.25) (layer F.Cu) (net 3) (status 30))
  (via (at 67.4 151.3) (size 0.8) (drill 0.4) (layers F.Cu B.Cu) (net 3))
  (segment (start 66.3 152.4) (end 67.4 151.3) (width 0.25) (layer F.Cu) (net 3))
  (segment (start 64 152.4) (end 66.3 152.4) (width 0.25) (layer F.Cu) (net 3) (status 10))
  (via (at 84.2 159.8) (size 0.8) (drill 0.4) (layers F.Cu B.Cu) (net 3))
  (segment (start 67.4 153.553002) (end 73.646998 159.8) (width 0.25) (layer B.Cu) (net 3))
  (segment (start 73.646998 159.8) (end 84.2 159.8) (width 0.25) (layer B.Cu) (net 3))
  (segment (start 67.4 151.3) (end 67.4 153.553002) (width 0.25) (layer B.Cu) (net 3))
  (segment (start 85.979 158.021) (end 84.2 159.8) (width 0.25) (layer F.Cu) (net 3))
  (segment (start 85.979 154.174999) (end 85.979 158.021) (width 0.25) (layer F.Cu) (net 3) (status 10))
  (segment (start 71.3 154.9) (end 71.2 154.8) (width 0.25) (layer F.Cu) (net 7) (status 30))
  (segment (start 61.4 150.4) (end 61.4 148.4) (width 0.25) (layer F.Cu) (net 2) (status 30))
  (segment (start 61.3 148.4) (end 61.4 148.4) (width 0.25) (layer F.Cu) (net 2) (status 30))
  (segment (start 57.6 142.3) (end 57.6 140.05) (width 1.5) (layer F.Cu) (net 2) (status 20))
  (segment (start 57.6 146.85) (end 57.6 142.3) (width 1.5) (layer F.Cu) (net 2))
  (segment (start 59.15 148.4) (end 57.6 146.85) (width 1.5) (layer F.Cu) (net 2))
  (segment (start 61.4 148.4) (end 59.15 148.4) (width 1.5) (layer F.Cu) (net 2) (status 10))
  (segment (start 59.841 139.934) (end 60.775098 139.934) (width 1.5) (layer F.Cu) (net 2) (status 20))
  (segment (start 59.725 140.05) (end 59.841 139.934) (width 1.5) (layer F.Cu) (net 2))
  (segment (start 57.6 140.05) (end 59.725 140.05) (width 1.5) (layer F.Cu) (net 2) (status 10))
  (segment (start 61.624999 147.275001) (end 62.475001 147.275001) (width 0.25) (layer F.Cu) (net 2))
  (segment (start 61.4 147.5) (end 61.624999 147.275001) (width 0.25) (layer F.Cu) (net 2))
  (segment (start 61.4 148.4) (end 61.4 147.5) (width 0.25) (layer F.Cu) (net 2))
  (segment (start 64.1 146.3) (end 64.1 148.4) (width 0.25) (layer F.Cu) (net 4) (status 30))
  (via (at 74 149.4) (size 0.8) (drill 0.4) (layers F.Cu B.Cu) (net 4))
  (segment (start 73 148.4) (end 74 149.4) (width 0.25) (layer F.Cu) (net 4))
  (segment (start 64.1 148.4) (end 73 148.4) (width 0.25) (layer F.Cu) (net 4) (status 10))
  (via (at 84.2 157.7) (size 0.8) (drill 0.4) (layers F.Cu B.Cu) (net 4))
  (segment (start 83.7 157.7) (end 84.2 157.7) (width 0.25) (layer B.Cu) (net 4))
  (segment (start 75.4 149.4) (end 83.7 157.7) (width 0.25) (layer B.Cu) (net 4))
  (segment (start 74 149.4) (end 75.4 149.4) (width 0.25) (layer B.Cu) (net 4))
  (segment (start 84.2 157.7) (end 84.2 157.134315) (width 0.25) (layer F.Cu) (net 4))
  (segment (start 84.2 154.342801) (end 84.2 157.134315) (width 0.25) (layer F.Cu) (net 4))
  (segment (start 85.0178 153.525001) (end 84.2 154.342801) (width 0.25) (layer F.Cu) (net 4))
  (segment (start 85.979 153.525001) (end 85.0178 153.525001) (width 0.25) (layer F.Cu) (net 4) (status 10))
  (segment (start 98.5 159.975) (end 98.5 159.3) (width 0.25) (layer F.Cu) (net 5))
  (segment (start 98.475 160) (end 98.5 159.975) (width 0.25) (layer F.Cu) (net 5))
  (segment (start 95.7 160) (end 98.475 160) (width 0.25) (layer F.Cu) (net 5))
  (segment (start 73.625001 138.474999) (end 73.125001 138.474999) (width 1.5) (layer F.Cu) (net 6))
  (segment (start 74.3 137.8) (end 73.625001 138.474999) (width 1.5) (layer F.Cu) (net 6))
  (segment (start 73.125001 138.474999) (end 70.5 141.1) (width 1.5) (layer F.Cu) (net 6))
  (segment (start 66.5 141.025) (end 66.5 138.9) (width 1.5) (layer F.Cu) (net 6))
  (segment (start 66.575 141.1) (end 66.5 141.025) (width 1.5) (layer F.Cu) (net 6))
  (segment (start 70.5 141.1) (end 66.575 141.1) (width 1.5) (layer F.Cu) (net 6))
  (via (at 82.4 143.9) (size 1.8) (drill 1.5) (layers F.Cu B.Cu) (net 7))
  (segment (start 82.6 144.1) (end 82.4 143.9) (width 1.5) (layer F.Cu) (net 7))
  (segment (start 82.6 150.6) (end 82.6 144.1) (width 1.5) (layer F.Cu) (net 7))
  (segment (start 82.4 143.9) (end 82.4 140) (width 1.5) (layer B.Cu) (net 7))
  (via (at 77.5 135.4) (size 1.8) (drill 1.5) (layers F.Cu B.Cu) (net 7))
  (segment (start 77.8 135.4) (end 77.5 135.4) (width 1.5) (layer B.Cu) (net 7))
  (segment (start 82.4 140) (end 77.8 135.4) (width 1.5) (layer B.Cu) (net 7))
  (segment (start 74.7 135.4) (end 74.3 135.8) (width 1.5) (layer F.Cu) (net 7))
  (segment (start 77.5 135.4) (end 74.7 135.4) (width 1.5) (layer F.Cu) (net 7))
  (segment (start 92.7822 152.874999) (end 91.821 152.874999) (width 0.25) (layer F.Cu) (net 7) (status 20))
  (segment (start 93.125001 152.874999) (end 92.7822 152.874999) (width 0.25) (layer F.Cu) (net 7))
  (segment (start 93.9 152.1) (end 93.125001 152.874999) (width 0.25) (layer F.Cu) (net 7))
  (segment (start 93.148001 148.949999) (end 84.250001 148.949999) (width 1.5) (layer F.Cu) (net 7))
  (segment (start 84.250001 148.949999) (end 82.6 150.6) (width 1.5) (layer F.Cu) (net 7))
  (segment (start 93.9 149.701998) (end 93.148001 148.949999) (width 1.5) (layer F.Cu) (net 7))
  (segment (start 93.9 152.1) (end 93.9 149.701998) (width 1.5) (layer F.Cu) (net 7))
  (segment (start 82.6 150.6) (end 78.3 154.9) (width 1.5) (layer F.Cu) (net 7))
  (segment (start 72.599999 156.199999) (end 71.2 154.8) (width 1.5) (layer F.Cu) (net 7))
  (segment (start 75.020103 156.199999) (end 72.599999 156.199999) (width 1.5) (layer F.Cu) (net 7))
  (segment (start 76.320102 154.9) (end 75.020103 156.199999) (width 1.5) (layer F.Cu) (net 7))
  (segment (start 78.3 154.9) (end 76.320102 154.9) (width 1.5) (layer F.Cu) (net 7))
  (segment (start 64.35 154.8) (end 64.05 154.5) (width 1.5) (layer F.Cu) (net 7))
  (segment (start 71.2 154.8) (end 64.35 154.8) (width 1.5) (layer F.Cu) (net 7))
  (segment (start 101.45 164.35) (end 99.9 165.9) (width 0.25) (layer F.Cu) (net 8))
  (segment (start 101.45 154.7) (end 101.45 164.35) (width 0.25) (layer F.Cu) (net 8))
  (segment (start 95.05 154.7) (end 95 154.75) (width 0.25) (layer F.Cu) (net 9))
  (segment (start 98.75 154.7) (end 96.9 154.7) (width 0.25) (layer F.Cu) (net 9) (status 10))
  (segment (start 96.9 154.7) (end 95.05 154.7) (width 0.25) (layer F.Cu) (net 9))
  (segment (start 94.524999 154.174999) (end 95.05 154.7) (width 0.25) (layer F.Cu) (net 9))
  (segment (start 91.821 154.174999) (end 94.524999 154.174999) (width 0.25) (layer F.Cu) (net 9) (status 10))
  (segment (start 96.9 151.3) (end 96.9 154.7) (width 0.25) (layer F.Cu) (net 9))
  (segment (start 96.9 151.1) (end 96.9 151.3) (width 0.25) (layer F.Cu) (net 9))
  (segment (start 88 142.2) (end 96.9 151.1) (width 0.25) (layer F.Cu) (net 9))
  (segment (start 78.3 142.2) (end 88 142.2) (width 0.25) (layer F.Cu) (net 9))
  (segment (start 77.3 167.5) (end 77.4 167.6) (width 0.25) (layer F.Cu) (net 10) (status 30))
  (segment (start 71.2 167.5) (end 77.3 167.5) (width 0.25) (layer F.Cu) (net 10) (status 30))
  (segment (start 77.5 167.6) (end 77.4 167.6) (width 0.25) (layer F.Cu) (net 10) (status 30))
  (segment (start 90.784799 154.315201) (end 77.5 167.6) (width 0.25) (layer F.Cu) (net 10) (status 20))
  (segment (start 90.784799 153.600002) (end 90.784799 154.315201) (width 0.25) (layer F.Cu) (net 10))
  (segment (start 90.8598 153.525001) (end 90.784799 153.600002) (width 0.25) (layer F.Cu) (net 10))
  (segment (start 91.821 153.525001) (end 90.8598 153.525001) (width 0.25) (layer F.Cu) (net 10) (status 10))
  (via (at 96.4 163.6) (size 0.8) (drill 0.4) (layers F.Cu B.Cu) (net 11))
  (segment (start 96.7 163.9) (end 96.4 163.6) (width 0.25) (layer F.Cu) (net 11))
  (segment (start 99.9 163.9) (end 96.7 163.9) (width 0.25) (layer F.Cu) (net 11))
  (segment (start 92.4 167.6) (end 83.8 167.6) (width 0.25) (layer B.Cu) (net 11))
  (via (at 83.8 167.6) (size 0.8) (drill 0.4) (layers F.Cu B.Cu) (net 11))
  (segment (start 96.4 163.6) (end 92.4 167.6) (width 0.25) (layer B.Cu) (net 11))
  (segment (start 83.8 167.6) (end 80.1 167.6) (width 0.25) (layer F.Cu) (net 11))

  (zone (net 1) (net_name GND) (layer F.Cu) (tstamp 5E3E3140) (hatch edge 0.508)
    (connect_pads (clearance 0.508))
    (min_thickness 0.254)
    (fill yes (arc_segments 32) (thermal_gap 0.508) (thermal_bridge_width 0.508))
    (polygon
      (pts
        (xy 25.4 118.9) (xy 108.2 118.9) (xy 108.2 181.5) (xy 25.4 180.4)
      )
    )
    (filled_polygon
      (pts
        (xy 108.073 181.371301) (xy 25.527 180.274676) (xy 25.527 172) (xy 33.361928 172) (xy 33.361928 174)
        (xy 33.374188 174.124482) (xy 33.410498 174.24418) (xy 33.469463 174.354494) (xy 33.548815 174.451185) (xy 33.615001 174.505502)
        (xy 33.615001 175.431961) (xy 33.6083 175.5) (xy 33.63504 175.771507) (xy 33.714236 176.03258) (xy 33.842844 176.273188)
        (xy 33.972548 176.431233) (xy 33.972551 176.431236) (xy 34.01592 176.484081) (xy 34.068764 176.527449) (xy 36.27255 178.731236)
        (xy 36.315919 178.784081) (xy 36.368764 178.82745) (xy 36.368766 178.827452) (xy 36.481099 178.919641) (xy 36.526812 178.957157)
        (xy 36.767419 179.085764) (xy 37.028493 179.16496) (xy 37.231963 179.185) (xy 37.231972 179.185) (xy 37.299999 179.1917)
        (xy 37.368026 179.185) (xy 55.831971 179.185) (xy 55.9 179.1917) (xy 55.968029 179.185) (xy 55.968037 179.185)
        (xy 56.171507 179.16496) (xy 56.432581 179.085764) (xy 56.673188 178.957157) (xy 56.884081 178.784081) (xy 56.927454 178.731231)
        (xy 58.007375 177.65131) (xy 58.227095 177.560299) (xy 58.478505 177.392312) (xy 58.692312 177.178505) (xy 58.860299 176.927095)
        (xy 58.976011 176.647743) (xy 59.035 176.351184) (xy 59.035 176.048816) (xy 58.976011 175.752257) (xy 58.860299 175.472905)
        (xy 58.692312 175.221495) (xy 58.478505 175.007688) (xy 58.227095 174.839701) (xy 57.947743 174.723989) (xy 57.651184 174.665)
        (xy 57.348816 174.665) (xy 57.052257 174.723989) (xy 56.772905 174.839701) (xy 56.521495 175.007688) (xy 56.307688 175.221495)
        (xy 56.139701 175.472905) (xy 56.04869 175.692625) (xy 55.326315 176.415) (xy 37.873686 176.415) (xy 36.385 174.926315)
        (xy 36.385 174.505501) (xy 36.451185 174.451185) (xy 36.530537 174.354494) (xy 36.589502 174.24418) (xy 36.625812 174.124482)
        (xy 36.638072 174) (xy 36.638072 172.838967) (xy 46.065 172.838967) (xy 46.065 173.161033) (xy 46.127832 173.476912)
        (xy 46.251082 173.774463) (xy 46.430013 174.042252) (xy 46.657748 174.269987) (xy 46.925537 174.448918) (xy 47.223088 174.572168)
        (xy 47.538967 174.635) (xy 47.861033 174.635) (xy 48.176912 174.572168) (xy 48.474463 174.448918) (xy 48.570123 174.385)
        (xy 56.631971 174.385) (xy 56.7 174.3917) (xy 56.768029 174.385) (xy 56.768037 174.385) (xy 56.971507 174.36496)
        (xy 57.232581 174.285764) (xy 57.473188 174.157157) (xy 57.684081 173.984081) (xy 57.727454 173.931231) (xy 62.281241 169.377445)
        (xy 62.33408 169.334081) (xy 62.377445 169.281241) (xy 62.377452 169.281234) (xy 62.507156 169.123189) (xy 62.507158 169.123187)
        (xy 62.635764 168.882581) (xy 62.71496 168.621507) (xy 62.735 168.418037) (xy 62.735 168.418028) (xy 62.7417 168.350001)
        (xy 62.735 168.281974) (xy 62.735 155.440019) (xy 62.769463 155.504494) (xy 62.848815 155.601185) (xy 62.945506 155.680537)
        (xy 63.05582 155.739502) (xy 63.175518 155.775812) (xy 63.3 155.788072) (xy 64.8 155.788072) (xy 64.924482 155.775812)
        (xy 65.04418 155.739502) (xy 65.154494 155.680537) (xy 65.251185 155.601185) (xy 65.284985 155.56) (xy 69.303975 155.56)
        (xy 69.310809 155.582529) (xy 69.499773 155.936056) (xy 69.754076 156.245924) (xy 70.063944 156.500227) (xy 70.417471 156.689191)
        (xy 70.80107 156.805555) (xy 71.100031 156.835) (xy 71.299969 156.835) (xy 71.59893 156.805555) (xy 71.982529 156.689191)
        (xy 72.336056 156.500227) (xy 72.645924 156.245924) (xy 72.900227 155.936056) (xy 73.047782 155.66) (xy 76.403975 155.66)
        (xy 76.410809 155.682529) (xy 76.599773 156.036056) (xy 76.854076 156.345924) (xy 77.163944 156.600227) (xy 77.517471 156.789191)
        (xy 77.90107 156.905555) (xy 78.200031 156.935) (xy 78.399969 156.935) (xy 78.69893 156.905555) (xy 79.082529 156.789191)
        (xy 79.436056 156.600227) (xy 79.745924 156.345924) (xy 80.000227 156.036056) (xy 80.189191 155.682529) (xy 80.305555 155.29893)
        (xy 80.344846 154.9) (xy 80.305555 154.50107) (xy 80.189191 154.117471) (xy 80.178093 154.096708) (xy 82.914802 151.36)
        (xy 88.762678 151.36) (xy 88.8 151.363676) (xy 88.837322 151.36) (xy 88.837333 151.36) (xy 88.948986 151.349003)
        (xy 89.092247 151.305546) (xy 89.224276 151.234974) (xy 89.340001 151.140001) (xy 89.363804 151.110997) (xy 90.614802 149.86)
        (xy 91.561978 149.86) (xy 91.504774 149.998102) (xy 91.465 150.198061) (xy 91.465 150.255896) (xy 91.46 150.259999)
        (xy 91.436202 150.288997) (xy 91.436201 150.288998) (xy 91.365026 150.375724) (xy 91.294454 150.507754) (xy 91.281947 150.548986)
        (xy 91.250998 150.651014) (xy 91.24 150.762667) (xy 91.24 150.762678) (xy 91.236324 150.8) (xy 91.24 150.837322)
        (xy 91.24 151.307158) (xy 91.186026 151.372925) (xy 91.166674 151.409129) (xy 91.1098 151.409129) (xy 90.985318 151.421389)
        (xy 90.86562 151.457699) (xy 90.755306 151.516664) (xy 90.658615 151.596016) (xy 90.579263 151.692707) (xy 90.520298 151.803021)
        (xy 90.483988 151.922719) (xy 90.471728 152.047201) (xy 90.471728 152.402801) (xy 90.483988 152.527283) (xy 90.490879 152.55)
        (xy 90.483988 152.572717) (xy 90.471728 152.697199) (xy 90.471728 152.870675) (xy 90.435524 152.890027) (xy 90.319799 152.985)
        (xy 90.295999 153.014) (xy 90.273799 153.0362) (xy 90.244798 153.060001) (xy 90.18967 153.127176) (xy 90.149825 153.175726)
        (xy 90.083786 153.299275) (xy 90.079253 153.307756) (xy 90.035796 153.451017) (xy 90.024799 153.56267) (xy 90.024799 153.56268)
        (xy 90.021123 153.600002) (xy 90.024799 153.637324) (xy 90.024799 154.000399) (xy 86.739 157.286198) (xy 86.739 154.986065)
        (xy 86.814682 154.978611) (xy 86.93438 154.942301) (xy 87.044694 154.883336) (xy 87.141385 154.803984) (xy 87.220737 154.707293)
        (xy 87.279702 154.596979) (xy 87.316012 154.477281) (xy 87.328272 154.352799) (xy 87.328272 153.997199) (xy 87.316012 153.872717)
        (xy 87.309121 153.85) (xy 87.316012 153.827283) (xy 87.328272 153.702801) (xy 87.328272 153.347201) (xy 87.316012 153.222719)
        (xy 87.30912 153.2) (xy 87.316012 153.177281) (xy 87.328272 153.052799) (xy 87.328272 152.697199) (xy 87.316012 152.572717)
        (xy 87.309121 152.55) (xy 87.316012 152.527283) (xy 87.328272 152.402801) (xy 87.328272 152.047201) (xy 87.316012 151.922719)
        (xy 87.279702 151.803021) (xy 87.220737 151.692707) (xy 87.141385 151.596016) (xy 87.044694 151.516664) (xy 86.93438 151.457699)
        (xy 86.814682 151.421389) (xy 86.6902 151.409129) (xy 85.2678 151.409129) (xy 85.143318 151.421389) (xy 85.02362 151.457699)
        (xy 84.913306 151.516664) (xy 84.816615 151.596016) (xy 84.737263 151.692707) (xy 84.678298 151.803021) (xy 84.641988 151.922719)
        (xy 84.629728 152.047201) (xy 84.629728 152.220673) (xy 84.593524 152.240025) (xy 84.593522 152.240026) (xy 84.593523 152.240026)
        (xy 84.506796 152.3112) (xy 84.506792 152.311204) (xy 84.477799 152.334998) (xy 84.454005 152.363991) (xy 80.989003 155.828995)
        (xy 80.959999 155.852798) (xy 80.914899 155.907753) (xy 80.865026 155.968523) (xy 80.794455 156.100552) (xy 80.794454 156.100553)
        (xy 80.750997 156.243814) (xy 80.74 156.355467) (xy 80.74 156.355477) (xy 80.736324 156.392799) (xy 80.74 156.430121)
        (xy 80.74 157.096289) (xy 80.696063 157.140226) (xy 80.582795 157.309744) (xy 80.504774 157.498102) (xy 80.465 157.698061)
        (xy 80.465 157.901939) (xy 80.504774 158.101898) (xy 80.582795 158.290256) (xy 80.696063 158.459774) (xy 80.840226 158.603937)
        (xy 81.009744 158.717205) (xy 81.198102 158.795226) (xy 81.398061 158.835) (xy 81.601939 158.835) (xy 81.801898 158.795226)
        (xy 81.990256 158.717205) (xy 82.159774 158.603937) (xy 82.303937 158.459774) (xy 82.417205 158.290256) (xy 82.495226 158.101898)
        (xy 82.535 157.901939) (xy 82.535 157.698061) (xy 82.495226 157.498102) (xy 82.417205 157.309744) (xy 82.303937 157.140226)
        (xy 82.26 157.096289) (xy 82.26 156.7076) (xy 83.44 155.5276) (xy 83.440001 156.996288) (xy 83.396063 157.040226)
        (xy 83.282795 157.209744) (xy 83.204774 157.398102) (xy 83.165 157.598061) (xy 83.165 157.801939) (xy 83.204774 158.001898)
        (xy 83.282795 158.190256) (xy 83.396063 158.359774) (xy 83.540226 158.503937) (xy 83.709744 158.617205) (xy 83.898102 158.695226)
        (xy 84.098061 158.735) (xy 84.190199 158.735) (xy 84.160199 158.765) (xy 84.098061 158.765) (xy 83.898102 158.804774)
        (xy 83.709744 158.882795) (xy 83.540226 158.996063) (xy 83.396063 159.140226) (xy 83.282795 159.309744) (xy 83.204774 159.498102)
        (xy 83.165 159.698061) (xy 83.165 159.901939) (xy 83.204774 160.101898) (xy 83.282795 160.290256) (xy 83.396063 160.459774)
        (xy 83.480744 160.544455) (xy 77.713271 166.311928) (xy 76.65 166.311928) (xy 76.525518 166.324188) (xy 76.40582 166.360498)
        (xy 76.295506 166.419463) (xy 76.198815 166.498815) (xy 76.119463 166.595506) (xy 76.060498 166.70582) (xy 76.05013 166.74)
        (xy 73.238072 166.74) (xy 73.238072 166.1) (xy 73.225812 165.975518) (xy 73.189502 165.85582) (xy 73.130537 165.745506)
        (xy 73.051185 165.648815) (xy 72.954494 165.569463) (xy 72.84418 165.510498) (xy 72.724482 165.474188) (xy 72.6 165.461928)
        (xy 69.8 165.461928) (xy 69.675518 165.474188) (xy 69.55582 165.510498) (xy 69.445506 165.569463) (xy 69.348815 165.648815)
        (xy 69.269463 165.745506) (xy 69.210498 165.85582) (xy 69.174188 165.975518) (xy 69.161928 166.1) (xy 69.161928 168.9)
        (xy 69.174188 169.024482) (xy 69.210498 169.14418) (xy 69.269463 169.254494) (xy 69.348815 169.351185) (xy 69.445506 169.430537)
        (xy 69.55582 169.489502) (xy 69.675518 169.525812) (xy 69.8 169.538072) (xy 72.6 169.538072) (xy 72.724482 169.525812)
        (xy 72.84418 169.489502) (xy 72.954494 169.430537) (xy 73.051185 169.351185) (xy 73.130537 169.254494) (xy 73.189502 169.14418)
        (xy 73.225812 169.024482) (xy 73.238072 168.9) (xy 73.238072 168.26) (xy 76.012913 168.26) (xy 76.024188 168.374482)
        (xy 76.060498 168.49418) (xy 76.119463 168.604494) (xy 76.198815 168.701185) (xy 76.295506 168.780537) (xy 76.40582 168.839502)
        (xy 76.525518 168.875812) (xy 76.65 168.888072) (xy 78.15 168.888072) (xy 78.274482 168.875812) (xy 78.39418 168.839502)
        (xy 78.504494 168.780537) (xy 78.601185 168.701185) (xy 78.680537 168.604494) (xy 78.739502 168.49418) (xy 78.75 168.459573)
        (xy 78.760498 168.49418) (xy 78.819463 168.604494) (xy 78.898815 168.701185) (xy 78.995506 168.780537) (xy 79.10582 168.839502)
        (xy 79.225518 168.875812) (xy 79.35 168.888072) (xy 80.85 168.888072) (xy 80.974482 168.875812) (xy 81.09418 168.839502)
        (xy 81.204494 168.780537) (xy 81.301185 168.701185) (xy 81.380537 168.604494) (xy 81.439502 168.49418) (xy 81.475812 168.374482)
        (xy 81.488072 168.25) (xy 81.488072 166.95) (xy 81.475812 166.825518) (xy 81.439502 166.70582) (xy 81.380537 166.595506)
        (xy 81.351398 166.56) (xy 91.796289 166.56) (xy 91.840226 166.603937) (xy 92.009744 166.717205) (xy 92.198102 166.795226)
        (xy 92.398061 166.835) (xy 92.601939 166.835) (xy 92.801898 166.795226) (xy 92.990256 166.717205) (xy 93.159774 166.603937)
        (xy 93.303937 166.459774) (xy 93.417205 166.290256) (xy 93.495226 166.101898) (xy 93.535 165.901939) (xy 93.535 165.698061)
        (xy 93.495226 165.498102) (xy 93.417205 165.309744) (xy 93.303937 165.140226) (xy 93.159774 164.996063) (xy 92.990256 164.882795)
        (xy 92.801898 164.804774) (xy 92.601939 164.765) (xy 92.398061 164.765) (xy 92.198102 164.804774) (xy 92.009744 164.882795)
        (xy 91.840226 164.996063) (xy 91.796289 165.04) (xy 81.134801 165.04) (xy 91.183931 154.990871) (xy 92.5322 154.990871)
        (xy 92.656682 154.978611) (xy 92.77638 154.942301) (xy 92.790041 154.934999) (xy 94.210198 154.934999) (xy 94.284444 155.009245)
        (xy 94.294454 155.042246) (xy 94.365026 155.174276) (xy 94.459999 155.290001) (xy 94.575724 155.384974) (xy 94.707754 155.455546)
        (xy 94.851015 155.499002) (xy 95 155.513676) (xy 95.148985 155.499002) (xy 95.277563 155.46) (xy 96.862667 155.46)
        (xy 96.9 155.463677) (xy 96.937333 155.46) (xy 97.372762 155.46) (xy 97.374188 155.474482) (xy 97.410498 155.59418)
        (xy 97.469463 155.704494) (xy 97.548815 155.801185) (xy 97.645506 155.880537) (xy 97.75582 155.939502) (xy 97.875518 155.975812)
        (xy 98 155.988072) (xy 99.5 155.988072) (xy 99.624482 155.975812) (xy 99.74418 155.939502) (xy 99.854494 155.880537)
        (xy 99.951185 155.801185) (xy 100.030537 155.704494) (xy 100.089502 155.59418) (xy 100.1 155.559573) (xy 100.110498 155.59418)
        (xy 100.169463 155.704494) (xy 100.248815 155.801185) (xy 100.345506 155.880537) (xy 100.45582 155.939502) (xy 100.575518 155.975812)
        (xy 100.7 155.988072) (xy 101.76327 155.988072) (xy 102.486201 156.711003) (xy 102.509999 156.740001) (xy 102.625724 156.834974)
        (xy 102.757753 156.905546) (xy 102.901014 156.949003) (xy 102.940001 156.952843) (xy 102.94 158.860198) (xy 99.388998 162.411201)
        (xy 99.36 162.434999) (xy 99.336202 162.463997) (xy 99.336201 162.463998) (xy 99.265026 162.550724) (xy 99.245674 162.586928)
        (xy 99.225 162.586928) (xy 99.100518 162.599188) (xy 98.98082 162.635498) (xy 98.870506 162.694463) (xy 98.773815 162.773815)
        (xy 98.694463 162.870506) (xy 98.635498 162.98082) (xy 98.599188 163.100518) (xy 98.586928 163.225) (xy 98.586928 164.44)
        (xy 97.238022 164.44) (xy 97.295226 164.301898) (xy 97.335 164.101939) (xy 97.335 163.898061) (xy 97.295226 163.698102)
        (xy 97.217205 163.509744) (xy 97.103937 163.340226) (xy 96.959774 163.196063) (xy 96.790256 163.082795) (xy 96.601898 163.004774)
        (xy 96.401939 162.965) (xy 96.198061 162.965) (xy 96.060001 162.992462) (xy 96.060001 160.971159) (xy 96.190256 160.917205)
        (xy 96.359774 160.803937) (xy 96.503937 160.659774) (xy 96.617205 160.490256) (xy 96.695226 160.301898) (xy 96.735 160.101939)
        (xy 96.735 159.898061) (xy 96.695226 159.698102) (xy 96.617205 159.509744) (xy 96.503937 159.340226) (xy 96.359774 159.196063)
        (xy 96.190256 159.082795) (xy 96.001898 159.004774) (xy 95.801939 158.965) (xy 95.598061 158.965) (xy 95.398102 159.004774)
        (xy 95.209744 159.082795) (xy 95.040226 159.196063) (xy 94.896063 159.340226) (xy 94.782795 159.509744) (xy 94.704774 159.698102)
        (xy 94.665 159.898061) (xy 94.665 159.975774) (xy 94.65205 160.000001) (xy 94.594455 160.107753) (xy 94.550998 160.251014)
        (xy 94.540001 160.362667) (xy 94.540001 160.362677) (xy 94.536325 160.399999) (xy 94.540001 160.437321) (xy 94.540002 176.762666)
        (xy 94.536325 176.799999) (xy 94.550998 176.948984) (xy 94.594455 177.092245) (xy 94.640563 177.178505) (xy 94.665028 177.224275)
        (xy 94.760001 177.34) (xy 94.875726 177.434973) (xy 95.007755 177.505545) (xy 95.151016 177.549002) (xy 95.300001 177.563676)
        (xy 95.337344 177.559998) (xy 98.734043 177.56) (xy 98.744463 177.579494) (xy 98.823815 177.676185) (xy 98.920506 177.755537)
        (xy 99.03082 177.814502) (xy 99.150518 177.850812) (xy 99.275 177.863072) (xy 100.125 177.863072) (xy 100.249482 177.850812)
        (xy 100.36918 177.814502) (xy 100.479494 177.755537) (xy 100.576185 177.676185) (xy 100.655537 177.579494) (xy 100.714502 177.46918)
        (xy 100.750812 177.349482) (xy 100.763072 177.225) (xy 100.763072 176.375) (xy 100.750812 176.250518) (xy 100.714502 176.13082)
        (xy 100.655537 176.020506) (xy 100.576185 175.923815) (xy 100.479494 175.844463) (xy 100.36918 175.785498) (xy 100.249482 175.749188)
        (xy 100.125 175.736928) (xy 99.275 175.736928) (xy 99.150518 175.749188) (xy 99.03082 175.785498) (xy 98.920506 175.844463)
        (xy 98.823815 175.923815) (xy 98.744463 176.020506) (xy 98.734043 176.040001) (xy 96.060001 176.039999) (xy 96.060001 172.5)
        (xy 98.783662 172.5) (xy 98.808955 172.756805) (xy 98.883862 173.003741) (xy 99.005505 173.231318) (xy 99.169208 173.430792)
        (xy 99.368682 173.594495) (xy 99.596259 173.716138) (xy 99.843195 173.791045) (xy 100.035649 173.81) (xy 100.164351 173.81)
        (xy 100.356805 173.791045) (xy 100.603741 173.716138) (xy 100.831318 173.594495) (xy 101.030792 173.430792) (xy 101.194495 173.231318)
        (xy 101.316138 173.003741) (xy 101.391045 172.756805) (xy 101.416338 172.5) (xy 101.391045 172.243195) (xy 101.316138 171.996259)
        (xy 101.194495 171.768682) (xy 101.137369 171.699074) (xy 101.226185 171.626185) (xy 101.305537 171.529494) (xy 101.364502 171.41918)
        (xy 101.400812 171.299482) (xy 101.413072 171.175) (xy 101.413072 169.825) (xy 101.400812 169.700518) (xy 101.364502 169.58082)
        (xy 101.305537 169.470506) (xy 101.226185 169.373815) (xy 101.129494 169.294463) (xy 101.01918 169.235498) (xy 100.899482 169.199188)
        (xy 100.775 169.186928) (xy 99.425 169.186928) (xy 99.300518 169.199188) (xy 99.18082 169.235498) (xy 99.070506 169.294463)
        (xy 98.973815 169.373815) (xy 98.894463 169.470506) (xy 98.835498 169.58082) (xy 98.799188 169.700518) (xy 98.786928 169.825)
        (xy 98.786928 171.175) (xy 98.799188 171.299482) (xy 98.835498 171.41918) (xy 98.894463 171.529494) (xy 98.973815 171.626185)
        (xy 99.062631 171.699074) (xy 99.005505 171.768682) (xy 98.883862 171.996259) (xy 98.808955 172.243195) (xy 98.783662 172.5)
        (xy 96.060001 172.5) (xy 96.060001 165.921395) (xy 96.151014 165.949003) (xy 96.262667 165.96) (xy 96.3 165.963677)
        (xy 96.337333 165.96) (xy 98.589571 165.96) (xy 98.608955 166.156805) (xy 98.683862 166.403741) (xy 98.805505 166.631318)
        (xy 98.969208 166.830792) (xy 99.168682 166.994495) (xy 99.396259 167.116138) (xy 99.643195 167.191045) (xy 99.835649 167.21)
        (xy 99.964351 167.21) (xy 100.156805 167.191045) (xy 100.403741 167.116138) (xy 100.631318 166.994495) (xy 100.830792 166.830792)
        (xy 100.994495 166.631318) (xy 101.116138 166.403741) (xy 101.191045 166.156805) (xy 101.216338 165.9) (xy 101.191045 165.643195)
        (xy 101.116138 165.396259) (xy 100.994495 165.168682) (xy 100.937369 165.099074) (xy 101.026185 165.026185) (xy 101.105537 164.929494)
        (xy 101.164502 164.81918) (xy 101.200812 164.699482) (xy 101.213072 164.575) (xy 101.213072 163.225) (xy 101.200812 163.100518)
        (xy 101.164502 162.98082) (xy 101.105537 162.870506) (xy 101.093708 162.856093) (xy 104.211004 159.738798) (xy 104.240001 159.715001)
        (xy 104.334974 159.599276) (xy 104.405546 159.467247) (xy 104.449003 159.323986) (xy 104.46 159.212333) (xy 104.46 159.212332)
        (xy 104.463677 159.175) (xy 104.46 159.137667) (xy 104.46 156.237333) (xy 104.463677 156.2) (xy 104.449003 156.051014)
        (xy 104.405546 155.907753) (xy 104.334974 155.775724) (xy 104.240001 155.659999) (xy 104.124276 155.565026) (xy 103.992247 155.494454)
        (xy 103.848986 155.450997) (xy 103.737333 155.44) (xy 103.7 155.436323) (xy 103.662667 155.44) (xy 103.364802 155.44)
        (xy 102.838072 154.91327) (xy 102.838072 154.05) (xy 102.825812 153.925518) (xy 102.789502 153.80582) (xy 102.730537 153.695506)
        (xy 102.651185 153.598815) (xy 102.554494 153.519463) (xy 102.44418 153.460498) (xy 102.324482 153.424188) (xy 102.2 153.411928)
        (xy 100.7 153.411928) (xy 100.575518 153.424188) (xy 100.45582 153.460498) (xy 100.345506 153.519463) (xy 100.248815 153.598815)
        (xy 100.169463 153.695506) (xy 100.110498 153.80582) (xy 100.1 153.840427) (xy 100.089502 153.80582) (xy 100.030537 153.695506)
        (xy 99.951185 153.598815) (xy 99.854494 153.519463) (xy 99.74418 153.460498) (xy 99.624482 153.424188) (xy 99.5 153.411928)
        (xy 98 153.411928) (xy 97.875518 153.424188) (xy 97.75582 153.460498) (xy 97.66 153.511716) (xy 97.66 151.337322)
        (xy 97.663676 151.299999) (xy 97.66 151.262676) (xy 97.66 151.262667) (xy 97.649003 151.151014) (xy 97.605546 151.007753)
        (xy 97.534974 150.875724) (xy 97.509311 150.844453) (xy 97.463799 150.788996) (xy 97.463795 150.788992) (xy 97.440001 150.759999)
        (xy 97.411008 150.736205) (xy 88.363804 141.689003) (xy 88.340001 141.659999) (xy 88.224276 141.565026) (xy 88.092247 141.494454)
        (xy 87.948986 141.450997) (xy 87.837333 141.44) (xy 87.837322 141.44) (xy 87.8 141.436324) (xy 87.762678 141.44)
        (xy 80.338072 141.44) (xy 80.338072 140.8) (xy 80.325812 140.675518) (xy 80.289502 140.55582) (xy 80.230537 140.445506)
        (xy 80.151185 140.348815) (xy 80.054494 140.269463) (xy 79.94418 140.210498) (xy 79.824482 140.174188) (xy 79.7 140.161928)
        (xy 76.9 140.161928) (xy 76.775518 140.174188) (xy 76.65582 140.210498) (xy 76.545506 140.269463) (xy 76.448815 140.348815)
        (xy 76.369463 140.445506) (xy 76.310498 140.55582) (xy 76.274188 140.675518) (xy 76.261928 140.8) (xy 76.261928 143.6)
        (xy 76.274188 143.724482) (xy 76.310498 143.84418) (xy 76.369463 143.954494) (xy 76.448815 144.051185) (xy 76.545506 144.130537)
        (xy 76.65582 144.189502) (xy 76.775518 144.225812) (xy 76.9 144.238072) (xy 79.7 144.238072) (xy 79.824482 144.225812)
        (xy 79.94418 144.189502) (xy 80.054494 144.130537) (xy 80.151185 144.051185) (xy 80.230537 143.954494) (xy 80.289502 143.84418)
        (xy 80.325812 143.724482) (xy 80.338072 143.6) (xy 80.338072 142.96) (xy 87.485199 142.96) (xy 92.865198 148.34)
        (xy 90.337322 148.34) (xy 90.299999 148.336324) (xy 90.262676 148.34) (xy 90.262667 148.34) (xy 90.151014 148.350997)
        (xy 90.007753 148.394454) (xy 89.875724 148.465026) (xy 89.759999 148.559999) (xy 89.736201 148.588997) (xy 88.485199 149.84)
        (xy 82.637322 149.84) (xy 82.599999 149.836324) (xy 82.562676 149.84) (xy 82.562667 149.84) (xy 82.451014 149.850997)
        (xy 82.307753 149.894454) (xy 82.175724 149.965026) (xy 82.059999 150.059999) (xy 82.036201 150.088997) (xy 79.103292 153.021907)
        (xy 79.082529 153.010809) (xy 78.69893 152.894445) (xy 78.399969 152.865) (xy 78.200031 152.865) (xy 77.90107 152.894445)
        (xy 77.517471 153.010809) (xy 77.163944 153.199773) (xy 76.854076 153.454076) (xy 76.599773 153.763944) (xy 76.410809 154.117471)
        (xy 76.403975 154.14) (xy 76.179444 154.14) (xy 76.195226 154.101898) (xy 76.235 153.901939) (xy 76.235 153.698061)
        (xy 76.195226 153.498102) (xy 76.117205 153.309744) (xy 76.003937 153.140226) (xy 75.96 153.096289) (xy 75.96 152.137322)
        (xy 75.963676 152.099999) (xy 75.96 152.062676) (xy 75.96 152.062667) (xy 75.949003 151.951014) (xy 75.905546 151.807753)
        (xy 75.834974 151.675724) (xy 75.805656 151.64) (xy 75.763799 151.588996) (xy 75.763795 151.588992) (xy 75.740001 151.559999)
        (xy 75.711009 151.536206) (xy 75.063803 150.889002) (xy 75.040001 150.859999) (xy 74.924276 150.765026) (xy 74.792247 150.694454)
        (xy 74.648986 150.650997) (xy 74.537333 150.64) (xy 74.537322 150.64) (xy 74.5 150.636324) (xy 74.462678 150.64)
        (xy 69.637323 150.64) (xy 69.6 150.636324) (xy 69.562677 150.64) (xy 69.562667 150.64) (xy 69.451014 150.650997)
        (xy 69.307753 150.694454) (xy 69.175724 150.765026) (xy 69.059999 150.859999) (xy 69.036201 150.888997) (xy 68.413085 151.512113)
        (xy 68.435 151.401939) (xy 68.435 151.198061) (xy 68.395226 150.998102) (xy 68.317205 150.809744) (xy 68.203937 150.640226)
        (xy 68.059774 150.496063) (xy 67.890256 150.382795) (xy 67.701898 150.304774) (xy 67.501939 150.265) (xy 67.298061 150.265)
        (xy 67.098102 150.304774) (xy 66.909744 150.382795) (xy 66.740226 150.496063) (xy 66.596063 150.640226) (xy 66.482795 150.809744)
        (xy 66.404774 150.998102) (xy 66.365 151.198061) (xy 66.365 151.260198) (xy 65.985199 151.64) (xy 65.372621 151.64)
        (xy 65.339502 151.53082) (xy 65.314796 151.4846) (xy 65.380537 151.404494) (xy 65.439502 151.29418) (xy 65.475812 151.174482)
        (xy 65.488072 151.05) (xy 65.488072 149.75) (xy 65.475812 149.625518) (xy 65.439502 149.50582) (xy 65.382939 149.4)
        (xy 65.439502 149.29418) (xy 65.475812 149.174482) (xy 65.477238 149.16) (xy 72.685199 149.16) (xy 72.965 149.439802)
        (xy 72.965 149.501939) (xy 73.004774 149.701898) (xy 73.082795 149.890256) (xy 73.196063 150.059774) (xy 73.340226 150.203937)
        (xy 73.509744 150.317205) (xy 73.698102 150.395226) (xy 73.898061 150.435) (xy 74.101939 150.435) (xy 74.301898 150.395226)
        (xy 74.490256 150.317205) (xy 74.659774 150.203937) (xy 74.803937 150.059774) (xy 74.917205 149.890256) (xy 74.995226 149.701898)
        (xy 75.035 149.501939) (xy 75.035 149.298061) (xy 74.995226 149.098102) (xy 74.917205 148.909744) (xy 74.803937 148.740226)
        (xy 74.659774 148.596063) (xy 74.490256 148.482795) (xy 74.301898 148.404774) (xy 74.101939 148.365) (xy 74.039802 148.365)
        (xy 73.563804 147.889002) (xy 73.540001 147.859999) (xy 73.424276 147.765026) (xy 73.292247 147.694454) (xy 73.148986 147.650997)
        (xy 73.037333 147.64) (xy 73.037322 147.64) (xy 73 147.636324) (xy 72.962678 147.64) (xy 65.477238 147.64)
        (xy 65.475812 147.625518) (xy 65.439502 147.50582) (xy 65.380537 147.395506) (xy 65.343191 147.35) (xy 65.380537 147.304494)
        (xy 65.439502 147.19418) (xy 65.475812 147.074482) (xy 65.488072 146.95) (xy 65.488072 145.65) (xy 65.475812 145.525518)
        (xy 65.439502 145.40582) (xy 65.380537 145.295506) (xy 65.301185 145.198815) (xy 65.204494 145.119463) (xy 65.09418 145.060498)
        (xy 64.974482 145.024188) (xy 64.85 145.011928) (xy 63.35 145.011928) (xy 63.225518 145.024188) (xy 63.10582 145.060498)
        (xy 62.995506 145.119463) (xy 62.898815 145.198815) (xy 62.819463 145.295506) (xy 62.760498 145.40582) (xy 62.75 145.440427)
        (xy 62.739502 145.40582) (xy 62.680537 145.295506) (xy 62.601185 145.198815) (xy 62.504494 145.119463) (xy 62.39418 145.060498)
        (xy 62.274482 145.024188) (xy 62.15 145.011928) (xy 60.65 145.011928) (xy 60.525518 145.024188) (xy 60.40582 145.060498)
        (xy 60.295506 145.119463) (xy 60.198815 145.198815) (xy 60.119463 145.295506) (xy 60.060498 145.40582) (xy 60.024188 145.525518)
        (xy 60.011928 145.65) (xy 60.011928 146.95) (xy 60.01833 147.015) (xy 59.723686 147.015) (xy 58.985 146.276315)
        (xy 58.985 141.435) (xy 59.656971 141.435) (xy 59.725 141.4417) (xy 59.793029 141.435) (xy 59.793037 141.435)
        (xy 59.996507 141.41496) (xy 60.257581 141.335764) (xy 60.288944 141.319) (xy 60.843135 141.319) (xy 61.046605 141.29896)
        (xy 61.307679 141.219764) (xy 61.548286 141.091157) (xy 61.759179 140.918081) (xy 61.932255 140.707188) (xy 62.060862 140.466581)
        (xy 62.140058 140.205507) (xy 62.163671 139.96575) (xy 62.378851 139.96575) (xy 62.39062 140.070817) (xy 62.429287 140.189774)
        (xy 62.490418 140.298903) (xy 62.571665 140.394008) (xy 62.669904 140.471435) (xy 62.781362 140.528209) (xy 62.901753 140.562148)
        (xy 63.026453 140.571948) (xy 63.21425 140.569) (xy 63.373 140.41025) (xy 63.373 139.807) (xy 63.627 139.807)
        (xy 63.627 140.41025) (xy 63.78575 140.569) (xy 63.973547 140.571948) (xy 64.098247 140.562148) (xy 64.218638 140.528209)
        (xy 64.330096 140.471435) (xy 64.428335 140.394008) (xy 64.509582 140.298903) (xy 64.570713 140.189774) (xy 64.60938 140.070817)
        (xy 64.621149 139.96575) (xy 64.462399 139.807) (xy 63.627 139.807) (xy 63.373 139.807) (xy 62.537601 139.807)
        (xy 62.378851 139.96575) (xy 62.163671 139.96575) (xy 62.166799 139.934) (xy 62.140058 139.662493) (xy 62.060862 139.401419)
        (xy 61.932255 139.160812) (xy 61.886274 139.104784) (xy 61.896247 139.015749) (xy 61.831496 138.950998) (xy 62.641441 138.950998)
        (xy 62.571665 139.005992) (xy 62.490418 139.101097) (xy 62.429287 139.210226) (xy 62.39062 139.329183) (xy 62.378851 139.43425)
        (xy 62.537601 139.593) (xy 63.373 139.593) (xy 63.373 139.553) (xy 63.627 139.553) (xy 63.627 139.593)
        (xy 64.462399 139.593) (xy 64.621149 139.43425) (xy 64.60938 139.329183) (xy 64.570713 139.210226) (xy 64.556581 139.184998)
        (xy 64.826313 139.184998) (xy 65.111928 139.470614) (xy 65.111928 139.525) (xy 65.124188 139.649482) (xy 65.160498 139.76918)
        (xy 65.219463 139.879494) (xy 65.298815 139.976185) (xy 65.395506 140.055537) (xy 65.50582 140.114502) (xy 65.625518 140.150812)
        (xy 65.75 140.163072) (xy 65.924965 140.163072) (xy 65.967419 140.185764) (xy 66.228493 140.26496) (xy 66.5 140.2917)
        (xy 66.771507 140.26496) (xy 67.03258 140.185764) (xy 67.075034 140.163072) (xy 67.25 140.163072) (xy 67.374482 140.150812)
        (xy 67.49418 140.114502) (xy 67.604494 140.055537) (xy 67.701185 139.976185) (xy 67.75 139.916704) (xy 67.798815 139.976185)
        (xy 67.895506 140.055537) (xy 68.00582 140.114502) (xy 68.125518 140.150812) (xy 68.25 140.163072) (xy 68.71425 140.16)
        (xy 68.873 140.00125) (xy 68.873 139.027) (xy 69.127 139.027) (xy 69.127 140.00125) (xy 69.28575 140.16)
        (xy 69.75 140.163072) (xy 69.874482 140.150812) (xy 69.99418 140.114502) (xy 70.104494 140.055537) (xy 70.201185 139.976185)
        (xy 70.280537 139.879494) (xy 70.339502 139.76918) (xy 70.375812 139.649482) (xy 70.388072 139.525) (xy 70.385 139.18575)
        (xy 70.22625 139.027) (xy 69.127 139.027) (xy 68.873 139.027) (xy 68.853 139.027) (xy 68.853 138.773)
        (xy 68.873 138.773) (xy 68.873 137.79875) (xy 69.127 137.79875) (xy 69.127 138.773) (xy 70.22625 138.773)
        (xy 70.385 138.61425) (xy 70.388072 138.275) (xy 70.375812 138.150518) (xy 70.339502 138.03082) (xy 70.280537 137.920506)
        (xy 70.201185 137.823815) (xy 70.104494 137.744463) (xy 69.99418 137.685498) (xy 69.874482 137.649188) (xy 69.75 137.636928)
        (xy 69.28575 137.64) (xy 69.127 137.79875) (xy 68.873 137.79875) (xy 68.71425 137.64) (xy 68.25 137.636928)
        (xy 68.125518 137.649188) (xy 68.00582 137.685498) (xy 67.895506 137.744463) (xy 67.798815 137.823815) (xy 67.75 137.883296)
        (xy 67.701185 137.823815) (xy 67.604494 137.744463) (xy 67.49418 137.685498) (xy 67.374482 137.649188) (xy 67.25 137.636928)
        (xy 67.195614 137.636928) (xy 66.42745 136.868765) (xy 66.384079 136.815917) (xy 66.173186 136.642841) (xy 65.932579 136.514234)
        (xy 65.671505 136.435038) (xy 65.468035 136.414998) (xy 65.468027 136.414998) (xy 65.399998 136.408298) (xy 65.331969 136.414998)
        (xy 64.04669 136.414998) (xy 64.039188 136.408841) (xy 63.798581 136.280234) (xy 63.537507 136.201038) (xy 63.334037 136.180998)
        (xy 63.334029 136.180998) (xy 63.266 136.174298) (xy 63.197971 136.180998) (xy 60.707061 136.180998) (xy 60.503591 136.201038)
        (xy 60.242517 136.280234) (xy 60.00191 136.408841) (xy 59.791017 136.581917) (xy 59.617941 136.79281) (xy 59.489334 137.033417)
        (xy 59.410138 137.294491) (xy 59.383397 137.565998) (xy 59.410138 137.837505) (xy 59.489334 138.098579) (xy 59.617941 138.339186)
        (xy 59.663922 138.395214) (xy 59.653949 138.484249) (xy 59.723565 138.553865) (xy 59.569493 138.56904) (xy 59.308419 138.648236)
        (xy 59.277056 138.665) (xy 58.746915 138.665) (xy 58.755537 138.654494) (xy 58.814502 138.54418) (xy 58.850812 138.424482)
        (xy 58.863072 138.3) (xy 58.86 137.83575) (xy 58.70125 137.677) (xy 57.727 137.677) (xy 57.727 137.697)
        (xy 57.473 137.697) (xy 57.473 137.677) (xy 56.49875 137.677) (xy 56.34 137.83575) (xy 56.336928 138.3)
        (xy 56.349188 138.424482) (xy 56.385498 138.54418) (xy 56.444463 138.654494) (xy 56.523815 138.751185) (xy 56.583296 138.8)
        (xy 56.523815 138.848815) (xy 56.444463 138.945506) (xy 56.385498 139.05582) (xy 56.349188 139.175518) (xy 56.336928 139.3)
        (xy 56.336928 139.474965) (xy 56.314236 139.517419) (xy 56.23504 139.778493) (xy 56.208299 140.05) (xy 56.215001 140.118046)
        (xy 56.215 142.368036) (xy 56.215001 142.368046) (xy 56.215 146.781971) (xy 56.2083 146.85) (xy 56.215 146.918029)
        (xy 56.215 146.918036) (xy 56.223619 147.005546) (xy 56.23504 147.121507) (xy 56.246868 147.160498) (xy 56.314236 147.38258)
        (xy 56.442843 147.623187) (xy 56.453624 147.636324) (xy 56.559248 147.765026) (xy 56.615919 147.83408) (xy 56.668765 147.87745)
        (xy 58.12255 149.331236) (xy 58.165919 149.384081) (xy 58.185316 149.4) (xy 58.165919 149.415919) (xy 58.12255 149.468764)
        (xy 56.368764 151.222551) (xy 56.31592 151.265919) (xy 56.272551 151.318764) (xy 56.272548 151.318767) (xy 56.142844 151.476812)
        (xy 56.014236 151.71742) (xy 55.93504 151.978493) (xy 55.9083 152.25) (xy 55.915001 152.318039) (xy 55.915 162.232538)
        (xy 55.823989 162.452257) (xy 55.765 162.748816) (xy 55.765 163.051184) (xy 55.823989 163.347743) (xy 55.939701 163.627095)
        (xy 56.107688 163.878505) (xy 56.321495 164.092312) (xy 56.572905 164.260299) (xy 56.852257 164.376011) (xy 57.148816 164.435)
        (xy 57.451184 164.435) (xy 57.747743 164.376011) (xy 58.027095 164.260299) (xy 58.278505 164.092312) (xy 58.492312 163.878505)
        (xy 58.660299 163.627095) (xy 58.776011 163.347743) (xy 58.835 163.051184) (xy 58.835 162.748816) (xy 58.776011 162.452257)
        (xy 58.685 162.232538) (xy 58.685 152.823685) (xy 59.723686 151.785) (xy 60.111928 151.785) (xy 60.111928 153.025)
        (xy 60.124188 153.149482) (xy 60.160498 153.26918) (xy 60.2051 153.352623) (xy 60.148815 153.398815) (xy 60.069463 153.495506)
        (xy 60.010498 153.60582) (xy 59.974188 153.725518) (xy 59.961928 153.85) (xy 59.961928 155.15) (xy 59.965001 155.181201)
        (xy 59.965 167.776314) (xy 56.126315 171.615) (xy 48.570123 171.615) (xy 48.474463 171.551082) (xy 48.176912 171.427832)
        (xy 47.861033 171.365) (xy 47.538967 171.365) (xy 47.223088 171.427832) (xy 46.925537 171.551082) (xy 46.657748 171.730013)
        (xy 46.430013 171.957748) (xy 46.251082 172.225537) (xy 46.127832 172.523088) (xy 46.065 172.838967) (xy 36.638072 172.838967)
        (xy 36.638072 172) (xy 36.625812 171.875518) (xy 36.589502 171.75582) (xy 36.530537 171.645506) (xy 36.451185 171.548815)
        (xy 36.354494 171.469463) (xy 36.24418 171.410498) (xy 36.124482 171.374188) (xy 36 171.361928) (xy 34 171.361928)
        (xy 33.875518 171.374188) (xy 33.75582 171.410498) (xy 33.645506 171.469463) (xy 33.548815 171.548815) (xy 33.469463 171.645506)
        (xy 33.410498 171.75582) (xy 33.374188 171.875518) (xy 33.361928 172) (xy 25.527 172) (xy 25.527 164.129098)
        (xy 41.3145 164.129098) (xy 41.3145 164.598902) (xy 41.406154 165.059679) (xy 41.58594 165.493721) (xy 41.84695 165.884349)
        (xy 42.179151 166.21655) (xy 42.569779 166.47756) (xy 43.003821 166.657346) (xy 43.464598 166.749) (xy 43.934402 166.749)
        (xy 44.395179 166.657346) (xy 44.829221 166.47756) (xy 45.219849 166.21655) (xy 45.55205 165.884349) (xy 45.81306 165.493721)
        (xy 45.992846 165.059679) (xy 46.0845 164.598902) (xy 46.0845 164.129098) (xy 45.992846 163.668321) (xy 45.81306 163.234279)
        (xy 45.55205 162.843651) (xy 45.219849 162.51145) (xy 44.829221 162.25044) (xy 44.395179 162.070654) (xy 43.934402 161.979)
        (xy 43.464598 161.979) (xy 43.003821 162.070654) (xy 42.569779 162.25044) (xy 42.179151 162.51145) (xy 41.84695 162.843651)
        (xy 41.58594 163.234279) (xy 41.406154 163.668321) (xy 41.3145 164.129098) (xy 25.527 164.129098) (xy 25.527 136.8)
        (xy 56.336928 136.8) (xy 56.34 137.26425) (xy 56.49875 137.423) (xy 57.473 137.423) (xy 57.473 136.32375)
        (xy 57.727 136.32375) (xy 57.727 137.423) (xy 58.70125 137.423) (xy 58.86 137.26425) (xy 58.863072 136.8)
        (xy 58.850812 136.675518) (xy 58.814502 136.55582) (xy 58.755537 136.445506) (xy 58.676185 136.348815) (xy 58.579494 136.269463)
        (xy 58.46918 136.210498) (xy 58.349482 136.174188) (xy 58.225 136.161928) (xy 57.88575 136.165) (xy 57.727 136.32375)
        (xy 57.473 136.32375) (xy 57.31425 136.165) (xy 56.975 136.161928) (xy 56.850518 136.174188) (xy 56.73082 136.210498)
        (xy 56.620506 136.269463) (xy 56.523815 136.348815) (xy 56.444463 136.445506) (xy 56.385498 136.55582) (xy 56.349188 136.675518)
        (xy 56.336928 136.8) (xy 25.527 136.8) (xy 25.527 134.157098) (xy 36.5774 134.157098) (xy 36.5774 134.626902)
        (xy 36.669054 135.087679) (xy 36.84884 135.521721) (xy 37.10985 135.912349) (xy 37.442051 136.24455) (xy 37.832679 136.50556)
        (xy 38.266721 136.685346) (xy 38.727498 136.777) (xy 39.197302 136.777) (xy 39.658079 136.685346) (xy 40.092121 136.50556)
        (xy 40.482749 136.24455) (xy 40.81495 135.912349) (xy 41.07596 135.521721) (xy 41.255746 135.087679) (xy 41.3474 134.626902)
        (xy 41.3474 134.157098) (xy 41.255746 133.696321) (xy 41.07596 133.262279) (xy 40.81495 132.871651) (xy 40.482749 132.53945)
        (xy 40.092121 132.27844) (xy 39.658079 132.098654) (xy 39.197302 132.007) (xy 38.727498 132.007) (xy 38.266721 132.098654)
        (xy 37.832679 132.27844) (xy 37.442051 132.53945) (xy 37.10985 132.871651) (xy 36.84884 133.262279) (xy 36.669054 133.696321)
        (xy 36.5774 134.157098) (xy 25.527 134.157098) (xy 25.527 119.027) (xy 108.073 119.027)
      )
    )
  )
  (zone (net 1) (net_name GND) (layer B.Cu) (tstamp 5E3E313D) (hatch edge 0.508)
    (connect_pads (clearance 0.508))
    (min_thickness 0.254)
    (fill yes (arc_segments 32) (thermal_gap 0.508) (thermal_bridge_width 0.508))
    (polygon
      (pts
        (xy 25.4 118.9) (xy 108.2 118.9) (xy 108.2 181.5) (xy 25.4 180.4)
      )
    )
  )
)
