%TF.GenerationSoftware,KiCad,Pcbnew,(5.0.0)*%
%TF.CreationDate,2019-03-25T10:18:54+11:00*%
%TF.ProjectId,MainMk1,4D61696E4D6B312E6B696361645F7063,rev?*%
%TF.SameCoordinates,Original*%
%TF.FileFunction,Legend,Top*%
%TF.FilePolarity,Positive*%
%FSLAX46Y46*%
G04 Gerber Fmt 4.6, Leading zero omitted, Abs format (unit mm)*
G04 Created by KiCad (PCBNEW (5.0.0)) date 03/25/19 10:18:54*
%MOMM*%
%LPD*%
G01*
G04 APERTURE LIST*
%ADD10C,0.150000*%
%ADD11C,0.200000*%
%ADD12C,0.120000*%
%ADD13C,0.100000*%
%ADD14C,0.125000*%
G04 APERTURE END LIST*
D10*
X90000000Y0D02*
X90000000Y-12030000D01*
X90000000Y-90000000D02*
X90000000Y-49000000D01*
X85000000Y-17030000D02*
X85000000Y-44000000D01*
X85000000Y-44000000D02*
G75*
G02X90000000Y-49000000I0J-5000000D01*
G01*
X85000000Y-17030000D02*
G75*
G03X90000000Y-12030000I0J5000000D01*
G01*
D11*
X1500000Y-14030000D02*
X1500000Y-84000000D01*
X1500000Y-84000000D02*
X6000000Y-84000000D01*
X6000000Y-84000000D02*
X6000000Y-88500000D01*
X6000000Y-88500000D02*
X83500000Y-88500000D01*
X83500000Y-88500000D02*
X83500000Y-14030000D01*
X1500000Y-14030000D02*
X83500000Y-14030000D01*
X14265000Y-2000000D02*
X14265000Y-6950000D01*
X14265000Y-6950000D02*
X4105000Y-6950000D01*
X4105000Y-6950000D02*
X4105000Y-12030000D01*
X4105000Y-12030000D02*
X85895000Y-12030000D01*
X65575000Y-6950000D02*
X65575000Y-2000000D01*
X85895000Y-6950000D02*
X65575000Y-6950000D01*
X85895000Y-12030000D02*
X85895000Y-6950000D01*
X14265000Y-2000000D02*
X65575000Y-2000000D01*
D10*
X0Y-90000000D02*
X0Y0D01*
X90000000Y-90000000D02*
X0Y-90000000D01*
X0Y0D02*
X90000000Y0D01*
D12*
X30492000Y-14644000D02*
X29492000Y-14644000D01*
X29492000Y-16344000D02*
X30492000Y-16344000D01*
X29472000Y-34124000D02*
X30472000Y-34124000D01*
X30472000Y-32424000D02*
X29472000Y-32424000D01*
X30472000Y-34964000D02*
X29472000Y-34964000D01*
X29472000Y-36664000D02*
X30472000Y-36664000D01*
X29492000Y-19138000D02*
X30492000Y-19138000D01*
X30492000Y-17438000D02*
X29492000Y-17438000D01*
X36664000Y-26388000D02*
X36664000Y-25388000D01*
X34964000Y-25388000D02*
X34964000Y-26388000D01*
X30452000Y-20232000D02*
X29452000Y-20232000D01*
X29452000Y-21932000D02*
X30452000Y-21932000D01*
X29472000Y-31584000D02*
X30472000Y-31584000D01*
X30472000Y-29884000D02*
X29472000Y-29884000D01*
X41998000Y-29202000D02*
X41998000Y-28202000D01*
X40298000Y-28202000D02*
X40298000Y-29202000D01*
X34552000Y-19138000D02*
X35552000Y-19138000D01*
X35552000Y-17438000D02*
X34552000Y-17438000D01*
X39378000Y-34378000D02*
X40378000Y-34378000D01*
X40378000Y-32678000D02*
X39378000Y-32678000D01*
X9898000Y-16675121D02*
X8898000Y-16675121D01*
X8898000Y-18375121D02*
X9898000Y-18375121D01*
X8898000Y-29552000D02*
X9898000Y-29552000D01*
X9898000Y-27852000D02*
X8898000Y-27852000D01*
X9899359Y-18707121D02*
X8899359Y-18707121D01*
X8899359Y-20407121D02*
X9899359Y-20407121D01*
X8918000Y-31838000D02*
X9918000Y-31838000D01*
X9918000Y-30138000D02*
X8918000Y-30138000D01*
X8899359Y-22693121D02*
X9899359Y-22693121D01*
X9899359Y-20993121D02*
X8899359Y-20993121D01*
X9923400Y-32170000D02*
X8923400Y-32170000D01*
X8923400Y-33870000D02*
X9923400Y-33870000D01*
X9918000Y-23280000D02*
X8918000Y-23280000D01*
X8918000Y-24980000D02*
X9918000Y-24980000D01*
X8918000Y-35902000D02*
X9918000Y-35902000D01*
X9918000Y-34202000D02*
X8918000Y-34202000D01*
X69842000Y-14898000D02*
X68842000Y-14898000D01*
X68842000Y-16598000D02*
X69842000Y-16598000D01*
X69822000Y-17692000D02*
X68822000Y-17692000D01*
X68822000Y-19392000D02*
X69822000Y-19392000D01*
X68862000Y-37045000D02*
X69862000Y-37045000D01*
X69862000Y-35345000D02*
X68862000Y-35345000D01*
X69862000Y-32995500D02*
X68862000Y-32995500D01*
X68862000Y-34695500D02*
X69862000Y-34695500D01*
X74080000Y-25662000D02*
X74080000Y-26662000D01*
X75780000Y-26662000D02*
X75780000Y-25662000D01*
X68862000Y-32346000D02*
X69862000Y-32346000D01*
X69862000Y-30646000D02*
X68862000Y-30646000D01*
X68822000Y-22186000D02*
X69822000Y-22186000D01*
X69822000Y-20486000D02*
X68822000Y-20486000D01*
X79590000Y-30238000D02*
X79590000Y-29238000D01*
X77890000Y-29238000D02*
X77890000Y-30238000D01*
X73688000Y-19392000D02*
X74688000Y-19392000D01*
X74688000Y-17692000D02*
X73688000Y-17692000D01*
X77890000Y-34298000D02*
X77890000Y-35298000D01*
X79590000Y-35298000D02*
X79590000Y-34298000D01*
X48796000Y-24726000D02*
X49796000Y-24726000D01*
X49796000Y-23026000D02*
X48796000Y-23026000D01*
X49796000Y-27725000D02*
X48796000Y-27725000D01*
X48796000Y-29425000D02*
X49796000Y-29425000D01*
X48796000Y-31711000D02*
X49796000Y-31711000D01*
X49796000Y-30011000D02*
X48796000Y-30011000D01*
X49796000Y-18454000D02*
X48796000Y-18454000D01*
X48796000Y-20154000D02*
X49796000Y-20154000D01*
X49796000Y-32297000D02*
X48796000Y-32297000D01*
X48796000Y-33997000D02*
X49796000Y-33997000D01*
X48776000Y-22186000D02*
X49776000Y-22186000D01*
X49776000Y-20486000D02*
X48776000Y-20486000D01*
X48796000Y-36283000D02*
X49796000Y-36283000D01*
X49796000Y-34583000D02*
X48796000Y-34583000D01*
X49796000Y-16168000D02*
X48796000Y-16168000D01*
X48796000Y-17868000D02*
X49796000Y-17868000D01*
D11*
X26308000Y-29162000D02*
X26308000Y-32462000D01*
X26308000Y-32462000D02*
X19558000Y-32462000D01*
X12808000Y-29162000D02*
X12808000Y-32462000D01*
X12808000Y-32462000D02*
X19558000Y-32462000D01*
X26308000Y-23162000D02*
X26308000Y-19862000D01*
X26308000Y-19862000D02*
X19558000Y-19862000D01*
X12808000Y-23162000D02*
X12808000Y-19862000D01*
X12808000Y-19862000D02*
X19558000Y-19862000D01*
X52686000Y-19862000D02*
X59436000Y-19862000D01*
X52686000Y-23162000D02*
X52686000Y-19862000D01*
X66186000Y-19862000D02*
X59436000Y-19862000D01*
X66186000Y-23162000D02*
X66186000Y-19862000D01*
X52686000Y-32462000D02*
X59436000Y-32462000D01*
X52686000Y-29162000D02*
X52686000Y-32462000D01*
X66186000Y-32462000D02*
X59436000Y-32462000D01*
X66186000Y-29162000D02*
X66186000Y-32462000D01*
D12*
X41774000Y-19132000D02*
X41774000Y-20332000D01*
X40014000Y-20332000D02*
X40014000Y-19132000D01*
X39488000Y-19132000D02*
X39488000Y-20332000D01*
X37728000Y-20332000D02*
X37728000Y-19132000D01*
X33156000Y-35478000D02*
X33156000Y-34278000D01*
X34916000Y-34278000D02*
X34916000Y-35478000D01*
X35442000Y-35478000D02*
X35442000Y-34278000D01*
X37202000Y-34278000D02*
X37202000Y-35478000D01*
X39358000Y-35442000D02*
X40558000Y-35442000D01*
X40558000Y-37202000D02*
X39358000Y-37202000D01*
X35826000Y-16628000D02*
X34626000Y-16628000D01*
X34626000Y-14868000D02*
X35826000Y-14868000D01*
X78876000Y-20746000D02*
X78876000Y-19546000D01*
X80636000Y-19546000D02*
X80636000Y-20746000D01*
X76844000Y-20746000D02*
X76844000Y-19546000D01*
X78604000Y-19546000D02*
X78604000Y-20746000D01*
X74504000Y-35188000D02*
X75704000Y-35188000D01*
X75704000Y-36948000D02*
X74504000Y-36948000D01*
X74511600Y-37474000D02*
X75711600Y-37474000D01*
X75711600Y-39234000D02*
X74511600Y-39234000D01*
X75704000Y-34662000D02*
X74504000Y-34662000D01*
X74504000Y-32902000D02*
X75704000Y-32902000D01*
X74504000Y-30616000D02*
X75704000Y-30616000D01*
X75704000Y-32376000D02*
X74504000Y-32376000D01*
X73742000Y-14868000D02*
X74942000Y-14868000D01*
X74942000Y-16628000D02*
X73742000Y-16628000D01*
X38281000Y-16708000D02*
X41141000Y-16708000D01*
X38281000Y-14788000D02*
X38281000Y-16708000D01*
X41141000Y-14788000D02*
X38281000Y-14788000D01*
X80003000Y-14788000D02*
X77143000Y-14788000D01*
X77143000Y-14788000D02*
X77143000Y-16708000D01*
X77143000Y-16708000D02*
X80003000Y-16708000D01*
X40304000Y-25772000D02*
X39104000Y-25772000D01*
X39104000Y-24012000D02*
X40304000Y-24012000D01*
X77806000Y-24520000D02*
X79006000Y-24520000D01*
X79006000Y-26280000D02*
X77806000Y-26280000D01*
X9200000Y-39500000D02*
G75*
G02X9900000Y-40200000I0J-700000D01*
G01*
X9900000Y-40800000D02*
G75*
G02X9200000Y-41500000I-700000J0D01*
G01*
X7800000Y-41500000D02*
G75*
G02X7100000Y-40800000I0J700000D01*
G01*
X7100000Y-40200000D02*
G75*
G02X7800000Y-39500000I700000J0D01*
G01*
X7100000Y-40800000D02*
X7100000Y-40200000D01*
X9200000Y-41500000D02*
X7800000Y-41500000D01*
X9900000Y-40200000D02*
X9900000Y-40800000D01*
X7800000Y-39500000D02*
X9200000Y-39500000D01*
D13*
X32788000Y-27712000D02*
X32788000Y-27962000D01*
X32788000Y-27962000D02*
X32288000Y-27962000D01*
X32788000Y-24362000D02*
X32288000Y-24362000D01*
X32788000Y-24612000D02*
X32788000Y-24362000D01*
D11*
X33088000Y-24162000D02*
G75*
G03X33088000Y-24162000I-100000J0D01*
G01*
D13*
X29188000Y-27712000D02*
X29188000Y-27962000D01*
X29188000Y-27962000D02*
X29288000Y-27962000D01*
X29188000Y-24612000D02*
X29188000Y-24362000D01*
X29188000Y-24362000D02*
X29288000Y-24362000D01*
X68434000Y-24257000D02*
X68534000Y-24257000D01*
X68434000Y-24507000D02*
X68434000Y-24257000D01*
X68434000Y-27857000D02*
X68534000Y-27857000D01*
X68434000Y-27607000D02*
X68434000Y-27857000D01*
D11*
X72334000Y-24057000D02*
G75*
G03X72334000Y-24057000I-100000J0D01*
G01*
D13*
X72034000Y-24507000D02*
X72034000Y-24257000D01*
X72034000Y-24257000D02*
X71534000Y-24257000D01*
X72034000Y-27857000D02*
X71534000Y-27857000D01*
X72034000Y-27607000D02*
X72034000Y-27857000D01*
D11*
X6000000Y-42600000D02*
X83000000Y-42600000D01*
X83000000Y-42600000D02*
X83000000Y-48500000D01*
X6000000Y-57250000D02*
X6000000Y-62500000D01*
X6000000Y-42600000D02*
X6000000Y-48500000D01*
X6000000Y-67750000D02*
X6000000Y-62500000D01*
X83000000Y-82400000D02*
X6000000Y-82400000D01*
X6000000Y-82400000D02*
X6000000Y-76500000D01*
X83000000Y-82400000D02*
X83000000Y-76500000D01*
D14*
X2333333Y773809D02*
X2333333Y1273809D01*
X2500000Y916666D01*
X2666666Y1273809D01*
X2666666Y773809D01*
X2904761Y773809D02*
X2904761Y1273809D01*
X2904761Y1035714D02*
X3190476Y1035714D01*
X3190476Y773809D02*
X3190476Y1273809D01*
X3690476Y773809D02*
X3404761Y773809D01*
X3547619Y773809D02*
X3547619Y1273809D01*
X3500000Y1202380D01*
X3452380Y1154761D01*
X3404761Y1130952D01*
X86333333Y773809D02*
X86333333Y1273809D01*
X86500000Y916666D01*
X86666666Y1273809D01*
X86666666Y773809D01*
X86904761Y773809D02*
X86904761Y1273809D01*
X86904761Y1035714D02*
X87190476Y1035714D01*
X87190476Y773809D02*
X87190476Y1273809D01*
X87404761Y1226190D02*
X87428571Y1250000D01*
X87476190Y1273809D01*
X87595238Y1273809D01*
X87642857Y1250000D01*
X87666666Y1226190D01*
X87690476Y1178571D01*
X87690476Y1130952D01*
X87666666Y1059523D01*
X87380952Y773809D01*
X87690476Y773809D01*
X2333333Y-83226190D02*
X2333333Y-82726190D01*
X2500000Y-83083333D01*
X2666666Y-82726190D01*
X2666666Y-83226190D01*
X2904761Y-83226190D02*
X2904761Y-82726190D01*
X2904761Y-82964285D02*
X3190476Y-82964285D01*
X3190476Y-83226190D02*
X3190476Y-82726190D01*
X3380952Y-82726190D02*
X3690476Y-82726190D01*
X3523809Y-82916666D01*
X3595238Y-82916666D01*
X3642857Y-82940476D01*
X3666666Y-82964285D01*
X3690476Y-83011904D01*
X3690476Y-83130952D01*
X3666666Y-83178571D01*
X3642857Y-83202380D01*
X3595238Y-83226190D01*
X3452380Y-83226190D01*
X3404761Y-83202380D01*
X3380952Y-83178571D01*
X86333333Y-83226190D02*
X86333333Y-82726190D01*
X86500000Y-83083333D01*
X86666666Y-82726190D01*
X86666666Y-83226190D01*
X86904761Y-83226190D02*
X86904761Y-82726190D01*
X86904761Y-82964285D02*
X87190476Y-82964285D01*
X87190476Y-83226190D02*
X87190476Y-82726190D01*
X87642857Y-82892857D02*
X87642857Y-83226190D01*
X87523809Y-82702380D02*
X87404761Y-83059523D01*
X87714285Y-83059523D01*
X-6505952Y-8486190D02*
X-6505952Y-8890952D01*
X-6482142Y-8938571D01*
X-6458333Y-8962380D01*
X-6410714Y-8986190D01*
X-6315476Y-8986190D01*
X-6267857Y-8962380D01*
X-6244047Y-8938571D01*
X-6220238Y-8890952D01*
X-6220238Y-8486190D01*
X-5720238Y-8986190D02*
X-6005952Y-8986190D01*
X-5863095Y-8986190D02*
X-5863095Y-8486190D01*
X-5910714Y-8557619D01*
X-5958333Y-8605238D01*
X-6005952Y-8629047D01*
X29908666Y-17422571D02*
X29884857Y-17446380D01*
X29813428Y-17470190D01*
X29765809Y-17470190D01*
X29694380Y-17446380D01*
X29646761Y-17398761D01*
X29622952Y-17351142D01*
X29599142Y-17255904D01*
X29599142Y-17184476D01*
X29622952Y-17089238D01*
X29646761Y-17041619D01*
X29694380Y-16994000D01*
X29765809Y-16970190D01*
X29813428Y-16970190D01*
X29884857Y-16994000D01*
X29908666Y-17017809D01*
X30075333Y-16970190D02*
X30408666Y-16970190D01*
X30194380Y-17470190D01*
X29888666Y-35202571D02*
X29864857Y-35226380D01*
X29793428Y-35250190D01*
X29745809Y-35250190D01*
X29674380Y-35226380D01*
X29626761Y-35178761D01*
X29602952Y-35131142D01*
X29579142Y-35035904D01*
X29579142Y-34964476D01*
X29602952Y-34869238D01*
X29626761Y-34821619D01*
X29674380Y-34774000D01*
X29745809Y-34750190D01*
X29793428Y-34750190D01*
X29864857Y-34774000D01*
X29888666Y-34797809D01*
X30174380Y-34964476D02*
X30126761Y-34940666D01*
X30102952Y-34916857D01*
X30079142Y-34869238D01*
X30079142Y-34845428D01*
X30102952Y-34797809D01*
X30126761Y-34774000D01*
X30174380Y-34750190D01*
X30269619Y-34750190D01*
X30317238Y-34774000D01*
X30341047Y-34797809D01*
X30364857Y-34845428D01*
X30364857Y-34869238D01*
X30341047Y-34916857D01*
X30317238Y-34940666D01*
X30269619Y-34964476D01*
X30174380Y-34964476D01*
X30126761Y-34988285D01*
X30102952Y-35012095D01*
X30079142Y-35059714D01*
X30079142Y-35154952D01*
X30102952Y-35202571D01*
X30126761Y-35226380D01*
X30174380Y-35250190D01*
X30269619Y-35250190D01*
X30317238Y-35226380D01*
X30341047Y-35202571D01*
X30364857Y-35154952D01*
X30364857Y-35059714D01*
X30341047Y-35012095D01*
X30317238Y-34988285D01*
X30269619Y-34964476D01*
X29888666Y-37742571D02*
X29864857Y-37766380D01*
X29793428Y-37790190D01*
X29745809Y-37790190D01*
X29674380Y-37766380D01*
X29626761Y-37718761D01*
X29602952Y-37671142D01*
X29579142Y-37575904D01*
X29579142Y-37504476D01*
X29602952Y-37409238D01*
X29626761Y-37361619D01*
X29674380Y-37314000D01*
X29745809Y-37290190D01*
X29793428Y-37290190D01*
X29864857Y-37314000D01*
X29888666Y-37337809D01*
X30126761Y-37790190D02*
X30222000Y-37790190D01*
X30269619Y-37766380D01*
X30293428Y-37742571D01*
X30341047Y-37671142D01*
X30364857Y-37575904D01*
X30364857Y-37385428D01*
X30341047Y-37337809D01*
X30317238Y-37314000D01*
X30269619Y-37290190D01*
X30174380Y-37290190D01*
X30126761Y-37314000D01*
X30102952Y-37337809D01*
X30079142Y-37385428D01*
X30079142Y-37504476D01*
X30102952Y-37552095D01*
X30126761Y-37575904D01*
X30174380Y-37599714D01*
X30269619Y-37599714D01*
X30317238Y-37575904D01*
X30341047Y-37552095D01*
X30364857Y-37504476D01*
X29670571Y-20216571D02*
X29646761Y-20240380D01*
X29575333Y-20264190D01*
X29527714Y-20264190D01*
X29456285Y-20240380D01*
X29408666Y-20192761D01*
X29384857Y-20145142D01*
X29361047Y-20049904D01*
X29361047Y-19978476D01*
X29384857Y-19883238D01*
X29408666Y-19835619D01*
X29456285Y-19788000D01*
X29527714Y-19764190D01*
X29575333Y-19764190D01*
X29646761Y-19788000D01*
X29670571Y-19811809D01*
X30146761Y-20264190D02*
X29861047Y-20264190D01*
X30003904Y-20264190D02*
X30003904Y-19764190D01*
X29956285Y-19835619D01*
X29908666Y-19883238D01*
X29861047Y-19907047D01*
X30456285Y-19764190D02*
X30503904Y-19764190D01*
X30551523Y-19788000D01*
X30575333Y-19811809D01*
X30599142Y-19859428D01*
X30622952Y-19954666D01*
X30622952Y-20073714D01*
X30599142Y-20168952D01*
X30575333Y-20216571D01*
X30551523Y-20240380D01*
X30503904Y-20264190D01*
X30456285Y-20264190D01*
X30408666Y-20240380D01*
X30384857Y-20216571D01*
X30361047Y-20168952D01*
X30337238Y-20073714D01*
X30337238Y-19954666D01*
X30361047Y-19859428D01*
X30384857Y-19811809D01*
X30408666Y-19788000D01*
X30456285Y-19764190D01*
X37242571Y-26066571D02*
X37218761Y-26090380D01*
X37147333Y-26114190D01*
X37099714Y-26114190D01*
X37028285Y-26090380D01*
X36980666Y-26042761D01*
X36956857Y-25995142D01*
X36933047Y-25899904D01*
X36933047Y-25828476D01*
X36956857Y-25733238D01*
X36980666Y-25685619D01*
X37028285Y-25638000D01*
X37099714Y-25614190D01*
X37147333Y-25614190D01*
X37218761Y-25638000D01*
X37242571Y-25661809D01*
X37718761Y-26114190D02*
X37433047Y-26114190D01*
X37575904Y-26114190D02*
X37575904Y-25614190D01*
X37528285Y-25685619D01*
X37480666Y-25733238D01*
X37433047Y-25757047D01*
X38194952Y-26114190D02*
X37909238Y-26114190D01*
X38052095Y-26114190D02*
X38052095Y-25614190D01*
X38004476Y-25685619D01*
X37956857Y-25733238D01*
X37909238Y-25757047D01*
X29630571Y-23010571D02*
X29606761Y-23034380D01*
X29535333Y-23058190D01*
X29487714Y-23058190D01*
X29416285Y-23034380D01*
X29368666Y-22986761D01*
X29344857Y-22939142D01*
X29321047Y-22843904D01*
X29321047Y-22772476D01*
X29344857Y-22677238D01*
X29368666Y-22629619D01*
X29416285Y-22582000D01*
X29487714Y-22558190D01*
X29535333Y-22558190D01*
X29606761Y-22582000D01*
X29630571Y-22605809D01*
X30106761Y-23058190D02*
X29821047Y-23058190D01*
X29963904Y-23058190D02*
X29963904Y-22558190D01*
X29916285Y-22629619D01*
X29868666Y-22677238D01*
X29821047Y-22701047D01*
X30297238Y-22605809D02*
X30321047Y-22582000D01*
X30368666Y-22558190D01*
X30487714Y-22558190D01*
X30535333Y-22582000D01*
X30559142Y-22605809D01*
X30582952Y-22653428D01*
X30582952Y-22701047D01*
X30559142Y-22772476D01*
X30273428Y-23058190D01*
X30582952Y-23058190D01*
X29650571Y-32662571D02*
X29626761Y-32686380D01*
X29555333Y-32710190D01*
X29507714Y-32710190D01*
X29436285Y-32686380D01*
X29388666Y-32638761D01*
X29364857Y-32591142D01*
X29341047Y-32495904D01*
X29341047Y-32424476D01*
X29364857Y-32329238D01*
X29388666Y-32281619D01*
X29436285Y-32234000D01*
X29507714Y-32210190D01*
X29555333Y-32210190D01*
X29626761Y-32234000D01*
X29650571Y-32257809D01*
X30126761Y-32710190D02*
X29841047Y-32710190D01*
X29983904Y-32710190D02*
X29983904Y-32210190D01*
X29936285Y-32281619D01*
X29888666Y-32329238D01*
X29841047Y-32353047D01*
X30293428Y-32210190D02*
X30602952Y-32210190D01*
X30436285Y-32400666D01*
X30507714Y-32400666D01*
X30555333Y-32424476D01*
X30579142Y-32448285D01*
X30602952Y-32495904D01*
X30602952Y-32614952D01*
X30579142Y-32662571D01*
X30555333Y-32686380D01*
X30507714Y-32710190D01*
X30364857Y-32710190D01*
X30317238Y-32686380D01*
X30293428Y-32662571D01*
X42576571Y-28880571D02*
X42552761Y-28904380D01*
X42481333Y-28928190D01*
X42433714Y-28928190D01*
X42362285Y-28904380D01*
X42314666Y-28856761D01*
X42290857Y-28809142D01*
X42267047Y-28713904D01*
X42267047Y-28642476D01*
X42290857Y-28547238D01*
X42314666Y-28499619D01*
X42362285Y-28452000D01*
X42433714Y-28428190D01*
X42481333Y-28428190D01*
X42552761Y-28452000D01*
X42576571Y-28475809D01*
X43052761Y-28928190D02*
X42767047Y-28928190D01*
X42909904Y-28928190D02*
X42909904Y-28428190D01*
X42862285Y-28499619D01*
X42814666Y-28547238D01*
X42767047Y-28571047D01*
X43481333Y-28594857D02*
X43481333Y-28928190D01*
X43362285Y-28404380D02*
X43243238Y-28761523D01*
X43552761Y-28761523D01*
X34730571Y-16716571D02*
X34706761Y-16740380D01*
X34635333Y-16764190D01*
X34587714Y-16764190D01*
X34516285Y-16740380D01*
X34468666Y-16692761D01*
X34444857Y-16645142D01*
X34421047Y-16549904D01*
X34421047Y-16478476D01*
X34444857Y-16383238D01*
X34468666Y-16335619D01*
X34516285Y-16288000D01*
X34587714Y-16264190D01*
X34635333Y-16264190D01*
X34706761Y-16288000D01*
X34730571Y-16311809D01*
X35206761Y-16764190D02*
X34921047Y-16764190D01*
X35063904Y-16764190D02*
X35063904Y-16264190D01*
X35016285Y-16335619D01*
X34968666Y-16383238D01*
X34921047Y-16407047D01*
X35659142Y-16264190D02*
X35421047Y-16264190D01*
X35397238Y-16502285D01*
X35421047Y-16478476D01*
X35468666Y-16454666D01*
X35587714Y-16454666D01*
X35635333Y-16478476D01*
X35659142Y-16502285D01*
X35682952Y-16549904D01*
X35682952Y-16668952D01*
X35659142Y-16716571D01*
X35635333Y-16740380D01*
X35587714Y-16764190D01*
X35468666Y-16764190D01*
X35421047Y-16740380D01*
X35397238Y-16716571D01*
X39556571Y-35456571D02*
X39532761Y-35480380D01*
X39461333Y-35504190D01*
X39413714Y-35504190D01*
X39342285Y-35480380D01*
X39294666Y-35432761D01*
X39270857Y-35385142D01*
X39247047Y-35289904D01*
X39247047Y-35218476D01*
X39270857Y-35123238D01*
X39294666Y-35075619D01*
X39342285Y-35028000D01*
X39413714Y-35004190D01*
X39461333Y-35004190D01*
X39532761Y-35028000D01*
X39556571Y-35051809D01*
X40032761Y-35504190D02*
X39747047Y-35504190D01*
X39889904Y-35504190D02*
X39889904Y-35004190D01*
X39842285Y-35075619D01*
X39794666Y-35123238D01*
X39747047Y-35147047D01*
X40461333Y-35004190D02*
X40366095Y-35004190D01*
X40318476Y-35028000D01*
X40294666Y-35051809D01*
X40247047Y-35123238D01*
X40223238Y-35218476D01*
X40223238Y-35408952D01*
X40247047Y-35456571D01*
X40270857Y-35480380D01*
X40318476Y-35504190D01*
X40413714Y-35504190D01*
X40461333Y-35480380D01*
X40485142Y-35456571D01*
X40508952Y-35408952D01*
X40508952Y-35289904D01*
X40485142Y-35242285D01*
X40461333Y-35218476D01*
X40413714Y-35194666D01*
X40318476Y-35194666D01*
X40270857Y-35218476D01*
X40247047Y-35242285D01*
X40223238Y-35289904D01*
X9076571Y-19453692D02*
X9052761Y-19477501D01*
X8981333Y-19501311D01*
X8933714Y-19501311D01*
X8862285Y-19477501D01*
X8814666Y-19429882D01*
X8790857Y-19382263D01*
X8767047Y-19287025D01*
X8767047Y-19215597D01*
X8790857Y-19120359D01*
X8814666Y-19072740D01*
X8862285Y-19025121D01*
X8933714Y-19001311D01*
X8981333Y-19001311D01*
X9052761Y-19025121D01*
X9076571Y-19048930D01*
X9552761Y-19501311D02*
X9267047Y-19501311D01*
X9409904Y-19501311D02*
X9409904Y-19001311D01*
X9362285Y-19072740D01*
X9314666Y-19120359D01*
X9267047Y-19144168D01*
X9719428Y-19001311D02*
X10052761Y-19001311D01*
X9838476Y-19501311D01*
X9076571Y-30630571D02*
X9052761Y-30654380D01*
X8981333Y-30678190D01*
X8933714Y-30678190D01*
X8862285Y-30654380D01*
X8814666Y-30606761D01*
X8790857Y-30559142D01*
X8767047Y-30463904D01*
X8767047Y-30392476D01*
X8790857Y-30297238D01*
X8814666Y-30249619D01*
X8862285Y-30202000D01*
X8933714Y-30178190D01*
X8981333Y-30178190D01*
X9052761Y-30202000D01*
X9076571Y-30225809D01*
X9552761Y-30678190D02*
X9267047Y-30678190D01*
X9409904Y-30678190D02*
X9409904Y-30178190D01*
X9362285Y-30249619D01*
X9314666Y-30297238D01*
X9267047Y-30321047D01*
X9838476Y-30392476D02*
X9790857Y-30368666D01*
X9767047Y-30344857D01*
X9743238Y-30297238D01*
X9743238Y-30273428D01*
X9767047Y-30225809D01*
X9790857Y-30202000D01*
X9838476Y-30178190D01*
X9933714Y-30178190D01*
X9981333Y-30202000D01*
X10005142Y-30225809D01*
X10028952Y-30273428D01*
X10028952Y-30297238D01*
X10005142Y-30344857D01*
X9981333Y-30368666D01*
X9933714Y-30392476D01*
X9838476Y-30392476D01*
X9790857Y-30416285D01*
X9767047Y-30440095D01*
X9743238Y-30487714D01*
X9743238Y-30582952D01*
X9767047Y-30630571D01*
X9790857Y-30654380D01*
X9838476Y-30678190D01*
X9933714Y-30678190D01*
X9981333Y-30654380D01*
X10005142Y-30630571D01*
X10028952Y-30582952D01*
X10028952Y-30487714D01*
X10005142Y-30440095D01*
X9981333Y-30416285D01*
X9933714Y-30392476D01*
X9077930Y-21485692D02*
X9054120Y-21509501D01*
X8982692Y-21533311D01*
X8935073Y-21533311D01*
X8863644Y-21509501D01*
X8816025Y-21461882D01*
X8792216Y-21414263D01*
X8768406Y-21319025D01*
X8768406Y-21247597D01*
X8792216Y-21152359D01*
X8816025Y-21104740D01*
X8863644Y-21057121D01*
X8935073Y-21033311D01*
X8982692Y-21033311D01*
X9054120Y-21057121D01*
X9077930Y-21080930D01*
X9554120Y-21533311D02*
X9268406Y-21533311D01*
X9411263Y-21533311D02*
X9411263Y-21033311D01*
X9363644Y-21104740D01*
X9316025Y-21152359D01*
X9268406Y-21176168D01*
X9792216Y-21533311D02*
X9887454Y-21533311D01*
X9935073Y-21509501D01*
X9958882Y-21485692D01*
X10006501Y-21414263D01*
X10030311Y-21319025D01*
X10030311Y-21128549D01*
X10006501Y-21080930D01*
X9982692Y-21057121D01*
X9935073Y-21033311D01*
X9839835Y-21033311D01*
X9792216Y-21057121D01*
X9768406Y-21080930D01*
X9744597Y-21128549D01*
X9744597Y-21247597D01*
X9768406Y-21295216D01*
X9792216Y-21319025D01*
X9839835Y-21342835D01*
X9935073Y-21342835D01*
X9982692Y-21319025D01*
X10006501Y-21295216D01*
X10030311Y-21247597D01*
X9096571Y-32916571D02*
X9072761Y-32940380D01*
X9001333Y-32964190D01*
X8953714Y-32964190D01*
X8882285Y-32940380D01*
X8834666Y-32892761D01*
X8810857Y-32845142D01*
X8787047Y-32749904D01*
X8787047Y-32678476D01*
X8810857Y-32583238D01*
X8834666Y-32535619D01*
X8882285Y-32488000D01*
X8953714Y-32464190D01*
X9001333Y-32464190D01*
X9072761Y-32488000D01*
X9096571Y-32511809D01*
X9287047Y-32511809D02*
X9310857Y-32488000D01*
X9358476Y-32464190D01*
X9477523Y-32464190D01*
X9525142Y-32488000D01*
X9548952Y-32511809D01*
X9572761Y-32559428D01*
X9572761Y-32607047D01*
X9548952Y-32678476D01*
X9263238Y-32964190D01*
X9572761Y-32964190D01*
X9882285Y-32464190D02*
X9929904Y-32464190D01*
X9977523Y-32488000D01*
X10001333Y-32511809D01*
X10025142Y-32559428D01*
X10048952Y-32654666D01*
X10048952Y-32773714D01*
X10025142Y-32868952D01*
X10001333Y-32916571D01*
X9977523Y-32940380D01*
X9929904Y-32964190D01*
X9882285Y-32964190D01*
X9834666Y-32940380D01*
X9810857Y-32916571D01*
X9787047Y-32868952D01*
X9763238Y-32773714D01*
X9763238Y-32654666D01*
X9787047Y-32559428D01*
X9810857Y-32511809D01*
X9834666Y-32488000D01*
X9882285Y-32464190D01*
X9077930Y-23771692D02*
X9054120Y-23795501D01*
X8982692Y-23819311D01*
X8935073Y-23819311D01*
X8863644Y-23795501D01*
X8816025Y-23747882D01*
X8792216Y-23700263D01*
X8768406Y-23605025D01*
X8768406Y-23533597D01*
X8792216Y-23438359D01*
X8816025Y-23390740D01*
X8863644Y-23343121D01*
X8935073Y-23319311D01*
X8982692Y-23319311D01*
X9054120Y-23343121D01*
X9077930Y-23366930D01*
X9268406Y-23366930D02*
X9292216Y-23343121D01*
X9339835Y-23319311D01*
X9458882Y-23319311D01*
X9506501Y-23343121D01*
X9530311Y-23366930D01*
X9554120Y-23414549D01*
X9554120Y-23462168D01*
X9530311Y-23533597D01*
X9244597Y-23819311D01*
X9554120Y-23819311D01*
X10030311Y-23819311D02*
X9744597Y-23819311D01*
X9887454Y-23819311D02*
X9887454Y-23319311D01*
X9839835Y-23390740D01*
X9792216Y-23438359D01*
X9744597Y-23462168D01*
X9101971Y-34948571D02*
X9078161Y-34972380D01*
X9006733Y-34996190D01*
X8959114Y-34996190D01*
X8887685Y-34972380D01*
X8840066Y-34924761D01*
X8816257Y-34877142D01*
X8792447Y-34781904D01*
X8792447Y-34710476D01*
X8816257Y-34615238D01*
X8840066Y-34567619D01*
X8887685Y-34520000D01*
X8959114Y-34496190D01*
X9006733Y-34496190D01*
X9078161Y-34520000D01*
X9101971Y-34543809D01*
X9292447Y-34543809D02*
X9316257Y-34520000D01*
X9363876Y-34496190D01*
X9482923Y-34496190D01*
X9530542Y-34520000D01*
X9554352Y-34543809D01*
X9578161Y-34591428D01*
X9578161Y-34639047D01*
X9554352Y-34710476D01*
X9268638Y-34996190D01*
X9578161Y-34996190D01*
X9768638Y-34543809D02*
X9792447Y-34520000D01*
X9840066Y-34496190D01*
X9959114Y-34496190D01*
X10006733Y-34520000D01*
X10030542Y-34543809D01*
X10054352Y-34591428D01*
X10054352Y-34639047D01*
X10030542Y-34710476D01*
X9744828Y-34996190D01*
X10054352Y-34996190D01*
X9096571Y-26058571D02*
X9072761Y-26082380D01*
X9001333Y-26106190D01*
X8953714Y-26106190D01*
X8882285Y-26082380D01*
X8834666Y-26034761D01*
X8810857Y-25987142D01*
X8787047Y-25891904D01*
X8787047Y-25820476D01*
X8810857Y-25725238D01*
X8834666Y-25677619D01*
X8882285Y-25630000D01*
X8953714Y-25606190D01*
X9001333Y-25606190D01*
X9072761Y-25630000D01*
X9096571Y-25653809D01*
X9287047Y-25653809D02*
X9310857Y-25630000D01*
X9358476Y-25606190D01*
X9477523Y-25606190D01*
X9525142Y-25630000D01*
X9548952Y-25653809D01*
X9572761Y-25701428D01*
X9572761Y-25749047D01*
X9548952Y-25820476D01*
X9263238Y-26106190D01*
X9572761Y-26106190D01*
X9739428Y-25606190D02*
X10048952Y-25606190D01*
X9882285Y-25796666D01*
X9953714Y-25796666D01*
X10001333Y-25820476D01*
X10025142Y-25844285D01*
X10048952Y-25891904D01*
X10048952Y-26010952D01*
X10025142Y-26058571D01*
X10001333Y-26082380D01*
X9953714Y-26106190D01*
X9810857Y-26106190D01*
X9763238Y-26082380D01*
X9739428Y-26058571D01*
X9096571Y-36980571D02*
X9072761Y-37004380D01*
X9001333Y-37028190D01*
X8953714Y-37028190D01*
X8882285Y-37004380D01*
X8834666Y-36956761D01*
X8810857Y-36909142D01*
X8787047Y-36813904D01*
X8787047Y-36742476D01*
X8810857Y-36647238D01*
X8834666Y-36599619D01*
X8882285Y-36552000D01*
X8953714Y-36528190D01*
X9001333Y-36528190D01*
X9072761Y-36552000D01*
X9096571Y-36575809D01*
X9287047Y-36575809D02*
X9310857Y-36552000D01*
X9358476Y-36528190D01*
X9477523Y-36528190D01*
X9525142Y-36552000D01*
X9548952Y-36575809D01*
X9572761Y-36623428D01*
X9572761Y-36671047D01*
X9548952Y-36742476D01*
X9263238Y-37028190D01*
X9572761Y-37028190D01*
X10001333Y-36694857D02*
X10001333Y-37028190D01*
X9882285Y-36504380D02*
X9763238Y-36861523D01*
X10072761Y-36861523D01*
X69020571Y-17676571D02*
X68996761Y-17700380D01*
X68925333Y-17724190D01*
X68877714Y-17724190D01*
X68806285Y-17700380D01*
X68758666Y-17652761D01*
X68734857Y-17605142D01*
X68711047Y-17509904D01*
X68711047Y-17438476D01*
X68734857Y-17343238D01*
X68758666Y-17295619D01*
X68806285Y-17248000D01*
X68877714Y-17224190D01*
X68925333Y-17224190D01*
X68996761Y-17248000D01*
X69020571Y-17271809D01*
X69211047Y-17271809D02*
X69234857Y-17248000D01*
X69282476Y-17224190D01*
X69401523Y-17224190D01*
X69449142Y-17248000D01*
X69472952Y-17271809D01*
X69496761Y-17319428D01*
X69496761Y-17367047D01*
X69472952Y-17438476D01*
X69187238Y-17724190D01*
X69496761Y-17724190D01*
X69949142Y-17224190D02*
X69711047Y-17224190D01*
X69687238Y-17462285D01*
X69711047Y-17438476D01*
X69758666Y-17414666D01*
X69877714Y-17414666D01*
X69925333Y-17438476D01*
X69949142Y-17462285D01*
X69972952Y-17509904D01*
X69972952Y-17628952D01*
X69949142Y-17676571D01*
X69925333Y-17700380D01*
X69877714Y-17724190D01*
X69758666Y-17724190D01*
X69711047Y-17700380D01*
X69687238Y-17676571D01*
X69000571Y-20470571D02*
X68976761Y-20494380D01*
X68905333Y-20518190D01*
X68857714Y-20518190D01*
X68786285Y-20494380D01*
X68738666Y-20446761D01*
X68714857Y-20399142D01*
X68691047Y-20303904D01*
X68691047Y-20232476D01*
X68714857Y-20137238D01*
X68738666Y-20089619D01*
X68786285Y-20042000D01*
X68857714Y-20018190D01*
X68905333Y-20018190D01*
X68976761Y-20042000D01*
X69000571Y-20065809D01*
X69191047Y-20065809D02*
X69214857Y-20042000D01*
X69262476Y-20018190D01*
X69381523Y-20018190D01*
X69429142Y-20042000D01*
X69452952Y-20065809D01*
X69476761Y-20113428D01*
X69476761Y-20161047D01*
X69452952Y-20232476D01*
X69167238Y-20518190D01*
X69476761Y-20518190D01*
X69905333Y-20018190D02*
X69810095Y-20018190D01*
X69762476Y-20042000D01*
X69738666Y-20065809D01*
X69691047Y-20137238D01*
X69667238Y-20232476D01*
X69667238Y-20422952D01*
X69691047Y-20470571D01*
X69714857Y-20494380D01*
X69762476Y-20518190D01*
X69857714Y-20518190D01*
X69905333Y-20494380D01*
X69929142Y-20470571D01*
X69952952Y-20422952D01*
X69952952Y-20303904D01*
X69929142Y-20256285D01*
X69905333Y-20232476D01*
X69857714Y-20208666D01*
X69762476Y-20208666D01*
X69714857Y-20232476D01*
X69691047Y-20256285D01*
X69667238Y-20303904D01*
X69040571Y-38123571D02*
X69016761Y-38147380D01*
X68945333Y-38171190D01*
X68897714Y-38171190D01*
X68826285Y-38147380D01*
X68778666Y-38099761D01*
X68754857Y-38052142D01*
X68731047Y-37956904D01*
X68731047Y-37885476D01*
X68754857Y-37790238D01*
X68778666Y-37742619D01*
X68826285Y-37695000D01*
X68897714Y-37671190D01*
X68945333Y-37671190D01*
X69016761Y-37695000D01*
X69040571Y-37718809D01*
X69231047Y-37718809D02*
X69254857Y-37695000D01*
X69302476Y-37671190D01*
X69421523Y-37671190D01*
X69469142Y-37695000D01*
X69492952Y-37718809D01*
X69516761Y-37766428D01*
X69516761Y-37814047D01*
X69492952Y-37885476D01*
X69207238Y-38171190D01*
X69516761Y-38171190D01*
X69683428Y-37671190D02*
X70016761Y-37671190D01*
X69802476Y-38171190D01*
X69040571Y-35774071D02*
X69016761Y-35797880D01*
X68945333Y-35821690D01*
X68897714Y-35821690D01*
X68826285Y-35797880D01*
X68778666Y-35750261D01*
X68754857Y-35702642D01*
X68731047Y-35607404D01*
X68731047Y-35535976D01*
X68754857Y-35440738D01*
X68778666Y-35393119D01*
X68826285Y-35345500D01*
X68897714Y-35321690D01*
X68945333Y-35321690D01*
X69016761Y-35345500D01*
X69040571Y-35369309D01*
X69231047Y-35369309D02*
X69254857Y-35345500D01*
X69302476Y-35321690D01*
X69421523Y-35321690D01*
X69469142Y-35345500D01*
X69492952Y-35369309D01*
X69516761Y-35416928D01*
X69516761Y-35464547D01*
X69492952Y-35535976D01*
X69207238Y-35821690D01*
X69516761Y-35821690D01*
X69802476Y-35535976D02*
X69754857Y-35512166D01*
X69731047Y-35488357D01*
X69707238Y-35440738D01*
X69707238Y-35416928D01*
X69731047Y-35369309D01*
X69754857Y-35345500D01*
X69802476Y-35321690D01*
X69897714Y-35321690D01*
X69945333Y-35345500D01*
X69969142Y-35369309D01*
X69992952Y-35416928D01*
X69992952Y-35440738D01*
X69969142Y-35488357D01*
X69945333Y-35512166D01*
X69897714Y-35535976D01*
X69802476Y-35535976D01*
X69754857Y-35559785D01*
X69731047Y-35583595D01*
X69707238Y-35631214D01*
X69707238Y-35726452D01*
X69731047Y-35774071D01*
X69754857Y-35797880D01*
X69802476Y-35821690D01*
X69897714Y-35821690D01*
X69945333Y-35797880D01*
X69969142Y-35774071D01*
X69992952Y-35726452D01*
X69992952Y-35631214D01*
X69969142Y-35583595D01*
X69945333Y-35559785D01*
X69897714Y-35535976D01*
X76358571Y-26340571D02*
X76334761Y-26364380D01*
X76263333Y-26388190D01*
X76215714Y-26388190D01*
X76144285Y-26364380D01*
X76096666Y-26316761D01*
X76072857Y-26269142D01*
X76049047Y-26173904D01*
X76049047Y-26102476D01*
X76072857Y-26007238D01*
X76096666Y-25959619D01*
X76144285Y-25912000D01*
X76215714Y-25888190D01*
X76263333Y-25888190D01*
X76334761Y-25912000D01*
X76358571Y-25935809D01*
X76549047Y-25935809D02*
X76572857Y-25912000D01*
X76620476Y-25888190D01*
X76739523Y-25888190D01*
X76787142Y-25912000D01*
X76810952Y-25935809D01*
X76834761Y-25983428D01*
X76834761Y-26031047D01*
X76810952Y-26102476D01*
X76525238Y-26388190D01*
X76834761Y-26388190D01*
X77072857Y-26388190D02*
X77168095Y-26388190D01*
X77215714Y-26364380D01*
X77239523Y-26340571D01*
X77287142Y-26269142D01*
X77310952Y-26173904D01*
X77310952Y-25983428D01*
X77287142Y-25935809D01*
X77263333Y-25912000D01*
X77215714Y-25888190D01*
X77120476Y-25888190D01*
X77072857Y-25912000D01*
X77049047Y-25935809D01*
X77025238Y-25983428D01*
X77025238Y-26102476D01*
X77049047Y-26150095D01*
X77072857Y-26173904D01*
X77120476Y-26197714D01*
X77215714Y-26197714D01*
X77263333Y-26173904D01*
X77287142Y-26150095D01*
X77310952Y-26102476D01*
X69040571Y-33424571D02*
X69016761Y-33448380D01*
X68945333Y-33472190D01*
X68897714Y-33472190D01*
X68826285Y-33448380D01*
X68778666Y-33400761D01*
X68754857Y-33353142D01*
X68731047Y-33257904D01*
X68731047Y-33186476D01*
X68754857Y-33091238D01*
X68778666Y-33043619D01*
X68826285Y-32996000D01*
X68897714Y-32972190D01*
X68945333Y-32972190D01*
X69016761Y-32996000D01*
X69040571Y-33019809D01*
X69207238Y-32972190D02*
X69516761Y-32972190D01*
X69350095Y-33162666D01*
X69421523Y-33162666D01*
X69469142Y-33186476D01*
X69492952Y-33210285D01*
X69516761Y-33257904D01*
X69516761Y-33376952D01*
X69492952Y-33424571D01*
X69469142Y-33448380D01*
X69421523Y-33472190D01*
X69278666Y-33472190D01*
X69231047Y-33448380D01*
X69207238Y-33424571D01*
X69826285Y-32972190D02*
X69873904Y-32972190D01*
X69921523Y-32996000D01*
X69945333Y-33019809D01*
X69969142Y-33067428D01*
X69992952Y-33162666D01*
X69992952Y-33281714D01*
X69969142Y-33376952D01*
X69945333Y-33424571D01*
X69921523Y-33448380D01*
X69873904Y-33472190D01*
X69826285Y-33472190D01*
X69778666Y-33448380D01*
X69754857Y-33424571D01*
X69731047Y-33376952D01*
X69707238Y-33281714D01*
X69707238Y-33162666D01*
X69731047Y-33067428D01*
X69754857Y-33019809D01*
X69778666Y-32996000D01*
X69826285Y-32972190D01*
X69000571Y-23264571D02*
X68976761Y-23288380D01*
X68905333Y-23312190D01*
X68857714Y-23312190D01*
X68786285Y-23288380D01*
X68738666Y-23240761D01*
X68714857Y-23193142D01*
X68691047Y-23097904D01*
X68691047Y-23026476D01*
X68714857Y-22931238D01*
X68738666Y-22883619D01*
X68786285Y-22836000D01*
X68857714Y-22812190D01*
X68905333Y-22812190D01*
X68976761Y-22836000D01*
X69000571Y-22859809D01*
X69167238Y-22812190D02*
X69476761Y-22812190D01*
X69310095Y-23002666D01*
X69381523Y-23002666D01*
X69429142Y-23026476D01*
X69452952Y-23050285D01*
X69476761Y-23097904D01*
X69476761Y-23216952D01*
X69452952Y-23264571D01*
X69429142Y-23288380D01*
X69381523Y-23312190D01*
X69238666Y-23312190D01*
X69191047Y-23288380D01*
X69167238Y-23264571D01*
X69952952Y-23312190D02*
X69667238Y-23312190D01*
X69810095Y-23312190D02*
X69810095Y-22812190D01*
X69762476Y-22883619D01*
X69714857Y-22931238D01*
X69667238Y-22955047D01*
X80168571Y-29916571D02*
X80144761Y-29940380D01*
X80073333Y-29964190D01*
X80025714Y-29964190D01*
X79954285Y-29940380D01*
X79906666Y-29892761D01*
X79882857Y-29845142D01*
X79859047Y-29749904D01*
X79859047Y-29678476D01*
X79882857Y-29583238D01*
X79906666Y-29535619D01*
X79954285Y-29488000D01*
X80025714Y-29464190D01*
X80073333Y-29464190D01*
X80144761Y-29488000D01*
X80168571Y-29511809D01*
X80335238Y-29464190D02*
X80644761Y-29464190D01*
X80478095Y-29654666D01*
X80549523Y-29654666D01*
X80597142Y-29678476D01*
X80620952Y-29702285D01*
X80644761Y-29749904D01*
X80644761Y-29868952D01*
X80620952Y-29916571D01*
X80597142Y-29940380D01*
X80549523Y-29964190D01*
X80406666Y-29964190D01*
X80359047Y-29940380D01*
X80335238Y-29916571D01*
X80835238Y-29511809D02*
X80859047Y-29488000D01*
X80906666Y-29464190D01*
X81025714Y-29464190D01*
X81073333Y-29488000D01*
X81097142Y-29511809D01*
X81120952Y-29559428D01*
X81120952Y-29607047D01*
X81097142Y-29678476D01*
X80811428Y-29964190D01*
X81120952Y-29964190D01*
X73866571Y-16970571D02*
X73842761Y-16994380D01*
X73771333Y-17018190D01*
X73723714Y-17018190D01*
X73652285Y-16994380D01*
X73604666Y-16946761D01*
X73580857Y-16899142D01*
X73557047Y-16803904D01*
X73557047Y-16732476D01*
X73580857Y-16637238D01*
X73604666Y-16589619D01*
X73652285Y-16542000D01*
X73723714Y-16518190D01*
X73771333Y-16518190D01*
X73842761Y-16542000D01*
X73866571Y-16565809D01*
X74033238Y-16518190D02*
X74342761Y-16518190D01*
X74176095Y-16708666D01*
X74247523Y-16708666D01*
X74295142Y-16732476D01*
X74318952Y-16756285D01*
X74342761Y-16803904D01*
X74342761Y-16922952D01*
X74318952Y-16970571D01*
X74295142Y-16994380D01*
X74247523Y-17018190D01*
X74104666Y-17018190D01*
X74057047Y-16994380D01*
X74033238Y-16970571D01*
X74509428Y-16518190D02*
X74818952Y-16518190D01*
X74652285Y-16708666D01*
X74723714Y-16708666D01*
X74771333Y-16732476D01*
X74795142Y-16756285D01*
X74818952Y-16803904D01*
X74818952Y-16922952D01*
X74795142Y-16970571D01*
X74771333Y-16994380D01*
X74723714Y-17018190D01*
X74580857Y-17018190D01*
X74533238Y-16994380D01*
X74509428Y-16970571D01*
X80168571Y-34976571D02*
X80144761Y-35000380D01*
X80073333Y-35024190D01*
X80025714Y-35024190D01*
X79954285Y-35000380D01*
X79906666Y-34952761D01*
X79882857Y-34905142D01*
X79859047Y-34809904D01*
X79859047Y-34738476D01*
X79882857Y-34643238D01*
X79906666Y-34595619D01*
X79954285Y-34548000D01*
X80025714Y-34524190D01*
X80073333Y-34524190D01*
X80144761Y-34548000D01*
X80168571Y-34571809D01*
X80335238Y-34524190D02*
X80644761Y-34524190D01*
X80478095Y-34714666D01*
X80549523Y-34714666D01*
X80597142Y-34738476D01*
X80620952Y-34762285D01*
X80644761Y-34809904D01*
X80644761Y-34928952D01*
X80620952Y-34976571D01*
X80597142Y-35000380D01*
X80549523Y-35024190D01*
X80406666Y-35024190D01*
X80359047Y-35000380D01*
X80335238Y-34976571D01*
X81073333Y-34690857D02*
X81073333Y-35024190D01*
X80954285Y-34500380D02*
X80835238Y-34857523D01*
X81144761Y-34857523D01*
X48974571Y-25804571D02*
X48950761Y-25828380D01*
X48879333Y-25852190D01*
X48831714Y-25852190D01*
X48760285Y-25828380D01*
X48712666Y-25780761D01*
X48688857Y-25733142D01*
X48665047Y-25637904D01*
X48665047Y-25566476D01*
X48688857Y-25471238D01*
X48712666Y-25423619D01*
X48760285Y-25376000D01*
X48831714Y-25352190D01*
X48879333Y-25352190D01*
X48950761Y-25376000D01*
X48974571Y-25399809D01*
X49141238Y-25352190D02*
X49450761Y-25352190D01*
X49284095Y-25542666D01*
X49355523Y-25542666D01*
X49403142Y-25566476D01*
X49426952Y-25590285D01*
X49450761Y-25637904D01*
X49450761Y-25756952D01*
X49426952Y-25804571D01*
X49403142Y-25828380D01*
X49355523Y-25852190D01*
X49212666Y-25852190D01*
X49165047Y-25828380D01*
X49141238Y-25804571D01*
X49903142Y-25352190D02*
X49665047Y-25352190D01*
X49641238Y-25590285D01*
X49665047Y-25566476D01*
X49712666Y-25542666D01*
X49831714Y-25542666D01*
X49879333Y-25566476D01*
X49903142Y-25590285D01*
X49926952Y-25637904D01*
X49926952Y-25756952D01*
X49903142Y-25804571D01*
X49879333Y-25828380D01*
X49831714Y-25852190D01*
X49712666Y-25852190D01*
X49665047Y-25828380D01*
X49641238Y-25804571D01*
X48974571Y-30503571D02*
X48950761Y-30527380D01*
X48879333Y-30551190D01*
X48831714Y-30551190D01*
X48760285Y-30527380D01*
X48712666Y-30479761D01*
X48688857Y-30432142D01*
X48665047Y-30336904D01*
X48665047Y-30265476D01*
X48688857Y-30170238D01*
X48712666Y-30122619D01*
X48760285Y-30075000D01*
X48831714Y-30051190D01*
X48879333Y-30051190D01*
X48950761Y-30075000D01*
X48974571Y-30098809D01*
X49141238Y-30051190D02*
X49450761Y-30051190D01*
X49284095Y-30241666D01*
X49355523Y-30241666D01*
X49403142Y-30265476D01*
X49426952Y-30289285D01*
X49450761Y-30336904D01*
X49450761Y-30455952D01*
X49426952Y-30503571D01*
X49403142Y-30527380D01*
X49355523Y-30551190D01*
X49212666Y-30551190D01*
X49165047Y-30527380D01*
X49141238Y-30503571D01*
X49879333Y-30051190D02*
X49784095Y-30051190D01*
X49736476Y-30075000D01*
X49712666Y-30098809D01*
X49665047Y-30170238D01*
X49641238Y-30265476D01*
X49641238Y-30455952D01*
X49665047Y-30503571D01*
X49688857Y-30527380D01*
X49736476Y-30551190D01*
X49831714Y-30551190D01*
X49879333Y-30527380D01*
X49903142Y-30503571D01*
X49926952Y-30455952D01*
X49926952Y-30336904D01*
X49903142Y-30289285D01*
X49879333Y-30265476D01*
X49831714Y-30241666D01*
X49736476Y-30241666D01*
X49688857Y-30265476D01*
X49665047Y-30289285D01*
X49641238Y-30336904D01*
X48974571Y-32789571D02*
X48950761Y-32813380D01*
X48879333Y-32837190D01*
X48831714Y-32837190D01*
X48760285Y-32813380D01*
X48712666Y-32765761D01*
X48688857Y-32718142D01*
X48665047Y-32622904D01*
X48665047Y-32551476D01*
X48688857Y-32456238D01*
X48712666Y-32408619D01*
X48760285Y-32361000D01*
X48831714Y-32337190D01*
X48879333Y-32337190D01*
X48950761Y-32361000D01*
X48974571Y-32384809D01*
X49141238Y-32337190D02*
X49450761Y-32337190D01*
X49284095Y-32527666D01*
X49355523Y-32527666D01*
X49403142Y-32551476D01*
X49426952Y-32575285D01*
X49450761Y-32622904D01*
X49450761Y-32741952D01*
X49426952Y-32789571D01*
X49403142Y-32813380D01*
X49355523Y-32837190D01*
X49212666Y-32837190D01*
X49165047Y-32813380D01*
X49141238Y-32789571D01*
X49617428Y-32337190D02*
X49950761Y-32337190D01*
X49736476Y-32837190D01*
X48974571Y-21232571D02*
X48950761Y-21256380D01*
X48879333Y-21280190D01*
X48831714Y-21280190D01*
X48760285Y-21256380D01*
X48712666Y-21208761D01*
X48688857Y-21161142D01*
X48665047Y-21065904D01*
X48665047Y-20994476D01*
X48688857Y-20899238D01*
X48712666Y-20851619D01*
X48760285Y-20804000D01*
X48831714Y-20780190D01*
X48879333Y-20780190D01*
X48950761Y-20804000D01*
X48974571Y-20827809D01*
X49141238Y-20780190D02*
X49450761Y-20780190D01*
X49284095Y-20970666D01*
X49355523Y-20970666D01*
X49403142Y-20994476D01*
X49426952Y-21018285D01*
X49450761Y-21065904D01*
X49450761Y-21184952D01*
X49426952Y-21232571D01*
X49403142Y-21256380D01*
X49355523Y-21280190D01*
X49212666Y-21280190D01*
X49165047Y-21256380D01*
X49141238Y-21232571D01*
X49736476Y-20994476D02*
X49688857Y-20970666D01*
X49665047Y-20946857D01*
X49641238Y-20899238D01*
X49641238Y-20875428D01*
X49665047Y-20827809D01*
X49688857Y-20804000D01*
X49736476Y-20780190D01*
X49831714Y-20780190D01*
X49879333Y-20804000D01*
X49903142Y-20827809D01*
X49926952Y-20875428D01*
X49926952Y-20899238D01*
X49903142Y-20946857D01*
X49879333Y-20970666D01*
X49831714Y-20994476D01*
X49736476Y-20994476D01*
X49688857Y-21018285D01*
X49665047Y-21042095D01*
X49641238Y-21089714D01*
X49641238Y-21184952D01*
X49665047Y-21232571D01*
X49688857Y-21256380D01*
X49736476Y-21280190D01*
X49831714Y-21280190D01*
X49879333Y-21256380D01*
X49903142Y-21232571D01*
X49926952Y-21184952D01*
X49926952Y-21089714D01*
X49903142Y-21042095D01*
X49879333Y-21018285D01*
X49831714Y-20994476D01*
X48974571Y-35075571D02*
X48950761Y-35099380D01*
X48879333Y-35123190D01*
X48831714Y-35123190D01*
X48760285Y-35099380D01*
X48712666Y-35051761D01*
X48688857Y-35004142D01*
X48665047Y-34908904D01*
X48665047Y-34837476D01*
X48688857Y-34742238D01*
X48712666Y-34694619D01*
X48760285Y-34647000D01*
X48831714Y-34623190D01*
X48879333Y-34623190D01*
X48950761Y-34647000D01*
X48974571Y-34670809D01*
X49141238Y-34623190D02*
X49450761Y-34623190D01*
X49284095Y-34813666D01*
X49355523Y-34813666D01*
X49403142Y-34837476D01*
X49426952Y-34861285D01*
X49450761Y-34908904D01*
X49450761Y-35027952D01*
X49426952Y-35075571D01*
X49403142Y-35099380D01*
X49355523Y-35123190D01*
X49212666Y-35123190D01*
X49165047Y-35099380D01*
X49141238Y-35075571D01*
X49688857Y-35123190D02*
X49784095Y-35123190D01*
X49831714Y-35099380D01*
X49855523Y-35075571D01*
X49903142Y-35004142D01*
X49926952Y-34908904D01*
X49926952Y-34718428D01*
X49903142Y-34670809D01*
X49879333Y-34647000D01*
X49831714Y-34623190D01*
X49736476Y-34623190D01*
X49688857Y-34647000D01*
X49665047Y-34670809D01*
X49641238Y-34718428D01*
X49641238Y-34837476D01*
X49665047Y-34885095D01*
X49688857Y-34908904D01*
X49736476Y-34932714D01*
X49831714Y-34932714D01*
X49879333Y-34908904D01*
X49903142Y-34885095D01*
X49926952Y-34837476D01*
X48954571Y-23264571D02*
X48930761Y-23288380D01*
X48859333Y-23312190D01*
X48811714Y-23312190D01*
X48740285Y-23288380D01*
X48692666Y-23240761D01*
X48668857Y-23193142D01*
X48645047Y-23097904D01*
X48645047Y-23026476D01*
X48668857Y-22931238D01*
X48692666Y-22883619D01*
X48740285Y-22836000D01*
X48811714Y-22812190D01*
X48859333Y-22812190D01*
X48930761Y-22836000D01*
X48954571Y-22859809D01*
X49383142Y-22978857D02*
X49383142Y-23312190D01*
X49264095Y-22788380D02*
X49145047Y-23145523D01*
X49454571Y-23145523D01*
X49740285Y-22812190D02*
X49787904Y-22812190D01*
X49835523Y-22836000D01*
X49859333Y-22859809D01*
X49883142Y-22907428D01*
X49906952Y-23002666D01*
X49906952Y-23121714D01*
X49883142Y-23216952D01*
X49859333Y-23264571D01*
X49835523Y-23288380D01*
X49787904Y-23312190D01*
X49740285Y-23312190D01*
X49692666Y-23288380D01*
X49668857Y-23264571D01*
X49645047Y-23216952D01*
X49621238Y-23121714D01*
X49621238Y-23002666D01*
X49645047Y-22907428D01*
X49668857Y-22859809D01*
X49692666Y-22836000D01*
X49740285Y-22812190D01*
X48974571Y-37361571D02*
X48950761Y-37385380D01*
X48879333Y-37409190D01*
X48831714Y-37409190D01*
X48760285Y-37385380D01*
X48712666Y-37337761D01*
X48688857Y-37290142D01*
X48665047Y-37194904D01*
X48665047Y-37123476D01*
X48688857Y-37028238D01*
X48712666Y-36980619D01*
X48760285Y-36933000D01*
X48831714Y-36909190D01*
X48879333Y-36909190D01*
X48950761Y-36933000D01*
X48974571Y-36956809D01*
X49403142Y-37075857D02*
X49403142Y-37409190D01*
X49284095Y-36885380D02*
X49165047Y-37242523D01*
X49474571Y-37242523D01*
X49926952Y-37409190D02*
X49641238Y-37409190D01*
X49784095Y-37409190D02*
X49784095Y-36909190D01*
X49736476Y-36980619D01*
X49688857Y-37028238D01*
X49641238Y-37052047D01*
X48974571Y-18946571D02*
X48950761Y-18970380D01*
X48879333Y-18994190D01*
X48831714Y-18994190D01*
X48760285Y-18970380D01*
X48712666Y-18922761D01*
X48688857Y-18875142D01*
X48665047Y-18779904D01*
X48665047Y-18708476D01*
X48688857Y-18613238D01*
X48712666Y-18565619D01*
X48760285Y-18518000D01*
X48831714Y-18494190D01*
X48879333Y-18494190D01*
X48950761Y-18518000D01*
X48974571Y-18541809D01*
X49403142Y-18660857D02*
X49403142Y-18994190D01*
X49284095Y-18470380D02*
X49165047Y-18827523D01*
X49474571Y-18827523D01*
X49641238Y-18541809D02*
X49665047Y-18518000D01*
X49712666Y-18494190D01*
X49831714Y-18494190D01*
X49879333Y-18518000D01*
X49903142Y-18541809D01*
X49926952Y-18589428D01*
X49926952Y-18637047D01*
X49903142Y-18708476D01*
X49617428Y-18994190D01*
X49926952Y-18994190D01*
X24224666Y-33888190D02*
X23986571Y-33888190D01*
X23986571Y-33388190D01*
X24367523Y-33435809D02*
X24391333Y-33412000D01*
X24438952Y-33388190D01*
X24558000Y-33388190D01*
X24605619Y-33412000D01*
X24629428Y-33435809D01*
X24653238Y-33483428D01*
X24653238Y-33531047D01*
X24629428Y-33602476D01*
X24343714Y-33888190D01*
X24653238Y-33888190D01*
X64102666Y-33888190D02*
X63864571Y-33888190D01*
X63864571Y-33388190D01*
X64221714Y-33388190D02*
X64531238Y-33388190D01*
X64364571Y-33578666D01*
X64436000Y-33578666D01*
X64483619Y-33602476D01*
X64507428Y-33626285D01*
X64531238Y-33673904D01*
X64531238Y-33792952D01*
X64507428Y-33840571D01*
X64483619Y-33864380D01*
X64436000Y-33888190D01*
X64293142Y-33888190D01*
X64245523Y-33864380D01*
X64221714Y-33840571D01*
X30924571Y-32668190D02*
X30924571Y-32168190D01*
X31210285Y-32668190D01*
X31210285Y-32168190D01*
X31376952Y-32168190D02*
X31662666Y-32168190D01*
X31519809Y-32668190D02*
X31519809Y-32168190D01*
X32091238Y-32668190D02*
X31805523Y-32668190D01*
X31948380Y-32668190D02*
X31948380Y-32168190D01*
X31900761Y-32239619D01*
X31853142Y-32287238D01*
X31805523Y-32311047D01*
X39110666Y-19958190D02*
X38944000Y-19720095D01*
X38824952Y-19958190D02*
X38824952Y-19458190D01*
X39015428Y-19458190D01*
X39063047Y-19482000D01*
X39086857Y-19505809D01*
X39110666Y-19553428D01*
X39110666Y-19624857D01*
X39086857Y-19672476D01*
X39063047Y-19696285D01*
X39015428Y-19720095D01*
X38824952Y-19720095D01*
X39563047Y-19458190D02*
X39324952Y-19458190D01*
X39301142Y-19696285D01*
X39324952Y-19672476D01*
X39372571Y-19648666D01*
X39491619Y-19648666D01*
X39539238Y-19672476D01*
X39563047Y-19696285D01*
X39586857Y-19743904D01*
X39586857Y-19862952D01*
X39563047Y-19910571D01*
X39539238Y-19934380D01*
X39491619Y-19958190D01*
X39372571Y-19958190D01*
X39324952Y-19934380D01*
X39301142Y-19910571D01*
X40224666Y-19958190D02*
X40058000Y-19720095D01*
X39938952Y-19958190D02*
X39938952Y-19458190D01*
X40129428Y-19458190D01*
X40177047Y-19482000D01*
X40200857Y-19505809D01*
X40224666Y-19553428D01*
X40224666Y-19624857D01*
X40200857Y-19672476D01*
X40177047Y-19696285D01*
X40129428Y-19720095D01*
X39938952Y-19720095D01*
X40653238Y-19458190D02*
X40558000Y-19458190D01*
X40510380Y-19482000D01*
X40486571Y-19505809D01*
X40438952Y-19577238D01*
X40415142Y-19672476D01*
X40415142Y-19862952D01*
X40438952Y-19910571D01*
X40462761Y-19934380D01*
X40510380Y-19958190D01*
X40605619Y-19958190D01*
X40653238Y-19934380D01*
X40677047Y-19910571D01*
X40700857Y-19862952D01*
X40700857Y-19743904D01*
X40677047Y-19696285D01*
X40653238Y-19672476D01*
X40605619Y-19648666D01*
X40510380Y-19648666D01*
X40462761Y-19672476D01*
X40438952Y-19696285D01*
X40415142Y-19743904D01*
X35652666Y-35104190D02*
X35486000Y-34866095D01*
X35366952Y-35104190D02*
X35366952Y-34604190D01*
X35557428Y-34604190D01*
X35605047Y-34628000D01*
X35628857Y-34651809D01*
X35652666Y-34699428D01*
X35652666Y-34770857D01*
X35628857Y-34818476D01*
X35605047Y-34842285D01*
X35557428Y-34866095D01*
X35366952Y-34866095D01*
X35819333Y-34604190D02*
X36152666Y-34604190D01*
X35938380Y-35104190D01*
X37938666Y-35104190D02*
X37772000Y-34866095D01*
X37652952Y-35104190D02*
X37652952Y-34604190D01*
X37843428Y-34604190D01*
X37891047Y-34628000D01*
X37914857Y-34651809D01*
X37938666Y-34699428D01*
X37938666Y-34770857D01*
X37914857Y-34818476D01*
X37891047Y-34842285D01*
X37843428Y-34866095D01*
X37652952Y-34866095D01*
X38224380Y-34818476D02*
X38176761Y-34794666D01*
X38152952Y-34770857D01*
X38129142Y-34723238D01*
X38129142Y-34699428D01*
X38152952Y-34651809D01*
X38176761Y-34628000D01*
X38224380Y-34604190D01*
X38319619Y-34604190D01*
X38367238Y-34628000D01*
X38391047Y-34651809D01*
X38414857Y-34699428D01*
X38414857Y-34723238D01*
X38391047Y-34770857D01*
X38367238Y-34794666D01*
X38319619Y-34818476D01*
X38224380Y-34818476D01*
X38176761Y-34842285D01*
X38152952Y-34866095D01*
X38129142Y-34913714D01*
X38129142Y-35008952D01*
X38152952Y-35056571D01*
X38176761Y-35080380D01*
X38224380Y-35104190D01*
X38319619Y-35104190D01*
X38367238Y-35080380D01*
X38391047Y-35056571D01*
X38414857Y-35008952D01*
X38414857Y-34913714D01*
X38391047Y-34866095D01*
X38367238Y-34842285D01*
X38319619Y-34818476D01*
X39874666Y-34848190D02*
X39708000Y-34610095D01*
X39588952Y-34848190D02*
X39588952Y-34348190D01*
X39779428Y-34348190D01*
X39827047Y-34372000D01*
X39850857Y-34395809D01*
X39874666Y-34443428D01*
X39874666Y-34514857D01*
X39850857Y-34562476D01*
X39827047Y-34586285D01*
X39779428Y-34610095D01*
X39588952Y-34610095D01*
X40112761Y-34848190D02*
X40208000Y-34848190D01*
X40255619Y-34824380D01*
X40279428Y-34800571D01*
X40327047Y-34729142D01*
X40350857Y-34633904D01*
X40350857Y-34443428D01*
X40327047Y-34395809D01*
X40303238Y-34372000D01*
X40255619Y-34348190D01*
X40160380Y-34348190D01*
X40112761Y-34372000D01*
X40088952Y-34395809D01*
X40065142Y-34443428D01*
X40065142Y-34562476D01*
X40088952Y-34610095D01*
X40112761Y-34633904D01*
X40160380Y-34657714D01*
X40255619Y-34657714D01*
X40303238Y-34633904D01*
X40327047Y-34610095D01*
X40350857Y-34562476D01*
X34904571Y-17674190D02*
X34737904Y-17436095D01*
X34618857Y-17674190D02*
X34618857Y-17174190D01*
X34809333Y-17174190D01*
X34856952Y-17198000D01*
X34880761Y-17221809D01*
X34904571Y-17269428D01*
X34904571Y-17340857D01*
X34880761Y-17388476D01*
X34856952Y-17412285D01*
X34809333Y-17436095D01*
X34618857Y-17436095D01*
X35380761Y-17674190D02*
X35095047Y-17674190D01*
X35237904Y-17674190D02*
X35237904Y-17174190D01*
X35190285Y-17245619D01*
X35142666Y-17293238D01*
X35095047Y-17317047D01*
X35690285Y-17174190D02*
X35737904Y-17174190D01*
X35785523Y-17198000D01*
X35809333Y-17221809D01*
X35833142Y-17269428D01*
X35856952Y-17364666D01*
X35856952Y-17483714D01*
X35833142Y-17578952D01*
X35809333Y-17626571D01*
X35785523Y-17650380D01*
X35737904Y-17674190D01*
X35690285Y-17674190D01*
X35642666Y-17650380D01*
X35618857Y-17626571D01*
X35595047Y-17578952D01*
X35571238Y-17483714D01*
X35571238Y-17364666D01*
X35595047Y-17269428D01*
X35618857Y-17221809D01*
X35642666Y-17198000D01*
X35690285Y-17174190D01*
X77734571Y-20372190D02*
X77567904Y-20134095D01*
X77448857Y-20372190D02*
X77448857Y-19872190D01*
X77639333Y-19872190D01*
X77686952Y-19896000D01*
X77710761Y-19919809D01*
X77734571Y-19967428D01*
X77734571Y-20038857D01*
X77710761Y-20086476D01*
X77686952Y-20110285D01*
X77639333Y-20134095D01*
X77448857Y-20134095D01*
X78210761Y-20372190D02*
X77925047Y-20372190D01*
X78067904Y-20372190D02*
X78067904Y-19872190D01*
X78020285Y-19943619D01*
X77972666Y-19991238D01*
X77925047Y-20015047D01*
X78401238Y-19919809D02*
X78425047Y-19896000D01*
X78472666Y-19872190D01*
X78591714Y-19872190D01*
X78639333Y-19896000D01*
X78663142Y-19919809D01*
X78686952Y-19967428D01*
X78686952Y-20015047D01*
X78663142Y-20086476D01*
X78377428Y-20372190D01*
X78686952Y-20372190D01*
X79102571Y-20372190D02*
X78935904Y-20134095D01*
X78816857Y-20372190D02*
X78816857Y-19872190D01*
X79007333Y-19872190D01*
X79054952Y-19896000D01*
X79078761Y-19919809D01*
X79102571Y-19967428D01*
X79102571Y-20038857D01*
X79078761Y-20086476D01*
X79054952Y-20110285D01*
X79007333Y-20134095D01*
X78816857Y-20134095D01*
X79578761Y-20372190D02*
X79293047Y-20372190D01*
X79435904Y-20372190D02*
X79435904Y-19872190D01*
X79388285Y-19943619D01*
X79340666Y-19991238D01*
X79293047Y-20015047D01*
X79745428Y-19872190D02*
X80054952Y-19872190D01*
X79888285Y-20062666D01*
X79959714Y-20062666D01*
X80007333Y-20086476D01*
X80031142Y-20110285D01*
X80054952Y-20157904D01*
X80054952Y-20276952D01*
X80031142Y-20324571D01*
X80007333Y-20348380D01*
X79959714Y-20372190D01*
X79816857Y-20372190D01*
X79769238Y-20348380D01*
X79745428Y-20324571D01*
X74782571Y-37994190D02*
X74615904Y-37756095D01*
X74496857Y-37994190D02*
X74496857Y-37494190D01*
X74687333Y-37494190D01*
X74734952Y-37518000D01*
X74758761Y-37541809D01*
X74782571Y-37589428D01*
X74782571Y-37660857D01*
X74758761Y-37708476D01*
X74734952Y-37732285D01*
X74687333Y-37756095D01*
X74496857Y-37756095D01*
X75258761Y-37994190D02*
X74973047Y-37994190D01*
X75115904Y-37994190D02*
X75115904Y-37494190D01*
X75068285Y-37565619D01*
X75020666Y-37613238D01*
X74973047Y-37637047D01*
X75687333Y-37660857D02*
X75687333Y-37994190D01*
X75568285Y-37470380D02*
X75449238Y-37827523D01*
X75758761Y-37827523D01*
X74790171Y-36880190D02*
X74623504Y-36642095D01*
X74504457Y-36880190D02*
X74504457Y-36380190D01*
X74694933Y-36380190D01*
X74742552Y-36404000D01*
X74766361Y-36427809D01*
X74790171Y-36475428D01*
X74790171Y-36546857D01*
X74766361Y-36594476D01*
X74742552Y-36618285D01*
X74694933Y-36642095D01*
X74504457Y-36642095D01*
X75266361Y-36880190D02*
X74980647Y-36880190D01*
X75123504Y-36880190D02*
X75123504Y-36380190D01*
X75075885Y-36451619D01*
X75028266Y-36499238D01*
X74980647Y-36523047D01*
X75718742Y-36380190D02*
X75480647Y-36380190D01*
X75456838Y-36618285D01*
X75480647Y-36594476D01*
X75528266Y-36570666D01*
X75647314Y-36570666D01*
X75694933Y-36594476D01*
X75718742Y-36618285D01*
X75742552Y-36665904D01*
X75742552Y-36784952D01*
X75718742Y-36832571D01*
X75694933Y-36856380D01*
X75647314Y-36880190D01*
X75528266Y-36880190D01*
X75480647Y-36856380D01*
X75456838Y-36832571D01*
X74782571Y-35708190D02*
X74615904Y-35470095D01*
X74496857Y-35708190D02*
X74496857Y-35208190D01*
X74687333Y-35208190D01*
X74734952Y-35232000D01*
X74758761Y-35255809D01*
X74782571Y-35303428D01*
X74782571Y-35374857D01*
X74758761Y-35422476D01*
X74734952Y-35446285D01*
X74687333Y-35470095D01*
X74496857Y-35470095D01*
X75258761Y-35708190D02*
X74973047Y-35708190D01*
X75115904Y-35708190D02*
X75115904Y-35208190D01*
X75068285Y-35279619D01*
X75020666Y-35327238D01*
X74973047Y-35351047D01*
X75687333Y-35208190D02*
X75592095Y-35208190D01*
X75544476Y-35232000D01*
X75520666Y-35255809D01*
X75473047Y-35327238D01*
X75449238Y-35422476D01*
X75449238Y-35612952D01*
X75473047Y-35660571D01*
X75496857Y-35684380D01*
X75544476Y-35708190D01*
X75639714Y-35708190D01*
X75687333Y-35684380D01*
X75711142Y-35660571D01*
X75734952Y-35612952D01*
X75734952Y-35493904D01*
X75711142Y-35446285D01*
X75687333Y-35422476D01*
X75639714Y-35398666D01*
X75544476Y-35398666D01*
X75496857Y-35422476D01*
X75473047Y-35446285D01*
X75449238Y-35493904D01*
X74782571Y-30022190D02*
X74615904Y-29784095D01*
X74496857Y-30022190D02*
X74496857Y-29522190D01*
X74687333Y-29522190D01*
X74734952Y-29546000D01*
X74758761Y-29569809D01*
X74782571Y-29617428D01*
X74782571Y-29688857D01*
X74758761Y-29736476D01*
X74734952Y-29760285D01*
X74687333Y-29784095D01*
X74496857Y-29784095D01*
X75258761Y-30022190D02*
X74973047Y-30022190D01*
X75115904Y-30022190D02*
X75115904Y-29522190D01*
X75068285Y-29593619D01*
X75020666Y-29641238D01*
X74973047Y-29665047D01*
X75425428Y-29522190D02*
X75758761Y-29522190D01*
X75544476Y-30022190D01*
X74020571Y-17674190D02*
X73853904Y-17436095D01*
X73734857Y-17674190D02*
X73734857Y-17174190D01*
X73925333Y-17174190D01*
X73972952Y-17198000D01*
X73996761Y-17221809D01*
X74020571Y-17269428D01*
X74020571Y-17340857D01*
X73996761Y-17388476D01*
X73972952Y-17412285D01*
X73925333Y-17436095D01*
X73734857Y-17436095D01*
X74496761Y-17674190D02*
X74211047Y-17674190D01*
X74353904Y-17674190D02*
X74353904Y-17174190D01*
X74306285Y-17245619D01*
X74258666Y-17293238D01*
X74211047Y-17317047D01*
X74782476Y-17388476D02*
X74734857Y-17364666D01*
X74711047Y-17340857D01*
X74687238Y-17293238D01*
X74687238Y-17269428D01*
X74711047Y-17221809D01*
X74734857Y-17198000D01*
X74782476Y-17174190D01*
X74877714Y-17174190D01*
X74925333Y-17198000D01*
X74949142Y-17221809D01*
X74972952Y-17269428D01*
X74972952Y-17293238D01*
X74949142Y-17340857D01*
X74925333Y-17364666D01*
X74877714Y-17388476D01*
X74782476Y-17388476D01*
X74734857Y-17412285D01*
X74711047Y-17436095D01*
X74687238Y-17483714D01*
X74687238Y-17578952D01*
X74711047Y-17626571D01*
X74734857Y-17650380D01*
X74782476Y-17674190D01*
X74877714Y-17674190D01*
X74925333Y-17650380D01*
X74949142Y-17626571D01*
X74972952Y-17578952D01*
X74972952Y-17483714D01*
X74949142Y-17436095D01*
X74925333Y-17412285D01*
X74877714Y-17388476D01*
X39771952Y-14324190D02*
X39771952Y-13824190D01*
X39891000Y-13824190D01*
X39962428Y-13848000D01*
X40010047Y-13895619D01*
X40033857Y-13943238D01*
X40057666Y-14038476D01*
X40057666Y-14109904D01*
X40033857Y-14205142D01*
X40010047Y-14252761D01*
X39962428Y-14300380D01*
X39891000Y-14324190D01*
X39771952Y-14324190D01*
X40533857Y-14324190D02*
X40248142Y-14324190D01*
X40391000Y-14324190D02*
X40391000Y-13824190D01*
X40343380Y-13895619D01*
X40295761Y-13943238D01*
X40248142Y-13967047D01*
X78633952Y-14324190D02*
X78633952Y-13824190D01*
X78753000Y-13824190D01*
X78824428Y-13848000D01*
X78872047Y-13895619D01*
X78895857Y-13943238D01*
X78919666Y-14038476D01*
X78919666Y-14109904D01*
X78895857Y-14205142D01*
X78872047Y-14252761D01*
X78824428Y-14300380D01*
X78753000Y-14324190D01*
X78633952Y-14324190D01*
X79110142Y-13871809D02*
X79133952Y-13848000D01*
X79181571Y-13824190D01*
X79300619Y-13824190D01*
X79348238Y-13848000D01*
X79372047Y-13871809D01*
X79395857Y-13919428D01*
X79395857Y-13967047D01*
X79372047Y-14038476D01*
X79086333Y-14324190D01*
X79395857Y-14324190D01*
X39620666Y-23418190D02*
X39454000Y-23180095D01*
X39334952Y-23418190D02*
X39334952Y-22918190D01*
X39525428Y-22918190D01*
X39573047Y-22942000D01*
X39596857Y-22965809D01*
X39620666Y-23013428D01*
X39620666Y-23084857D01*
X39596857Y-23132476D01*
X39573047Y-23156285D01*
X39525428Y-23180095D01*
X39334952Y-23180095D01*
X40049238Y-23084857D02*
X40049238Y-23418190D01*
X39930190Y-22894380D02*
X39811142Y-23251523D01*
X40120666Y-23251523D01*
X78084571Y-23926190D02*
X77917904Y-23688095D01*
X77798857Y-23926190D02*
X77798857Y-23426190D01*
X77989333Y-23426190D01*
X78036952Y-23450000D01*
X78060761Y-23473809D01*
X78084571Y-23521428D01*
X78084571Y-23592857D01*
X78060761Y-23640476D01*
X78036952Y-23664285D01*
X77989333Y-23688095D01*
X77798857Y-23688095D01*
X78560761Y-23926190D02*
X78275047Y-23926190D01*
X78417904Y-23926190D02*
X78417904Y-23426190D01*
X78370285Y-23497619D01*
X78322666Y-23545238D01*
X78275047Y-23569047D01*
X79036952Y-23926190D02*
X78751238Y-23926190D01*
X78894095Y-23926190D02*
X78894095Y-23426190D01*
X78846476Y-23497619D01*
X78798857Y-23545238D01*
X78751238Y-23569047D01*
X8083333Y-38426190D02*
X8083333Y-38783333D01*
X8059523Y-38854761D01*
X8011904Y-38902380D01*
X7940476Y-38926190D01*
X7892857Y-38926190D01*
X8321428Y-38926190D02*
X8321428Y-38426190D01*
X8511904Y-38426190D01*
X8559523Y-38450000D01*
X8583333Y-38473809D01*
X8607142Y-38521428D01*
X8607142Y-38592857D01*
X8583333Y-38640476D01*
X8559523Y-38664285D01*
X8511904Y-38688095D01*
X8321428Y-38688095D01*
X9083333Y-38926190D02*
X8797619Y-38926190D01*
X8940476Y-38926190D02*
X8940476Y-38426190D01*
X8892857Y-38497619D01*
X8845238Y-38545238D01*
X8797619Y-38569047D01*
D10*
X33409428Y-26369142D02*
X33895142Y-26369142D01*
X33952285Y-26340571D01*
X33980857Y-26312000D01*
X34009428Y-26254857D01*
X34009428Y-26140571D01*
X33980857Y-26083428D01*
X33952285Y-26054857D01*
X33895142Y-26026285D01*
X33409428Y-26026285D01*
X33609428Y-25483428D02*
X34009428Y-25483428D01*
X33380857Y-25626285D02*
X33809428Y-25769142D01*
X33809428Y-25397714D01*
X72655428Y-26264142D02*
X73141142Y-26264142D01*
X73198285Y-26235571D01*
X73226857Y-26207000D01*
X73255428Y-26149857D01*
X73255428Y-26035571D01*
X73226857Y-25978428D01*
X73198285Y-25949857D01*
X73141142Y-25921285D01*
X72655428Y-25921285D01*
X72655428Y-25349857D02*
X72655428Y-25635571D01*
X72941142Y-25664142D01*
X72912571Y-25635571D01*
X72884000Y-25578428D01*
X72884000Y-25435571D01*
X72912571Y-25378428D01*
X72941142Y-25349857D01*
X72998285Y-25321285D01*
X73141142Y-25321285D01*
X73198285Y-25349857D01*
X73226857Y-25378428D01*
X73255428Y-25435571D01*
X73255428Y-25578428D01*
X73226857Y-25635571D01*
X73198285Y-25664142D01*
X6964285Y-39928571D02*
X7107142Y-39976190D01*
X7154761Y-40023809D01*
X7202380Y-40119047D01*
X7202380Y-40261904D01*
X7154761Y-40357142D01*
X7107142Y-40404761D01*
X7011904Y-40452380D01*
X6630952Y-40452380D01*
X6630952Y-39452380D01*
X6964285Y-39452380D01*
X7059523Y-39500000D01*
X7107142Y-39547619D01*
X7154761Y-39642857D01*
X7154761Y-39738095D01*
X7107142Y-39833333D01*
X7059523Y-39880952D01*
X6964285Y-39928571D01*
X6630952Y-39928571D01*
X7488095Y-39452380D02*
X8059523Y-39452380D01*
X7773809Y-40452380D02*
X7773809Y-39452380D01*
X8916666Y-40452380D02*
X8345238Y-40452380D01*
X8630952Y-40452380D02*
X8630952Y-39452380D01*
X8535714Y-39595238D01*
X8440476Y-39690476D01*
X8345238Y-39738095D01*
M02*
