M48
;DRILL file {KiCad (5.0.0)} date 10/04/18 09:14:02
;FORMAT={-:-/ absolute / inch / decimal}
FMAT,2
INCH,TZ
T1C0.0941
T2C0.1248
T3C0.1358
%
G90
G05
M72
T1
X1.7303Y-6.0492
T2
X2.4193Y-3.5524
X2.4193Y-5.7256
T3
X1.7303Y-3.5524
X3.1083Y-5.7256
T0
M30
