PCBNEW-LibModule-V1  
# encoding utf-8
Units mm
$INDEX
SOP65P490X110-8N
$EndINDEX
$MODULE SOP65P490X110-8N
Po 0 0 0 15 00000000 00000000 ~~
Li SOP65P490X110-8N
Cd 
Sc 00000000
At SMD
Op 0 0 0
.SolderMask 0
.SolderPaste 0
T0 -0.43 -2.362 1 1 0 0.05 N V 21 "SOP65P490X110-8N"
T1 0.205 2.362 1 1 0 0.05 N V 21 "VAL**"
DC -3.585 -1.445 -3.485 -1.445 0.2 21
DC -3.585 -1.445 -3.485 -1.445 0.2 27
DS -1.55 -1.55 1.55 -1.55 0.127 27
DS -1.55 1.55 1.55 1.55 0.127 27
DS -1.55 -1.55 1.55 -1.55 0.127 21
DS -1.55 1.55 1.55 1.55 0.127 21
DS -1.55 -1.55 -1.55 1.55 0.127 27
DS 1.55 -1.55 1.55 1.55 0.127 27
DS -3.125 -1.8 3.125 -1.8 0.05 26
DS -3.125 1.8 3.125 1.8 0.05 26
DS -3.125 -1.8 -3.125 1.8 0.05 26
DS 3.125 -1.8 3.125 1.8 0.05 26
$PAD
Sh "1" R 1.42 0.47 0 0 0
At SMD N 00888000
.SolderMask 0
.SolderPaste 0
Ne 0 ""
Po -2.165 -0.975
$EndPAD
$PAD
Sh "2" R 1.42 0.47 0 0 0
At SMD N 00888000
.SolderMask 0
.SolderPaste 0
Ne 0 ""
Po -2.165 -0.325
$EndPAD
$PAD
Sh "3" R 1.42 0.47 0 0 0
At SMD N 00888000
.SolderMask 0
.SolderPaste 0
Ne 0 ""
Po -2.165 0.325
$EndPAD
$PAD
Sh "4" R 1.42 0.47 0 0 0
At SMD N 00888000
.SolderMask 0
.SolderPaste 0
Ne 0 ""
Po -2.165 0.975
$EndPAD
$PAD
Sh "5" R 1.42 0.47 0 0 0
At SMD N 00888000
.SolderMask 0
.SolderPaste 0
Ne 0 ""
Po 2.165 0.975
$EndPAD
$PAD
Sh "6" R 1.42 0.47 0 0 0
At SMD N 00888000
.SolderMask 0
.SolderPaste 0
Ne 0 ""
Po 2.165 0.325
$EndPAD
$PAD
Sh "7" R 1.42 0.47 0 0 0
At SMD N 00888000
.SolderMask 0
.SolderPaste 0
Ne 0 ""
Po 2.165 -0.325
$EndPAD
$PAD
Sh "8" R 1.42 0.47 0 0 0
At SMD N 00888000
.SolderMask 0
.SolderPaste 0
Ne 0 ""
Po 2.165 -0.975
$EndPAD
$EndMODULE SOP65P490X110-8N
