Removed Pin From Net: NetName=BAT Pin=K1-1
Removed Pin From Net: NetName=NetK1_2 Pin=K1-2
Change Component Kind : Designator=R9 Old Kind=Standard New Kind=Net Tie
Added Pin To Net: NetName=NetK1_2 Pin=K1-1
Added Pin To Net: NetName=BAT Pin=K1-2
Change Net Name : Old Net Name=NetK1_2 New Net Name=NetK1_1
