Change Net Name : Old Net Name=Net*MAX1737_7 New Net Name=BAT
Change Net Name : Old Net Name=Net*MAX1737_19 New Net Name=CS
Change Net Name : Old Net Name=Net*MAX1737_21 New Net Name=DLO
Change Net Name : Old Net Name=Net*MAX1737_22 New Net Name=VLO
Change Net Name : Old Net Name=Net*MAX1737_23 New Net Name=BST
Change Net Name : Old Net Name=Net*MAX1737_24 New Net Name=LX
Change Net Name : Old Net Name=Net*MAX1737_25 New Net Name=DHI
Change Net Name : Old Net Name=Net*MAX1737_26 New Net Name=CSSN
Change Net Name : Old Net Name=Net*MAX1737_27 New Net Name=CSSP
